<svg xmlns="http://www.w3.org/2000/svg" width="32" height="32" viewBox="0 0 32 32">
  <rect width="32" height="32" fill="#000000"/>
  <rect width="32" height="1" fill="#eeeeee" fill-opacity=".1"/>
  <g fill="#eeeeee">
    <circle cx="16" cy="16" r="12" opacity=".08"/>
    <path d="m12 12v8h8v-8zm2 2h4v4h-4z" opacity=".6"/>
  </g>
</svg>
