<svg xmlns="http://www.w3.org/2000/svg" width="16" height="16" version="1.1">
 <defs>
   <style id="current-color-scheme" type="text/css">
   .ColorScheme-Text { color: #00aa00; } .ColorScheme-Highlight { color:#5294e2; }
  </style>
  <linearGradient id="arrongin" x1="0%" x2="0%" y1="0%" y2="100%">
   <stop offset="0%" style="stop-color:#dd9b44; stop-opacity:1"/>
   <stop offset="100%" style="stop-color:#ad6c16; stop-opacity:1"/>
  </linearGradient>
  <linearGradient id="aurora" x1="0%" x2="0%" y1="0%" y2="100%">
   <stop offset="0%" style="stop-color:#09D4DF; stop-opacity:1"/>
   <stop offset="100%" style="stop-color:#9269F4; stop-opacity:1"/>
  </linearGradient>
  <linearGradient id="cyberneon" x1="0%" x2="0%" y1="0%" y2="100%">
    <stop offset="0" style="stop-color:#0abdc6; stop-opacity:1"/>
    <stop offset="1" style="stop-color:#ea00d9; stop-opacity:1"/>
  </linearGradient>
  <linearGradient id="fitdance" x1="0%" x2="0%" y1="0%" y2="100%">
   <stop offset="0%" style="stop-color:#1AD6AB; stop-opacity:1"/>
   <stop offset="100%" style="stop-color:#329DB6; stop-opacity:1"/>
  </linearGradient>
  <linearGradient id="oomox" x1="0%" x2="0%" y1="0%" y2="100%">
   <stop offset="0%" style="stop-color:#00aa00; stop-opacity:1"/>
   <stop offset="100%" style="stop-color:#00cc00; stop-opacity:1"/>
  </linearGradient>
  <linearGradient id="rainblue" x1="0%" x2="0%" y1="0%" y2="100%">
   <stop offset="0%" style="stop-color:#00F260; stop-opacity:1"/>
   <stop offset="100%" style="stop-color:#0575E6; stop-opacity:1"/>
  </linearGradient>
  <linearGradient id="sunrise" x1="0%" x2="0%" y1="0%" y2="100%">
   <stop offset="0%" style="stop-color: #FF8501; stop-opacity:1"/>
   <stop offset="100%" style="stop-color: #FFCB01; stop-opacity:1"/>
  </linearGradient>
  <linearGradient id="telinkrin" x1="0%" x2="0%" y1="0%" y2="100%">
   <stop offset="0%" style="stop-color: #b2ced6; stop-opacity:1"/>
   <stop offset="100%" style="stop-color: #6da5b7; stop-opacity:1"/>
  </linearGradient>
  <linearGradient id="60spsycho" x1="0%" x2="0%" y1="0%" y2="100%">
   <stop offset="0%" style="stop-color: #df5940; stop-opacity:1"/>
   <stop offset="25%" style="stop-color: #d8d15f; stop-opacity:1"/>
   <stop offset="50%" style="stop-color: #e9882a; stop-opacity:1"/>
   <stop offset="100%" style="stop-color: #279362; stop-opacity:1"/>
  </linearGradient>
  <linearGradient id="90ssummer" x1="0%" x2="0%" y1="0%" y2="100%">
   <stop offset="0%" style="stop-color: #f618c7; stop-opacity:1"/>
   <stop offset="20%" style="stop-color: #94ffab; stop-opacity:1"/>
   <stop offset="50%" style="stop-color: #fbfd54; stop-opacity:1"/>
   <stop offset="100%" style="stop-color: #0f83ae; stop-opacity:1"/>
  </linearGradient>
 </defs>
 <path fill="url(#oomox)" class="ColorScheme-Text" d="M 8 0 C 6.892 0 5.961 1.375 5.423 3.538 C 3.279 2.923 1.632 3.038 1.077 4 C 0.524 4.957 1.236 6.457 2.827 8 C 1.236 9.543 0.524 11.043 1.077 12 C 1.632 12.962 3.279 13.077 5.423 12.462 C 5.961 14.625 6.891 16 8 16 C 9.108 16 10.039 14.625 10.577 12.462 C 12.721 13.077 14.368 12.959 14.923 12 C 15.476 11.043 14.764 9.543 13.173 8 C 14.767 6.457 15.476 4.957 14.923 4 C 14.368 3.041 12.721 2.923 10.576 3.538 C 10.039 1.375 9.109 0 8 0 Z M 8 1.173 C 8.714 1.173 9.48 2.149 10 3.711 C 9.317 3.94 8.649 4.21 8 4.519 C 7.35 4.209 6.682 3.939 6 3.711 C 6.519 2.148 7.286 1.172 8 1.172 L 8 1.173 Z M 3.75 3.962 C 4.194 3.957 4.73 4.022 5.288 4.134 C 5.143 4.839 5.04 5.552 4.981 6.27 C 4.391 6.671 3.826 7.107 3.288 7.577 C 2.202 6.348 1.74 5.195 2.096 4.577 C 2.33 4.173 2.913 3.971 3.75 3.962 Z M 11.807 3.962 C 12.872 3.892 13.632 4.106 13.904 4.577 C 14.26 5.194 13.798 6.348 12.711 7.577 C 12.174 7.108 11.609 6.671 11.019 6.269 C 10.959 5.552 10.857 4.839 10.711 4.135 C 11.093 4.055 11.476 3.983 11.808 3.961 L 11.807 3.962 Z M 5.827 4.25 C 6.339 4.385 6.879 4.577 7.442 4.808 C 7.117 4.974 6.791 5.137 6.461 5.327 C 6.132 5.517 5.824 5.726 5.519 5.923 C 5.601 5.327 5.69 4.757 5.827 4.25 Z M 10.173 4.25 C 10.31 4.757 10.399 5.327 10.48 5.923 C 10.175 5.726 9.868 5.517 9.538 5.327 C 9.209 5.137 8.882 4.974 8.557 4.807 C 9.083 4.587 9.623 4.4 10.173 4.25 L 10.173 4.25 Z M 8 5.039 C 8.432 5.236 8.885 5.457 9.327 5.711 C 9.756 5.961 10.173 6.231 10.576 6.519 C 10.62 6.99 10.634 7.49 10.634 8 C 10.634 8.51 10.62 9.009 10.577 9.481 C 10.188 9.758 9.771 10.031 9.327 10.289 C 8.895 10.534 8.453 10.758 8 10.961 C 7.567 10.764 7.115 10.543 6.673 10.289 C 6.244 10.039 5.827 9.769 5.423 9.481 C 5.382 8.988 5.362 8.494 5.365 8 C 5.365 7.49 5.38 6.991 5.423 6.519 C 5.812 6.242 6.228 5.969 6.672 5.711 C 7.104 5.466 7.547 5.241 8 5.038 L 8 5.039 Z M 8 6.154 C 7.34 6.154 6.731 6.506 6.401 7.078 C 6.071 7.649 6.071 8.353 6.401 8.925 C 6.732 9.496 7.341 9.848 8.001 9.847 C 9.021 9.847 9.848 9.02 9.847 8 C 9.847 6.98 9.02 6.154 8 6.154 L 8 6.154 Z M 4.961 6.885 C 4.945 7.247 4.923 7.62 4.923 8 C 4.923 8.38 4.944 8.753 4.962 9.116 C 4.508 8.772 4.078 8.4 3.673 8 C 4.045 7.625 4.48 7.255 4.961 6.884 L 4.961 6.885 Z M 11.039 6.885 C 11.492 7.228 11.922 7.601 12.326 8 C 11.954 8.375 11.519 8.745 11.038 9.116 C 11.055 8.753 11.076 8.38 11.076 8 C 11.076 7.62 11.055 7.247 11.037 6.884 L 11.039 6.885 Z M 3.288 8.423 C 3.788 8.865 4.353 9.298 4.981 9.73 C 5.04 10.49 5.156 11.212 5.288 11.866 C 3.678 12.194 2.454 12.022 2.096 11.404 C 1.74 10.786 2.202 9.652 3.288 8.423 L 3.288 8.423 Z M 12.711 8.423 C 13.798 9.652 14.26 10.805 13.904 11.423 C 13.546 12.041 12.322 12.194 10.711 11.866 C 10.844 11.212 10.959 10.49 11.019 9.73 C 11.609 9.329 12.174 8.893 12.711 8.423 L 12.711 8.423 Z M 5.52 10.077 C 5.825 10.274 6.133 10.483 6.462 10.673 C 6.791 10.863 7.118 11.026 7.443 11.192 C 6.88 11.423 6.34 11.615 5.828 11.75 C 5.69 11.243 5.602 10.673 5.52 10.077 Z M 10.481 10.077 C 10.399 10.673 10.311 11.243 10.173 11.75 C 9.623 11.6 9.084 11.413 8.558 11.192 C 8.883 11.026 9.21 10.863 9.539 10.673 C 9.868 10.483 10.176 10.274 10.481 10.077 Z M 8 11.481 C 8.649 11.791 9.317 12.06 10 12.289 C 9.48 13.851 8.714 14.827 8 14.827 C 7.286 14.827 6.519 13.851 6 12.289 C 6.682 12.061 7.35 11.791 8 11.481 Z"/>
</svg>
