<svg xmlns="http://www.w3.org/2000/svg" width="16" height="16" version="1.1">
 <defs>
   <style id="current-color-scheme" type="text/css">
   .ColorScheme-Text { color: #00aa00; } .ColorScheme-Highlight { color:#5294e2; }
  </style>
  <linearGradient id="arrongin" x1="0%" x2="0%" y1="0%" y2="100%">
   <stop offset="0%" style="stop-color:#dd9b44; stop-opacity:1"/>
   <stop offset="100%" style="stop-color:#ad6c16; stop-opacity:1"/>
  </linearGradient>
  <linearGradient id="aurora" x1="0%" x2="0%" y1="0%" y2="100%">
   <stop offset="0%" style="stop-color:#09D4DF; stop-opacity:1"/>
   <stop offset="100%" style="stop-color:#9269F4; stop-opacity:1"/>
  </linearGradient>
  <linearGradient id="cyberneon" x1="0%" x2="0%" y1="0%" y2="100%">
    <stop offset="0" style="stop-color:#0abdc6; stop-opacity:1"/>
    <stop offset="1" style="stop-color:#ea00d9; stop-opacity:1"/>
  </linearGradient>
  <linearGradient id="fitdance" x1="0%" x2="0%" y1="0%" y2="100%">
   <stop offset="0%" style="stop-color:#1AD6AB; stop-opacity:1"/>
   <stop offset="100%" style="stop-color:#329DB6; stop-opacity:1"/>
  </linearGradient>
  <linearGradient id="oomox" x1="0%" x2="0%" y1="0%" y2="100%">
   <stop offset="0%" style="stop-color:#00aa00; stop-opacity:1"/>
   <stop offset="100%" style="stop-color:#00cc00; stop-opacity:1"/>
  </linearGradient>
  <linearGradient id="rainblue" x1="0%" x2="0%" y1="0%" y2="100%">
   <stop offset="0%" style="stop-color:#00F260; stop-opacity:1"/>
   <stop offset="100%" style="stop-color:#0575E6; stop-opacity:1"/>
  </linearGradient>
  <linearGradient id="sunrise" x1="0%" x2="0%" y1="0%" y2="100%">
   <stop offset="0%" style="stop-color: #FF8501; stop-opacity:1"/>
   <stop offset="100%" style="stop-color: #FFCB01; stop-opacity:1"/>
  </linearGradient>
  <linearGradient id="telinkrin" x1="0%" x2="0%" y1="0%" y2="100%">
   <stop offset="0%" style="stop-color: #b2ced6; stop-opacity:1"/>
   <stop offset="100%" style="stop-color: #6da5b7; stop-opacity:1"/>
  </linearGradient>
  <linearGradient id="60spsycho" x1="0%" x2="0%" y1="0%" y2="100%">
   <stop offset="0%" style="stop-color: #df5940; stop-opacity:1"/>
   <stop offset="25%" style="stop-color: #d8d15f; stop-opacity:1"/>
   <stop offset="50%" style="stop-color: #e9882a; stop-opacity:1"/>
   <stop offset="100%" style="stop-color: #279362; stop-opacity:1"/>
  </linearGradient>
  <linearGradient id="90ssummer" x1="0%" x2="0%" y1="0%" y2="100%">
   <stop offset="0%" style="stop-color: #f618c7; stop-opacity:1"/>
   <stop offset="20%" style="stop-color: #94ffab; stop-opacity:1"/>
   <stop offset="50%" style="stop-color: #fbfd54; stop-opacity:1"/>
   <stop offset="100%" style="stop-color: #0f83ae; stop-opacity:1"/>
  </linearGradient>
 </defs>
 <path fill="url(#oomox)" class="ColorScheme-Text" d="M 5.2776623,13.658302 H 5.9753955 L 8.304971,9.1390952 10.221406,13.658302 h 0.671741 L 14.874624,4.4977444 C 15.097816,3.9838376 15.532899,3.6752345 15.995291,3.6053613 V 3.0597755 H 12.775867 V 3.605549 c 0.427173,0.095019 0.880619,0.2551129 1.082248,0.7059392 L 10.934584,11.054885 C 10.40608,9.9309256 9.8642052,8.7026999 9.3470033,7.4770343 9.8808272,6.3428989 10.316804,5.2894682 10.971689,4.254223 11.354561,3.6451096 11.975862,3.6307982 12.296054,3.6008504 V 3.0598256 H 8.8737803 v 0.5410248 c 0.426984,0 1.3155127,0.038389 0.9193239,0.8710081 L 8.8006069,6.5586432 7.7493457,4.2373697 C 7.5856815,3.8759174 7.903603,3.635116 8.4225946,3.606428 L 8.4187546,3.0602843 H 4.5672378 V 3.6013144 C 5.026127,3.6163434 5.6731199,3.6139434 5.9119437,4.003012 6.6473463,5.3539376 7.139028,6.7572142 7.8094503,8.1346032 L 6.0745818,11.378789 3.1585863,4.6756871 C 2.8299981,3.920326 3.6101048,3.6769817 4.1169012,3.6138787 L 4.1112479,3.0602064 H 0.00470884 V 3.6012322 C 0.57172825,3.7887045 1.3031758,4.6322406 1.5073446,5.0591276 3.0413403,8.2676274 3.8137541,10.418745 5.2779663,13.658889 Z"/>
</svg>