<svg xmlns="http://www.w3.org/2000/svg" width="16" height="16" version="1.1">
 <defs>
   <style id="current-color-scheme" type="text/css">
   .ColorScheme-Text { color: #00aa00; } .ColorScheme-Highlight { color: #1AD6AB; }
  </style>
  <linearGradient id="arrongin" x1="0%" x2="0%" y1="0%" y2="100%">
   <stop offset="0%" style="stop-color: #dd9b44; stop-opacity: 1"/>
   <stop offset="100%" style="stop-color: #ad6c16; stop-opacity: 1"/>
  </linearGradient>
  <linearGradient id="aurora" x1="0%" x2="0%" y1="0%" y2="100%">
   <stop offset="0%" style="stop-color: #09D4DF; stop-opacity: 1"/>
   <stop offset="100%" style="stop-color: #9269F4; stop-opacity: 1"/>
  </linearGradient>
  <linearGradient id="cyberneon" x1="0%" x2="0%" y1="0%" y2="100%">
    <stop offset="0" style="stop-color: #0abdc6; stop-opacity: 1"/>
    <stop offset="1" style="stop-color: #ea00d9; stop-opacity: 1"/>
  </linearGradient>
  <linearGradient id="fitdance" x1="0%" x2="0%" y1="0%" y2="100%">
   <stop offset="0%" style="stop-color: #1AD6AB; stop-opacity: 1"/>
   <stop offset="100%" style="stop-color: #329DB6; stop-opacity: 1"/>
  </linearGradient>
  <linearGradient id="oomox" x1="0%" x2="0%" y1="0%" y2="100%">
   <stop offset="0%" style="stop-color: #00aa00; stop-opacity: 1"/>
   <stop offset="100%" style="stop-color: #00cc00; stop-opacity: 1"/>
  </linearGradient>
  <linearGradient id="rainblue" x1="0%" x2="0%" y1="0%" y2="100%">
   <stop offset="0%" style="stop-color: #00F260; stop-opacity: 1"/>
   <stop offset="100%" style="stop-color: #0575E6; stop-opacity: 1"/>
  </linearGradient>
  <linearGradient id="sunrise" x1="0%" x2="0%" y1="0%" y2="100%">
   <stop offset="0%" style="stop-color: #FF8501; stop-opacity: 1"/>
   <stop offset="100%" style="stop-color: #FFCB01; stop-opacity: 1"/>
  </linearGradient>
  <linearGradient id="telinkrin" x1="0%" x2="0%" y1="0%" y2="100%">
   <stop offset="0%" style="stop-color: #b2ced6; stop-opacity: 1"/>
   <stop offset="100%" style="stop-color: #6da5b7; stop-opacity: 1"/>
  </linearGradient>
  <linearGradient id="60spsycho" x1="0%" x2="0%" y1="0%" y2="100%">
   <stop offset="0%" style="stop-color: #df5940; stop-opacity: 1"/>
   <stop offset="25%" style="stop-color: #d8d15f; stop-opacity: 1"/>
   <stop offset="50%" style="stop-color: #e9882a; stop-opacity: 1"/>
   <stop offset="100%" style="stop-color: #279362; stop-opacity: 1"/>
  </linearGradient>
  <linearGradient id="90ssummer" x1="0%" x2="0%" y1="0%" y2="100%">
   <stop offset="0%" style="stop-color: #f618c7; stop-opacity: 1"/>
   <stop offset="20%" style="stop-color: #94ffab; stop-opacity: 1"/>
   <stop offset="50%" style="stop-color: #fbfd54; stop-opacity: 1"/>
   <stop offset="100%" style="stop-color: #0f83ae; stop-opacity: 1"/>
  </linearGradient>
 </defs>
 <path fill="url(#oomox)" class="ColorScheme-Text" d="M 12.52585 0.666731 C 12.373523 0.665052 12.23769 0.762706 12.190209 0.908031 L 10.460525 6.254008 L 5.539639 6.254008 L 3.809955 0.908031 C 3.763544 0.767203 3.63418 0.6707 3.486487 0.666731 C 3.338794 0.663918 3.205221 0.75444 3.152585 0.893015 L 1.06813 6.477848 C 1.066739 6.477848 1.066739 6.479245 1.065347 6.480293 L 0.021903 9.273931 C -0.032745 9.421233 0.017368 9.587037 0.144333 9.679009 L 7.79348 15.263841 L 7.794871 15.266634 C 7.796262 15.266634 7.796262 15.266634 7.796262 15.268032 L 7.810175 15.276063 C 7.815392 15.278858 7.819218 15.283047 7.824783 15.285492 C 7.826174 15.285492 7.826174 15.286889 7.827566 15.286889 C 7.827566 15.286889 7.828957 15.288285 7.830348 15.288285 C 7.83174 15.289683 7.833131 15.29108 7.835566 15.29108 L 7.84113 15.295269 C 7.848087 15.297714 7.856087 15.302254 7.864086 15.304698 L 7.864086 15.306096 L 7.88739 15.314127 C 7.888781 15.314127 7.888781 15.314127 7.890172 15.315524 C 7.896085 15.317002 7.901894 15.318868 7.907563 15.321111 C 7.910346 15.321111 7.913128 15.322508 7.917302 15.322508 C 7.917302 15.323905 7.917302 15.323905 7.917302 15.322508 C 7.924258 15.325302 7.930867 15.326349 7.937475 15.327746 L 7.964605 15.331936 C 7.978517 15.331936 7.993125 15.333333 8.007038 15.333333 C 8.020603 15.331936 8.032776 15.331936 8.04495 15.329142 C 8.050515 15.329142 8.054341 15.329142 8.059906 15.327746 L 8.062689 15.327746 C 8.065471 15.326349 8.066514 15.326349 8.069645 15.326349 C 8.070688 15.326349 8.07208 15.325302 8.074862 15.325302 C 8.077644 15.323905 8.081819 15.323905 8.084253 15.322508 C 8.088948 15.32131 8.093589 15.319912 8.098166 15.318318 C 8.1006 15.318318 8.101991 15.318318 8.103383 15.31692 L 8.107557 15.31692 C 8.119794 15.31296 8.131665 15.307935 8.143034 15.301905 C 8.144077 15.301905 8.144077 15.301905 8.145468 15.300507 C 8.14686 15.300507 8.148251 15.300507 8.149642 15.299111 L 8.157642 15.295269 C 8.165112 15.291378 8.172423 15.287185 8.179555 15.282698 C 8.181989 15.281651 8.18338 15.280254 8.184772 15.278858 C 8.186163 15.278858 8.187554 15.277461 8.188945 15.277461 C 8.19451 15.27327 8.199727 15.270476 8.205293 15.266634 L 8.208075 15.262445 L 15.857222 9.679358 C 15.983478 9.586469 16.032521 9.421295 15.977913 9.27428 L 14.937251 6.49007 C 14.935669 6.487035 14.934723 6.483708 14.934469 6.480293 L 12.847579 0.893015 C 12.79705 0.758366 12.669503 0.668559 12.526198 0.666731 L 12.52585 0.666731 Z M 2.110183 6.952417 L 5.034264 6.952417 L 7.07072 13.243691 L 2.110183 6.952417 Z M 10.9659 6.952417 L 13.88998 6.952417 L 8.929444 13.243691 L 10.9659 6.952417 Z M 1.500116 7.304416 L 6.152141 13.203882 L 0.766922 9.271487 L 1.500116 7.304416 Z M 14.500048 7.304416 L 15.23359 9.271487 L 9.848023 13.203882 L 14.500048 7.304416 Z"/>
</svg>
