<svg xmlns="http://www.w3.org/2000/svg" width="16" height="16" version="1.1">
 <defs>
   <style id="current-color-scheme" type="text/css">
   .ColorScheme-Text { color: #e5112a; } .ColorScheme-Highlight { color: #1AD6AB; }
  </style>
  <linearGradient id="arrongin" x1="0%" x2="0%" y1="0%" y2="100%">
   <stop offset="0%" style="stop-color: #dd9b44; stop-opacity: 1"/>
   <stop offset="100%" style="stop-color: #ad6c16; stop-opacity: 1"/>
  </linearGradient>
  <linearGradient id="aurora" x1="0%" x2="0%" y1="0%" y2="100%">
   <stop offset="0%" style="stop-color: #09D4DF; stop-opacity: 1"/>
   <stop offset="100%" style="stop-color: #9269F4; stop-opacity: 1"/>
  </linearGradient>
  <linearGradient id="cyberneon" x1="0%" x2="0%" y1="0%" y2="100%">
    <stop offset="0" style="stop-color: #0abdc6; stop-opacity: 1"/>
    <stop offset="1" style="stop-color: #ea00d9; stop-opacity: 1"/>
  </linearGradient>
  <linearGradient id="fitdance" x1="0%" x2="0%" y1="0%" y2="100%">
   <stop offset="0%" style="stop-color: #1AD6AB; stop-opacity: 1"/>
   <stop offset="100%" style="stop-color: #329DB6; stop-opacity: 1"/>
  </linearGradient>
  <linearGradient id="oomox" x1="0%" x2="0%" y1="0%" y2="100%">
   <stop offset="0%" style="stop-color: #efefe7; stop-opacity: 1"/>
   <stop offset="100%" style="stop-color: #8f8f8b; stop-opacity: 1"/>
  </linearGradient>
  <linearGradient id="rainblue" x1="0%" x2="0%" y1="0%" y2="100%">
   <stop offset="0%" style="stop-color: #00F260; stop-opacity: 1"/>
   <stop offset="100%" style="stop-color: #0575E6; stop-opacity: 1"/>
  </linearGradient>
  <linearGradient id="sunrise" x1="0%" x2="0%" y1="0%" y2="100%">
   <stop offset="0%" style="stop-color: #FF8501; stop-opacity: 1"/>
   <stop offset="100%" style="stop-color: #FFCB01; stop-opacity: 1"/>
  </linearGradient>
  <linearGradient id="telinkrin" x1="0%" x2="0%" y1="0%" y2="100%">
   <stop offset="0%" style="stop-color: #b2ced6; stop-opacity: 1"/>
   <stop offset="100%" style="stop-color: #6da5b7; stop-opacity: 1"/>
  </linearGradient>
  <linearGradient id="60spsycho" x1="0%" x2="0%" y1="0%" y2="100%">
   <stop offset="0%" style="stop-color: #df5940; stop-opacity: 1"/>
   <stop offset="25%" style="stop-color: #d8d15f; stop-opacity: 1"/>
   <stop offset="50%" style="stop-color: #e9882a; stop-opacity: 1"/>
   <stop offset="100%" style="stop-color: #279362; stop-opacity: 1"/>
  </linearGradient>
  <linearGradient id="90ssummer" x1="0%" x2="0%" y1="0%" y2="100%">
   <stop offset="0%" style="stop-color: #f618c7; stop-opacity: 1"/>
   <stop offset="20%" style="stop-color: #94ffab; stop-opacity: 1"/>
   <stop offset="50%" style="stop-color: #fbfd54; stop-opacity: 1"/>
   <stop offset="100%" style="stop-color: #0f83ae; stop-opacity: 1"/>
  </linearGradient>
 </defs>
 <path fill="currentColor" class="ColorScheme-Text" d="M 3.5,1 A 3.5,3.5 0 0 0 0,4.5 3.5,3.5 0 0 0 3.5,8 3.5,3.5 0 0 0 4.9766,7.67 L 6.5,9.5 1,16 8,11 15,16 9.5,9.5 11.023,7.668 A 3.5,3.5 0 0 0 12.5,8 3.5,3.5 0 0 0 16,4.5 3.5,3.5 0 0 0 15.998,4.4746 C 15.998,4.4549 15.997,4.4357 15.996,4.416 A 3.5,3.5 0 0 0 15.951,3.9453 C 15.933,3.8258 15.905,3.7092 15.875,3.5918 A 3.5,3.5 0 0 0 15.816,3.3867 C 15.753,3.1921 15.67,3.0053 15.572,2.8223 15.418,2.5342 15.237,2.2571 14.996,2.0137 14.46,1.4729 13.791,1.159 13.096,1.0508 A 3.5,3.5 0 0 0 13.069,1.0469 3.5,3.5 0 0 0 12.608,1.0039 C 12.596,1.0038 12.584,1 12.572,1 12.566,1 12.56,1.0019 12.555,1.002 A 3.5,3.5 0 0 0 12.501,1 3.5,3.5 0 0 0 9.001,4.5 3.5,3.5 0 0 0 9.384,6.084 L 8.001,8 6.6196,6.0879 A 3.5,3.5 0 0 0 7.001,4.5 3.5,3.5 0 0 0 3.5005,1 Z M 3.5,3 A 1.5,1.5 0 0 1 5,4.5 1.5,1.5 0 0 1 3.5,6 1.5,1.5 0 0 1 2,4.5 1.5,1.5 0 0 1 3.5,3 Z M 12.5,3 A 1.5,1.5 0 0 1 14,4.5 1.5,1.5 0 0 1 12.5,6 1.5,1.5 0 0 1 11,4.5 1.5,1.5 0 0 1 12.5,3 Z"/>
</svg>
