<svg xmlns="http://www.w3.org/2000/svg" width="16" height="16" version="1.1">
 <defs>
   <style id="current-color-scheme" type="text/css">
   .ColorScheme-Text { color: #cc00cc; } .ColorScheme-Highlight { color:#5294e2; }
  </style>
  <linearGradient id="arrongin" x1="0%" x2="0%" y1="0%" y2="100%">
   <stop offset="0%" style="stop-color:#dd9b44; stop-opacity:1"/>
   <stop offset="100%" style="stop-color:#ad6c16; stop-opacity:1"/>
  </linearGradient>
  <linearGradient id="aurora" x1="0%" x2="0%" y1="0%" y2="100%">
   <stop offset="0%" style="stop-color:#09D4DF; stop-opacity:1"/>
   <stop offset="100%" style="stop-color:#9269F4; stop-opacity:1"/>
  </linearGradient>
  <linearGradient id="cyberneon" x1="0%" x2="0%" y1="0%" y2="100%">
    <stop offset="0" style="stop-color:#0abdc6; stop-opacity:1"/>
    <stop offset="1" style="stop-color:#ea00d9; stop-opacity:1"/>
  </linearGradient>
  <linearGradient id="fitdance" x1="0%" x2="0%" y1="0%" y2="100%">
   <stop offset="0%" style="stop-color:#1AD6AB; stop-opacity:1"/>
   <stop offset="100%" style="stop-color:#329DB6; stop-opacity:1"/>
  </linearGradient>
  <linearGradient id="oomox" x1="0%" x2="0%" y1="0%" y2="100%">
   <stop offset="0%" style="stop-color:#efefe7; stop-opacity:1"/>
   <stop offset="100%" style="stop-color:#8f8f8b; stop-opacity:1"/>
  </linearGradient>
  <linearGradient id="rainblue" x1="0%" x2="0%" y1="0%" y2="100%">
   <stop offset="0%" style="stop-color:#00F260; stop-opacity:1"/>
   <stop offset="100%" style="stop-color:#0575E6; stop-opacity:1"/>
  </linearGradient>
  <linearGradient id="sunrise" x1="0%" x2="0%" y1="0%" y2="100%">
   <stop offset="0%" style="stop-color: #FF8501; stop-opacity:1"/>
   <stop offset="100%" style="stop-color: #FFCB01; stop-opacity:1"/>
  </linearGradient>
  <linearGradient id="telinkrin" x1="0%" x2="0%" y1="0%" y2="100%">
   <stop offset="0%" style="stop-color: #b2ced6; stop-opacity:1"/>
   <stop offset="100%" style="stop-color: #6da5b7; stop-opacity:1"/>
  </linearGradient>
  <linearGradient id="60spsycho" x1="0%" x2="0%" y1="0%" y2="100%">
   <stop offset="0%" style="stop-color: #df5940; stop-opacity:1"/>
   <stop offset="25%" style="stop-color: #d8d15f; stop-opacity:1"/>
   <stop offset="50%" style="stop-color: #e9882a; stop-opacity:1"/>
   <stop offset="100%" style="stop-color: #279362; stop-opacity:1"/>
  </linearGradient>
  <linearGradient id="90ssummer" x1="0%" x2="0%" y1="0%" y2="100%">
   <stop offset="0%" style="stop-color: #f618c7; stop-opacity:1"/>
   <stop offset="20%" style="stop-color: #94ffab; stop-opacity:1"/>
   <stop offset="50%" style="stop-color: #fbfd54; stop-opacity:1"/>
   <stop offset="100%" style="stop-color: #0f83ae; stop-opacity:1"/>
  </linearGradient>
 </defs>
 <rect fill="currentColor" class="ColorScheme-Text" fill-opacity="0" width="16" height="16"/>
 <path fill="currentColor" class="ColorScheme-Text" fill-rule="evenodd" d="M 6.257 9.685 C 7.255 9.496 6.725 8.963 7.177 8.571 C 7.629 8.179 8.595 8.21 8.814 8.995 C 9.032 9.779 9.718 8.822 10.326 8.806 Q 10.934 8.791 11.386 9.183 L 11.37 7.175 C 10.716 6.894 10.544 7.395 9.998 7.551 C 9.453 7.708 9.235 5.801 8.237 5.826 C 7.613 5.842 7.535 6.296 7.068 6.391 Q 6.698 6.465 6.133 5.151 Q 5.961 4.979 5.68 5.026 Q 5.4 5.073 4.605 6.626 L 4.589 8.728 Q 5.26 9.873 6.257 9.685 L 6.257 9.685 Z M 8.97 4.069 C 8.97 3.619 9.312 3.253 9.733 3.253 C 10.155 3.253 10.497 3.619 10.497 4.069 C 10.497 4.519 10.155 4.885 9.733 4.885 C 9.312 4.885 8.97 4.519 8.97 4.069 L 8.97 4.069 Z M 1.634 2.61 L 3.23 2.61 L 3.23 4.216 L 1.634 4.216 L 1.634 2.61 L 1.634 2.61 L 1.634 2.61 L 1.634 2.61 L 1.634 2.61 L 1.634 2.61 L 1.634 2.61 L 1.634 2.61 L 1.634 2.61 L 1.634 2.61 L 1.634 2.61 L 1.634 2.61 L 1.634 2.61 L 1.634 2.61 L 1.634 2.61 L 1.634 2.61 Z M 12.807 2.61 L 14.404 2.61 L 14.404 4.216 L 12.807 4.216 L 12.807 2.61 L 12.807 2.61 L 12.807 2.61 L 12.807 2.61 L 12.807 2.61 L 12.807 2.61 L 12.807 2.61 L 12.807 2.61 L 12.807 2.61 L 12.807 2.61 L 12.807 2.61 L 12.807 2.61 L 12.807 2.61 L 12.807 2.61 Z M 1.634 5.823 L 3.23 5.823 L 3.23 7.429 L 1.634 7.429 L 1.634 5.823 L 1.634 5.823 L 1.634 5.823 L 1.634 5.823 L 1.634 5.823 L 1.634 5.823 L 1.634 5.823 L 1.634 5.823 L 1.634 5.823 L 1.634 5.823 L 1.634 5.823 L 1.634 5.823 Z M 12.807 5.823 L 14.404 5.823 L 14.404 7.429 L 12.807 7.429 L 12.807 5.823 L 12.807 5.823 L 12.807 5.823 L 12.807 5.823 L 12.807 5.823 L 12.807 5.823 L 12.807 5.823 L 12.807 5.823 L 12.807 5.823 L 12.807 5.823 Z M 1.634 9.035 L 3.23 9.035 L 3.23 10.642 L 1.634 10.642 L 1.634 9.035 L 1.634 9.035 L 1.634 9.035 L 1.634 9.035 L 1.634 9.035 L 1.634 9.035 L 1.634 9.035 L 1.634 9.035 Z M 12.807 9.035 L 14.404 9.035 L 14.404 10.642 L 12.807 10.642 L 12.807 9.035 L 12.807 9.035 L 12.807 9.035 L 12.807 9.035 L 12.807 9.035 L 12.807 9.035 Z M 4.797 2.642 L 11.085 2.642 C 11.492 2.642 11.822 2.974 11.822 3.384 L 11.822 10.025 C 11.822 10.435 11.492 10.767 11.085 10.767 L 4.797 10.767 C 4.39 10.767 4.059 10.435 4.059 10.025 L 4.059 3.384 C 4.059 2.974 4.39 2.642 4.797 2.642 L 4.797 2.642 L 4.797 2.642 L 4.797 2.642 Z M 2.864 12.988 L 13.236 12.988 C 13.677 12.988 14.036 13.326 14.036 13.741 L 14.036 13.741 C 14.036 14.157 13.677 14.494 13.236 14.494 L 2.864 14.494 C 2.422 14.494 2.064 14.157 2.064 13.741 L 2.064 13.741 C 2.064 13.326 2.422 12.988 2.864 12.988 L 2.864 12.988 Z M 1.634 0 C 0.761 0 0.037 0.728 0.037 1.606 L 0 14.394 C 0 15.272 0.723 16 1.596 16 L 14.366 16 C 15.239 16 15.963 15.272 15.963 14.394 L 16 1.606 C 16 0.728 15.277 0 14.404 0 L 1.634 0 L 1.634 0 L 1.634 0 L 1.634 0 L 1.634 0 L 1.634 0 L 1.634 0 L 1.634 0 L 1.634 0 L 1.634 0 L 1.634 0 L 1.634 0 L 1.634 0 L 1.634 0 L 1.634 0 L 1.634 0 Z"/>
</svg>
