<svg xmlns="http://www.w3.org/2000/svg" width="16" height="16" version="1.1">
 <defs>
   <style id="current-color-scheme" type="text/css">
   .ColorScheme-Text { color: #cc00cc; } .ColorScheme-Highlight { color:#5294e2; }
  </style>
  <linearGradient id="arrongin" x1="0%" x2="0%" y1="0%" y2="100%">
   <stop offset="0%" style="stop-color:#dd9b44; stop-opacity:1"/>
   <stop offset="100%" style="stop-color:#ad6c16; stop-opacity:1"/>
  </linearGradient>
  <linearGradient id="aurora" x1="0%" x2="0%" y1="0%" y2="100%">
   <stop offset="0%" style="stop-color:#09D4DF; stop-opacity:1"/>
   <stop offset="100%" style="stop-color:#9269F4; stop-opacity:1"/>
  </linearGradient>
  <linearGradient id="cyberneon" x1="0%" x2="0%" y1="0%" y2="100%">
    <stop offset="0" style="stop-color:#0abdc6; stop-opacity:1"/>
    <stop offset="1" style="stop-color:#ea00d9; stop-opacity:1"/>
  </linearGradient>
  <linearGradient id="fitdance" x1="0%" x2="0%" y1="0%" y2="100%">
   <stop offset="0%" style="stop-color:#1AD6AB; stop-opacity:1"/>
   <stop offset="100%" style="stop-color:#329DB6; stop-opacity:1"/>
  </linearGradient>
  <linearGradient id="oomox" x1="0%" x2="0%" y1="0%" y2="100%">
   <stop offset="0%" style="stop-color:#efefe7; stop-opacity:1"/>
   <stop offset="100%" style="stop-color:#8f8f8b; stop-opacity:1"/>
  </linearGradient>
  <linearGradient id="rainblue" x1="0%" x2="0%" y1="0%" y2="100%">
   <stop offset="0%" style="stop-color:#00F260; stop-opacity:1"/>
   <stop offset="100%" style="stop-color:#0575E6; stop-opacity:1"/>
  </linearGradient>
  <linearGradient id="sunrise" x1="0%" x2="0%" y1="0%" y2="100%">
   <stop offset="0%" style="stop-color: #FF8501; stop-opacity:1"/>
   <stop offset="100%" style="stop-color: #FFCB01; stop-opacity:1"/>
  </linearGradient>
  <linearGradient id="telinkrin" x1="0%" x2="0%" y1="0%" y2="100%">
   <stop offset="0%" style="stop-color: #b2ced6; stop-opacity:1"/>
   <stop offset="100%" style="stop-color: #6da5b7; stop-opacity:1"/>
  </linearGradient>
  <linearGradient id="60spsycho" x1="0%" x2="0%" y1="0%" y2="100%">
   <stop offset="0%" style="stop-color: #df5940; stop-opacity:1"/>
   <stop offset="25%" style="stop-color: #d8d15f; stop-opacity:1"/>
   <stop offset="50%" style="stop-color: #e9882a; stop-opacity:1"/>
   <stop offset="100%" style="stop-color: #279362; stop-opacity:1"/>
  </linearGradient>
  <linearGradient id="90ssummer" x1="0%" x2="0%" y1="0%" y2="100%">
   <stop offset="0%" style="stop-color: #f618c7; stop-opacity:1"/>
   <stop offset="20%" style="stop-color: #94ffab; stop-opacity:1"/>
   <stop offset="50%" style="stop-color: #fbfd54; stop-opacity:1"/>
   <stop offset="100%" style="stop-color: #0f83ae; stop-opacity:1"/>
  </linearGradient>
 </defs>
 <path fill="currentColor" class="ColorScheme-Text" fill-rule="evenodd" d="m7.0741 0.301001c0.1027-0.10093 0.2414-0.15856 0.3866-0.16065 0.0747-0.00102 0.1488 0.01266 0.2179 0.04026 0.0692 0.02759 0.132 0.06853 0.1848 0.12039l3.0603 3.006659 0.1367-0.13423c0.1046-0.1028 0.2466-0.16055 0.3946-0.16055s0.2899 0.05775 0.3946 0.16055l3.987 3.91697c0.1046 0.1029 0.1634 0.2423 0.1634 0.3877s-0.0588 0.2849-0.1634 0.3877l-3.0604 3.0067 0.1367 0.1342c0.1046 0.1029 0.1634 0.2423 0.1634 0.3877s-0.0588 0.2849-0.1634 0.3877l-3.987 3.917c-0.1047 0.1028-0.2466 0.1606-0.3946 0.1606s-0.29-0.0578-0.3947-0.1606l-3.06033-3.0066-0.13663 0.1342c-0.10468 0.1028-0.24662 0.1606-0.39463 0.1606-0.148 0-0.28995-0.0578-0.39463-0.1606l-3.98697-3.917c-0.1046298-0.1028-0.16341-0.2423-0.16341-0.3877s0.0587802-0.2849 0.16341-0.3877l3.06036-3.00665-0.13663-0.13423c-0.10463-0.10284-0.16341-0.2423-0.16341-0.38771 0-0.1454 0.05878-0.28486 0.16341-0.3877l3.98696-3.917009zm-0.7884 10.786699 5.4286-3.0877-5.4286-3.08771v6.17541z" clip-rule="evenodd"/>
</svg>
