<svg xmlns="http://www.w3.org/2000/svg" width="16" height="16" version="1.1">
 <defs>
   <style id="current-color-scheme" type="text/css">
   .ColorScheme-Text { color: #cc00cc; } .ColorScheme-Highlight { color:#5294e2; }
  </style>
  <linearGradient id="arrongin" x1="0%" x2="0%" y1="0%" y2="100%">
   <stop offset="0%" style="stop-color:#dd9b44; stop-opacity:1"/>
   <stop offset="100%" style="stop-color:#ad6c16; stop-opacity:1"/>
  </linearGradient>
  <linearGradient id="aurora" x1="0%" x2="0%" y1="0%" y2="100%">
   <stop offset="0%" style="stop-color:#09D4DF; stop-opacity:1"/>
   <stop offset="100%" style="stop-color:#9269F4; stop-opacity:1"/>
  </linearGradient>
  <linearGradient id="cyberneon" x1="0%" x2="0%" y1="0%" y2="100%">
    <stop offset="0" style="stop-color:#0abdc6; stop-opacity:1"/>
    <stop offset="1" style="stop-color:#ea00d9; stop-opacity:1"/>
  </linearGradient>
  <linearGradient id="fitdance" x1="0%" x2="0%" y1="0%" y2="100%">
   <stop offset="0%" style="stop-color:#1AD6AB; stop-opacity:1"/>
   <stop offset="100%" style="stop-color:#329DB6; stop-opacity:1"/>
  </linearGradient>
  <linearGradient id="oomox" x1="0%" x2="0%" y1="0%" y2="100%">
   <stop offset="0%" style="stop-color:#efefe7; stop-opacity:1"/>
   <stop offset="100%" style="stop-color:#8f8f8b; stop-opacity:1"/>
  </linearGradient>
  <linearGradient id="rainblue" x1="0%" x2="0%" y1="0%" y2="100%">
   <stop offset="0%" style="stop-color:#00F260; stop-opacity:1"/>
   <stop offset="100%" style="stop-color:#0575E6; stop-opacity:1"/>
  </linearGradient>
  <linearGradient id="sunrise" x1="0%" x2="0%" y1="0%" y2="100%">
   <stop offset="0%" style="stop-color: #FF8501; stop-opacity:1"/>
   <stop offset="100%" style="stop-color: #FFCB01; stop-opacity:1"/>
  </linearGradient>
  <linearGradient id="telinkrin" x1="0%" x2="0%" y1="0%" y2="100%">
   <stop offset="0%" style="stop-color: #b2ced6; stop-opacity:1"/>
   <stop offset="100%" style="stop-color: #6da5b7; stop-opacity:1"/>
  </linearGradient>
  <linearGradient id="60spsycho" x1="0%" x2="0%" y1="0%" y2="100%">
   <stop offset="0%" style="stop-color: #df5940; stop-opacity:1"/>
   <stop offset="25%" style="stop-color: #d8d15f; stop-opacity:1"/>
   <stop offset="50%" style="stop-color: #e9882a; stop-opacity:1"/>
   <stop offset="100%" style="stop-color: #279362; stop-opacity:1"/>
  </linearGradient>
  <linearGradient id="90ssummer" x1="0%" x2="0%" y1="0%" y2="100%">
   <stop offset="0%" style="stop-color: #f618c7; stop-opacity:1"/>
   <stop offset="20%" style="stop-color: #94ffab; stop-opacity:1"/>
   <stop offset="50%" style="stop-color: #fbfd54; stop-opacity:1"/>
   <stop offset="100%" style="stop-color: #0f83ae; stop-opacity:1"/>
  </linearGradient>
 </defs>
 <path fill="currentColor" class="ColorScheme-Text" d="M 0.644 0.005 C 0.384 0.026 0.206 0.124 0.095 0.3 C -0.063 0.551 -0.021 1.192 0.195 1.831 C 0.41 2.466 0.924 3.47 1.405 4.284 C 2.199 3.129 3.29 2.198 4.564 1.588 C 3.43 0.872 2.211 0.285 1.405 0.091 C 1.229 0.046 1.072 0.02 0.931 0.008 C 0.826 -0.002 0.73 -0.002 0.644 0.005 L 0.644 0.005 Z M 15.356 0.005 C 15.27 -0.002 15.174 -0.002 15.069 0.008 C 14.928 0.02 14.771 0.046 14.595 0.091 C 13.701 0.306 12.294 0.994 11.066 1.817 C 10.44 2.236 10.4 2.291 10.4 2.716 C 10.4 3.019 10.425 3.12 10.578 3.438 C 11.002 4.317 11.95 5.215 12.761 5.506 C 13.121 5.635 13.581 5.631 13.752 5.497 C 14.18 5.161 15.437 2.916 15.805 1.831 C 16.021 1.192 16.063 0.551 15.905 0.3 C 15.794 0.124 15.616 0.026 15.356 0.005 L 15.356 0.005 Z M 8 1.6 C 6.09 1.6 4.259 2.359 2.909 3.709 C 1.559 5.059 0.8 6.891 0.8 8.8 C 0.8 10.71 1.559 12.541 2.909 13.891 C 4.259 15.241 6.09 16 8 16 C 9.91 16 11.741 15.241 13.091 13.891 C 14.441 12.541 15.2 10.71 15.2 8.8 C 15.197 7.773 14.974 6.758 14.547 5.824 C 14.463 5.926 14.375 6.024 14.247 6.125 C 13.889 6.406 13.613 6.398 13.334 6.4 C 13.056 6.403 12.775 6.362 12.491 6.259 C 11.373 5.859 10.392 4.892 9.858 3.784 C 9.69 3.437 9.6 3.062 9.6 2.716 C 9.6 2.492 9.635 2.137 9.825 1.844 C 9.23 1.685 8.616 1.603 8 1.6 Z"/>
</svg>
