<svg xmlns="http://www.w3.org/2000/svg" width="16" height="16" version="1.1">
 <defs>
   <style id="current-color-scheme" type="text/css">
   .ColorScheme-Text { color: #cc00cc; } .ColorScheme-Highlight { color:#5294e2; }
  </style>
  <linearGradient id="arrongin" x1="0%" x2="0%" y1="0%" y2="100%">
   <stop offset="0%" style="stop-color:#dd9b44; stop-opacity:1"/>
   <stop offset="100%" style="stop-color:#ad6c16; stop-opacity:1"/>
  </linearGradient>
  <linearGradient id="aurora" x1="0%" x2="0%" y1="0%" y2="100%">
   <stop offset="0%" style="stop-color:#09D4DF; stop-opacity:1"/>
   <stop offset="100%" style="stop-color:#9269F4; stop-opacity:1"/>
  </linearGradient>
  <linearGradient id="cyberneon" x1="0%" x2="0%" y1="0%" y2="100%">
    <stop offset="0" style="stop-color:#0abdc6; stop-opacity:1"/>
    <stop offset="1" style="stop-color:#ea00d9; stop-opacity:1"/>
  </linearGradient>
  <linearGradient id="fitdance" x1="0%" x2="0%" y1="0%" y2="100%">
   <stop offset="0%" style="stop-color:#1AD6AB; stop-opacity:1"/>
   <stop offset="100%" style="stop-color:#329DB6; stop-opacity:1"/>
  </linearGradient>
  <linearGradient id="oomox" x1="0%" x2="0%" y1="0%" y2="100%">
   <stop offset="0%" style="stop-color:#efefe7; stop-opacity:1"/>
   <stop offset="100%" style="stop-color:#8f8f8b; stop-opacity:1"/>
  </linearGradient>
  <linearGradient id="rainblue" x1="0%" x2="0%" y1="0%" y2="100%">
   <stop offset="0%" style="stop-color:#00F260; stop-opacity:1"/>
   <stop offset="100%" style="stop-color:#0575E6; stop-opacity:1"/>
  </linearGradient>
  <linearGradient id="sunrise" x1="0%" x2="0%" y1="0%" y2="100%">
   <stop offset="0%" style="stop-color: #FF8501; stop-opacity:1"/>
   <stop offset="100%" style="stop-color: #FFCB01; stop-opacity:1"/>
  </linearGradient>
  <linearGradient id="telinkrin" x1="0%" x2="0%" y1="0%" y2="100%">
   <stop offset="0%" style="stop-color: #b2ced6; stop-opacity:1"/>
   <stop offset="100%" style="stop-color: #6da5b7; stop-opacity:1"/>
  </linearGradient>
  <linearGradient id="60spsycho" x1="0%" x2="0%" y1="0%" y2="100%">
   <stop offset="0%" style="stop-color: #df5940; stop-opacity:1"/>
   <stop offset="25%" style="stop-color: #d8d15f; stop-opacity:1"/>
   <stop offset="50%" style="stop-color: #e9882a; stop-opacity:1"/>
   <stop offset="100%" style="stop-color: #279362; stop-opacity:1"/>
  </linearGradient>
  <linearGradient id="90ssummer" x1="0%" x2="0%" y1="0%" y2="100%">
   <stop offset="0%" style="stop-color: #f618c7; stop-opacity:1"/>
   <stop offset="20%" style="stop-color: #94ffab; stop-opacity:1"/>
   <stop offset="50%" style="stop-color: #fbfd54; stop-opacity:1"/>
   <stop offset="100%" style="stop-color: #0f83ae; stop-opacity:1"/>
  </linearGradient>
 </defs>
 <path fill="currentColor" class="ColorScheme-Text" d="M 12.864527,0 C 9.7392694,0 9.1530015,4.7477679 10.911402,4.7477679 12.669002,4.7477679 15.990127,0 12.864527,0 Z M 8.0520266,0.7299107 C 8.0027923,0.7296822 7.9489501,0.7296429 7.8935444,0.7410714 6.122573,0.9647286 6.7453415,3.9619714 7.6881873,4.0178571 8.6011015,4.0727143 9.5989945,0.7374 8.0497945,0.7321429 Z M 4.980598,1.8370536 C 4.8722437,1.825625 4.7525223,1.8513928 4.6189908,1.9062501 3.1954479,2.4907072 4.4024337,4.9032429 5.1993481,4.7410714 5.9226737,4.5941 6.0266894,1.9050536 4.980598,1.8370536 Z M 2.6569373,3.8102679 c -0.1237257,0 -0.2567764,0.038461 -0.3995536,0.1450892 -1.13944,0.8504 0.3831143,2.9055679 1.0535714,2.5870536 C 3.8974123,6.2634393 3.5232687,3.8415822 2.6569373,3.8102679 Z M 9.3868479,5.7700893 C 6.9179338,5.7278035 3.6612551,6.9808536 3.105598,9.497768 2.5043637,12.220854 5.5820123,16 8.793098,16 10.372756,16 12.19526,14.555907 12.536402,12.727679 12.796711,11.333622 9.4706587,11.892561 9.589973,12.814733 9.7333558,13.920447 8.7900009,14.46715 7.8645266,13.754464 4.9185837,11.485321 12.742248,10.352232 12.226134,7.2522321 12.065517,6.2872035 10.86822,5.7954607 9.3868479,5.7700893 Z"/>
</svg>
