<svg xmlns="http://www.w3.org/2000/svg" width="16" height="16" version="1.1">
 <defs>
   <style id="current-color-scheme" type="text/css">
   .ColorScheme-Text { color: #cc00cc; } .ColorScheme-Highlight { color:#5294e2; }
  </style>
  <linearGradient id="arrongin" x1="0%" x2="0%" y1="0%" y2="100%">
   <stop offset="0%" style="stop-color:#dd9b44; stop-opacity:1"/>
   <stop offset="100%" style="stop-color:#ad6c16; stop-opacity:1"/>
  </linearGradient>
  <linearGradient id="aurora" x1="0%" x2="0%" y1="0%" y2="100%">
   <stop offset="0%" style="stop-color:#09D4DF; stop-opacity:1"/>
   <stop offset="100%" style="stop-color:#9269F4; stop-opacity:1"/>
  </linearGradient>
  <linearGradient id="cyberneon" x1="0%" x2="0%" y1="0%" y2="100%">
    <stop offset="0" style="stop-color:#0abdc6; stop-opacity:1"/>
    <stop offset="1" style="stop-color:#ea00d9; stop-opacity:1"/>
  </linearGradient>
  <linearGradient id="fitdance" x1="0%" x2="0%" y1="0%" y2="100%">
   <stop offset="0%" style="stop-color:#1AD6AB; stop-opacity:1"/>
   <stop offset="100%" style="stop-color:#329DB6; stop-opacity:1"/>
  </linearGradient>
  <linearGradient id="oomox" x1="0%" x2="0%" y1="0%" y2="100%">
   <stop offset="0%" style="stop-color:#efefe7; stop-opacity:1"/>
   <stop offset="100%" style="stop-color:#8f8f8b; stop-opacity:1"/>
  </linearGradient>
  <linearGradient id="rainblue" x1="0%" x2="0%" y1="0%" y2="100%">
   <stop offset="0%" style="stop-color:#00F260; stop-opacity:1"/>
   <stop offset="100%" style="stop-color:#0575E6; stop-opacity:1"/>
  </linearGradient>
  <linearGradient id="sunrise" x1="0%" x2="0%" y1="0%" y2="100%">
   <stop offset="0%" style="stop-color: #FF8501; stop-opacity:1"/>
   <stop offset="100%" style="stop-color: #FFCB01; stop-opacity:1"/>
  </linearGradient>
  <linearGradient id="telinkrin" x1="0%" x2="0%" y1="0%" y2="100%">
   <stop offset="0%" style="stop-color: #b2ced6; stop-opacity:1"/>
   <stop offset="100%" style="stop-color: #6da5b7; stop-opacity:1"/>
  </linearGradient>
  <linearGradient id="60spsycho" x1="0%" x2="0%" y1="0%" y2="100%">
   <stop offset="0%" style="stop-color: #df5940; stop-opacity:1"/>
   <stop offset="25%" style="stop-color: #d8d15f; stop-opacity:1"/>
   <stop offset="50%" style="stop-color: #e9882a; stop-opacity:1"/>
   <stop offset="100%" style="stop-color: #279362; stop-opacity:1"/>
  </linearGradient>
  <linearGradient id="90ssummer" x1="0%" x2="0%" y1="0%" y2="100%">
   <stop offset="0%" style="stop-color: #f618c7; stop-opacity:1"/>
   <stop offset="20%" style="stop-color: #94ffab; stop-opacity:1"/>
   <stop offset="50%" style="stop-color: #fbfd54; stop-opacity:1"/>
   <stop offset="100%" style="stop-color: #0f83ae; stop-opacity:1"/>
  </linearGradient>
 </defs>
 <path fill="currentColor" class="ColorScheme-Text" d="M 6.8495853,15.439433 C 5.3785184,15.209605 3.9849416,14.518095 2.8543888,13.456977 1.8847813,12.546908 1.2688925,11.590208 0.82884594,10.310577 0.52121375,9.415996 0.5,9.2666428 0.5,7.9954022 0.5,6.7241522 0.52121563,6.5747991 0.82884594,5.6802178 1.2714266,4.3932085 1.8839525,3.4446647 2.87024,2.5189397 3.7710809,1.6734272 5.0092644,0.98640848 6.1902013,0.67686468 7.1672487,0.42074907 8.9395428,0.44616469 9.9543031,0.73086468 12.642909,1.4851116 14.687214,3.5851022 15.33789,6.2610647 c 0.216147,0.8889281 0.216147,2.5798219 0,3.4687406 -0.643463,2.6463087 -2.713118,4.7873057 -5.326194,5.5097717 -0.8692454,0.240337 -2.3173088,0.331875 -3.1621107,0.199893 z m -1.945919,-1.554619 c -0.094727,-0.8385 0.2150934,-0.920662 1.8437381,-0.488925 0.8861559,0.234909 1.2057281,0.267741 2.6712469,0.274463 1.4203157,0.0066 1.8019207,-0.02653 2.5997027,-0.22531 0.905613,-0.225619 0.950043,-0.250294 1.412065,-0.784237 0.73569,-0.85021 0.73482,-0.852141 -0.254036,-0.563616 -0.767352,0.223894 -1.079695,0.258159 -2.39573,0.262884 -2.1816533,0.0075 -3.2123689,-0.230981 -6.2815771,-1.455384 -1.9595503,-0.781734 -2.398034,-0.851775 -2.8030228,-0.447703 -0.1362009,0.135891 -0.2472112,0.305756 -0.24669,0.377484 0.00422,0.576535 1.8005185,2.602435 2.8239469,3.184838 0.3051891,0.173672 0.5833622,0.3162 0.6181631,0.316725 0.0348,4.97e-4 0.040284,-0.202528 0.012197,-0.451219 z M 14.962243,10.13443 c 0.15851,-0.5694747 0.135504,-0.8304559 -0.07321,-0.8304559 -0.279495,0 -1.549597,-0.6399 -2.380684,-1.1994469 C 11.507819,7.4309147 10.722202,6.7733522 9.2793022,5.4018085 6.5756731,2.8319053 5.5476931,2.3944772 3.3446853,2.876446 2.9571753,2.961196 2.7885022,3.0756272 2.4256766,3.4997991 2.1812638,3.7855397 1.8421747,4.2458147 1.672145,4.5226303 1.3677556,5.0181928 0.90635,6.0788803 0.96828688,6.140671 0.98573375,6.1581085 1.3074847,5.9263022 1.6832994,5.6256178 3.1362397,4.4631553 4.0354681,4.5558272 6.3415334,6.1056647 6.7854453,6.4040053 7.9204466,7.1675522 8.86376,7.8024272 c 2.303425,1.5502781 3.323568,2.0743681 4.893118,2.5137648 0.985244,0.275822 1.082057,0.261225 1.205364,-0.181762 z M 14.625288,6.5341585 C 14.918716,6.241396 14.908465,6.1747491 14.407818,5.120446 13.502716,3.2144147 11.706368,1.7349835 9.6204294,1.1776585 8.6720216,0.92426158 6.75671,0.95013658 5.9379791,1.2274397 L 5.3326447,1.4324335 6.396005,1.4425585 c 2.5005356,0.023625 4.070121,0.9162375 5.753292,3.2718562 0.911279,1.2753469 1.027528,1.4155781 1.489213,1.7963531 0.416308,0.34335 0.660361,0.3491719 0.986778,0.023437 z"/>
</svg>
