<svg xmlns="http://www.w3.org/2000/svg" width="16" height="16" version="1.1">
 <defs>
   <style id="current-color-scheme" type="text/css">
   .ColorScheme-Text { color: #cc00cc; } .ColorScheme-Highlight { color:#5294e2; }
  </style>
  <linearGradient id="arrongin" x1="0%" x2="0%" y1="0%" y2="100%">
   <stop offset="0%" style="stop-color:#dd9b44; stop-opacity:1"/>
   <stop offset="100%" style="stop-color:#ad6c16; stop-opacity:1"/>
  </linearGradient>
  <linearGradient id="aurora" x1="0%" x2="0%" y1="0%" y2="100%">
   <stop offset="0%" style="stop-color:#09D4DF; stop-opacity:1"/>
   <stop offset="100%" style="stop-color:#9269F4; stop-opacity:1"/>
  </linearGradient>
  <linearGradient id="cyberneon" x1="0%" x2="0%" y1="0%" y2="100%">
    <stop offset="0" style="stop-color:#0abdc6; stop-opacity:1"/>
    <stop offset="1" style="stop-color:#ea00d9; stop-opacity:1"/>
  </linearGradient>
  <linearGradient id="fitdance" x1="0%" x2="0%" y1="0%" y2="100%">
   <stop offset="0%" style="stop-color:#1AD6AB; stop-opacity:1"/>
   <stop offset="100%" style="stop-color:#329DB6; stop-opacity:1"/>
  </linearGradient>
  <linearGradient id="oomox" x1="0%" x2="0%" y1="0%" y2="100%">
   <stop offset="0%" style="stop-color:#efefe7; stop-opacity:1"/>
   <stop offset="100%" style="stop-color:#8f8f8b; stop-opacity:1"/>
  </linearGradient>
  <linearGradient id="rainblue" x1="0%" x2="0%" y1="0%" y2="100%">
   <stop offset="0%" style="stop-color:#00F260; stop-opacity:1"/>
   <stop offset="100%" style="stop-color:#0575E6; stop-opacity:1"/>
  </linearGradient>
  <linearGradient id="sunrise" x1="0%" x2="0%" y1="0%" y2="100%">
   <stop offset="0%" style="stop-color: #FF8501; stop-opacity:1"/>
   <stop offset="100%" style="stop-color: #FFCB01; stop-opacity:1"/>
  </linearGradient>
  <linearGradient id="telinkrin" x1="0%" x2="0%" y1="0%" y2="100%">
   <stop offset="0%" style="stop-color: #b2ced6; stop-opacity:1"/>
   <stop offset="100%" style="stop-color: #6da5b7; stop-opacity:1"/>
  </linearGradient>
  <linearGradient id="60spsycho" x1="0%" x2="0%" y1="0%" y2="100%">
   <stop offset="0%" style="stop-color: #df5940; stop-opacity:1"/>
   <stop offset="25%" style="stop-color: #d8d15f; stop-opacity:1"/>
   <stop offset="50%" style="stop-color: #e9882a; stop-opacity:1"/>
   <stop offset="100%" style="stop-color: #279362; stop-opacity:1"/>
  </linearGradient>
  <linearGradient id="90ssummer" x1="0%" x2="0%" y1="0%" y2="100%">
   <stop offset="0%" style="stop-color: #f618c7; stop-opacity:1"/>
   <stop offset="20%" style="stop-color: #94ffab; stop-opacity:1"/>
   <stop offset="50%" style="stop-color: #fbfd54; stop-opacity:1"/>
   <stop offset="100%" style="stop-color: #0f83ae; stop-opacity:1"/>
  </linearGradient>
 </defs>
 <path fill="currentColor" class="ColorScheme-Text" fill-rule="evenodd" d="M 3.073 6.5 L 3.073 6.5 Q 2.576 6.5 2.346 6.16 L 2.346 6.16 L 2.346 6.16 Q 2.245 6.022 2.181 5.792 L 2.181 5.792 L 2.181 5.792 Q 2.116 5.562 2.116 5.286 L 2.116 5.286 L 2.116 5.286 Q 2.116 4.807 2.365 4.402 L 2.365 4.402 L 2.365 4.402 Q 2.613 3.998 3.091 3.777 L 3.091 3.777 L 3.174 3.942 L 3.174 3.942 Q 2.935 4.053 2.746 4.26 L 2.746 4.26 L 2.746 4.26 Q 2.558 4.467 2.484 4.697 L 2.484 4.697 L 2.484 4.697 Q 2.438 4.826 2.438 5.001 L 2.438 5.001 L 2.438 5.001 Q 2.438 5.139 2.457 5.203 L 2.457 5.203 L 2.457 5.203 Q 2.696 4.918 3.128 4.918 L 3.128 4.918 L 3.128 4.918 Q 3.496 4.918 3.717 5.125 L 3.717 5.125 L 3.717 5.125 Q 3.938 5.332 3.938 5.709 L 3.938 5.709 L 3.938 5.709 Q 3.938 6.068 3.699 6.284 L 3.699 6.284 L 3.699 6.284 Q 3.459 6.5 3.073 6.5 L 3.073 6.5 L 3.073 6.5 Z M 0.957 6.5 L 0.957 6.5 Q 0.46 6.5 0.23 6.16 L 0.23 6.16 L 0.23 6.16 Q 0.129 6.022 0.064 5.792 L 0.064 5.792 L 0.064 5.792 Q 0 5.562 0 5.286 L 0 5.286 L 0 5.286 Q 0 4.807 0.248 4.402 L 0.248 4.402 L 0.248 4.402 Q 0.497 3.998 0.975 3.777 L 0.975 3.777 L 1.058 3.942 L 1.058 3.942 Q 0.819 4.053 0.63 4.26 L 0.63 4.26 L 0.63 4.26 Q 0.442 4.467 0.368 4.697 L 0.368 4.697 L 0.368 4.697 Q 0.322 4.826 0.322 5.001 L 0.322 5.001 L 0.322 5.001 Q 0.322 5.139 0.34 5.203 L 0.34 5.203 L 0.34 5.203 Q 0.58 4.918 1.012 4.918 L 1.012 4.918 L 1.012 4.918 Q 1.38 4.918 1.601 5.125 L 1.601 5.125 L 1.601 5.125 Q 1.822 5.332 1.822 5.709 L 1.822 5.709 L 1.822 5.709 Q 1.822 6.068 1.583 6.284 L 1.583 6.284 L 1.583 6.284 Q 1.343 6.5 0.957 6.5 L 0.957 6.5 L 0.957 6.5 Z M 11.344 10.162 L 11.519 10.208 L 11.519 10.208 Q 11.473 10.815 11.303 11.248 L 11.303 11.248 L 11.303 11.248 Q 11.133 11.68 10.848 11.901 L 10.848 11.901 L 10.848 11.901 Q 10.645 12.057 10.337 12.14 L 10.337 12.14 L 10.337 12.14 Q 10.029 12.223 9.698 12.223 L 9.698 12.223 L 9.698 12.223 Q 9.136 12.223 8.603 12.048 L 8.603 12.048 L 8.603 12.048 Q 8.069 11.873 7.25 11.505 L 7.25 11.505 L 6.643 11.248 L 6.643 11.248 Q 6.468 11.183 6.422 11.183 L 6.422 11.183 L 6.422 11.183 Q 6.238 11.285 6.031 11.349 L 6.031 11.349 L 6.031 11.349 Q 5.824 11.413 5.649 11.413 L 5.649 11.413 L 5.649 11.413 Q 5.456 11.413 5.336 11.344 L 5.336 11.344 L 5.336 11.344 Q 5.217 11.275 5.217 11.137 L 5.217 11.137 L 5.217 11.137 Q 5.217 10.999 5.346 10.926 L 5.346 10.926 L 5.346 10.926 Q 5.474 10.852 5.723 10.852 L 5.723 10.852 L 5.723 10.852 Q 6.045 10.852 6.422 11.018 L 6.422 11.018 L 6.422 11.018 Q 6.772 10.926 7.112 10.769 L 7.112 10.769 L 7.112 10.769 Q 7.195 10.742 7.301 10.696 L 7.301 10.696 L 7.301 10.696 Q 7.407 10.65 7.545 10.604 L 7.545 10.604 L 7.545 10.604 Q 6.634 10.512 5.958 10.098 L 5.958 10.098 L 5.958 10.098 Q 5.281 9.684 4.913 8.966 L 4.913 8.966 L 4.913 8.966 Q 4.545 8.248 4.545 7.291 L 4.545 7.291 L 4.545 7.291 Q 4.545 6.279 4.987 5.497 L 4.987 5.497 L 4.987 5.497 Q 5.428 4.715 6.22 4.283 L 6.22 4.283 L 6.22 4.283 Q 7.011 3.85 8.023 3.85 L 8.023 3.85 L 8.023 3.85 Q 9.063 3.85 9.845 4.246 L 9.845 4.246 L 9.845 4.246 Q 10.627 4.642 11.059 5.392 L 11.059 5.392 L 11.059 5.392 Q 11.492 6.141 11.492 7.181 L 11.492 7.181 L 11.492 7.181 Q 11.492 8.175 11.068 8.948 L 11.068 8.948 L 11.068 8.948 Q 10.645 9.72 9.882 10.158 L 9.882 10.158 L 9.882 10.158 Q 9.118 10.595 8.133 10.622 L 8.133 10.622 L 8.133 10.622 Q 7.922 10.65 7.724 10.714 L 7.724 10.714 L 7.724 10.714 Q 7.526 10.779 7.351 10.852 L 7.351 10.852 L 7.351 10.852 Q 6.983 10.999 6.744 11.064 L 6.744 11.064 L 7.103 11.073 L 7.103 11.073 Q 7.894 11.101 8.446 11.101 L 8.446 11.101 L 8.446 11.101 Q 9.403 11.101 10.01 10.972 L 10.01 10.972 L 10.01 10.972 Q 10.526 10.861 10.82 10.687 L 10.82 10.687 L 10.82 10.687 Q 11.114 10.512 11.344 10.162 L 11.344 10.162 L 11.344 10.162 Z M 6.477 7.255 L 6.477 7.255 Q 6.477 8.212 6.689 8.938 L 6.689 8.938 L 6.689 8.938 Q 6.901 9.665 7.259 10.061 L 7.259 10.061 L 7.259 10.061 Q 7.618 10.457 8.051 10.457 L 8.051 10.457 L 8.051 10.457 Q 8.501 10.457 8.847 10.047 L 8.847 10.047 L 8.847 10.047 Q 9.191 9.638 9.376 8.902 L 9.376 8.902 L 9.376 8.902 Q 9.56 8.166 9.56 7.218 L 9.56 7.218 L 9.56 7.218 Q 9.56 6.261 9.348 5.534 L 9.348 5.534 L 9.348 5.534 Q 9.136 4.807 8.777 4.412 L 8.777 4.412 L 8.777 4.412 Q 8.419 4.016 7.986 4.016 L 7.986 4.016 L 7.986 4.016 Q 7.535 4.016 7.19 4.426 L 7.19 4.426 L 7.19 4.426 Q 6.845 4.835 6.661 5.571 L 6.661 5.571 L 6.661 5.571 Q 6.477 6.307 6.477 7.255 L 6.477 7.255 L 6.477 7.255 Z M 12.927 3.85 L 12.927 3.85 Q 13.424 3.85 13.654 4.191 L 13.654 4.191 L 13.654 4.191 Q 13.755 4.329 13.819 4.559 L 13.819 4.559 L 13.819 4.559 Q 13.884 4.789 13.884 5.065 L 13.884 5.065 L 13.884 5.065 Q 13.884 5.543 13.635 5.948 L 13.635 5.948 L 13.635 5.948 Q 13.387 6.353 12.909 6.574 L 12.909 6.574 L 12.826 6.408 L 12.826 6.408 Q 13.065 6.298 13.254 6.091 L 13.254 6.091 L 13.254 6.091 Q 13.442 5.884 13.516 5.654 L 13.516 5.654 L 13.516 5.654 Q 13.562 5.525 13.562 5.35 L 13.562 5.35 L 13.562 5.35 Q 13.562 5.212 13.543 5.148 L 13.543 5.148 L 13.543 5.148 Q 13.304 5.433 12.872 5.433 L 12.872 5.433 L 12.872 5.433 Q 12.504 5.433 12.283 5.226 L 12.283 5.226 L 12.283 5.226 Q 12.062 5.019 12.062 4.642 L 12.062 4.642 L 12.062 4.642 Q 12.062 4.283 12.301 4.067 L 12.301 4.067 L 12.301 4.067 Q 12.541 3.85 12.927 3.85 L 12.927 3.85 L 12.927 3.85 Z M 15.043 3.85 L 15.043 3.85 Q 15.54 3.85 15.77 4.191 L 15.77 4.191 L 15.77 4.191 Q 15.871 4.329 15.936 4.559 L 15.936 4.559 L 15.936 4.559 Q 16 4.789 16 5.065 L 16 5.065 L 16 5.065 Q 16 5.543 15.752 5.948 L 15.752 5.948 L 15.752 5.948 Q 15.503 6.353 15.025 6.574 L 15.025 6.574 L 14.942 6.408 L 14.942 6.408 Q 15.181 6.298 15.37 6.091 L 15.37 6.091 L 15.37 6.091 Q 15.558 5.884 15.632 5.654 L 15.632 5.654 L 15.632 5.654 Q 15.678 5.525 15.678 5.35 L 15.678 5.35 L 15.678 5.35 Q 15.678 5.212 15.66 5.148 L 15.66 5.148 L 15.66 5.148 Q 15.42 5.433 14.988 5.433 L 14.988 5.433 L 14.988 5.433 Q 14.62 5.433 14.399 5.226 L 14.399 5.226 L 14.399 5.226 Q 14.178 5.019 14.178 4.642 L 14.178 4.642 L 14.178 4.642 Q 14.178 4.283 14.417 4.067 L 14.417 4.067 L 14.417 4.067 Q 14.657 3.85 15.043 3.85 L 15.043 3.85 L 15.043 3.85 Z"/>
</svg>
