<svg xmlns="http://www.w3.org/2000/svg" width="16" height="16" version="1.1">
 <defs>
   <style id="current-color-scheme" type="text/css">
   .ColorScheme-Text { color: #cc00cc; } .ColorScheme-Highlight { color:#5294e2; }
  </style>
  <linearGradient id="arrongin" x1="0%" x2="0%" y1="0%" y2="100%">
   <stop offset="0%" style="stop-color:#dd9b44; stop-opacity:1"/>
   <stop offset="100%" style="stop-color:#ad6c16; stop-opacity:1"/>
  </linearGradient>
  <linearGradient id="aurora" x1="0%" x2="0%" y1="0%" y2="100%">
   <stop offset="0%" style="stop-color:#09D4DF; stop-opacity:1"/>
   <stop offset="100%" style="stop-color:#9269F4; stop-opacity:1"/>
  </linearGradient>
  <linearGradient id="cyberneon" x1="0%" x2="0%" y1="0%" y2="100%">
    <stop offset="0" style="stop-color:#0abdc6; stop-opacity:1"/>
    <stop offset="1" style="stop-color:#ea00d9; stop-opacity:1"/>
  </linearGradient>
  <linearGradient id="fitdance" x1="0%" x2="0%" y1="0%" y2="100%">
   <stop offset="0%" style="stop-color:#1AD6AB; stop-opacity:1"/>
   <stop offset="100%" style="stop-color:#329DB6; stop-opacity:1"/>
  </linearGradient>
  <linearGradient id="oomox" x1="0%" x2="0%" y1="0%" y2="100%">
   <stop offset="0%" style="stop-color:#efefe7; stop-opacity:1"/>
   <stop offset="100%" style="stop-color:#8f8f8b; stop-opacity:1"/>
  </linearGradient>
  <linearGradient id="rainblue" x1="0%" x2="0%" y1="0%" y2="100%">
   <stop offset="0%" style="stop-color:#00F260; stop-opacity:1"/>
   <stop offset="100%" style="stop-color:#0575E6; stop-opacity:1"/>
  </linearGradient>
  <linearGradient id="sunrise" x1="0%" x2="0%" y1="0%" y2="100%">
   <stop offset="0%" style="stop-color: #FF8501; stop-opacity:1"/>
   <stop offset="100%" style="stop-color: #FFCB01; stop-opacity:1"/>
  </linearGradient>
  <linearGradient id="telinkrin" x1="0%" x2="0%" y1="0%" y2="100%">
   <stop offset="0%" style="stop-color: #b2ced6; stop-opacity:1"/>
   <stop offset="100%" style="stop-color: #6da5b7; stop-opacity:1"/>
  </linearGradient>
  <linearGradient id="60spsycho" x1="0%" x2="0%" y1="0%" y2="100%">
   <stop offset="0%" style="stop-color: #df5940; stop-opacity:1"/>
   <stop offset="25%" style="stop-color: #d8d15f; stop-opacity:1"/>
   <stop offset="50%" style="stop-color: #e9882a; stop-opacity:1"/>
   <stop offset="100%" style="stop-color: #279362; stop-opacity:1"/>
  </linearGradient>
  <linearGradient id="90ssummer" x1="0%" x2="0%" y1="0%" y2="100%">
   <stop offset="0%" style="stop-color: #f618c7; stop-opacity:1"/>
   <stop offset="20%" style="stop-color: #94ffab; stop-opacity:1"/>
   <stop offset="50%" style="stop-color: #fbfd54; stop-opacity:1"/>
   <stop offset="100%" style="stop-color: #0f83ae; stop-opacity:1"/>
  </linearGradient>
 </defs>
 <path fill="currentColor" class="ColorScheme-Text" d="m 7.4561276,1.0837911 -0.00413,0.4711905 C 6.1504024,1.6533626 4.908724,1.9588863 3.786875,2.5905815 1.876838,3.6137529 0.58040999,6.5817813 0.50913299,8.6467673 c 0.0041,0.188476 -0.04028,0.399762 0.03615,0.573723 0.181811,0.235096 0.61567401,0.305477 0.80781501,0.04333 0.494811,-0.572686 1.261305,-0.973462 2.064987,-0.933076 0.750999,-0.0381 1.445182,0.369714 1.8831781,0.916504 0.1580515,0.207143 0.4948123,0.262 0.7014145,0.09009 0.248957,-0.234047 0.4689865,-0.504338 0.7747578,-0.683495 0.2179632,-0.136714 0.4607215,-0.233 0.7169089,-0.279619 0.044412,1.7988377 -0.00207,2.5921047 0.00722,4.3909427 0.015485,0.297238 -0.060947,0.592362 -0.2696147,0.820195 -0.369816,0.470143 -1.0970567,0.644143 -1.6569487,0.371762 C 5.132871,13.758267 4.842597,13.323339 4.818837,12.86871 4.797127,12.643996 4.638062,12.413043 4.376707,12.39752 c -0.293374,-0.03714 -0.55266,0.222666 -0.512373,0.492942 -0.01758,0.985891 0.818145,1.87651 1.837726,2.062915 1.094991,0.229904 2.2963819,-0.414238 2.6424408,-1.408415 0.19627,-0.535404 0.090905,-1.110161 0.1239607,-1.665242 0.00826,-1.505763 -0.022705,-2.0059581 0.02375,-3.5117197 0.6012118,0.116 1.0877591,0.516767 1.4606766,0.950681 0.2117549,0.190572 0.5826169,0.148095 0.7406679,-0.08386 0.353305,-0.433905 0.858434,-0.780843 1.44002,-0.873014 0.750998,-0.143952 1.517492,0.133619 2.086679,0.588224 0.22211,0.139809 0.387363,0.370762 0.637365,0.468095 0.322287,0.09529 0.713811,-0.181238 0.63117,-0.509514 C 15.49924,6.9896453 14.471274,4.1055028 12.824658,2.9766981 11.683181,2.1823934 10.292751,1.732941 8.8806233,1.5952077 8.7494283,1.5723507 8.6161718,1.5809217 8.500476,1.5485407 L 8.491166,1.0804455 c 0.00518,-0.71456187 -1.0113168,-0.70420477 -1.03301,0 m 5.020426,3.0477713 C 13.118018,4.6170215 13.978514,6.30194 14.189252,7.450421 13.559112,7.07866 13.03951,7.07966 12.285414,7.150088 11.534415,7.199798 10.825768,7.808726 10.287568,8.294421 9.6398728,7.706202 8.7401216,7.082774 7.8279734,7.146979 7.0315224,7.166499 6.276392,7.51255 5.704104,8.017917 4.835342,7.213259 3.471769,6.920183 2.308599,7.29714 2.055509,7.37376 1.790027,7.408998 1.766268,7.192569 2.084438,5.6837025 3.868445,3.8765787 4.552297,3.4851216 5.2671405,3.1164549 6.7877319,2.5427264 8.0490379,2.588293 c 1.6486804,-0.087 3.7064381,0.875081 4.4295441,1.5420095"/>
</svg>
