<svg xmlns="http://www.w3.org/2000/svg" width="16" height="16" version="1.1">
 <defs>
   <style id="current-color-scheme" type="text/css">
   .ColorScheme-Text { color: #00aa00; } .ColorScheme-Highlight { color:#5294e2; }
  </style>
  <linearGradient id="arrongin" x1="0%" x2="0%" y1="0%" y2="100%">
   <stop offset="0%" style="stop-color:#dd9b44; stop-opacity:1"/>
   <stop offset="100%" style="stop-color:#ad6c16; stop-opacity:1"/>
  </linearGradient>
  <linearGradient id="aurora" x1="0%" x2="0%" y1="0%" y2="100%">
   <stop offset="0%" style="stop-color:#09D4DF; stop-opacity:1"/>
   <stop offset="100%" style="stop-color:#9269F4; stop-opacity:1"/>
  </linearGradient>
  <linearGradient id="cyberneon" x1="0%" x2="0%" y1="0%" y2="100%">
    <stop offset="0" style="stop-color:#0abdc6; stop-opacity:1"/>
    <stop offset="1" style="stop-color:#ea00d9; stop-opacity:1"/>
  </linearGradient>
  <linearGradient id="fitdance" x1="0%" x2="0%" y1="0%" y2="100%">
   <stop offset="0%" style="stop-color:#1AD6AB; stop-opacity:1"/>
   <stop offset="100%" style="stop-color:#329DB6; stop-opacity:1"/>
  </linearGradient>
  <linearGradient id="oomox" x1="0%" x2="0%" y1="0%" y2="100%">
   <stop offset="0%" style="stop-color:#00aa00; stop-opacity:1"/>
   <stop offset="100%" style="stop-color:#00cc00; stop-opacity:1"/>
  </linearGradient>
  <linearGradient id="rainblue" x1="0%" x2="0%" y1="0%" y2="100%">
   <stop offset="0%" style="stop-color:#00F260; stop-opacity:1"/>
   <stop offset="100%" style="stop-color:#0575E6; stop-opacity:1"/>
  </linearGradient>
  <linearGradient id="sunrise" x1="0%" x2="0%" y1="0%" y2="100%">
   <stop offset="0%" style="stop-color: #FF8501; stop-opacity:1"/>
   <stop offset="100%" style="stop-color: #FFCB01; stop-opacity:1"/>
  </linearGradient>
  <linearGradient id="telinkrin" x1="0%" x2="0%" y1="0%" y2="100%">
   <stop offset="0%" style="stop-color: #b2ced6; stop-opacity:1"/>
   <stop offset="100%" style="stop-color: #6da5b7; stop-opacity:1"/>
  </linearGradient>
  <linearGradient id="60spsycho" x1="0%" x2="0%" y1="0%" y2="100%">
   <stop offset="0%" style="stop-color: #df5940; stop-opacity:1"/>
   <stop offset="25%" style="stop-color: #d8d15f; stop-opacity:1"/>
   <stop offset="50%" style="stop-color: #e9882a; stop-opacity:1"/>
   <stop offset="100%" style="stop-color: #279362; stop-opacity:1"/>
  </linearGradient>
  <linearGradient id="90ssummer" x1="0%" x2="0%" y1="0%" y2="100%">
   <stop offset="0%" style="stop-color: #f618c7; stop-opacity:1"/>
   <stop offset="20%" style="stop-color: #94ffab; stop-opacity:1"/>
   <stop offset="50%" style="stop-color: #fbfd54; stop-opacity:1"/>
   <stop offset="100%" style="stop-color: #0f83ae; stop-opacity:1"/>
  </linearGradient>
 </defs>
 <path fill="url(#oomox)" class="ColorScheme-Text" d="M 7.720118,15.95852 C 6.6610755,15.813386 5.6753407,15.364907 4.8562947,14.655943 c -0.803021,-0.695093 -1.415475,-1.68393 -1.681138,-2.714267 -0.105827,-0.410381 -0.137839,-0.61493 -0.164825,-1.052372 -0.08375,-1.3586276 0.344277,-2.7101866 1.188971,-3.7542806 0.202243,-0.249827 0.678527,-0.716145 0.921574,-0.901984 l 0.174765,-0.133796 0.297071,0.03024 c 1.2081713,0.1217 2.541838,-0.169323 3.5655004,-0.778319 0.2942362,-0.174992 0.3013795,-0.17537 0.770884,-0.04006 0.6149329,0.176882 1.1653789,0.442545 1.7009009,0.820574 0.292762,0.20674 0.786538,0.670904 1.029834,0.968277 0.629711,0.769701 1.030431,1.680491 1.1808,2.68388 0.05635,0.3760636 0.05726,1.1434586 0.0018,1.5333546 -0.313663,2.204863 -1.943426,4.00611 -4.1010521,4.532523 -0.604063,0.147402 -1.4208566,0.191622 -2.0212459,0.109228 z m 2.830235,-0.596523 c 0.943279,-0.394129 1.759805,-1.069417 2.295454,-1.898419 0.381668,-0.590665 0.706919,-1.45062 0.849665,-2.246513 l 0.0155,-0.0858 -0.200504,-0.04724 c -0.182136,-0.04271 -0.363137,-0.06501 -0.674431,-0.08239 l -0.111533,-0.0076 -0.01776,-0.375685 c -0.0098,-0.20674 -0.02608,-0.553096 -0.03628,-0.7697386 l -0.01852,-0.393865 0.127785,-0.0189 c 0.152807,-0.02268 0.589327,-0.235465 0.678618,-0.330709 l 0.06342,-0.06765 -0.05979,-0.178015 c -0.09207,-0.274016 -0.42126,-0.93222 -0.596687,-1.192743 -0.722906,-1.073537 -1.758463,-1.805292 -3.125461,-2.208491 l -0.2971843,-0.08769 -0.065348,0.08013 c -0.1076787,0.132284 -0.2276409,0.376063 -0.2746205,0.558199 -0.047887,0.185953 -0.057335,0.54686 -0.01852,0.713461 l 0.024189,0.104315 -0.9756283,0.624378 -0.9756283,0.624416 -0.1813795,-0.137197 c -0.7564687,-0.572598 -1.7272098,-0.606992 -2.5077538,-0.08882 -0.64503,0.428145 -1.103229,1.186734 -1.251149,2.0713322 -0.07003,0.4188104 -0.04464,1.0789044 0.05635,1.4650964 0.261316,0.99927 0.899875,1.757934 1.712258,2.034255 0.79547,0.270615 1.634744,0.05329 2.270196,-0.587867 0.1800567,-0.181796 0.4463773,-0.545953 0.5231773,-0.715616 0.021543,-0.04724 0.05023,-0.07181 0.07355,-0.06312 0.021165,0.0076 0.4778268,0.274016 1.0149543,0.590702 l 0.9765884,0.575962 -0.016252,0.08655 c -0.1068472,0.570292 -0.073436,1.037442 0.1108538,1.550551 0.07468,0.207874 0.2165289,0.511823 0.2697819,0.578041 0.03995,0.04951 0.05307,0.04687 0.342312,-0.07408 z m 0.151446,-0.338646 c -0.04634,-0.04951 -0.07975,-0.103559 -0.07427,-0.120189 0.0053,-0.01512 0.159609,-0.08882 0.3425,-0.16063 l 0.332523,-0.130771 -8.16e-4,-0.148914 c -0.0013,-0.231307 -0.01361,-0.246425 -0.200429,-0.246803 -0.08867,-7.6e-5 -0.26468,-0.0076 -0.391184,-0.0189 l -0.230022,-0.0189 v -0.145512 c 0,-0.424932 0.16388,-0.935773 0.4272,-1.331528 0.191244,-0.287622 0.672846,-0.764371 0.726701,-0.719659 0.02003,0.01512 0.135458,0.189354 0.256667,0.383659 0.12121,0.194646 0.228737,0.366237 0.238942,0.381393 0.01474,0.02268 0.326854,-0.09033 0.38208,-0.137953 0.0057,-0.0038 -0.02532,-0.221858 -0.0689,-0.48257 -0.04358,-0.26041 -0.06916,-0.48378 -0.05681,-0.496101 0.02759,-0.02646 0.925406,-0.03024 0.952736,-0.0027 0.02646,0.02646 -0.05722,0.36359 -0.17469,0.70526 -0.395399,1.149883 -1.130373,2.028018 -2.273125,2.715855 l -0.104957,0.06312 -0.08425,-0.09033 z M 8.9308972,12.520132 C 7.745728,11.815591 7.8749161,11.910608 7.9284493,11.782784 c 0.085115,-0.203338 0.1787339,-0.609902 0.2135811,-0.927345 0.09377,-0.85474 -0.1699653,-1.8071056 -0.6728315,-2.4296696 -0.069014,-0.08542 -0.1416945,-0.17726 -0.1615748,-0.204094 -0.032882,-0.04422 0.050986,-0.104315 0.8865638,-0.638173 0.5074734,-0.324284 0.9345978,-0.582085 0.9491641,-0.57309 0.01474,0.0076 0.026457,0.03024 0.026457,0.05027 0,0.0189 0.068296,0.17159 0.151748,0.339779 0.5667553,1.142552 1.901911,2.076246 2.968962,2.076246 h 0.217626 l 0.01739,0.355276 c 0.0095,0.1954016 0.02532,0.5383176 0.03515,0.7618396 l 0.01776,0.406374 -0.222123,0.03024 c -0.420106,0.05934 -0.898825,0.244913 -1.276422,0.494815 -0.216983,0.143622 -0.570701,0.480718 -0.744654,0.709871 -0.130885,0.172347 -0.3841699,0.640517 -0.4187379,0.773934 -0.0091,0.03402 -0.026835,0.06161 -0.039761,0.06009 -0.01285,-0.0015 -0.4384063,-0.24907 -0.9454904,-0.550639 z m -3.8160565,0.270992 c -0.06055,-0.01512 -0.201676,-0.06992 -0.313625,-0.12359 -0.237846,-0.11452 -0.22938,-0.08239 -0.16063,-0.606652 l 0.04294,-0.327307 -0.08957,-0.07597 c -0.134703,-0.11414 -0.175408,-0.143621 -0.198577,-0.144755 -0.01172,-6.04e-4 -0.08035,0.1183 -0.152768,0.264189 -0.07242,0.14589 -0.144341,0.260788 -0.159799,0.255496 -0.0155,-0.0038 -0.08164,-0.10885 -0.147024,-0.230173 -0.261089,-0.484838 -0.381547,-1.099804 -0.320466,-1.63593 0.03364,-0.2948034 0.102766,-0.6018146 0.145172,-0.6442966 0.01361,-0.01512 0.09014,0.01512 0.176202,0.06274 0.0836,0.048 0.165165,0.08693 0.181266,0.08693 0.01625,0 0.07945,-0.07068 0.140787,-0.157229 0.124271,-0.175369 0.126614,-0.141354 -0.03364,-0.489562 l -0.09872,-0.214677 0.08916,-0.107716 c 0.393581,-0.475843 1.022396,-0.709191 1.585724,-0.588359 0.19782,0.04233 0.3855226,0.12548 0.3855226,0.170456 0,0.0189 -0.086476,0.174237 -0.1921889,0.342426 l -0.1921507,0.305763 0.12839,0.132284 c 0.070602,0.07294 0.1374615,0.132283 0.1485733,0.132283 0.010961,0 0.1746519,-0.100913 0.3634771,-0.223748 l 0.3432945,-0.223748 0.078728,0.09146 c 0.1211338,0.140599 0.3420094,0.62075 0.4140737,0.899943 0.087118,0.3375126 0.093619,1.0558116 0.012472,1.3800196 -0.028724,0.114897 -0.06017,0.217701 -0.069694,0.227905 -0.00945,0.01134 -0.2055307,-0.06123 -0.4355376,-0.159118 -0.2300221,-0.09789 -0.4332699,-0.178394 -0.4517027,-0.179149 -0.031748,-0.0012 -0.2313449,0.309543 -0.2313449,0.359811 0,0.01134 0.161915,0.172346 0.359811,0.354141 0.1978961,0.181796 0.3609827,0.349229 0.3624189,0.371906 0.00145,0.02268 -0.088517,0.129638 -0.1998992,0.236976 -0.2229926,0.215055 -0.5003948,0.377575 -0.7607551,0.445418 -0.178583,0.04649 -0.573955,0.05253 -0.749839,0.01134 z M 11.892508,8.8902354 c -0.204623,-0.03402 -0.513993,-0.134173 -0.687613,-0.221858 -0.203565,-0.102803 -0.570119,-0.376819 -0.711447,-0.531968 -0.131565,-0.144378 -0.264226,-0.315969 -0.264226,-0.34167 0,-0.01134 0.13799,-0.08731 0.30667,-0.171968 0.168681,-0.08466 0.306671,-0.166677 0.306671,-0.182173 0,-0.04082 -0.122721,-0.227906 -0.187578,-0.285733 -0.05246,-0.04687 -0.07525,-0.04724 -0.42839,-0.0076 -0.4283114,0.04989 -0.3979164,0.06236 -0.5045747,-0.207873 -0.049361,-0.125102 -0.061455,-0.214299 -0.06274,-0.461669 -0.00169,-0.326929 0.03326,-0.446173 0.1864819,-0.636094 l 0.063307,-0.07861 0.2088568,0.07484 c 1.007841,0.3617 1.81141,0.989101 2.412253,1.883186 0.156246,0.232441 0.51484,0.923037 0.51484,0.991446 0,0.0189 -0.03477,0.05367 -0.07691,0.07559 -0.160819,0.08315 -0.166753,0.07899 -0.3216,-0.233575 l -0.145134,-0.292535 -0.164334,-0.0076 -0.164333,-0.0076 0.01965,0.336 0.01965,0.336 -0.0923,-0.0033 c -0.05076,-0.0018 -0.152996,-0.01511 -0.227226,-0.02645 z M 5.7824977,5.8640064 c -0.505043,-0.05102 -1.13794,-0.178772 -1.477599,-0.297827 -0.152806,-0.05367 -0.185007,-0.156851 -0.20194,-0.647395 -0.0155,-0.4501043 0.02684,-0.7377264 0.164032,-1.1173043 0.04675,-0.1292599 0.08693,-0.2347087 0.08931,-0.2347087 0.0024,0 0.09842,0.018898 0.21343,0.042331 0.276964,0.056315 1.024947,0.08126 1.4079002,0.046866 0.1686803,-0.015118 0.3119622,-0.022677 0.3183874,-0.015118 0.00643,0.00756 -0.01474,0.039307 -0.047433,0.073701 C 6.1412467,3.8286932 6.0689066,4.0358113 6.0700026,4.2251656 6.0737826,4.9048004 6.8747736,5.2622684 7.3785695,4.8093294 7.7884102,4.4408254 7.7164215,3.76909 7.2406924,3.5231184 l -0.088176,-0.045733 0.318652,-0.091843 C 8.1024512,3.2033698 8.6106843,2.9782234 8.8909438,2.7566675 L 9.0258729,2.6500848 9.2044934,2.8394391 c 0.3163842,0.3352441 0.5701833,0.8123717 0.6804434,1.2787654 l 0.047735,0.2018267 -0.067767,0.072945 C 9.8274878,4.4330392 9.6842061,4.5607871 9.5462156,4.6771966 8.8214874,5.2870984 8.004448,5.6566984 7.0370855,5.8122264 c -0.2712189,0.04346 -1.0300951,0.07559 -1.2545688,0.05291 z M 8.7419775,4.6675966 C 9.0548468,4.4627462 8.9144751,3.9754895 8.5425318,3.9754895 c -0.4104189,0 -0.5163968,0.5504882 -0.139389,0.7240441 0.097701,0.044976 0.2422678,0.030236 0.3388347,-0.030236 z M 4.8356277,3.5087557 c -0.106771,-0.015118 -0.242003,-0.039685 -0.30051,-0.055559 l -0.106394,-0.030236 0.06353,-0.1058268 c 0.137537,-0.2286614 0.134173,-0.2263937 0.272618,-0.1969134 0.225222,0.048 1.191518,0.065008 1.5360675,0.026457 0.6657373,-0.072567 1.4434545,-0.3299527 2.018536,-0.6675401 L 8.5982532,2.3154835 8.757976,2.4273576 c 0.087836,0.061606 0.1529197,0.1228346 0.1446425,0.1364409 -0.00831,0.015118 -0.0912,0.075969 -0.1842897,0.1390866 C 8.242524,3.0260347 7.3683382,3.3150174 6.4515571,3.4522898 6.0050097,3.5191878 5.1397817,3.5479118 4.8355827,3.5055808 Z m 0.417166,-1.0460599 c 0.131867,-0.1111181 0.47512,-0.3065196 0.659312,-0.375307 0.092523,-0.034016 0.1738202,-0.07748 0.1806611,-0.095244 0.0068,-0.018898 -0.010583,-0.1946457 -0.038627,-0.3929197 l -0.051061,-0.3605669 0.056995,-0.015118 c 0.03137,-0.00756 0.06017,-0.015118 0.064025,-0.011339 0.00378,0.00272 0.025701,0.1417323 0.048907,0.3091653 0.065688,0.4769008 0.058318,0.4569827 0.1586268,0.4282205 0.047168,-0.015118 0.090822,-0.030236 0.09702,-0.037795 C 6.4347026,1.904232 6.4089996,1.7265952 6.3712796,1.5136566 6.2541524,0.85394008 6.1340391,0.15431178 6.1253461,0.08132908 c -0.00643,-0.053291 0.00567,-0.071811 0.051591,-0.078236 0.067654,-0.011339 0.051893,-0.07937 0.2703496,1.19342352 l 0.1172409,0.6830362 0.3338457,-0.00756 c 0.3231496,-0.00756 0.7285606,0.030236 0.7721688,0.073701 0.028346,0.030237 -0.2283594,0.181796 -0.5043405,0.3012291 C 6.706868,2.4453481 6.2042324,2.5368127 5.5783655,2.5353009 l -0.409202,-9.071e-4 0.08364,-0.070299 z"/>
</svg>
