<svg xmlns="http://www.w3.org/2000/svg" width="16" height="16" version="1.1">
 <defs>
   <style id="current-color-scheme" type="text/css">
   .ColorScheme-Text { color: #00aa00; } .ColorScheme-Highlight { color:#5294e2; }
  </style>
  <linearGradient id="arrongin" x1="0%" x2="0%" y1="0%" y2="100%">
   <stop offset="0%" style="stop-color:#dd9b44; stop-opacity:1"/>
   <stop offset="100%" style="stop-color:#ad6c16; stop-opacity:1"/>
  </linearGradient>
  <linearGradient id="aurora" x1="0%" x2="0%" y1="0%" y2="100%">
   <stop offset="0%" style="stop-color:#09D4DF; stop-opacity:1"/>
   <stop offset="100%" style="stop-color:#9269F4; stop-opacity:1"/>
  </linearGradient>
  <linearGradient id="cyberneon" x1="0%" x2="0%" y1="0%" y2="100%">
    <stop offset="0" style="stop-color:#0abdc6; stop-opacity:1"/>
    <stop offset="1" style="stop-color:#ea00d9; stop-opacity:1"/>
  </linearGradient>
  <linearGradient id="fitdance" x1="0%" x2="0%" y1="0%" y2="100%">
   <stop offset="0%" style="stop-color:#1AD6AB; stop-opacity:1"/>
   <stop offset="100%" style="stop-color:#329DB6; stop-opacity:1"/>
  </linearGradient>
  <linearGradient id="oomox" x1="0%" x2="0%" y1="0%" y2="100%">
   <stop offset="0%" style="stop-color:#00aa00; stop-opacity:1"/>
   <stop offset="100%" style="stop-color:#00cc00; stop-opacity:1"/>
  </linearGradient>
  <linearGradient id="rainblue" x1="0%" x2="0%" y1="0%" y2="100%">
   <stop offset="0%" style="stop-color:#00F260; stop-opacity:1"/>
   <stop offset="100%" style="stop-color:#0575E6; stop-opacity:1"/>
  </linearGradient>
  <linearGradient id="sunrise" x1="0%" x2="0%" y1="0%" y2="100%">
   <stop offset="0%" style="stop-color: #FF8501; stop-opacity:1"/>
   <stop offset="100%" style="stop-color: #FFCB01; stop-opacity:1"/>
  </linearGradient>
  <linearGradient id="telinkrin" x1="0%" x2="0%" y1="0%" y2="100%">
   <stop offset="0%" style="stop-color: #b2ced6; stop-opacity:1"/>
   <stop offset="100%" style="stop-color: #6da5b7; stop-opacity:1"/>
  </linearGradient>
  <linearGradient id="60spsycho" x1="0%" x2="0%" y1="0%" y2="100%">
   <stop offset="0%" style="stop-color: #df5940; stop-opacity:1"/>
   <stop offset="25%" style="stop-color: #d8d15f; stop-opacity:1"/>
   <stop offset="50%" style="stop-color: #e9882a; stop-opacity:1"/>
   <stop offset="100%" style="stop-color: #279362; stop-opacity:1"/>
  </linearGradient>
  <linearGradient id="90ssummer" x1="0%" x2="0%" y1="0%" y2="100%">
   <stop offset="0%" style="stop-color: #f618c7; stop-opacity:1"/>
   <stop offset="20%" style="stop-color: #94ffab; stop-opacity:1"/>
   <stop offset="50%" style="stop-color: #fbfd54; stop-opacity:1"/>
   <stop offset="100%" style="stop-color: #0f83ae; stop-opacity:1"/>
  </linearGradient>
 </defs>
 <path fill="url(#oomox)" class="ColorScheme-Text" fill-rule="evenodd" d="M 5.773 6.803 C 5.274 7.437 4.916 8.186 4.734 9.002 L 4.734 9.002 C 3.319 8.579 2.286 7.266 2.286 5.714 L 2.286 5.714 C 2.286 3.822 3.822 2.286 5.714 2.286 C 7.266 2.286 8.579 3.319 9.002 4.734 C 8.271 4.897 7.594 5.201 7.005 5.622 C 6.726 5.464 6.442 5.32 6.153 5.185 C 6.008 4.723 5.889 4.253 5.792 3.78 C 5.751 3.588 5.716 3.394 5.687 3.199 C 5.669 3.078 5.605 2.97 5.507 2.898 C 5.409 2.825 5.287 2.795 5.167 2.813 C 5.048 2.83 4.94 2.895 4.867 2.993 C 4.795 3.089 4.764 3.213 4.781 3.331 C 4.813 3.545 4.851 3.757 4.896 3.967 C 4.95 4.233 5.012 4.498 5.075 4.762 C 4.807 4.67 4.535 4.587 4.26 4.513 C 4.092 4.467 3.921 4.426 3.751 4.391 C 3.632 4.368 3.508 4.393 3.406 4.46 C 3.305 4.527 3.235 4.63 3.211 4.749 C 3.188 4.868 3.213 4.992 3.28 5.094 C 3.347 5.194 3.45 5.265 3.569 5.289 C 3.72 5.318 3.871 5.355 4.019 5.396 C 4.409 5.501 4.793 5.626 5.17 5.771 C 5.253 5.802 5.336 5.835 5.417 5.872 C 5.522 6.187 5.642 6.498 5.773 6.803 Z M 7.616 8.142 C 7.772 7.944 7.95 7.766 8.149 7.612 C 8.229 7.692 8.305 7.776 8.383 7.859 C 8.228 8.057 8.049 8.235 7.85 8.389 C 7.77 8.309 7.694 8.224 7.616 8.142 Z M 8.995 10.379 C 8.405 10.799 7.729 11.103 6.998 11.266 C 7.421 12.681 8.734 13.714 10.286 13.714 C 12.178 13.714 13.714 12.178 13.714 10.286 C 13.714 8.734 12.681 7.421 11.266 6.998 L 11.266 6.998 C 11.084 7.814 10.726 8.563 10.226 9.198 C 10.357 9.503 10.477 9.813 10.582 10.129 C 10.663 10.166 10.746 10.198 10.829 10.23 C 11.206 10.375 11.59 10.5 11.98 10.605 C 12.13 10.646 12.279 10.681 12.43 10.712 C 12.549 10.736 12.654 10.806 12.721 10.907 C 12.788 11.008 12.813 11.131 12.788 11.25 C 12.764 11.369 12.694 11.474 12.593 11.541 C 12.492 11.608 12.369 11.633 12.25 11.608 C 12.078 11.575 11.908 11.533 11.739 11.486 C 11.464 11.412 11.193 11.329 10.924 11.237 C 10.987 11.502 11.049 11.767 11.104 12.034 C 11.148 12.244 11.186 12.456 11.218 12.668 C 11.236 12.788 11.204 12.91 11.132 13.008 C 11.059 13.105 10.951 13.169 10.832 13.188 C 10.712 13.204 10.59 13.174 10.492 13.102 C 10.395 13.029 10.331 12.921 10.312 12.802 C 10.285 12.607 10.25 12.413 10.209 12.221 C 10.112 11.746 9.991 11.278 9.847 10.815 C 9.558 10.681 9.273 10.536 8.995 10.379 Z M 11.317 4.683 C 13.983 5.154 16 7.486 16 10.286 C 16 13.44 13.44 16 10.286 16 C 7.486 16 5.154 13.983 4.683 11.317 C 2.017 10.846 0 8.514 0 5.714 L 0 5.714 C 0 2.56 2.56 0 5.714 0 C 8.514 0 10.846 2.017 11.317 4.683 L 11.317 4.683 Z"/>
</svg>
