<svg xmlns="http://www.w3.org/2000/svg" width="16" height="16" version="1.1">
 <defs>
   <style id="current-color-scheme" type="text/css">
   .ColorScheme-Text { color: #00aa00; } .ColorScheme-Highlight { color:#5294e2; }
  </style>
  <linearGradient id="arrongin" x1="0%" x2="0%" y1="0%" y2="100%">
   <stop offset="0%" style="stop-color:#dd9b44; stop-opacity:1"/>
   <stop offset="100%" style="stop-color:#ad6c16; stop-opacity:1"/>
  </linearGradient>
  <linearGradient id="aurora" x1="0%" x2="0%" y1="0%" y2="100%">
   <stop offset="0%" style="stop-color:#09D4DF; stop-opacity:1"/>
   <stop offset="100%" style="stop-color:#9269F4; stop-opacity:1"/>
  </linearGradient>
  <linearGradient id="cyberneon" x1="0%" x2="0%" y1="0%" y2="100%">
    <stop offset="0" style="stop-color:#0abdc6; stop-opacity:1"/>
    <stop offset="1" style="stop-color:#ea00d9; stop-opacity:1"/>
  </linearGradient>
  <linearGradient id="fitdance" x1="0%" x2="0%" y1="0%" y2="100%">
   <stop offset="0%" style="stop-color:#1AD6AB; stop-opacity:1"/>
   <stop offset="100%" style="stop-color:#329DB6; stop-opacity:1"/>
  </linearGradient>
  <linearGradient id="oomox" x1="0%" x2="0%" y1="0%" y2="100%">
   <stop offset="0%" style="stop-color:#00aa00; stop-opacity:1"/>
   <stop offset="100%" style="stop-color:#00cc00; stop-opacity:1"/>
  </linearGradient>
  <linearGradient id="rainblue" x1="0%" x2="0%" y1="0%" y2="100%">
   <stop offset="0%" style="stop-color:#00F260; stop-opacity:1"/>
   <stop offset="100%" style="stop-color:#0575E6; stop-opacity:1"/>
  </linearGradient>
  <linearGradient id="sunrise" x1="0%" x2="0%" y1="0%" y2="100%">
   <stop offset="0%" style="stop-color: #FF8501; stop-opacity:1"/>
   <stop offset="100%" style="stop-color: #FFCB01; stop-opacity:1"/>
  </linearGradient>
  <linearGradient id="telinkrin" x1="0%" x2="0%" y1="0%" y2="100%">
   <stop offset="0%" style="stop-color: #b2ced6; stop-opacity:1"/>
   <stop offset="100%" style="stop-color: #6da5b7; stop-opacity:1"/>
  </linearGradient>
  <linearGradient id="60spsycho" x1="0%" x2="0%" y1="0%" y2="100%">
   <stop offset="0%" style="stop-color: #df5940; stop-opacity:1"/>
   <stop offset="25%" style="stop-color: #d8d15f; stop-opacity:1"/>
   <stop offset="50%" style="stop-color: #e9882a; stop-opacity:1"/>
   <stop offset="100%" style="stop-color: #279362; stop-opacity:1"/>
  </linearGradient>
  <linearGradient id="90ssummer" x1="0%" x2="0%" y1="0%" y2="100%">
   <stop offset="0%" style="stop-color: #f618c7; stop-opacity:1"/>
   <stop offset="20%" style="stop-color: #94ffab; stop-opacity:1"/>
   <stop offset="50%" style="stop-color: #fbfd54; stop-opacity:1"/>
   <stop offset="100%" style="stop-color: #0f83ae; stop-opacity:1"/>
  </linearGradient>
 </defs>
 <path fill="url(#oomox)" class="ColorScheme-Text" d="M 4.491 0.003 C 4.385 -0.001 4.284 0.049 4.222 0.135 C 4.159 0.221 4.144 0.333 4.181 0.433 C 4.199 0.479 4.517 1.299 5.371 1.702 C 5.461 1.502 5.561 1.312 5.691 1.142 C 5.038 0.859 4.794 0.245 4.781 0.212 C 4.734 0.091 4.621 0.009 4.491 0.003 Z M 11.509 0.003 C 11.384 0.008 11.267 0.09 11.219 0.212 C 11.207 0.246 10.958 0.872 10.289 1.152 C 10.422 1.323 10.536 1.507 10.63 1.702 C 11.484 1.299 11.802 0.479 11.819 0.432 C 11.879 0.267 11.794 0.084 11.629 0.023 C 11.591 0.008 11.55 0.001 11.509 0.003 Z M 8 0.642 C 7.264 0.642 6.574 1 6.151 1.602 L 9.829 1.602 C 9.402 1.014 8.725 0.642 8 0.642 Z M 0.932 1.922 C 0.807 1.932 0.705 2.016 0.662 2.142 C 0.635 2.222 0.641 2.309 0.678 2.384 C 0.716 2.459 0.782 2.516 0.862 2.542 L 2.672 3.152 L 3.051 3.792 C 3.154 3.531 3.266 3.299 3.381 3.092 L 3.152 2.722 C 3.114 2.656 3.054 2.606 2.982 2.582 L 1.063 1.942 C 1.021 1.927 0.976 1.92 0.932 1.922 L 0.932 1.922 Z M 15.068 1.922 C 15.024 1.92 14.979 1.927 14.938 1.942 L 13.018 2.582 C 12.947 2.607 12.886 2.656 12.849 2.722 L 12.599 3.122 C 12.712 3.33 12.826 3.571 12.928 3.832 L 13.328 3.152 L 15.138 2.542 C 15.218 2.516 15.284 2.459 15.321 2.384 C 15.359 2.309 15.365 2.222 15.337 2.142 C 15.295 2.017 15.193 1.932 15.068 1.922 Z M 5.651 2.242 C 5.592 2.243 4.352 2.316 3.551 4.321 C 3.677 4.411 3.789 4.484 3.861 4.521 C 3.874 4.528 3.88 4.534 3.891 4.541 C 3.896 4.545 4.84 5.121 8 5.121 C 11.154 5.121 12.06 4.547 12.069 4.541 C 12.175 4.479 12.297 4.39 12.418 4.301 C 12.4 4.248 12.389 4.203 12.368 4.151 C 11.558 2.309 10.431 2.243 10.369 2.242 L 5.651 2.242 Z M 12.808 4.821 C 12.632 4.949 12.48 5.045 12.419 5.081 C 12.359 5.125 11.745 5.51 9.899 5.681 C 9.794 6.521 9.139 7.192 8.31 7.33 C 8.311 7.339 8.32 7.35 8.32 7.36 L 8.32 15.598 C 9.037 15.365 11.206 14.527 12.669 12.569 L 13.128 14.168 C 13.143 14.221 13.17 14.27 13.208 14.308 L 14.808 15.908 C 14.87 15.97 14.955 15.998 15.038 15.998 C 15.12 15.998 15.205 15.97 15.268 15.908 C 15.393 15.78 15.393 15.576 15.268 15.448 L 13.728 13.908 L 13.138 11.849 C 13.701 10.866 14.078 9.653 14.078 8.16 C 14.078 7.596 13.999 7.077 13.848 6.591 L 14.788 6.97 L 15.377 8.44 C 15.428 8.565 15.551 8.64 15.678 8.64 C 15.718 8.641 15.759 8.634 15.798 8.62 C 15.961 8.555 16.043 8.364 15.978 8.2 L 15.338 6.601 C 15.305 6.519 15.24 6.454 15.158 6.42 L 13.558 5.781 C 13.542 5.775 13.525 5.775 13.508 5.771 C 13.319 5.424 13.084 5.104 12.808 4.821 L 12.808 4.821 Z M 3.182 4.841 C 2.916 5.12 2.687 5.433 2.501 5.771 C 2.483 5.775 2.461 5.773 2.442 5.781 L 0.842 6.421 C 0.76 6.454 0.695 6.519 0.662 6.601 L 0.022 8.2 C -0.042 8.366 0.038 8.553 0.202 8.62 C 0.241 8.635 0.281 8.641 0.322 8.64 C 0.449 8.64 0.572 8.565 0.622 8.44 L 1.212 6.97 L 2.152 6.591 C 2.002 7.073 1.922 7.596 1.922 8.16 C 1.922 9.648 2.297 10.866 2.862 11.849 L 2.282 13.909 L 0.732 15.447 C 0.607 15.575 0.607 15.779 0.732 15.907 C 0.795 15.97 0.88 15.997 0.962 15.997 C 1.045 15.997 1.129 15.97 1.192 15.907 L 2.792 14.308 C 2.83 14.269 2.857 14.22 2.872 14.168 L 3.331 12.558 C 4.793 14.514 6.964 15.363 7.68 15.597 L 7.68 7.36 C 7.68 7.35 7.689 7.34 7.69 7.33 C 6.86 7.192 6.207 6.521 6.101 5.681 C 4.351 5.52 3.688 5.167 3.551 5.081 C 3.424 5.008 3.3 4.928 3.182 4.841 Z M 4.801 7.36 C 5.508 7.36 6.081 7.933 6.081 8.64 C 6.081 9.347 5.508 9.92 4.801 9.92 C 4.094 9.92 3.521 9.347 3.521 8.64 C 3.521 7.933 4.094 7.36 4.801 7.36 Z M 11.199 7.36 C 11.906 7.36 12.479 7.933 12.479 8.64 C 12.479 9.347 11.906 9.92 11.199 9.92 C 10.492 9.92 9.919 9.347 9.919 8.64 C 9.919 7.933 10.492 7.36 11.199 7.36 Z M 5.761 11.839 C 6.291 11.839 6.721 12.269 6.72 12.799 C 6.72 13.33 6.29 13.759 5.76 13.759 C 5.23 13.759 4.8 13.329 4.8 12.799 C 4.8 12.268 5.23 11.839 5.761 11.839 Z M 10.239 11.839 C 10.769 11.839 11.199 12.269 11.199 12.799 C 11.199 13.33 10.769 13.759 10.239 13.759 C 9.708 13.759 9.279 13.329 9.279 12.799 C 9.279 12.268 9.709 11.839 10.239 11.839 Z"/>
</svg>
