<svg xmlns="http://www.w3.org/2000/svg" width="24" height="24" version="1.1" viewBox="0 0 24 24">
 <defs>
  <style id="current-color-scheme" type="text/css">
   .ColorScheme-Text { color:#e3e9e9; } .ColorScheme-Highlight { color:#5294e2; }
  </style>
 </defs>
 <path style="fill:currentColor" class="ColorScheme-Text" d="m 12,4 a 8,8 0 0 0 -8,8 8,8 0 0 0 8,8 8,8 0 0 0 8,-8 8,8 0 0 0 -8,-8 z m -1,3.0000002 0,2.9980469 0,0.0098 0,3.992188 c 0,1 -1,1 -1,1 0,0 -1,0 -1,-1 l 0,-3.998047 -2,0 4,-3.0019533 z m 3,1.9999999 c 0,0 1,0 1,0.9999999 l 0,3.998047 2,0 L 13,17 l 0,-2.998047 0,-0.0098 0,-3.9921869 c 0,-0.9999999 1,-0.9999999 1,-0.9999999 z"/>
</svg>
