<svg xmlns="http://www.w3.org/2000/svg" width="24" height="24" viewBox="0 0 24 24">
 <defs>
  <style id="current-color-scheme" type="text/css">
   .ColorScheme-Text { color:#e3e9e9; } .ColorScheme-Highlight { color:#5294e2; }
  </style>
 </defs>
 <path style="fill:currentColor" class="ColorScheme-Text" d="M 4 2.0039062 L 4 5.0039062 L 1 5.0039062 L 1 7.0039062 L 5 7.0039062 C 6 7.0039062 6 6.0039062 6 6.0039062 L 6 2.0039062 L 4 2.0039062 z M 10 2.0039062 L 10 6.0039062 C 10 6.0039062 10 7.0039062 11 7.0039062 L 15 7.0039062 L 15 5.0039062 L 12 5.0039062 L 12 2.0039062 L 10 2.0039062 z M 1 9.0039062 L 1 11.003906 L 4 11.003906 L 4 14.003906 L 6 14.003906 L 6 10.003906 C 6 10.003906 6 9.0039062 5 9.0039062 L 1 9.0039062 z M 11 9.0039062 C 11 9.0039062 10 9.0039062 10 10.003906 L 10 14.003906 L 12 14.003906 L 12 11.003906 L 15 11.003906 L 15 9.0039062 L 11 9.0039062 z" transform="translate(4 4)"/>
</svg>
