<svg xmlns="http://www.w3.org/2000/svg" width="16" height="16" version="1.1">
 <defs>
   <style id="current-color-scheme" type="text/css">
   .ColorScheme-Text { color: #00aa00; } .ColorScheme-Highlight { color:#5294e2; }
  </style>
  <linearGradient id="arrongin" x1="0%" x2="0%" y1="0%" y2="100%">
   <stop offset="0%" style="stop-color:#dd9b44; stop-opacity:1"/>
   <stop offset="100%" style="stop-color:#ad6c16; stop-opacity:1"/>
  </linearGradient>
  <linearGradient id="aurora" x1="0%" x2="0%" y1="0%" y2="100%">
   <stop offset="0%" style="stop-color:#09D4DF; stop-opacity:1"/>
   <stop offset="100%" style="stop-color:#9269F4; stop-opacity:1"/>
  </linearGradient>
  <linearGradient id="cyberneon" x1="0%" x2="0%" y1="0%" y2="100%">
    <stop offset="0" style="stop-color:#0abdc6; stop-opacity:1"/>
    <stop offset="1" style="stop-color:#ea00d9; stop-opacity:1"/>
  </linearGradient>
  <linearGradient id="fitdance" x1="0%" x2="0%" y1="0%" y2="100%">
   <stop offset="0%" style="stop-color:#1AD6AB; stop-opacity:1"/>
   <stop offset="100%" style="stop-color:#329DB6; stop-opacity:1"/>
  </linearGradient>
  <linearGradient id="oomox" x1="0%" x2="0%" y1="0%" y2="100%">
   <stop offset="0%" style="stop-color:#00aa00; stop-opacity:1"/>
   <stop offset="100%" style="stop-color:#00cc00; stop-opacity:1"/>
  </linearGradient>
  <linearGradient id="rainblue" x1="0%" x2="0%" y1="0%" y2="100%">
   <stop offset="0%" style="stop-color:#00F260; stop-opacity:1"/>
   <stop offset="100%" style="stop-color:#0575E6; stop-opacity:1"/>
  </linearGradient>
  <linearGradient id="sunrise" x1="0%" x2="0%" y1="0%" y2="100%">
   <stop offset="0%" style="stop-color: #FF8501; stop-opacity:1"/>
   <stop offset="100%" style="stop-color: #FFCB01; stop-opacity:1"/>
  </linearGradient>
  <linearGradient id="telinkrin" x1="0%" x2="0%" y1="0%" y2="100%">
   <stop offset="0%" style="stop-color: #b2ced6; stop-opacity:1"/>
   <stop offset="100%" style="stop-color: #6da5b7; stop-opacity:1"/>
  </linearGradient>
  <linearGradient id="60spsycho" x1="0%" x2="0%" y1="0%" y2="100%">
   <stop offset="0%" style="stop-color: #df5940; stop-opacity:1"/>
   <stop offset="25%" style="stop-color: #d8d15f; stop-opacity:1"/>
   <stop offset="50%" style="stop-color: #e9882a; stop-opacity:1"/>
   <stop offset="100%" style="stop-color: #279362; stop-opacity:1"/>
  </linearGradient>
  <linearGradient id="90ssummer" x1="0%" x2="0%" y1="0%" y2="100%">
   <stop offset="0%" style="stop-color: #f618c7; stop-opacity:1"/>
   <stop offset="20%" style="stop-color: #94ffab; stop-opacity:1"/>
   <stop offset="50%" style="stop-color: #fbfd54; stop-opacity:1"/>
   <stop offset="100%" style="stop-color: #0f83ae; stop-opacity:1"/>
  </linearGradient>
 </defs>
 <path fill="url(#oomox)" class="ColorScheme-Text" d="M 14.589 0.007 C 14.519 0.022 14.454 0.058 14.405 0.111 L 7.628 6.871 C 7.49 7.009 7.49 7.232 7.628 7.37 L 8.661 8.401 C 8.727 8.467 8.817 8.504 8.911 8.504 C 9.005 8.504 9.095 8.466 9.161 8.4 L 15.898 1.609 C 16.035 1.471 16.034 1.249 15.896 1.112 L 14.904 0.111 C 14.837 0.045 14.748 0.007 14.654 0.007 C 14.633 0.003 14.611 0.003 14.589 0.007 Z M 6.722 7.402 C 6.633 7.399 6.547 7.43 6.479 7.488 L 2.599 10.791 C 2.524 10.855 2.479 10.947 2.474 11.045 C 2.47 11.144 2.507 11.239 2.577 11.309 L 2.686 11.418 C 2.031 12.087 0.029 14.234 0.007 15.638 L 0 15.996 L 0.358 15.996 C 1.806 15.996 3.923 13.984 4.587 13.32 L 4.692 13.425 C 4.758 13.491 4.848 13.528 4.941 13.528 L 4.958 13.528 C 5.057 13.523 5.149 13.477 5.213 13.401 L 8.475 9.476 C 8.592 9.335 8.581 9.13 8.453 9.002 L 6.957 7.506 C 6.895 7.443 6.811 7.406 6.722 7.402 L 6.722 7.402 Z M 3.181 11.914 L 4.092 12.824 C 3.329 13.575 1.84 14.883 0.796 15.214 C 1.139 14.188 2.436 12.688 3.181 11.914 Z"/>
</svg>
