<svg xmlns="http://www.w3.org/2000/svg" width="16" height="16" version="1.1">
 <defs>
   <style id="current-color-scheme" type="text/css">
   .ColorScheme-Text { color: #00aa00; } .ColorScheme-Highlight { color:#5294e2; }
  </style>
  <linearGradient id="arrongin" x1="0%" x2="0%" y1="0%" y2="100%">
   <stop offset="0%" style="stop-color:#dd9b44; stop-opacity:1"/>
   <stop offset="100%" style="stop-color:#ad6c16; stop-opacity:1"/>
  </linearGradient>
  <linearGradient id="aurora" x1="0%" x2="0%" y1="0%" y2="100%">
   <stop offset="0%" style="stop-color:#09D4DF; stop-opacity:1"/>
   <stop offset="100%" style="stop-color:#9269F4; stop-opacity:1"/>
  </linearGradient>
  <linearGradient id="cyberneon" x1="0%" x2="0%" y1="0%" y2="100%">
    <stop offset="0" style="stop-color:#0abdc6; stop-opacity:1"/>
    <stop offset="1" style="stop-color:#ea00d9; stop-opacity:1"/>
  </linearGradient>
  <linearGradient id="fitdance" x1="0%" x2="0%" y1="0%" y2="100%">
   <stop offset="0%" style="stop-color:#1AD6AB; stop-opacity:1"/>
   <stop offset="100%" style="stop-color:#329DB6; stop-opacity:1"/>
  </linearGradient>
  <linearGradient id="oomox" x1="0%" x2="0%" y1="0%" y2="100%">
   <stop offset="0%" style="stop-color:#00aa00; stop-opacity:1"/>
   <stop offset="100%" style="stop-color:#00cc00; stop-opacity:1"/>
  </linearGradient>
  <linearGradient id="rainblue" x1="0%" x2="0%" y1="0%" y2="100%">
   <stop offset="0%" style="stop-color:#00F260; stop-opacity:1"/>
   <stop offset="100%" style="stop-color:#0575E6; stop-opacity:1"/>
  </linearGradient>
  <linearGradient id="sunrise" x1="0%" x2="0%" y1="0%" y2="100%">
   <stop offset="0%" style="stop-color: #FF8501; stop-opacity:1"/>
   <stop offset="100%" style="stop-color: #FFCB01; stop-opacity:1"/>
  </linearGradient>
  <linearGradient id="telinkrin" x1="0%" x2="0%" y1="0%" y2="100%">
   <stop offset="0%" style="stop-color: #b2ced6; stop-opacity:1"/>
   <stop offset="100%" style="stop-color: #6da5b7; stop-opacity:1"/>
  </linearGradient>
  <linearGradient id="60spsycho" x1="0%" x2="0%" y1="0%" y2="100%">
   <stop offset="0%" style="stop-color: #df5940; stop-opacity:1"/>
   <stop offset="25%" style="stop-color: #d8d15f; stop-opacity:1"/>
   <stop offset="50%" style="stop-color: #e9882a; stop-opacity:1"/>
   <stop offset="100%" style="stop-color: #279362; stop-opacity:1"/>
  </linearGradient>
  <linearGradient id="90ssummer" x1="0%" x2="0%" y1="0%" y2="100%">
   <stop offset="0%" style="stop-color: #f618c7; stop-opacity:1"/>
   <stop offset="20%" style="stop-color: #94ffab; stop-opacity:1"/>
   <stop offset="50%" style="stop-color: #fbfd54; stop-opacity:1"/>
   <stop offset="100%" style="stop-color: #0f83ae; stop-opacity:1"/>
  </linearGradient>
 </defs>
 <path fill="url(#oomox)" class="ColorScheme-Text" d="M 1.469 2.909 L 1.506 3.209 C 1.572 3.77 1.641 3.95 1.83 4.047 C 1.927 4.098 2.024 4.205 2.045 4.287 C 2.086 4.448 2.189 4.49 2.189 4.346 C 2.189 4.297 2.081 4.048 1.949 3.792 C 1.817 3.537 1.708 3.302 1.707 3.269 C 1.707 3.236 1.653 3.142 1.588 3.059 L 1.469 2.909 Z M 14.53 2.909 L 14.411 3.059 C 14.346 3.141 14.293 3.236 14.292 3.268 C 14.291 3.301 14.183 3.537 14.05 3.792 C 13.918 4.048 13.81 4.297 13.81 4.346 C 13.81 4.49 13.913 4.448 13.954 4.287 C 13.975 4.205 14.072 4.098 14.169 4.047 C 14.358 3.95 14.428 3.769 14.494 3.209 L 14.53 2.909 Z M 0.856 3.239 C 0.82 3.239 0.813 3.283 0.838 3.343 C 0.94 3.585 0.943 3.718 0.844 3.718 C 0.791 3.718 0.747 3.738 0.747 3.763 C 0.747 3.857 0.944 4.086 1.069 4.136 C 1.218 4.196 1.348 4.21 1.348 4.166 C 1.348 4.149 1.321 4.087 1.289 4.03 C 1.257 3.972 1.202 3.812 1.168 3.674 C 1.104 3.422 0.973 3.239 0.856 3.239 L 0.856 3.239 Z M 15.142 3.239 C 15.026 3.239 14.894 3.422 14.831 3.674 C 14.796 3.813 14.742 3.973 14.71 4.03 C 14.677 4.087 14.651 4.149 14.651 4.166 C 14.651 4.21 14.782 4.196 14.931 4.136 C 15.056 4.086 15.252 3.857 15.252 3.763 C 15.252 3.738 15.208 3.718 15.154 3.718 C 15.056 3.718 15.058 3.585 15.16 3.343 C 15.186 3.283 15.178 3.239 15.142 3.239 L 15.142 3.239 Z M 7.98 3.388 C 8 3.44 7.982 3.478 7.934 3.478 C 7.736 3.478 7.658 4.197 7.808 4.644 C 7.848 4.764 7.847 4.764 7.774 4.644 C 7.654 4.446 7.462 4.255 7.383 4.255 C 7.341 4.255 7.289 4.336 7.267 4.435 C 7.245 4.533 7.202 4.615 7.17 4.615 C 7.138 4.615 7.127 4.588 7.147 4.555 C 7.167 4.523 7.16 4.451 7.129 4.396 C 7.079 4.306 7.066 4.309 7.004 4.424 C 6.95 4.524 6.954 4.599 7.026 4.769 C 7.141 5.044 7.14 5.092 7.022 5.092 C 6.897 5.092 6.948 5.237 7.082 5.263 C 7.201 5.286 7.417 5.114 7.417 4.997 C 7.417 4.955 7.448 4.902 7.484 4.88 C 7.577 4.823 7.682 4.947 7.621 5.043 C 7.593 5.087 7.569 5.141 7.569 5.162 C 7.568 5.184 7.492 5.262 7.399 5.334 C 7.185 5.502 7.191 5.77 7.41 5.801 C 7.493 5.813 7.536 5.797 7.515 5.762 C 7.493 5.728 7.538 5.73 7.621 5.768 C 7.698 5.805 7.79 5.91 7.825 6.002 C 7.886 6 7.944 5.992 7.999 5.98 C 8.054 5.992 8.112 6 8.173 6.002 C 8.209 5.91 8.301 5.805 8.379 5.768 C 8.461 5.73 8.505 5.728 8.484 5.762 C 8.462 5.797 8.507 5.813 8.589 5.801 C 8.808 5.77 8.814 5.502 8.599 5.334 C 8.506 5.262 8.43 5.184 8.429 5.162 C 8.429 5.141 8.406 5.087 8.378 5.043 C 8.317 4.947 8.421 4.823 8.515 4.88 C 8.551 4.902 8.581 4.955 8.581 4.997 C 8.581 5.114 8.798 5.286 8.916 5.263 C 9.051 5.237 9.102 5.092 8.976 5.092 C 8.858 5.092 8.857 5.044 8.973 4.769 C 9.044 4.599 9.049 4.524 8.996 4.424 C 8.934 4.309 8.921 4.306 8.871 4.396 C 8.84 4.451 8.831 4.523 8.851 4.555 C 8.872 4.588 8.861 4.615 8.829 4.615 C 8.796 4.615 8.753 4.533 8.731 4.435 C 8.709 4.336 8.657 4.255 8.616 4.255 C 8.536 4.255 8.345 4.446 8.224 4.644 C 8.151 4.764 8.15 4.764 8.19 4.644 C 8.34 4.197 8.263 3.478 8.064 3.478 C 8.017 3.478 7.998 3.44 8.018 3.388 C 8.012 3.395 8.006 3.403 7.999 3.41 C 7.993 3.403 7.987 3.395 7.98 3.388 L 7.98 3.388 Z M 0.067 3.555 C -0.046 3.594 -0.007 4.345 0.117 4.534 C 0.21 4.675 0.21 4.688 0.123 4.655 C 0.003 4.609 0 4.69 0.111 4.903 C 0.24 5.147 0.497 5.36 0.913 5.567 C 1.12 5.67 1.288 5.762 1.288 5.774 C 1.288 5.839 0.715 5.675 0.585 5.573 C 0.346 5.385 0.237 5.416 0.394 5.627 C 0.465 5.723 0.509 5.843 0.49 5.891 C 0.452 5.989 0.614 6.155 0.929 6.343 C 1.191 6.5 1.248 6.501 1.199 6.35 C 1.149 6.192 1.178 6.198 1.352 6.382 C 1.471 6.509 1.476 6.528 1.382 6.492 C 1.297 6.46 1.282 6.468 1.318 6.527 C 1.366 6.605 1.263 6.596 0.907 6.49 C 0.814 6.462 0.803 6.479 0.84 6.597 C 0.938 6.911 1.099 7.05 1.494 7.162 C 1.707 7.223 1.867 7.295 1.851 7.322 C 1.814 7.381 1.408 7.314 1.304 7.232 C 1.195 7.146 1.205 7.366 1.317 7.525 C 1.417 7.667 1.822 7.874 2.31 8.029 L 2.64 8.135 L 2.34 8.106 C 2.175 8.091 1.968 8.068 1.881 8.055 C 1.747 8.035 1.726 8.049 1.752 8.147 C 1.797 8.319 2.103 8.554 2.327 8.588 C 2.433 8.605 2.655 8.64 2.821 8.669 L 3.121 8.722 L 2.852 8.798 C 2.704 8.84 2.479 8.86 2.352 8.843 C 2.127 8.813 2.124 8.815 2.208 8.942 C 2.329 9.125 2.62 9.282 2.954 9.344 L 3.241 9.397 L 2.895 9.373 C 2.705 9.36 2.55 9.371 2.55 9.397 C 2.55 9.423 2.622 9.516 2.709 9.603 C 2.878 9.771 2.945 9.783 3.602 9.768 L 4.022 9.757 L 3.662 9.914 C 3.224 10.104 3.151 10.165 3.271 10.239 C 3.345 10.284 3.322 10.334 3.143 10.521 C 3.023 10.646 2.823 10.882 2.699 11.046 C 2.138 11.792 1.842 12.033 1.485 12.033 C 1.175 12.033 1.145 12.132 1.438 12.187 C 1.732 12.242 2.133 12.172 2.456 12.009 C 2.85 11.811 2.825 11.913 2.4 12.245 C 2.283 12.337 2.284 12.338 2.43 12.301 C 2.513 12.28 2.709 12.185 2.866 12.091 C 3.167 11.91 3.214 11.902 3.054 12.061 C 2.918 12.197 2.997 12.248 3.196 12.153 C 3.287 12.109 3.408 12.079 3.465 12.086 C 3.521 12.093 3.694 11.983 3.849 11.842 C 4.008 11.697 4.103 11.639 4.066 11.709 C 4.029 11.778 3.956 11.868 3.905 11.911 C 3.853 11.953 3.812 12.012 3.812 12.04 C 3.812 12.158 3.956 12.078 4.26 11.791 C 4.45 11.613 4.598 11.514 4.621 11.551 C 4.643 11.586 4.628 11.615 4.59 11.615 C 4.551 11.615 4.536 11.655 4.555 11.705 C 4.576 11.759 4.555 11.794 4.501 11.794 C 4.452 11.794 4.413 11.82 4.413 11.851 C 4.413 11.971 4.781 11.775 4.867 11.609 C 4.984 11.384 5.02 11.389 4.973 11.624 C 4.946 11.759 4.955 11.801 5.004 11.77 C 5.043 11.747 5.074 11.687 5.074 11.638 C 5.074 11.587 5.118 11.557 5.178 11.567 C 5.248 11.579 5.334 11.489 5.447 11.285 C 5.578 11.048 5.613 11.016 5.614 11.128 C 5.615 11.24 5.64 11.264 5.734 11.239 C 5.831 11.214 5.817 11.253 5.65 11.456 C 5.433 11.719 5.313 12.033 5.429 12.033 C 5.465 12.033 5.495 12.009 5.495 11.98 C 5.495 11.95 5.583 11.896 5.691 11.859 L 5.885 11.794 L 5.688 11.949 C 5.419 12.162 5.135 12.669 5.139 12.931 L 5.139 12.932 C 5.142 13.118 5.15 13.128 5.214 13.027 C 5.412 12.71 5.668 12.497 6.101 12.283 L 6.577 12.046 L 6.577 12.219 C 6.577 12.315 6.604 12.393 6.637 12.393 C 6.67 12.393 6.697 12.338 6.697 12.271 C 6.697 12.204 6.751 12.045 6.816 11.918 C 6.961 11.633 7.77 10.994 8 10.962 C 8.219 10.979 9.036 11.63 9.183 11.918 C 9.249 12.045 9.302 12.204 9.302 12.271 C 9.302 12.338 9.33 12.394 9.363 12.394 C 9.396 12.394 9.423 12.315 9.423 12.219 L 9.423 12.046 L 9.899 12.283 C 10.331 12.497 10.587 12.71 10.786 13.027 C 10.849 13.128 10.858 13.118 10.86 12.932 L 10.86 12.931 C 10.864 12.669 10.58 12.163 10.311 11.95 L 10.114 11.794 L 10.308 11.859 C 10.416 11.896 10.504 11.95 10.504 11.98 C 10.504 12.009 10.534 12.033 10.57 12.033 C 10.686 12.033 10.566 11.719 10.349 11.456 C 10.183 11.253 10.168 11.214 10.265 11.239 C 10.359 11.264 10.384 11.24 10.385 11.128 C 10.386 11.016 10.421 11.05 10.552 11.286 C 10.666 11.49 10.751 11.579 10.822 11.567 C 10.881 11.557 10.925 11.587 10.925 11.638 C 10.925 11.687 10.957 11.747 10.995 11.77 C 11.044 11.801 11.053 11.759 11.026 11.624 C 10.979 11.389 11.015 11.384 11.132 11.609 C 11.218 11.775 11.586 11.971 11.586 11.851 C 11.586 11.82 11.547 11.794 11.498 11.794 C 11.445 11.794 11.423 11.759 11.444 11.705 C 11.463 11.655 11.448 11.615 11.409 11.615 C 11.371 11.615 11.357 11.586 11.378 11.552 C 11.401 11.514 11.55 11.613 11.739 11.791 C 12.044 12.078 12.187 12.159 12.187 12.042 C 12.187 12.013 12.146 11.953 12.095 11.911 C 12.043 11.868 11.97 11.778 11.933 11.709 C 11.896 11.639 11.991 11.698 12.15 11.843 C 12.305 11.985 12.478 12.094 12.534 12.086 C 12.591 12.079 12.713 12.109 12.804 12.153 C 13.002 12.248 13.081 12.197 12.946 12.062 C 12.785 11.902 12.832 11.91 13.133 12.091 C 13.29 12.185 13.487 12.28 13.569 12.301 C 13.715 12.338 13.716 12.337 13.599 12.245 C 13.174 11.913 13.15 11.811 13.543 12.009 C 13.867 12.172 14.267 12.242 14.561 12.187 C 14.854 12.132 14.824 12.033 14.514 12.033 C 14.157 12.033 13.862 11.793 13.3 11.047 C 13.176 10.883 12.976 10.646 12.857 10.521 C 12.677 10.334 12.654 10.284 12.728 10.239 C 12.848 10.165 12.775 10.104 12.337 9.914 L 11.977 9.757 L 12.397 9.768 C 13.055 9.783 13.122 9.771 13.29 9.603 C 13.378 9.516 13.449 9.423 13.449 9.397 C 13.449 9.371 13.294 9.36 13.104 9.373 L 12.758 9.397 L 13.045 9.344 C 13.379 9.282 13.67 9.125 13.792 8.942 C 13.875 8.815 13.872 8.813 13.647 8.843 C 13.521 8.86 13.295 8.84 13.147 8.798 L 12.878 8.722 L 13.179 8.668 C 13.345 8.64 13.567 8.604 13.673 8.588 C 13.897 8.554 14.203 8.318 14.248 8.147 C 14.274 8.048 14.253 8.034 14.119 8.054 C 14.032 8.068 13.825 8.09 13.66 8.106 L 13.36 8.134 L 13.69 8.029 C 14.178 7.873 14.583 7.667 14.683 7.524 C 14.795 7.365 14.805 7.145 14.696 7.231 C 14.592 7.313 14.186 7.38 14.149 7.321 C 14.133 7.294 14.293 7.222 14.506 7.162 C 14.901 7.049 15.062 6.911 15.16 6.598 C 15.197 6.48 15.186 6.461 15.093 6.489 C 14.737 6.595 14.634 6.604 14.682 6.527 C 14.718 6.468 14.703 6.459 14.618 6.492 C 14.524 6.527 14.529 6.508 14.648 6.382 C 14.822 6.197 14.851 6.191 14.801 6.349 C 14.752 6.501 14.809 6.499 15.071 6.342 C 15.386 6.154 15.548 5.988 15.51 5.89 C 15.491 5.842 15.535 5.722 15.606 5.626 C 15.763 5.415 15.654 5.385 15.415 5.572 C 15.285 5.674 14.712 5.838 14.712 5.773 C 14.712 5.762 14.88 5.669 15.087 5.566 C 15.503 5.36 15.76 5.146 15.889 4.902 C 16 4.69 15.997 4.609 15.877 4.655 C 15.79 4.688 15.79 4.675 15.883 4.533 C 16.007 4.344 16.046 3.593 15.933 3.554 C 15.895 3.541 15.847 3.584 15.826 3.649 C 15.805 3.714 15.674 3.88 15.535 4.019 C 15.396 4.157 15.327 4.255 15.381 4.236 C 15.544 4.181 15.564 4.266 15.423 4.415 C 15.273 4.575 15.144 4.594 15.094 4.464 C 15.05 4.349 15.015 4.351 14.52 4.498 L 14.105 4.62 L 13.915 5.014 C 13.756 5.346 13.661 5.456 13.303 5.721 C 13.07 5.893 12.828 6.091 12.766 6.159 C 12.62 6.322 12.676 6.557 12.886 6.667 C 13.039 6.747 13.03 6.752 12.487 6.947 C 11.712 7.225 11.435 7.201 11.48 6.859 C 11.495 6.741 11.623 6.66 11.992 6.525 C 12.235 6.437 12.245 6.349 12.011 6.349 C 11.723 6.349 11.745 6.246 12.069 6.084 C 12.718 5.76 13.506 5.079 13.661 4.709 C 13.735 4.533 13.719 4.191 13.637 4.196 C 13.616 4.198 13.536 4.335 13.458 4.499 C 13.238 4.966 12.408 5.55 11.647 5.772 C 11.191 5.905 10.723 6.186 10.522 6.447 C 10.203 6.863 9.994 7.055 9.814 7.095 L 9.634 7.136 L 9.839 6.997 C 10.113 6.812 10.154 6.69 9.925 6.742 L 9.754 6.78 L 9.904 6.675 C 10.137 6.512 10.384 6.272 10.384 6.211 C 10.384 6.18 10.33 6.169 10.265 6.186 C 10.168 6.212 10.183 6.171 10.35 5.969 C 10.567 5.705 10.687 5.392 10.571 5.392 C 10.535 5.392 10.504 5.416 10.504 5.446 C 10.504 5.475 10.417 5.53 10.309 5.566 L 10.113 5.632 L 10.312 5.475 C 10.581 5.262 10.865 4.756 10.861 4.495 C 10.858 4.308 10.85 4.297 10.786 4.399 C 10.588 4.715 10.332 4.929 9.899 5.143 L 9.423 5.379 L 9.423 5.206 C 9.423 5.111 9.396 5.033 9.363 5.033 C 9.33 5.033 9.303 5.087 9.303 5.154 C 9.303 5.401 9.054 5.756 8.669 6.058 C 8.222 6.407 8.125 6.558 8.063 7.012 L 8 7.101 L 7.938 7.012 C 7.876 6.558 7.78 6.407 7.333 6.058 C 6.947 5.756 6.697 5.402 6.697 5.156 C 6.697 5.089 6.67 5.033 6.637 5.033 C 6.604 5.033 6.577 5.112 6.577 5.207 L 6.577 5.38 L 6.101 5.144 C 5.668 4.93 5.413 4.715 5.214 4.399 C 5.151 4.297 5.142 4.308 5.14 4.495 C 5.136 4.756 5.42 5.263 5.689 5.476 L 5.887 5.633 L 5.691 5.566 C 5.584 5.53 5.497 5.476 5.497 5.446 C 5.497 5.416 5.466 5.392 5.429 5.392 C 5.313 5.392 5.434 5.705 5.651 5.969 C 5.817 6.171 5.833 6.212 5.736 6.186 C 5.67 6.169 5.617 6.181 5.617 6.212 C 5.617 6.273 5.864 6.512 6.096 6.675 L 6.247 6.78 L 6.076 6.742 C 5.847 6.69 5.888 6.812 6.161 6.997 L 6.367 7.136 L 6.187 7.095 C 6.007 7.055 5.798 6.865 5.479 6.448 C 5.278 6.187 4.809 5.905 4.354 5.772 C 3.593 5.55 2.762 4.966 2.542 4.5 C 2.465 4.335 2.384 4.199 2.363 4.198 C 2.282 4.193 2.266 4.534 2.339 4.709 C 2.495 5.079 3.283 5.76 3.932 6.085 C 4.256 6.247 4.278 6.349 3.99 6.349 C 3.756 6.349 3.765 6.437 4.009 6.526 C 4.378 6.66 4.505 6.743 4.521 6.86 C 4.565 7.202 4.289 7.226 3.514 6.948 C 2.971 6.753 2.962 6.747 3.114 6.667 C 3.325 6.558 3.381 6.322 3.235 6.16 C 3.173 6.091 2.931 5.893 2.697 5.721 C 2.339 5.456 2.245 5.346 2.086 5.014 L 1.896 4.621 L 1.481 4.498 C 0.985 4.351 0.951 4.349 0.907 4.464 C 0.857 4.594 0.729 4.575 0.578 4.415 C 0.438 4.266 0.457 4.183 0.619 4.237 C 0.674 4.256 0.604 4.157 0.465 4.018 C 0.326 3.88 0.195 3.714 0.175 3.649 C 0.154 3.584 0.106 3.541 0.068 3.554 L 0.067 3.555 Z M 1.245 4.891 C 1.277 4.884 1.348 4.901 1.455 4.946 C 1.565 4.992 1.698 5.114 1.756 5.223 C 1.813 5.33 1.945 5.507 2.049 5.615 L 2.049 5.616 C 2.153 5.724 2.221 5.81 2.199 5.809 C 2.105 5.803 1.785 5.603 1.62 5.447 C 1.521 5.354 1.371 5.253 1.288 5.22 C 1.183 5.179 1.17 5.158 1.244 5.156 C 1.366 5.152 1.38 5.087 1.278 4.986 C 1.222 4.93 1.213 4.898 1.245 4.891 L 1.245 4.891 Z M 14.755 4.891 C 14.787 4.898 14.778 4.931 14.722 4.987 C 14.621 5.087 14.635 5.152 14.757 5.156 C 14.83 5.159 14.816 5.179 14.711 5.221 C 14.628 5.253 14.48 5.355 14.38 5.448 C 14.215 5.603 13.895 5.803 13.801 5.809 C 13.78 5.81 13.847 5.724 13.951 5.616 L 13.951 5.615 C 14.055 5.507 14.186 5.33 14.243 5.223 C 14.301 5.114 14.434 4.992 14.544 4.946 C 14.651 4.901 14.724 4.884 14.755 4.891 L 14.755 4.891 Z M 7.898 4.945 C 7.933 4.924 7.943 4.948 7.923 5.001 C 7.883 5.104 7.84 5.123 7.84 5.037 C 7.84 5.006 7.866 4.965 7.898 4.945 Z M 8.069 4.945 C 8.073 4.935 8.085 4.934 8.102 4.945 C 8.134 4.965 8.16 5.006 8.16 5.037 C 8.16 5.123 8.118 5.104 8.078 5.001 C 8.067 4.974 8.065 4.955 8.069 4.945 Z"/>
</svg>
