<svg xmlns="http://www.w3.org/2000/svg" width="32" height="32" viewBox="0 0 32 32">
  <rect width="32" height="32" fill="#000000"/>
  <rect width="32" height="1" fill="#eeeeee" fill-opacity=".1"/>
  <g fill="#eeeeee">
    <circle cx="16" cy="16" r="12" opacity=".2"/>
    <path d="m12 18h8v2h-8z" opacity=".6"/>
  </g>
</svg>
