<svg xmlns="http://www.w3.org/2000/svg" width="22" height="22" version="1.1">
 <defs>
   <style id="current-color-scheme" type="text/css">
   .ColorScheme-Text { color: #cc00cc; } .ColorScheme-Highlight { color: #1AD6AB; }
  </style>
  <linearGradient id="arrongin" x1="0%" x2="0%" y1="0%" y2="100%">
   <stop offset="0%"    stop-color= "#dd9b44" stop-opacity="1"/>
   <stop offset="100%"  stop-color= "#ad6c16" stop-opacity="1"/>
  </linearGradient>
  <linearGradient id="aurora" x1="0%" x2="0%" y1="0%" y2="100%">
   <stop offset="0%"    stop-color= "#09D4DF" stop-opacity="1"/>
   <stop offset="100%"  stop-color= "#9269F4" stop-opacity="1"/>
  </linearGradient> 
  <linearGradient id="cyberblue" x1="0%" x2="0%" y1="0%" y2="100%">
   <stop offset="0%"    stop-color= "#07B3FF" stop-opacity="1"/>
   <stop offset="100%"  stop-color= "#007DE8" stop-opacity="1"/>
  </linearGradient>
  <linearGradient id="cyberneon" x1="0%" x2="0%" y1="0%" y2="100%">
    <stop offset="0%"   stop-color= "#0abdc6" stop-opacity="1"/>
    <stop offset="100%" stop-color= "#ea00d9" stop-opacity="1"/>
  </linearGradient>
  <linearGradient id="fitdance" x1="0%" x2="0%" y1="0%" y2="100%">
   <stop offset="0%"    stop-color= "#1AD6AB" stop-opacity="1"/>
   <stop offset="100%"  stop-color= "#329DB6" stop-opacity="1"/>
  </linearGradient>
  <linearGradient id="oomox" x1="0%" x2="0%" y1="0%" y2="100%">
   <stop offset="0%"    stop-color= "#efefe7" stop-opacity="1"/>
   <stop offset="100%"  stop-color= "#8f8f8b" stop-opacity="1"/>
  </linearGradient>
  <linearGradient id="rainblue" x1="0%" x2="0%" y1="0%" y2="100%">
   <stop offset="0%"    stop-color= "#00F260" stop-opacity="1"/>
   <stop offset="100%"  stop-color= "#0575E6" stop-opacity="1"/>
  </linearGradient>
  <linearGradient id="redcarbon" x1="0%" x2="0%" y1="0%" y2="100%">
   <stop offset="0%"    stop-color= "#FF6D57" stop-opacity="1"/>
   <stop offset="50%"   stop-color= "#FF5160" stop-opacity="1"/>
   <stop offset="100%"  stop-color= "#F50F22" stop-opacity="1"/>
  </linearGradient>
  <linearGradient id="sunrise" x1="0%" x2="0%" y1="0%" y2="100%">
   <stop offset="0%"    stop-color= "#FF8501" stop-opacity="1"/>
   <stop offset="100%"  stop-color= "#FFCB01" stop-opacity="1"/>
  </linearGradient>
  <linearGradient id="telinkrin" x1="0%" x2="0%" y1="0%" y2="100%">
   <stop offset="0%"    stop-color= "#b2ced6" stop-opacity="1"/>
   <stop offset="100%"  stop-color= "#6da5b7" stop-opacity="1"/>
  </linearGradient>
  <linearGradient id="60spsycho" x1="0%" x2="0%" y1="0%" y2="100%">
   <stop offset="0%"    stop-color= "#df5940" stop-opacity="1"/>
   <stop offset="25%"   stop-color= "#d8d15f" stop-opacity="1"/>
   <stop offset="50%"   stop-color= "#e9882a" stop-opacity="1"/>
   <stop offset="100%"  stop-color= "#279362" stop-opacity="1"/>
  </linearGradient>
  <linearGradient id="90ssummer" x1="0%" x2="0%" y1="0%" y2="100%">
   <stop offset="0%"    stop-color= "#f618c7" stop-opacity="1"/>
   <stop offset="20%"   stop-color= "#94ffab" stop-opacity="1"/>
   <stop offset="50%"   stop-color= "#fbfd54" stop-opacity="1"/>
   <stop offset="100%"  stop-color= "#0f83ae" stop-opacity="1"/>
  </linearGradient>
 </defs>
 <path fill="currentColor" class="ColorScheme-Text" d="M 3.0097656 1 C 0.76106563 1 1.0117188 3 1.0117188 3 L 1.0117188 15 L 15.003906 15 L 15.003906 3 C 15.003906 1 13.003906 1 13.003906 1 L 11.005859 1 L 11.005859 5 L 13.003906 5 L 13.003906 13 L 3.0097656 13 L 3.0097656 5 L 5.0097656 5 L 5.0097656 1 L 3.0097656 1 z M 6.0078125 1 L 8.0078125 4 L 10.005859 1 L 6.0078125 1 z M 6.4355469 6 C 5.3700469 6 4.9238281 6.3522562 4.9238281 7.2539062 C 4.9238281 7.2539062 4.8993781 7.84134 4.8925781 8 C 4.8463781 8.36892 4.7171831 8.6777344 4.3144531 8.6777344 L 4.0097656 8.6777344 L 4.0097656 9.3222656 L 4.3144531 9.3222656 C 4.9030031 9.3222656 4.9238281 9.9664975 4.9238281 10.523438 C 4.9188281 10.697368 4.9374062 10.89186 4.9414062 11 C 5.0247063 11.71164 5.4783069 12 6.4355469 12 L 6.4355469 11.408203 C 5.9860369 11.408203 5.829155 11.28989 5.765625 11 C 5.731925 10.88403 5.7284437 10.485582 5.7148438 10.294922 C 5.7148438 9.8794619 5.5928306 9.2602063 4.9941406 9.0039062 C 5.4672106 8.8013362 5.6362631 8.37562 5.6894531 8 C 5.7133531 7.89589 5.7080438 7.7776956 5.7148438 7.6972656 C 5.7148438 6.8309556 5.7252669 6.5917969 6.4355469 6.5917969 L 6.4355469 6 z M 9.578125 6 L 9.578125 6.5917969 C 10.288405 6.5917969 10.298828 6.8309256 10.298828 7.6972656 C 10.305828 7.7776656 10.300819 7.89589 10.324219 8 C 10.377419 8.37563 10.548414 8.8013462 11.021484 9.0039062 C 10.422794 9.2602562 10.298828 9.8794719 10.298828 10.294922 C 10.285128 10.485582 10.281647 10.88403 10.248047 11 C 10.184547 11.28989 10.027635 11.408203 9.578125 11.408203 L 9.578125 12 C 10.535375 12 10.991019 11.71164 11.074219 11 C 11.078219 10.89186 11.096797 10.697367 11.091797 10.523438 C 11.091797 9.9665275 11.112652 9.3222656 11.701172 9.3222656 L 12.003906 9.3222656 L 12.003906 8.6777344 L 11.701172 8.6777344 C 11.298442 8.6777344 11.169227 8.36892 11.123047 8 C 11.116047 7.84134 11.091797 7.2539062 11.091797 7.2539062 C 11.091797 6.3522463 10.643605 6 9.578125 6 z" transform="translate(3 3)"/>
</svg>
