<svg xmlns="http://www.w3.org/2000/svg" width="16" height="16" version="1.1">
 <defs>
   <style id="current-color-scheme" type="text/css">
   .ColorScheme-Text { color: #00aa00; } .ColorScheme-Highlight { color: #5294e2; }
  </style>
  <linearGradient id="arrongin" x1="0%" x2="0%" y1="0%" y2="100%">
   <stop offset="0%" style="stop-color: #dd9b44; stop-opacity: 1"/>
   <stop offset="100%" style="stop-color: #ad6c16; stop-opacity: 1"/>
  </linearGradient>
  <linearGradient id="aurora" x1="0%" x2="0%" y1="0%" y2="100%">
   <stop offset="0%" style="stop-color: #09D4DF; stop-opacity: 1"/>
   <stop offset="100%" style="stop-color: #9269F4; stop-opacity: 1"/>
  </linearGradient>
  <linearGradient id="cyberneon" x1="0%" x2="0%" y1="0%" y2="100%">
    <stop offset="0" style="stop-color: #0abdc6; stop-opacity: 1"/>
    <stop offset="1" style="stop-color: #ea00d9; stop-opacity: 1"/>
  </linearGradient>
  <linearGradient id="fitdance" x1="0%" x2="0%" y1="0%" y2="100%">
   <stop offset="0%" style="stop-color: #1AD6AB; stop-opacity: 1"/>
   <stop offset="100%" style="stop-color: #329DB6; stop-opacity: 1"/>
  </linearGradient>
  <linearGradient id="oomox" x1="0%" x2="0%" y1="0%" y2="100%">
   <stop offset="0%" style="stop-color: #00aa00; stop-opacity: 1"/>
   <stop offset="100%" style="stop-color: #00cc00; stop-opacity: 1"/>
  </linearGradient>
  <linearGradient id="rainblue" x1="0%" x2="0%" y1="0%" y2="100%">
   <stop offset="0%" style="stop-color: #00F260; stop-opacity: 1"/>
   <stop offset="100%" style="stop-color: #0575E6; stop-opacity: 1"/>
  </linearGradient>
  <linearGradient id="sunrise" x1="0%" x2="0%" y1="0%" y2="100%">
   <stop offset="0%" style="stop-color: #FF8501; stop-opacity: 1"/>
   <stop offset="100%" style="stop-color: #FFCB01; stop-opacity: 1"/>
  </linearGradient>
  <linearGradient id="telinkrin" x1="0%" x2="0%" y1="0%" y2="100%">
   <stop offset="0%" style="stop-color: #b2ced6; stop-opacity: 1"/>
   <stop offset="100%" style="stop-color: #6da5b7; stop-opacity: 1"/>
  </linearGradient>
  <linearGradient id="60spsycho" x1="0%" x2="0%" y1="0%" y2="100%">
   <stop offset="0%" style="stop-color: #df5940; stop-opacity: 1"/>
   <stop offset="25%" style="stop-color: #d8d15f; stop-opacity: 1"/>
   <stop offset="50%" style="stop-color: #e9882a; stop-opacity: 1"/>
   <stop offset="100%" style="stop-color: #279362; stop-opacity: 1"/>
  </linearGradient>
  <linearGradient id="90ssummer" x1="0%" x2="0%" y1="0%" y2="100%">
   <stop offset="0%" style="stop-color: #f618c7; stop-opacity: 1"/>
   <stop offset="20%" style="stop-color: #94ffab; stop-opacity: 1"/>
   <stop offset="50%" style="stop-color: #fbfd54; stop-opacity: 1"/>
   <stop offset="100%" style="stop-color: #0f83ae; stop-opacity: 1"/>
  </linearGradient>
 </defs>
   <path fill="url(#oomox)" class="ColorScheme-Text" d="M 6.286872 0 C 4.673433 0 3.060565 0.613134 1.837483 1.839402 C -0.608681 4.291368 -0.614396 8.306738 1.831768 10.758704 C 3.904148 12.836389 7.104737 13.111242 9.520038 11.667262 L 13.54935 15.626064 C 14.016865 16.093486 15.045053 16.171198 15.598868 15.579207 C 16.152685 14.987216 16.126394 14.055229 15.561148 13.490095 L 11.640428 9.60615 C 13.130415 7.178184 12.827503 3.93823 10.733974 1.839402 C 9.510892 0.613705 7.897454 0 6.284586 0 M 6.284586 1.714261 C 7.450514 1.714261 8.616443 2.161684 9.513179 3.058242 C 11.306081 4.850217 11.306081 7.721034 9.513179 9.513578 C 7.720278 11.305554 4.848893 11.305554 3.056564 9.513578 C 1.263664 7.721605 1.263664 4.850788 3.056564 3.058242 C 3.952729 2.162255 5.119229 1.714261 6.285157 1.714261 M 4.92205 2.285682 C 4.601991 2.395967 4.291077 2.542822 3.999023 2.733105 L 3.999023 4.571364 L 5.713624 4.571364 L 5.713624 2.285682 L 4.92205 2.285682 Z M 6.285157 2.285682 L 6.285157 2.857102 L 6.856691 2.857102 L 6.856691 4.571364 L 7.428226 4.571364 L 7.428226 2.285682 L 6.285157 2.285682 Z M 7.999759 2.423966 L 7.999759 4.571364 L 9.71436 4.571364 L 9.71436 3.826803 C 9.581763 3.643377 9.437166 3.466237 9.271421 3.299953 C 9.230271 3.25881 9.18569 3.223383 9.142826 3.183955 L 9.142826 3.999943 L 8.571293 3.999943 L 8.571293 2.857102 L 8.745609 2.857102 C 8.508424 2.685104 8.259235 2.540535 7.999759 2.423966 Z M 4.570557 2.857102 L 5.14209 2.857102 L 5.14209 3.999943 L 4.570557 3.999943 L 4.570557 2.857102 Z M 3.42749 3.183955 C 3.385196 3.223383 3.340616 3.25881 3.298894 3.299953 C 3.13315 3.465665 2.988552 3.642234 2.855956 3.82566 L 2.855956 4.571364 L 3.42749 4.571364 L 3.42749 3.183955 Z M 2.284422 5.142784 L 2.284422 7.428466 L 3.999023 7.428466 L 3.999023 5.142784 L 2.284422 5.142784 Z M 4.570557 5.142784 L 4.570557 5.714205 L 5.14209 5.714205 L 5.14209 7.428466 L 5.708481 7.428466 L 5.713624 7.428466 L 5.71591 5.142784 L 5.713624 5.142784 M 6.285157 5.142784 L 6.285157 7.428466 L 7.999759 7.428466 L 7.999759 5.142784 L 6.285157 5.142784 Z M 8.582722 5.142784 L 8.582722 5.714205 L 9.154255 5.714205 L 9.154255 7.428466 L 9.725789 7.428466 L 9.725789 5.142784 L 8.582722 5.142784 Z M 2.855956 5.714205 L 3.42749 5.714205 L 3.42749 6.857046 L 2.855956 6.857046 L 2.855956 5.714205 Z M 6.856691 5.714205 L 7.428226 5.714205 L 7.428226 6.857046 L 6.856691 6.857046 L 6.856691 5.714205 Z M 2.422734 7.999886 C 2.51075 8.195883 2.612482 8.38731 2.731934 8.571307 L 2.855956 8.571307 L 2.855956 8.74559 C 2.988552 8.928445 3.133721 9.105586 3.298894 9.271296 C 3.340045 9.31244 3.384625 9.347868 3.42749 9.387296 L 3.42749 7.999886 L 2.422734 7.999886 Z M 3.999023 7.999886 L 3.999023 9.838145 C 4.291649 10.028429 4.602562 10.175284 4.92205 10.285568 L 5.713624 10.285568 L 5.713624 7.999886 L 3.999023 7.999886 Z M 6.285157 7.999886 L 6.285157 8.571307 L 6.856691 8.571307 L 6.856691 10.285568 L 7.428226 10.285568 L 7.428226 7.999886 L 6.285157 7.999886 Z M 7.999759 7.999886 L 7.999759 10.147284 C 8.258663 10.030715 8.507279 9.885573 8.744466 9.714148 L 8.571293 9.714148 L 8.571293 8.571307 L 9.142826 8.571307 L 9.142826 9.387296 C 9.185118 9.347868 9.229698 9.31244 9.271421 9.271296 C 9.437166 9.105586 9.581763 8.927874 9.71436 8.744448 L 9.71436 7.999886 L 7.999759 7.999886 Z M 4.570557 8.571307 L 5.14209 8.571307 L 5.14209 9.714148 L 4.570557 9.714148 L 4.570557 8.571307 Z"/>
</svg>
