<svg xmlns="http://www.w3.org/2000/svg" width="16" height="16" version="1.1">
 <defs>
  <style id="current-color-scheme" type="text/css">
   .ColorScheme-Text { color: #00aa00; } .ColorScheme-Highlight { color: #5294e2; }
  </style>
  <linearGradient id="arrongin" x1="0%" x2="0%" y1="0%" y2="100%">
   <stop id="stop3" offset="0%" style="stop-color: #dd9b44"/>
   <stop id="stop5" offset="100%" style="stop-color: #ad6c16"/>
  </linearGradient>
  <linearGradient id="aurora" x1="0%" x2="0%" y1="0%" y2="100%">
   <stop id="stop8" offset="0%" style="stop-color: #09D4DF"/>
   <stop id="stop10" offset="100%" style="stop-color: #9269F4"/>
  </linearGradient>
  <linearGradient id="cyberneon" x1="0%" x2="0%" y1="0%" y2="100%">
   <stop id="stop56" offset="0" style="stop-color: #0abdc6"/>
   <stop id="stop58" offset="1" style="stop-color: #ea00d9"/>
  </linearGradient>
  <linearGradient id="fitdance" x1="0%" x2="0%" y1="0%" y2="100%">
   <stop id="stop13" offset="0%" style="stop-color: #1AD6AB"/>
   <stop id="stop15" offset="100%" style="stop-color: #329DB6"/>
  </linearGradient>
  <linearGradient id="oomox" x1="0%" x2="0%" y1="0%" y2="100%">
   <stop id="stop18" offset="0%" style="stop-color: #00aa00"/>
   <stop id="stop20" offset="100%" style="stop-color: #00cc00"/>
  </linearGradient>
  <linearGradient id="rainblue" x1="0%" x2="0%" y1="0%" y2="100%">
   <stop id="stop23" offset="0%" style="stop-color: #00F260"/>
   <stop id="stop25" offset="100%" style="stop-color: #0575E6"/>
  </linearGradient>
  <linearGradient id="sunrise" x1="0%" x2="0%" y1="0%" y2="100%">
   <stop id="stop28" offset="0%" style="stop-color: #FF8501"/>
   <stop id="stop30" offset="100%" style="stop-color: #FFCB01"/>
  </linearGradient>
  <linearGradient id="telinkrin" x1="0%" x2="0%" y1="0%" y2="100%">
   <stop id="stop33" offset="0%" style="stop-color: #b2ced6"/>
   <stop id="stop35" offset="100%" style="stop-color: #6da5b7"/>
  </linearGradient>
  <linearGradient id="60spsycho" x1="0%" x2="0%" y1="0%" y2="100%">
   <stop id="stop38" offset="0%" style="stop-color: #df5940"/>
   <stop id="stop40" offset="25%" style="stop-color: #d8d15f"/>
   <stop id="stop42" offset="50%" style="stop-color: #e9882a"/>
   <stop id="stop44" offset="100%" style="stop-color: #279362"/>
  </linearGradient>
  <linearGradient id="90ssummer" x1="0%" x2="0%" y1="0%" y2="100%">
   <stop id="stop47" offset="0%" style="stop-color: #f618c7"/>
   <stop id="stop49" offset="20%" style="stop-color: #94ffab"/>
   <stop id="stop51" offset="50%" style="stop-color: #fbfd54"/>
   <stop id="stop53" offset="100%" style="stop-color: #0f83ae"/>
  </linearGradient>
 </defs>
 <g transform="translate(-311.99997,-119.99994)">
  <path fill="url(#oomox)" class="ColorScheme-Text" d="m 315.99414,120 c -1.2582,0.0145 -2.17889,-0.0306 -2.93164,0.38477 -0.37637,0.20766 -0.67323,0.55938 -0.83789,0.99804 C 312.05994,121.82148 312,122.34239 312,123 v 6 c 0,0.65761 0.0599,1.17853 0.22461,1.61719 0.16467,0.43866 0.46152,0.79039 0.83789,0.99804 0.75275,0.41532 1.67345,0.3702 2.93164,0.38477 h 0.004 8.0039 0.004 c 1.25819,-0.0145 2.17889,0.0306 2.93164,-0.38477 0.37637,-0.20766 0.67322,-0.55938 0.83789,-0.99804 C 327.94006,130.17852 328,129.65761 328,129 v -6 c 0,-0.65761 -0.0599,-1.17852 -0.22461,-1.61719 -0.16466,-0.43866 -0.46152,-0.79038 -0.83789,-0.99804 -0.75275,-0.41534 -1.67344,-0.37025 -2.93164,-0.38477 h -0.004 -8.0039 z m 0.006,1 h 8 c 1.25852,0.0147 2.08717,0.0598 2.45312,0.26172 0.18341,0.1012 0.28916,0.21274 0.38672,0.47266 C 326.93741,121.99429 327,122.40761 327,123 v 6 c 0,0.59239 -0.0626,1.00572 -0.16016,1.26562 -0.0976,0.25991 -0.20331,0.37147 -0.38672,0.47266 C 326.08717,130.94019 325.25852,130.98529 324,131 H 316.00586 316 c -1.25853,-0.0147 -2.08912,-0.0598 -2.45508,-0.26172 -0.18341,-0.10119 -0.2872,-0.21275 -0.38476,-0.47266 C 313.06259,130.00572 313,129.59239 313,129 v -6 c 0,-0.59239 0.0626,-1.00572 0.16016,-1.26562 0.0976,-0.25991 0.20135,-0.37147 0.38476,-0.47266 C 313.91088,121.05981 314.74147,121.01471 316,121 Z"/>
  <rect fill="url(#oomox)" class="ColorScheme-Text" width="4" height="1" x="318" y="132"/>
  <path fill="url(#oomox)" class="ColorScheme-Text" d="m 312,135 3,-1 h 10 l 3,1 v 1 h -16 z"/>
 </g>
</svg>
