<svg xmlns="http://www.w3.org/2000/svg" width="22" height="22" version="1.1">
 <defs>
  <style id="current-color-scheme" type="text/css">
   .ColorScheme-Text { color: #00aa00; } .ColorScheme-Highlight { color: #1AD6AB; }
  </style>
  <linearGradient id="arrongin" x1="0%" x2="0%" y1="0%" y2="100%">
   <stop offset="0%" style="stop-color:#dd9b44"/>
   <stop offset="100%" style="stop-color:#ad6c16"/>
  </linearGradient>
  <linearGradient id="aurora" x1="0%" x2="0%" y1="0%" y2="100%">
   <stop offset="0%" style="stop-color:#09D4DF"/>
   <stop offset="100%" style="stop-color:#9269F4"/>
  </linearGradient>
  <linearGradient id="cyberneon" x1="0%" x2="0%" y1="0%" y2="100%">
   <stop offset="0" style="stop-color:#0abdc6"/>
   <stop offset="1" style="stop-color:#ea00d9"/>
  </linearGradient>
  <linearGradient id="fitdance" x1="0%" x2="0%" y1="0%" y2="100%">
   <stop offset="0%" style="stop-color:#1AD6AB"/>
   <stop offset="100%" style="stop-color:#329DB6"/>
  </linearGradient>
  <linearGradient id="oomox" x1="0%" x2="0%" y1="0%" y2="100%">
   <stop offset="0%" style="stop-color:#00aa00"/>
   <stop offset="100%" style="stop-color:#00cc00"/>
  </linearGradient>
  <linearGradient id="rainblue" x1="0%" x2="0%" y1="0%" y2="100%">
   <stop offset="0%" style="stop-color:#00F260"/>
   <stop offset="100%" style="stop-color:#0575E6"/>
  </linearGradient>
  <linearGradient id="sunrise" x1="0%" x2="0%" y1="0%" y2="100%">
   <stop offset="0%" style="stop-color:#FF8501"/>
   <stop offset="100%" style="stop-color:#FFCB01"/>
  </linearGradient>
  <linearGradient id="telinkrin" x1="0%" x2="0%" y1="0%" y2="100%">
   <stop offset="0%" style="stop-color:#b2ced6"/>
   <stop offset="100%" style="stop-color:#6da5b7"/>
  </linearGradient>
  <linearGradient id="60spsycho" x1="0%" x2="0%" y1="0%" y2="100%">
   <stop offset="0%" style="stop-color:#df5940"/>
   <stop offset="25%" style="stop-color:#d8d15f"/>
   <stop offset="50%" style="stop-color:#e9882a"/>
   <stop offset="100%" style="stop-color:#279362"/>
  </linearGradient>
  <linearGradient id="90ssummer" x1="0%" x2="0%" y1="0%" y2="100%">
   <stop offset="0%" style="stop-color:#f618c7"/>
   <stop offset="20%" style="stop-color:#94ffab"/>
   <stop offset="50%" style="stop-color:#fbfd54"/>
   <stop offset="100%" style="stop-color:#0f83ae"/>
  </linearGradient>
 </defs>
 <path fill="url(#oomox)" class="ColorScheme-Text" d="m 10.091817,5.0465712 c -3.5555565,0 -2.7283814,3.2481694 -4.5488283,4.226563 -0.062744,0.0356 -0.098024,0.06839 -0.1542969,0.103515 1.2005478,-0.714589 2.6803078,-1.3120668 4.2519531,-1.7167968 1.3309081,-0.342378 2.6808401,-0.5344587 3.9257811,-0.5585937 0.03199,-1.14e-4 0.0639,-1.14e-4 0.0957,0 C 12.461549,6.760093 12.330268,5.0465712 10.091817,5.0465712 Z m 3.875,2.9550781 c -1.244941,0.02414 -2.594873,0.2162148 -3.925781,0.5585938 -4.3864741,1.1287611 -7.5126422,3.5833489 -6.9824223,5.4824219 0.3055213,1.085203 1.7775693,1.801315 3.9707031,1.93164 -0.001,-0.0082 -0.00301,-0.01523 -0.00391,-0.02344 -0.118387,-1.026756 0.533079,-1.91994 1.296875,-2.525391 0.7637961,-0.605453 1.7462692,-1.045085 2.8496092,-1.279297 1.10334,-0.234211 2.136415,-0.222891 3,0.03711 0.811893,0.244438 1.575746,0.777804 1.763672,1.693359 2.198075,-1.232334 3.338163,-2.718168 3.007812,-3.9199218 C 18.593421,8.6985304 16.684821,7.9487243 13.966817,8.0016493 Z m -1.304688,4.9980467 a 1.8585774,3.5769585 76.001371 0 0 -1.376953,0.142578 1.8585774,3.5769585 76.001371 0 0 -3.2792967,2.59961 1.8585774,3.5769585 76.001371 0 0 3.7089847,1.115234 1.8585774,3.5769585 76.001371 0 0 3.277344,-2.59961 1.8585774,3.5769585 76.001371 0 0 -2.330079,-1.257812 z"/>
</svg>
