<svg xmlns="http://www.w3.org/2000/svg" width="16" height="16" version="1.1">
 <defs>
   <style id="current-color-scheme" type="text/css">
   .ColorScheme-Text { color: #E7E7E7; } .ColorScheme-Highlight { color: #5294e2; }
  </style>
  <linearGradient id="arrongin" x1="0%" x2="0%" y1="0%" y2="100%">
   <stop offset="0%" style="stop-color: #dd9b44; stop-opacity: 1"/>
   <stop offset="100%" style="stop-color: #ad6c16; stop-opacity: 1"/>
  </linearGradient>
  <linearGradient id="aurora" x1="0%" x2="0%" y1="0%" y2="100%">
   <stop offset="0%" style="stop-color: #09D4DF; stop-opacity: 1"/>
   <stop offset="100%" style="stop-color: #9269F4; stop-opacity: 1"/>
  </linearGradient>
  <linearGradient id="cyberneon" x1="0%" x2="0%" y1="0%" y2="100%">
    <stop offset="0" style="stop-color: #0abdc6; stop-opacity: 1"/>
    <stop offset="1" style="stop-color: #ea00d9; stop-opacity: 1"/>
  </linearGradient>
  <linearGradient id="fitdance" x1="0%" x2="0%" y1="0%" y2="100%">
   <stop offset="0%" style="stop-color: #1AD6AB; stop-opacity: 1"/>
   <stop offset="100%" style="stop-color: #329DB6; stop-opacity: 1"/>
  </linearGradient>
  <linearGradient id="oomox" x1="0%" x2="0%" y1="0%" y2="100%">
   <stop offset="0%" style="stop-color: #efefe7; stop-opacity: 1"/>
   <stop offset="100%" style="stop-color: #8f8f8b; stop-opacity: 1"/>
  </linearGradient>
  <linearGradient id="rainblue" x1="0%" x2="0%" y1="0%" y2="100%">
   <stop offset="0%" style="stop-color: #00F260; stop-opacity: 1"/>
   <stop offset="100%" style="stop-color: #0575E6; stop-opacity: 1"/>
  </linearGradient>
  <linearGradient id="sunrise" x1="0%" x2="0%" y1="0%" y2="100%">
   <stop offset="0%" style="stop-color: #FF8501; stop-opacity: 1"/>
   <stop offset="100%" style="stop-color: #FFCB01; stop-opacity: 1"/>
  </linearGradient>
  <linearGradient id="telinkrin" x1="0%" x2="0%" y1="0%" y2="100%">
   <stop offset="0%" style="stop-color: #b2ced6; stop-opacity: 1"/>
   <stop offset="100%" style="stop-color: #6da5b7; stop-opacity: 1"/>
  </linearGradient>
  <linearGradient id="60spsycho" x1="0%" x2="0%" y1="0%" y2="100%">
   <stop offset="0%" style="stop-color: #df5940; stop-opacity: 1"/>
   <stop offset="25%" style="stop-color: #d8d15f; stop-opacity: 1"/>
   <stop offset="50%" style="stop-color: #e9882a; stop-opacity: 1"/>
   <stop offset="100%" style="stop-color: #279362; stop-opacity: 1"/>
  </linearGradient>
  <linearGradient id="90ssummer" x1="0%" x2="0%" y1="0%" y2="100%">
   <stop offset="0%" style="stop-color: #f618c7; stop-opacity: 1"/>
   <stop offset="20%" style="stop-color: #94ffab; stop-opacity: 1"/>
   <stop offset="50%" style="stop-color: #fbfd54; stop-opacity: 1"/>
   <stop offset="100%" style="stop-color: #0f83ae; stop-opacity: 1"/>
  </linearGradient>
 </defs>
   <path fill="currentColor" class="ColorScheme-Text" d="M 6.48 8.891429 L 6.48 14.792454 L 6.48 14.792454 Q 7.485714 14.929158 8.445714 15.339267 L 8.445714 15.339267 L 8.445714 16 L 2.64 16 L 2.64 15.337143 L 2.64 15.337143 Q 3.028571 15.154286 3.44 15.017143 L 3.44 15.017143 L 3.44 15.017143 Q 3.851429 14.88 4.285714 14.788571 L 4.285714 14.788571 L 4.285714 1.234286 L 4.285714 1.234286 Q 3.782857 1.12 3.371429 0.971429 L 3.371429 0.971429 L 3.371429 0.971429 Q 2.96 0.822857 2.64 0.662857 L 2.64 0.662857 L 2.64 0 L 13.36 0 L 13.36 0 Q 13.337143 0.891429 13.28 1.828571 L 13.28 1.828571 L 13.28 1.828571 Q 13.222857 2.765714 13.108571 3.702857 L 13.108571 3.702857 L 12.514286 3.702857 L 11.577143 1.188571 L 6.48 1.188571 L 6.48 7.702857 L 10.434286 7.702857 L 11.371429 6.019928 L 11.897143 6.019928 L 11.897143 6.019928 Q 11.942857 6.544762 11.965714 7.12381 L 11.965714 7.12381 L 11.965714 7.12381 Q 11.988571 7.702857 11.988571 8.308796 L 11.988571 8.308796 L 11.988571 8.308796 Q 11.988571 8.936312 11.965714 9.527132 L 11.965714 9.527132 L 11.965714 9.527132 Q 11.942857 10.117951 11.897143 10.642843 L 11.897143 10.642843 L 11.371429 10.642843 L 10.434286 8.891429 L 6.48 8.891429 Z"/>
</svg>
