<svg xmlns="http://www.w3.org/2000/svg" width="16" height="16" version="1.1">
 <defs>
   <style id="current-color-scheme" type="text/css">
   .ColorScheme-Text { color: #E7E7E7; } .ColorScheme-Highlight { color: #5294e2; }
  </style>
  <linearGradient id="arrongin" x1="0%" x2="0%" y1="0%" y2="100%">
   <stop offset="0%" style="stop-color: #dd9b44; stop-opacity: 1"/>
   <stop offset="100%" style="stop-color: #ad6c16; stop-opacity: 1"/>
  </linearGradient>
  <linearGradient id="aurora" x1="0%" x2="0%" y1="0%" y2="100%">
   <stop offset="0%" style="stop-color: #09D4DF; stop-opacity: 1"/>
   <stop offset="100%" style="stop-color: #9269F4; stop-opacity: 1"/>
  </linearGradient>
  <linearGradient id="cyberneon" x1="0%" x2="0%" y1="0%" y2="100%">
    <stop offset="0" style="stop-color: #0abdc6; stop-opacity: 1"/>
    <stop offset="1" style="stop-color: #ea00d9; stop-opacity: 1"/>
  </linearGradient>
  <linearGradient id="fitdance" x1="0%" x2="0%" y1="0%" y2="100%">
   <stop offset="0%" style="stop-color: #1AD6AB; stop-opacity: 1"/>
   <stop offset="100%" style="stop-color: #329DB6; stop-opacity: 1"/>
  </linearGradient>
  <linearGradient id="oomox" x1="0%" x2="0%" y1="0%" y2="100%">
   <stop offset="0%" style="stop-color: #efefe7; stop-opacity: 1"/>
   <stop offset="100%" style="stop-color: #8f8f8b; stop-opacity: 1"/>
  </linearGradient>
  <linearGradient id="rainblue" x1="0%" x2="0%" y1="0%" y2="100%">
   <stop offset="0%" style="stop-color: #00F260; stop-opacity: 1"/>
   <stop offset="100%" style="stop-color: #0575E6; stop-opacity: 1"/>
  </linearGradient>
  <linearGradient id="sunrise" x1="0%" x2="0%" y1="0%" y2="100%">
   <stop offset="0%" style="stop-color: #FF8501; stop-opacity: 1"/>
   <stop offset="100%" style="stop-color: #FFCB01; stop-opacity: 1"/>
  </linearGradient>
  <linearGradient id="telinkrin" x1="0%" x2="0%" y1="0%" y2="100%">
   <stop offset="0%" style="stop-color: #b2ced6; stop-opacity: 1"/>
   <stop offset="100%" style="stop-color: #6da5b7; stop-opacity: 1"/>
  </linearGradient>
  <linearGradient id="60spsycho" x1="0%" x2="0%" y1="0%" y2="100%">
   <stop offset="0%" style="stop-color: #df5940; stop-opacity: 1"/>
   <stop offset="25%" style="stop-color: #d8d15f; stop-opacity: 1"/>
   <stop offset="50%" style="stop-color: #e9882a; stop-opacity: 1"/>
   <stop offset="100%" style="stop-color: #279362; stop-opacity: 1"/>
  </linearGradient>
  <linearGradient id="90ssummer" x1="0%" x2="0%" y1="0%" y2="100%">
   <stop offset="0%" style="stop-color: #f618c7; stop-opacity: 1"/>
   <stop offset="20%" style="stop-color: #94ffab; stop-opacity: 1"/>
   <stop offset="50%" style="stop-color: #fbfd54; stop-opacity: 1"/>
   <stop offset="100%" style="stop-color: #0f83ae; stop-opacity: 1"/>
  </linearGradient>
 </defs>
    <path fill="currentColor" class="ColorScheme-Text st0" d="M 1.855763 6.687339 L 0.987804 7.819122 L 2.414099 8.604651 L 2.414099 2.702843 L 13.585901 2.702843 L 13.585901 8.604651 L 15.012195 7.819122 L 14.144238 6.687339 L 14.144238 2.418605 C 14.144238 2.263566 14.017343 2.134367 13.865069 2.134367 L 10.662249 2.134367 L 9.667395 0.832041 C 9.47959 0.589147 9.256256 0.397933 9.012619 0.263565 C 8.804512 0.144703 8.576101 0.067184 8.347691 0.031007 C 8.230949 0.010336 8.114205 0 7.997462 0 C 7.956855 0 7.921326 0 7.880718 0.005167 C 7.565825 0.020501 7.258535 0.108882 6.982305 0.263565 C 6.946774 0.284238 6.911245 0.304909 6.88079 0.325582 C 6.814804 0.366925 6.748819 0.418604 6.682834 0.470284 C 6.586393 0.547803 6.49503 0.635659 6.413817 0.73385 C 6.383362 0.764858 6.357983 0.801034 6.332604 0.832041 L 5.337751 2.134367 L 2.134931 2.134367 C 1.982658 2.134367 1.855763 2.263566 1.855763 2.418605 L 1.855763 6.687339 L 1.855763 6.687339 Z M 15.2 8.423772 L 8.642086 12.036177 L 15.2 15.648579 L 15.2 8.423772 Z M 7.357913 12.036177 L 0.8 8.423772 L 0.8 15.648579 L 7.357913 12.036177 Z M 7.997462 12.387597 L 1.439548 16 L 14.560451 16 L 7.997462 12.387597 Z"/>
    <path fill="currentColor" class="ColorScheme-Text st1" d="M 4.358124 4.413437 L 11.580966 4.413437 C 11.707861 4.413437 11.809377 4.310077 11.809377 4.180878 C 11.809377 4.051679 11.707861 3.94832 11.580966 3.94832 L 4.358124 3.94832 C 4.23123 3.94832 4.129714 4.051679 4.129714 4.180878 C 4.129714 4.310077 4.236306 4.413437 4.358124 4.413437 Z M 4.358124 5.994831 L 11.580966 5.994831 C 11.707861 5.994831 11.809377 5.891472 11.809377 5.762274 C 11.809377 5.633075 11.707861 5.529716 11.580966 5.529716 L 4.358124 5.529716 C 4.23123 5.529716 4.129714 5.633075 4.129714 5.762274 C 4.129714 5.891472 4.236306 5.994831 4.358124 5.994831 Z M 4.358124 7.581395 L 11.580966 7.581395 C 11.707861 7.581395 11.809377 7.478036 11.809377 7.348837 C 11.809377 7.219638 11.707861 7.116279 11.580966 7.116279 L 4.358124 7.116279 C 4.23123 7.116279 4.129714 7.219638 4.129714 7.348837 C 4.129714 7.478036 4.236306 7.581395 4.358124 7.581395 Z M 4.358124 9.167959 L 11.580966 9.167959 C 11.707861 9.167959 11.809377 9.0646 11.809377 8.935401 C 11.809377 8.806202 11.707861 8.702843 11.580966 8.702843 L 4.358124 8.702843 C 4.23123 8.702843 4.129714 8.806202 4.129714 8.935401 C 4.129714 9.0646 4.236306 9.167959 4.358124 9.167959 Z"/>
</svg>
