<svg xmlns="http://www.w3.org/2000/svg" width="16" height="16" version="1.1">
 <defs>
  <style id="current-color-scheme" type="text/css">
   .ColorScheme-Text { color: #E7E7E7; } .ColorScheme-Highlight { color: #5294e2; }
  </style>
  <linearGradient id="arrongin" x1="0%" x2="0%" y1="0%" y2="100%">
   <stop id="stop3" offset="0%" style="stop-color: #dd9b44"/>
   <stop id="stop5" offset="100%" style="stop-color: #ad6c16"/>
  </linearGradient>
  <linearGradient id="aurora" x1="0%" x2="0%" y1="0%" y2="100%">
   <stop id="stop8" offset="0%" style="stop-color: #09D4DF"/>
   <stop id="stop10" offset="100%" style="stop-color: #9269F4"/>
  </linearGradient>
  <linearGradient id="cyberneon" x1="0%" x2="0%" y1="0%" y2="100%">
   <stop id="stop56" offset="0" style="stop-color: #0abdc6"/>
   <stop id="stop58" offset="1" style="stop-color: #ea00d9"/>
  </linearGradient>
  <linearGradient id="fitdance" x1="0%" x2="0%" y1="0%" y2="100%">
   <stop id="stop13" offset="0%" style="stop-color: #1AD6AB"/>
   <stop id="stop15" offset="100%" style="stop-color: #329DB6"/>
  </linearGradient>
  <linearGradient id="oomox" x1="0%" x2="0%" y1="0%" y2="100%">
   <stop id="stop18" offset="0%" style="stop-color: #efefe7"/>
   <stop id="stop20" offset="100%" style="stop-color: #8f8f8b"/>
  </linearGradient>
  <linearGradient id="rainblue" x1="0%" x2="0%" y1="0%" y2="100%">
   <stop id="stop23" offset="0%" style="stop-color: #00F260"/>
   <stop id="stop25" offset="100%" style="stop-color: #0575E6"/>
  </linearGradient>
  <linearGradient id="sunrise" x1="0%" x2="0%" y1="0%" y2="100%">
   <stop id="stop28" offset="0%" style="stop-color: #FF8501"/>
   <stop id="stop30" offset="100%" style="stop-color: #FFCB01"/>
  </linearGradient>
  <linearGradient id="telinkrin" x1="0%" x2="0%" y1="0%" y2="100%">
   <stop id="stop33" offset="0%" style="stop-color: #b2ced6"/>
   <stop id="stop35" offset="100%" style="stop-color: #6da5b7"/>
  </linearGradient>
  <linearGradient id="60spsycho" x1="0%" x2="0%" y1="0%" y2="100%">
   <stop id="stop38" offset="0%" style="stop-color: #df5940"/>
   <stop id="stop40" offset="25%" style="stop-color: #d8d15f"/>
   <stop id="stop42" offset="50%" style="stop-color: #e9882a"/>
   <stop id="stop44" offset="100%" style="stop-color: #279362"/>
  </linearGradient>
  <linearGradient id="90ssummer" x1="0%" x2="0%" y1="0%" y2="100%">
   <stop id="stop47" offset="0%" style="stop-color: #f618c7"/>
   <stop id="stop49" offset="20%" style="stop-color: #94ffab"/>
   <stop id="stop51" offset="50%" style="stop-color: #fbfd54"/>
   <stop id="stop53" offset="100%" style="stop-color: #0f83ae"/>
  </linearGradient>
 </defs>
    <path fill="currentColor" class="ColorScheme-Text" fill-rule="evenodd" d="M 4.307692 0 C 3.969231 0 3.692308 0.276923 3.692308 0.615385 L 3.692308 2.461538 C 3.692308 2.8 3.969231 3.076923 4.307692 3.076923 C 4.646154 3.076923 4.923077 2.8 4.923077 2.461538 L 4.923077 0.615385 C 4.923077 0.276923 4.646154 0 4.307692 0 L 4.307692 0 L 4.307692 0 Z M 11.692308 0 C 11.353847 0 11.076923 0.276923 11.076923 0.615385 L 11.076923 2.461538 C 11.076923 2.8 11.353847 3.076923 11.692308 3.076923 C 12.030769 3.076923 12.307692 2.8 12.307692 2.461538 L 12.307692 0.615385 C 12.307692 0.276923 12.030769 0 11.692308 0 L 11.692308 0 L 11.692308 0 Z M 1.230769 5.538461 L 14.769232 5.538461 L 14.769232 14.153846 C 14.769232 14.492307 14.492307 14.769232 14.153846 14.769232 L 1.846154 14.769232 C 1.507693 14.769232 1.230769 14.492307 1.230769 14.153846 L 1.230769 5.538461 L 1.230769 5.538461 L 1.230769 5.538461 Z M 1.846154 1.230769 C 0.826551 1.230769 0 2.057321 0 3.076923 L 0 14.153846 C 0 15.173449 0.826551 16 1.846154 16 L 14.153846 16 C 15.173449 16 16 15.173449 16 14.153846 L 16 3.076923 C 16 2.057321 15.173449 1.230769 14.153846 1.230769 L 12.923078 1.230769 L 12.923078 2.461539 C 12.923078 3.141273 12.372044 3.692307 11.692307 3.692307 C 11.012571 3.692307 10.461539 3.141273 10.461539 2.461539 L 10.461539 1.230769 L 5.538461 1.230769 L 5.538461 2.461539 C 5.538461 3.141273 4.987428 3.692307 4.307693 3.692307 C 3.627957 3.692307 3.076923 3.141273 3.076923 2.461539 L 3.076923 1.230769 L 1.846154 1.230769 L 1.846154 1.230769 L 1.846154 1.230769 Z M 7.448638 13.110838 L 3.636364 13.110838 L 3.636364 13.110838 Q 3.636364 11.11787 5.589761 10.057097 L 5.589761 10.057097 L 5.589761 10.057097 Q 5.991467 9.84012 6.219888 9.61109 L 6.219888 9.61109 L 6.219888 9.61109 Q 6.44831 9.382059 6.44831 9.052576 L 6.44831 9.052576 L 6.44831 9.052576 Q 6.44831 8.723094 6.21595 8.514153 L 6.21595 8.514153 L 6.21595 8.514153 Q 5.983591 8.305213 5.605514 8.305213 L 5.605514 8.305213 L 5.605514 8.305213 Q 4.865113 8.305213 4.573679 8.996324 L 4.573679 8.996324 L 3.723006 8.602552 L 3.723006 8.602552 Q 3.943551 8.048056 4.447653 7.718574 L 4.447653 7.718574 L 4.447653 7.718574 Q 4.951756 7.389091 5.597637 7.389091 L 5.597637 7.389091 L 5.597637 7.389091 Q 6.42468 7.389091 6.913029 7.855188 L 6.913029 7.855188 L 6.913029 7.855188 Q 7.401378 8.321286 7.401378 9.052576 L 7.401378 9.052576 L 7.401378 9.052576 Q 7.401378 9.711542 7.074499 10.09326 L 7.074499 10.09326 L 7.074499 10.09326 Q 6.747621 10.474978 6.062356 10.860713 L 6.062356 10.860713 L 6.062356 10.860713 Q 5.487364 11.182159 5.180177 11.487534 L 5.180177 11.487534 L 5.180177 11.487534 Q 4.87299 11.792908 4.770594 12.178643 L 4.770594 12.178643 L 7.448638 12.178643 L 7.448638 13.110838 L 7.448638 13.110838 Z M 9.851001 9.406168 L 9.851001 9.406168 L 9.851001 9.406168 Q 10.063669 9.599036 10.41024 9.599036 L 10.41024 9.599036 L 10.41024 9.599036 Q 10.75681 9.599036 10.973417 9.406168 L 10.973417 9.406168 L 10.973417 9.406168 Q 11.190023 9.2133 11.190023 8.923998 L 11.190023 8.923998 L 11.190023 8.923998 Q 11.190023 8.634696 10.973417 8.453883 L 10.973417 8.453883 L 10.973417 8.453883 Q 10.75681 8.273069 10.41024 8.273069 L 10.41024 8.273069 L 10.41024 8.273069 Q 10.063669 8.273069 9.851001 8.453883 L 9.851001 8.453883 L 9.851001 8.453883 Q 9.638333 8.634696 9.638333 8.923998 L 9.638333 8.923998 L 9.638333 8.923998 Q 9.638333 9.2133 9.851001 9.406168 L 9.851001 9.406168 Z M 9.701346 12.066137 L 9.701346 12.066137 L 9.701346 12.066137 Q 9.977027 12.315258 10.41024 12.315258 L 10.41024 12.315258 L 10.41024 12.315258 Q 10.843453 12.315258 11.12701 12.06212 L 11.12701 12.06212 L 11.12701 12.06212 Q 11.410568 11.808981 11.410568 11.415209 L 11.410568 11.415209 L 11.410568 11.415209 Q 11.410568 11.029473 11.123072 10.76428 L 11.123072 10.76428 L 11.123072 10.76428 Q 10.835576 10.499085 10.41024 10.499085 L 10.41024 10.499085 L 10.41024 10.499085 Q 9.977027 10.499085 9.701346 10.760261 L 9.701346 10.760261 L 9.701346 10.760261 Q 9.425665 11.021437 9.425665 11.415209 L 9.425665 11.415209 L 9.425665 11.415209 Q 9.425665 11.817017 9.701346 12.066137 L 9.701346 12.066137 Z M 11.828028 12.717066 L 11.828028 12.717066 L 11.828028 12.717066 Q 11.292419 13.207273 10.41024 13.207273 L 10.41024 13.207273 L 10.41024 13.207273 Q 9.52806 13.207273 8.99639 12.717066 L 8.99639 12.717066 L 8.99639 12.717066 Q 8.46472 12.226861 8.46472 11.439316 L 8.46472 11.439316 L 8.46472 11.439316 Q 8.46472 10.474978 9.386282 10.032988 L 9.386282 10.032988 L 9.386282 10.032988 Q 8.693141 9.639216 8.693141 8.867745 L 8.693141 8.867745 L 8.693141 8.867745 Q 8.693141 8.216816 9.161798 7.802953 L 9.161798 7.802953 L 9.161798 7.802953 Q 9.630456 7.389091 10.41024 7.389091 L 10.41024 7.389091 L 10.41024 7.389091 Q 11.190023 7.389091 11.662619 7.802953 L 11.662619 7.802953 L 11.662619 7.802953 Q 12.135215 8.216816 12.135215 8.867745 L 12.135215 8.867745 L 12.135215 8.867745 Q 12.135215 9.63118 11.442074 10.024953 L 11.442074 10.024953 L 11.442074 10.024953 Q 11.867411 10.233892 12.115523 10.59552 L 12.115523 10.59552 L 12.115523 10.59552 Q 12.363636 10.957148 12.363636 11.439316 L 12.363636 11.439316 L 12.363636 11.439316 Q 12.363636 12.226861 11.828028 12.717066 L 11.828028 12.717066 Z"/>
</svg>
