<svg xmlns="http://www.w3.org/2000/svg" style="isolation:isolate" width="16" height="16" viewBox="0 0 16 16">
 <defs>
  <style id="current-color-scheme" type="text/css">
   .ColorScheme-Text { color:#e3e9e9; } .ColorScheme-Highlight { color:#5294e2; }
  </style>
  <linearGradient id="arrongin" x1="0%" x2="0%" y1="0%" y2="100%">
   <stop offset="0%" style="stop-color:#dd9b44; stop-opacity:1"/>
   <stop offset="100%" style="stop-color:#ad6c16; stop-opacity:1"/>
  </linearGradient>
  <linearGradient id="aurora" x1="0%" x2="0%" y1="0%" y2="100%">
   <stop offset="0%" style="stop-color:#09D4DF; stop-opacity:1"/>
   <stop offset="100%" style="stop-color:#9269F4; stop-opacity:1"/>
  </linearGradient>
  <linearGradient id="fitdance" x1="0%" x2="0%" y1="0%" y2="100%">
   <stop offset="0%" style="stop-color:#1AD6AB; stop-opacity:1"/>
   <stop offset="100%" style="stop-color:#329DB6; stop-opacity:1"/>
  </linearGradient>
  <linearGradient id="oomox" x1="0%" x2="0%" y1="0%" y2="100%">
   <stop offset="0%" style="stop-color:#efefe7; stop-opacity:1"/>
   <stop offset="100%" style="stop-color:#8f8f8b; stop-opacity:1"/>
  </linearGradient>
  <linearGradient id="rainblue" x1="0%" x2="0%" y1="0%" y2="100%">
   <stop offset="0%" style="stop-color:#00F260; stop-opacity:1"/>
   <stop offset="100%" style="stop-color:#0575E6; stop-opacity:1"/>
  </linearGradient>
  <linearGradient id="sunrise" x1="0%" x2="0%" y1="0%" y2="100%">
   <stop offset="0%" style="stop-color: #FF8501; stop-opacity:1"/>
   <stop offset="100%" style="stop-color: #FFCB01; stop-opacity:1"/>
  </linearGradient>
  <linearGradient id="telinkrin" x1="0%" x2="0%" y1="0%" y2="100%">
   <stop offset="0%" style="stop-color: #b2ced6; stop-opacity:1"/>
   <stop offset="100%" style="stop-color: #6da5b7; stop-opacity:1"/>
  </linearGradient>
  <linearGradient id="60spsycho" x1="0%" x2="0%" y1="0%" y2="100%">
   <stop offset="0%" style="stop-color: #df5940; stop-opacity:1"/>
   <stop offset="25%" style="stop-color: #d8d15f; stop-opacity:1"/>
   <stop offset="50%" style="stop-color: #e9882a; stop-opacity:1"/>
   <stop offset="100%" style="stop-color: #279362; stop-opacity:1"/>
  </linearGradient>
  <linearGradient id="90ssummer" x1="0%" x2="0%" y1="0%" y2="100%">
   <stop offset="0%" style="stop-color: #f618c7; stop-opacity:1"/>
   <stop offset="20%" style="stop-color: #94ffab; stop-opacity:1"/>
   <stop offset="50%" style="stop-color: #fbfd54; stop-opacity:1"/>
   <stop offset="100%" style="stop-color: #0f83ae; stop-opacity:1"/>
  </linearGradient>
 </defs>
 <path style="fill:currentColor" class="ColorScheme-Text" d="M 0 0 L 0 1.28 L 1.28 1.28 L 1.28 0 L 0 0 Z M 1.92 0 L 1.92 1.28 L 3.2 1.28 L 3.2 0 L 1.92 0 Z M 3.84 0 L 3.84 1.28 L 5.12 1.28 L 5.12 0 L 3.84 0 Z M 5.76 0 L 5.76 1.28 L 7.04 1.28 L 7.04 0 L 5.76 0 Z M 7.68 0 L 7.68 1.28 L 8.96 1.28 L 8.96 0 L 7.68 0 Z M 9.6 0 L 9.6 1.28 L 10.88 1.28 L 10.88 0 L 9.6 0 Z M 12.8 0 L 12.8 1.28 L 14.08 1.28 L 14.08 0 L 12.8 0 Z M 14.72 0 L 14.72 1.28 L 16 1.28 L 16 0 L 14.72 0 Z M 0 1.92 L 0 3.2 L 1.28 3.2 L 1.28 1.92 L 0 1.92 Z M 1.92 1.92 L 1.92 3.2 L 3.2 3.2 L 3.2 1.92 L 1.92 1.92 Z M 3.84 1.92 L 3.84 3.2 L 5.12 3.2 L 5.12 1.92 L 3.84 1.92 Z M 5.76 1.92 L 5.76 3.2 L 7.04 3.2 L 7.04 1.92 L 5.76 1.92 Z M 7.68 1.92 L 7.68 3.2 L 8.96 3.2 L 8.96 1.92 L 7.68 1.92 Z M 9.6 1.92 L 9.6 3.2 L 10.88 3.2 L 10.88 1.92 L 9.6 1.92 Z M 12.8 1.92 L 12.8 3.2 L 14.08 3.2 L 14.08 1.92 L 12.8 1.92 Z M 14.72 1.92 L 14.72 3.2 L 16 3.2 L 16 1.92 L 14.72 1.92 Z M 12.8 3.84 L 12.8 5.12 L 14.08 5.12 L 14.08 3.84 L 12.8 3.84 Z M 14.72 3.84 L 14.72 5.12 L 16 5.12 L 16 3.84 L 14.72 3.84 Z M 0 5.12 L 0 6.4 L 1.28 6.4 L 1.28 5.12 L 0 5.12 Z M 1.92 5.12 L 1.92 6.4 L 3.2 6.4 L 3.2 5.12 L 1.92 5.12 Z M 12.8 5.76 L 12.8 7.04 L 14.08 7.04 L 14.08 5.76 L 12.8 5.76 Z M 14.72 5.76 L 14.72 7.04 L 16 7.04 L 16 5.76 L 14.72 5.76 Z M 0 7.04 L 0 8.32 L 1.28 8.32 L 1.28 7.04 L 0 7.04 Z M 1.92 7.04 L 1.92 8.32 L 3.2 8.32 L 3.2 7.04 L 1.92 7.04 Z M 12.8 7.68 L 12.8 8.96 L 14.08 8.96 L 14.08 7.68 L 12.8 7.68 Z M 14.72 7.68 L 14.72 8.96 L 16 8.96 L 16 7.68 L 14.72 7.68 Z M 0 8.96 L 0 10.24 L 1.28 10.24 L 1.28 8.96 L 0 8.96 Z M 1.92 8.96 L 1.92 10.24 L 3.2 10.24 L 3.2 8.96 L 1.92 8.96 Z M 12.8 9.6 L 12.8 10.88 L 14.08 10.88 L 14.08 9.6 L 12.8 9.6 Z M 14.72 9.6 L 14.72 10.88 L 16 10.88 L 16 9.6 L 14.72 9.6 Z M 0 10.88 L 0 12.16 L 1.28 12.16 L 1.28 10.88 L 0 10.88 Z M 1.92 10.88 L 1.92 12.16 L 3.2 12.16 L 3.2 10.88 L 1.92 10.88 Z M 0 12.8 L 0 14.08 L 1.28 14.08 L 1.28 12.8 L 0 12.8 Z M 1.92 12.8 L 1.92 14.08 L 3.2 14.08 L 3.2 12.8 L 1.92 12.8 Z M 5.12 12.8 L 5.12 14.08 L 6.4 14.08 L 6.4 12.8 L 5.12 12.8 Z M 7.04 12.8 L 7.04 14.08 L 8.32 14.08 L 8.32 12.8 L 7.04 12.8 Z M 8.96 12.8 L 8.96 14.08 L 10.24 14.08 L 10.24 12.8 L 8.96 12.8 Z M 10.88 12.8 L 10.88 14.08 L 12.16 14.08 L 12.16 12.8 L 10.88 12.8 Z M 12.8 12.8 L 12.8 14.08 L 14.08 14.08 L 14.08 12.8 L 12.8 12.8 Z M 14.72 12.8 L 14.72 14.08 L 16 14.08 L 16 12.8 L 14.72 12.8 Z M 0 14.72 L 0 16 L 1.28 16 L 1.28 14.72 L 0 14.72 Z M 1.92 14.72 L 1.92 16 L 3.2 16 L 3.2 14.72 L 1.92 14.72 Z M 5.12 14.72 L 5.12 16 L 6.4 16 L 6.4 14.72 L 5.12 14.72 Z M 7.04 14.72 L 7.04 16 L 8.32 16 L 8.32 14.72 L 7.04 14.72 Z M 8.96 14.72 L 8.96 16 L 10.24 16 L 10.24 14.72 L 8.96 14.72 Z M 10.88 14.72 L 10.88 16 L 12.16 16 L 12.16 14.72 L 10.88 14.72 Z M 12.8 14.72 L 12.8 16 L 14.08 16 L 14.08 14.72 L 12.8 14.72 Z M 14.72 14.72 L 14.72 16 L 16 16 L 16 14.72 L 14.72 14.72 Z"/>
</svg>
