<svg xmlns="http://www.w3.org/2000/svg" width="16" height="16" version="1.1">
 <defs>
   <style id="current-color-scheme" type="text/css">
   .ColorScheme-Text { color: #e5112a; } .ColorScheme-Highlight { color:#5294e2; }
  </style>
  <linearGradient id="arrongin" x1="0%" x2="0%" y1="0%" y2="100%">
   <stop offset="0%" style="stop-color:#dd9b44; stop-opacity:1"/>
   <stop offset="100%" style="stop-color:#ad6c16; stop-opacity:1"/>
  </linearGradient>
  <linearGradient id="aurora" x1="0%" x2="0%" y1="0%" y2="100%">
   <stop offset="0%" style="stop-color:#09D4DF; stop-opacity:1"/>
   <stop offset="100%" style="stop-color:#9269F4; stop-opacity:1"/>
  </linearGradient>
  <linearGradient id="cyberneon" x1="0%" x2="0%" y1="0%" y2="100%">
    <stop offset="0" style="stop-color:#0abdc6; stop-opacity:1"/>
    <stop offset="1" style="stop-color:#ea00d9; stop-opacity:1"/>
  </linearGradient>
  <linearGradient id="fitdance" x1="0%" x2="0%" y1="0%" y2="100%">
   <stop offset="0%" style="stop-color:#1AD6AB; stop-opacity:1"/>
   <stop offset="100%" style="stop-color:#329DB6; stop-opacity:1"/>
  </linearGradient>
  <linearGradient id="oomox" x1="0%" x2="0%" y1="0%" y2="100%">
   <stop offset="0%" style="stop-color:#efefe7; stop-opacity:1"/>
   <stop offset="100%" style="stop-color:#8f8f8b; stop-opacity:1"/>
  </linearGradient>
  <linearGradient id="rainblue" x1="0%" x2="0%" y1="0%" y2="100%">
   <stop offset="0%" style="stop-color:#00F260; stop-opacity:1"/>
   <stop offset="100%" style="stop-color:#0575E6; stop-opacity:1"/>
  </linearGradient>
  <linearGradient id="sunrise" x1="0%" x2="0%" y1="0%" y2="100%">
   <stop offset="0%" style="stop-color: #FF8501; stop-opacity:1"/>
   <stop offset="100%" style="stop-color: #FFCB01; stop-opacity:1"/>
  </linearGradient>
  <linearGradient id="telinkrin" x1="0%" x2="0%" y1="0%" y2="100%">
   <stop offset="0%" style="stop-color: #b2ced6; stop-opacity:1"/>
   <stop offset="100%" style="stop-color: #6da5b7; stop-opacity:1"/>
  </linearGradient>
  <linearGradient id="60spsycho" x1="0%" x2="0%" y1="0%" y2="100%">
   <stop offset="0%" style="stop-color: #df5940; stop-opacity:1"/>
   <stop offset="25%" style="stop-color: #d8d15f; stop-opacity:1"/>
   <stop offset="50%" style="stop-color: #e9882a; stop-opacity:1"/>
   <stop offset="100%" style="stop-color: #279362; stop-opacity:1"/>
  </linearGradient>
  <linearGradient id="90ssummer" x1="0%" x2="0%" y1="0%" y2="100%">
   <stop offset="0%" style="stop-color: #f618c7; stop-opacity:1"/>
   <stop offset="20%" style="stop-color: #94ffab; stop-opacity:1"/>
   <stop offset="50%" style="stop-color: #fbfd54; stop-opacity:1"/>
   <stop offset="100%" style="stop-color: #0f83ae; stop-opacity:1"/>
  </linearGradient>
 </defs>
 <rect fill="currentColor" class="ColorScheme-Text" width="4.625" height="3.594" x="16.38" y="0" transform="matrix(1,0,0,1,0,0)"/>
 <path fill="currentColor" class="ColorScheme-Text" d="M 4.854 0.312 C 4.694 0.333 4.549 0.416 4.45 0.543 L 2.355 3.175 L 0.971 2.253 C 0.786 2.128 0.548 2.112 0.348 2.211 C 0.147 2.31 0.015 2.509 0.001 2.732 C -0.013 2.954 0.094 3.168 0.28 3.291 L 2.125 4.521 C 2.393 4.699 2.754 4.641 2.951 4.386 L 5.411 1.311 C 5.572 1.116 5.596 0.842 5.473 0.622 C 5.35 0.401 5.104 0.278 4.854 0.312 Z M 7.39 2.157 L 7.39 3.387 L 16 3.387 L 16 2.157 L 7.39 2.157 Z M 4.854 5.847 C 4.694 5.868 4.549 5.951 4.45 6.077 L 2.355 8.71 L 0.971 7.788 C 0.685 7.597 0.297 7.674 0.106 7.961 C -0.085 8.247 -0.007 8.635 0.279 8.826 L 2.124 10.056 C 2.393 10.234 2.753 10.175 2.951 9.921 L 5.411 6.846 C 5.571 6.651 5.595 6.377 5.472 6.157 C 5.349 5.936 5.104 5.813 4.854 5.847 Z M 7.39 7.692 L 7.39 8.922 L 16 8.922 L 16 7.692 L 7.39 7.692 Z M 4.854 11.382 C 4.694 11.403 4.549 11.485 4.45 11.612 L 2.355 14.245 L 0.971 13.322 C 0.786 13.199 0.549 13.184 0.349 13.282 C 0.149 13.381 0.017 13.579 0.003 13.801 C -0.011 14.024 0.094 14.237 0.279 14.36 L 2.124 15.59 C 2.393 15.769 2.753 15.71 2.951 15.456 L 5.411 12.381 C 5.571 12.186 5.595 11.912 5.472 11.692 C 5.349 11.471 5.104 11.348 4.854 11.382 Z M 7.39 13.226 L 7.39 14.456 L 16 14.456 L 16 13.226 L 7.39 13.226 Z"/>
</svg>
