<svg xmlns="http://www.w3.org/2000/svg" width="16" height="16" version="1.1">
 <defs>
   <style id="current-color-scheme" type="text/css">
   .ColorScheme-Text { color: #e5112a; } .ColorScheme-Highlight { color:#5294e2; }
  </style>
  <linearGradient id="arrongin" x1="0%" x2="0%" y1="0%" y2="100%">
   <stop offset="0%" style="stop-color:#dd9b44; stop-opacity:1"/>
   <stop offset="100%" style="stop-color:#ad6c16; stop-opacity:1"/>
  </linearGradient>
  <linearGradient id="aurora" x1="0%" x2="0%" y1="0%" y2="100%">
   <stop offset="0%" style="stop-color:#09D4DF; stop-opacity:1"/>
   <stop offset="100%" style="stop-color:#9269F4; stop-opacity:1"/>
  </linearGradient>
  <linearGradient id="cyberneon" x1="0%" x2="0%" y1="0%" y2="100%">
    <stop offset="0" style="stop-color:#0abdc6; stop-opacity:1"/>
    <stop offset="1" style="stop-color:#ea00d9; stop-opacity:1"/>
  </linearGradient>
  <linearGradient id="fitdance" x1="0%" x2="0%" y1="0%" y2="100%">
   <stop offset="0%" style="stop-color:#1AD6AB; stop-opacity:1"/>
   <stop offset="100%" style="stop-color:#329DB6; stop-opacity:1"/>
  </linearGradient>
  <linearGradient id="oomox" x1="0%" x2="0%" y1="0%" y2="100%">
   <stop offset="0%" style="stop-color:#efefe7; stop-opacity:1"/>
   <stop offset="100%" style="stop-color:#8f8f8b; stop-opacity:1"/>
  </linearGradient>
  <linearGradient id="rainblue" x1="0%" x2="0%" y1="0%" y2="100%">
   <stop offset="0%" style="stop-color:#00F260; stop-opacity:1"/>
   <stop offset="100%" style="stop-color:#0575E6; stop-opacity:1"/>
  </linearGradient>
  <linearGradient id="sunrise" x1="0%" x2="0%" y1="0%" y2="100%">
   <stop offset="0%" style="stop-color: #FF8501; stop-opacity:1"/>
   <stop offset="100%" style="stop-color: #FFCB01; stop-opacity:1"/>
  </linearGradient>
  <linearGradient id="telinkrin" x1="0%" x2="0%" y1="0%" y2="100%">
   <stop offset="0%" style="stop-color: #b2ced6; stop-opacity:1"/>
   <stop offset="100%" style="stop-color: #6da5b7; stop-opacity:1"/>
  </linearGradient>
  <linearGradient id="60spsycho" x1="0%" x2="0%" y1="0%" y2="100%">
   <stop offset="0%" style="stop-color: #df5940; stop-opacity:1"/>
   <stop offset="25%" style="stop-color: #d8d15f; stop-opacity:1"/>
   <stop offset="50%" style="stop-color: #e9882a; stop-opacity:1"/>
   <stop offset="100%" style="stop-color: #279362; stop-opacity:1"/>
  </linearGradient>
  <linearGradient id="90ssummer" x1="0%" x2="0%" y1="0%" y2="100%">
   <stop offset="0%" style="stop-color: #f618c7; stop-opacity:1"/>
   <stop offset="20%" style="stop-color: #94ffab; stop-opacity:1"/>
   <stop offset="50%" style="stop-color: #fbfd54; stop-opacity:1"/>
   <stop offset="100%" style="stop-color: #0f83ae; stop-opacity:1"/>
  </linearGradient>
 </defs>
 <path fill="currentColor" class="ColorScheme-Text" d="M 3.1354289,15.409468 C 2.5944234,15.214437 1.6036684,14.639759 1.1472569,14.256339 0.33912003,13.577473 -0.25544033,12.665047 0.11030827,12.665047 c 0.0603429,0 0.47978322,0.295145 0.93205753,0.655679 1.4868005,1.185457 2.6534288,1.603342 3.7169832,1.331424 1.2093833,-0.309001 3.0136915,-1.430585 3.4552229,-2.147368 0.2830068,-0.459444 0.2753484,-0.748207 -0.025614,-0.963085 -0.2321494,-0.165994 -0.2112475,-0.172496 0.459417,-0.148656 l 0.7026402,0.02599 0.03097,0.379647 c 0.021813,0.267403 -0.097944,0.646368 -0.4053598,1.282501 -0.2399892,0.496578 -0.4363428,0.989082 -0.4363428,1.094483 0,0.236199 -0.7810401,0.675746 -1.6755309,0.943068 -0.6854517,0.204995 -2.5296463,0.271306 -3.1267094,0.112677 -0.278752,-0.07415 -0.2995675,-0.06411 -0.1759316,0.08539 0.1187765,0.143448 0.1092564,0.168151 -0.06217,0.160786 -0.1113125,-0.004 -0.2753699,-0.03472 -0.3645495,-0.06672 z M 7.5386407,15.12863 c 1.3440459,-0.561032 2.2031088,-1.186681 2.7836693,-2.027196 0.286916,-0.415628 0.309498,-0.734301 0.03235,-0.456153 -0.289979,0.290811 -0.4089845,0.139124 -0.4089845,-0.522404 0,-0.857903 -0.2245604,-1.115513 -0.8929036,-1.024329 l -0.4583198,0.06241 0.5404915,-0.287339 c 0.2972696,-0.158188 0.6134629,-0.351042 0.7026399,-0.428189 0.08915,-0.07756 0.3672585,-0.244436 0.6179545,-0.370988 0.542732,-0.2739049 0.679223,-0.4956652 0.679223,-1.1042767 0,-0.7729602 -0.227609,-1.308849 -0.814582,-1.9177716 C 9.9985205,6.7186878 9.8384175,6.482961 9.9334485,6.482961 c 0.08914,0 0.4169495,0.263941 0.7283665,0.5865579 0.448285,0.4643801 0.612788,0.7378429 0.789828,1.3129627 0.262425,0.8524354 0.292514,2.0764714 0.07395,3.0083024 -0.08046,0.343245 -0.129886,0.623651 -0.109831,0.623651 0.02,0 0.108915,-0.134348 0.197667,-0.298165 0.08869,-0.163827 0.163224,-0.23967 0.1656,-0.168593 0.0069,0.199356 -0.487086,1.083136 -0.940035,1.682516 -0.790492,1.045992 -2.4621492,2.069147 -3.5959661,2.200897 L 6.6486832,15.5 Z M 6.3783779,10.813296 C 5.3292694,10.338471 4.2763206,8.9155911 4.1559432,7.8101411 L 4.0999412,7.2963561 4.4457486,7.9945065 C 5.1019999,9.319389 6.0925373,10.013205 6.8652919,9.6892436 7.1951216,9.5509921 7.5674176,9.1541775 7.5674176,8.9408655 c 0,-0.053278 -0.1198996,-0.017358 -0.2664459,0.078462 C 6.8726756,9.3010277 6.3039775,9.2451211 5.9463888,8.8862733 5.1774631,8.1147479 5.3421831,6.7706212 6.3267303,5.7827938 6.8899305,5.2176875 7.3081247,5.0421716 8.2207304,4.9878202 8.8949477,4.9487899 9.1327651,4.97879 9.5937707,5.1798111 10.668915,5.6438902 11.746275,7.1328503 11.862378,8.3151468 l 0.04903,0.4996178 -0.371806,-0.7592143 C 11.063647,7.083616 10.70759,6.6657812 10.106676,6.3739371 9.5086635,6.0835678 9.0857836,6.1542136 8.7053376,6.6075368 8.3574396,7.0222913 8.354092,7.2098273 8.6984676,6.9832911 9.1267637,6.7015807 9.6954734,6.7574873 10.053052,7.1163452 11.125497,8.192367 10.286674,10.311611 8.5510163,10.911132 7.9713931,11.111351 6.9336103,11.064545 6.3781587,10.813206 Z M 8.7937265,10.461813 C 9.0112243,10.295387 9.2620809,10.01771 9.3512008,9.8447928 9.6841621,9.1987764 9.4620598,8.1027679 8.9661857,7.9448407 8.6651452,7.8490209 8.4005286,8.1034602 7.8917626,8.9773071 7.3483119,9.9109235 7.1416715,10.082717 6.4858888,10.145948 c -0.4718402,0.04555 -0.5252918,0.07415 -0.4065044,0.217566 0.2658844,0.321584 0.7688346,0.460959 1.5521713,0.430357 0.6464,-0.02599 0.8288,-0.07716 1.1621717,-0.33241 z M 7.5364119,7.8656163 C 7.6589722,7.7312578 7.9103648,7.3497042 8.0950749,7.0174652 8.575738,6.1528491 8.8609952,5.9193296 9.5136696,5.8564497 10.036882,5.8061819 10.053556,5.7944427 9.8824695,5.6050806 9.6063782,5.2991093 9.0198636,5.1530517 8.260572,5.2015938 7.4955433,5.2505572 7.1357037,5.4494912 6.7297038,6.047969 6.0786522,7.0077527 6.8116488,8.6595063 7.5364119,7.8657869 Z M 5.4594977,9.0741705 C 4.5011204,8.1878018 4.0998978,6.7175139 4.3823663,5.1269646 4.5760898,4.0361134 4.5758739,4.0104577 4.3754963,4.2656797 4.2305482,4.4498745 4.2311745,4.4221319 4.3800763,4.0424846 4.9382824,2.6228659 6.643494,1.1385814 8.2426706,0.68035182 9.1108882,0.43158142 9.5456424,0.50959182 8.7564994,0.77265994 7.3724077,1.2339196 5.9363166,2.3023159 5.4620878,3.2235811 L 5.2695047,3.5975996 5.5498722,3.4134048 c 0.4427771,-0.2912422 0.5041713,-0.2344627 0.5041713,0.466457 0,0.8605425 0.2251217,1.1175905 0.8929146,1.019473 L 7.4052775,4.8322108 6.9188324,5.0965732 C 6.0278378,5.5806792 5.1368091,6.1596016 5.0000891,6.3431844 4.8276303,6.5746169 4.8265116,7.3591959 4.9977991,7.9348273 5.0788281,8.2069958 5.3446561,8.6032485 5.6795361,8.9506481 6.3271705,9.6225409 6.1560732,9.7189327 5.4594466,9.0746019 Z M 6.6666409,4.5665841 C 6.4916121,4.3910582 6.6290619,3.75649 7.0269747,2.9035228 7.2635127,2.3964602 7.4575558,1.9039462 7.4581951,1.8090394 7.4593351,1.592336 8.284561,1.1386215 9.1348926,0.88682101 9.8297615,0.68096386 11.412025,0.62158565 12.155111,0.77327198 c 0.380959,0.0775589 0.410915,0.0689301 0.284035,-0.084482 -0.477841,-0.57770839 1.493257,0.28430903 2.408834,1.05344642 0.812149,0.6822473 1.408126,1.5950643 1.041429,1.5950643 -0.06034,0 -0.485989,-0.300774 -0.945863,-0.66808 -0.93536,-0.7473848 -1.602423,-1.3686486 -2.591772,-1.552412 -0.728846,-0.13522137 -1.51968,0.066723 -2.190834,0.382256 -1.0608242,0.4989154 -2.6778985,1.6231782 -2.6778985,2.2841545 0,0.1031443 0.1908812,0.5129121 0.321005,0.6345682 L 8.0406277,4.6388152 H 7.3896694 c -0.3580358,0 -0.6833944,-0.034716 -0.7230285,-0.072342 z"/>
</svg>
