<svg xmlns="http://www.w3.org/2000/svg" width="16" height="16" version="1.1">
 <defs>
   <style id="current-color-scheme" type="text/css">
   .ColorScheme-Text { color: #e5112a; } .ColorScheme-Highlight { color:#5294e2; }
  </style>
  <linearGradient id="arrongin" x1="0%" x2="0%" y1="0%" y2="100%">
   <stop offset="0%" style="stop-color:#dd9b44; stop-opacity:1"/>
   <stop offset="100%" style="stop-color:#ad6c16; stop-opacity:1"/>
  </linearGradient>
  <linearGradient id="aurora" x1="0%" x2="0%" y1="0%" y2="100%">
   <stop offset="0%" style="stop-color:#09D4DF; stop-opacity:1"/>
   <stop offset="100%" style="stop-color:#9269F4; stop-opacity:1"/>
  </linearGradient>
  <linearGradient id="cyberneon" x1="0%" x2="0%" y1="0%" y2="100%">
    <stop offset="0" style="stop-color:#0abdc6; stop-opacity:1"/>
    <stop offset="1" style="stop-color:#ea00d9; stop-opacity:1"/>
  </linearGradient>
  <linearGradient id="fitdance" x1="0%" x2="0%" y1="0%" y2="100%">
   <stop offset="0%" style="stop-color:#1AD6AB; stop-opacity:1"/>
   <stop offset="100%" style="stop-color:#329DB6; stop-opacity:1"/>
  </linearGradient>
  <linearGradient id="oomox" x1="0%" x2="0%" y1="0%" y2="100%">
   <stop offset="0%" style="stop-color:#efefe7; stop-opacity:1"/>
   <stop offset="100%" style="stop-color:#8f8f8b; stop-opacity:1"/>
  </linearGradient>
  <linearGradient id="rainblue" x1="0%" x2="0%" y1="0%" y2="100%">
   <stop offset="0%" style="stop-color:#00F260; stop-opacity:1"/>
   <stop offset="100%" style="stop-color:#0575E6; stop-opacity:1"/>
  </linearGradient>
  <linearGradient id="sunrise" x1="0%" x2="0%" y1="0%" y2="100%">
   <stop offset="0%" style="stop-color: #FF8501; stop-opacity:1"/>
   <stop offset="100%" style="stop-color: #FFCB01; stop-opacity:1"/>
  </linearGradient>
  <linearGradient id="telinkrin" x1="0%" x2="0%" y1="0%" y2="100%">
   <stop offset="0%" style="stop-color: #b2ced6; stop-opacity:1"/>
   <stop offset="100%" style="stop-color: #6da5b7; stop-opacity:1"/>
  </linearGradient>
  <linearGradient id="60spsycho" x1="0%" x2="0%" y1="0%" y2="100%">
   <stop offset="0%" style="stop-color: #df5940; stop-opacity:1"/>
   <stop offset="25%" style="stop-color: #d8d15f; stop-opacity:1"/>
   <stop offset="50%" style="stop-color: #e9882a; stop-opacity:1"/>
   <stop offset="100%" style="stop-color: #279362; stop-opacity:1"/>
  </linearGradient>
  <linearGradient id="90ssummer" x1="0%" x2="0%" y1="0%" y2="100%">
   <stop offset="0%" style="stop-color: #f618c7; stop-opacity:1"/>
   <stop offset="20%" style="stop-color: #94ffab; stop-opacity:1"/>
   <stop offset="50%" style="stop-color: #fbfd54; stop-opacity:1"/>
   <stop offset="100%" style="stop-color: #0f83ae; stop-opacity:1"/>
  </linearGradient>
 </defs>
 <path fill="currentColor" class="ColorScheme-Text" fill-rule="evenodd" d="M 14.35 8.581 L 13.03 8.581 L 13.03 13.531 L 11.38 13.531 L 11.38 8.581 L 11.38 8.581 L 11.38 6.931 L 11.38 6.931 L 11.38 2.31 L 11.38 2.31 L 13.03 2.31 L 13.03 6.931 L 13.03 6.931 L 13.03 6.931 L 14.35 6.931 L 14.35 2.31 L 16 2.31 L 16 13.531 L 14.35 13.531 L 14.35 8.581 Z M 7.261 12.04 L 7.261 8.581 L 7.261 8.581 L 7.261 8.581 L 7.261 8.581 L 10.39 8.581 L 10.39 6.931 L 7.261 6.931 L 7.261 3.96 L 10.39 3.96 L 10.39 2.31 L 5.769 2.31 L 5.769 2.469 L 5.769 2.469 L 5.61 2.469 L 5.61 2.469 L 5.61 13.69 L 5.61 13.69 L 5.61 13.69 L 10.231 13.69 L 10.231 12.04 L 7.261 12.04 L 7.261 12.04 Z M 1.65 8.739 L 1.65 13.69 L 0 13.69 L 0 4.119 L 0 4.119 L 0 2.469 L 0 2.469 L 0 2.469 L 1.65 2.469 L 1.65 2.469 L 4.62 2.469 L 4.62 4.119 L 1.65 4.119 L 1.65 7.089 L 4.62 7.089 L 4.62 8.739 L 1.65 8.739 L 1.65 8.739 L 1.65 8.739 L 1.65 8.739 L 1.65 8.739 L 1.65 8.739 L 1.65 8.739 Z"/>
</svg>
