<svg xmlns="http://www.w3.org/2000/svg" width="16" height="16" version="1.1">
 <defs>
   <style id="current-color-scheme" type="text/css">
   .ColorScheme-Text { color: #e5112a; } .ColorScheme-Highlight { color:#5294e2; }
  </style>
  <linearGradient id="arrongin" x1="0%" x2="0%" y1="0%" y2="100%">
   <stop offset="0%" style="stop-color:#dd9b44; stop-opacity:1"/>
   <stop offset="100%" style="stop-color:#ad6c16; stop-opacity:1"/>
  </linearGradient>
  <linearGradient id="aurora" x1="0%" x2="0%" y1="0%" y2="100%">
   <stop offset="0%" style="stop-color:#09D4DF; stop-opacity:1"/>
   <stop offset="100%" style="stop-color:#9269F4; stop-opacity:1"/>
  </linearGradient>
  <linearGradient id="cyberneon" x1="0%" x2="0%" y1="0%" y2="100%">
    <stop offset="0" style="stop-color:#0abdc6; stop-opacity:1"/>
    <stop offset="1" style="stop-color:#ea00d9; stop-opacity:1"/>
  </linearGradient>
  <linearGradient id="fitdance" x1="0%" x2="0%" y1="0%" y2="100%">
   <stop offset="0%" style="stop-color:#1AD6AB; stop-opacity:1"/>
   <stop offset="100%" style="stop-color:#329DB6; stop-opacity:1"/>
  </linearGradient>
  <linearGradient id="oomox" x1="0%" x2="0%" y1="0%" y2="100%">
   <stop offset="0%" style="stop-color:#efefe7; stop-opacity:1"/>
   <stop offset="100%" style="stop-color:#8f8f8b; stop-opacity:1"/>
  </linearGradient>
  <linearGradient id="rainblue" x1="0%" x2="0%" y1="0%" y2="100%">
   <stop offset="0%" style="stop-color:#00F260; stop-opacity:1"/>
   <stop offset="100%" style="stop-color:#0575E6; stop-opacity:1"/>
  </linearGradient>
  <linearGradient id="sunrise" x1="0%" x2="0%" y1="0%" y2="100%">
   <stop offset="0%" style="stop-color: #FF8501; stop-opacity:1"/>
   <stop offset="100%" style="stop-color: #FFCB01; stop-opacity:1"/>
  </linearGradient>
  <linearGradient id="telinkrin" x1="0%" x2="0%" y1="0%" y2="100%">
   <stop offset="0%" style="stop-color: #b2ced6; stop-opacity:1"/>
   <stop offset="100%" style="stop-color: #6da5b7; stop-opacity:1"/>
  </linearGradient>
  <linearGradient id="60spsycho" x1="0%" x2="0%" y1="0%" y2="100%">
   <stop offset="0%" style="stop-color: #df5940; stop-opacity:1"/>
   <stop offset="25%" style="stop-color: #d8d15f; stop-opacity:1"/>
   <stop offset="50%" style="stop-color: #e9882a; stop-opacity:1"/>
   <stop offset="100%" style="stop-color: #279362; stop-opacity:1"/>
  </linearGradient>
  <linearGradient id="90ssummer" x1="0%" x2="0%" y1="0%" y2="100%">
   <stop offset="0%" style="stop-color: #f618c7; stop-opacity:1"/>
   <stop offset="20%" style="stop-color: #94ffab; stop-opacity:1"/>
   <stop offset="50%" style="stop-color: #fbfd54; stop-opacity:1"/>
   <stop offset="100%" style="stop-color: #0f83ae; stop-opacity:1"/>
  </linearGradient>
 </defs>
 <path fill="currentColor" class="ColorScheme-Text" d="m 7.9688212,-1.5e-5 c -0.56885,0 -0.93147,0.41791 -0.96829,0.96829 v 0.99953 0.12494 c 0.0521,0.50367 0.48267,0.90582 0.99952,0.90582 0.12922,0 0.2613,-0.0169 0.37482,-0.0625 0.34159,-0.13672 0.58564,-0.46559 0.62471,-0.84335 v -0.12494 -0.96829 c 0,-0.55161 -0.46191,-0.99953 -1.03071,-0.99953 z m -1.93658,2.34269 c -0.65827,0.23303 -1.2778,0.59993 -1.81164,1.03071 0.23101,0.16698 0.42477,0.36918 0.56223,0.6247 0.004,0.007 -0.004,0.0239 0,0.0312 0.0623,0.12031 0.12155,0.24088 0.15618,0.37482 0.003,0.01 -0.002,0.0216 0,0.0312 0.0326,0.13498 0.0625,0.29234 0.0625,0.4373 0,0.12722 -0.007,0.25485 -0.0312,0.37482 -0.0241,0.11996 -0.0791,0.23335 -0.12494,0.34358 -0.27502,0.66144 -0.90505,1.12447 -1.65541,1.12447 -0.35868,0 -0.6557,-0.0982 -0.93706,-0.28112 -0.0403,0.11403 -0.1,0.22139 -0.12494,0.34359 -0.002,0.009 0.002,0.0219 0,0.0312 -0.037,0.18551 -0.0743,0.37098 -0.0936,0.56223 -0.001,0.0108 9.9e-4,0.0204 0,0.0312 -0.0186,0.19183 -0.0313,0.39679 -0.0313,0.59347 0,0.0103 -5e-5,0.0209 0,0.0312 -5e-5,0.0103 0,0.0209 0,0.0312 0.002,0.18591 0.0128,0.38074 0.0312,0.56224 0.002,0.0208 -0.002,0.0417 0,0.0625 0.0202,0.18035 0.0579,0.35584 0.0937,0.53099 0.0333,0.1728 0.0761,0.33364 0.12494,0.49977 0.37081,-0.21501 0.79379,-0.29855 1.062,-0.31236 0.3621,-0.0186 0.70008,0.0872 0.96829,0.28112 0.2682,0.19401 0.46943,0.45014 0.59347,0.78088 0.0414,0.10913 0.0721,0.22442 0.0937,0.34359 0.025,0.12852 0.0312,0.23831 0.0312,0.37482 0,0.50631 -0.41468,1.17294 -0.71841,1.49929 0.12306,0.0961 0.24301,0.19299 0.37482,0.28111 0.15748,0.10529 0.30093,0.22194 0.46853,0.31235 0.23792,0.12925 0.49364,0.24699 0.74964,0.34359 0.0489,0.0183 0.10315,0.0226 0.15618,0.0312 -0.0141,-0.0688 -0.0312,-0.14694 -0.0312,-0.21865 0,-0.79433 0.89501,-1.43682 1.99905,-1.43682 1.10405,0 1.99905,0.64249 1.99905,1.43682 0,0.0717 -0.0172,0.14989 -0.0312,0.21865 0.3005098,-0.10337 0.5985898,-0.22657 0.8745798,-0.37483 0.21306,-0.11249 0.39677,-0.23845 0.59347,-0.37482 0.061,-0.0429 0.12815,-0.0799 0.18741,-0.12494 0.0468,-0.0352 0.0796,-0.0875 0.12494,-0.12494 -0.14231,-0.11087 -0.25021,-0.22392 -0.34359,-0.34359 -0.18953,-0.23698 -0.30026,-0.49498 -0.34358,-0.74964 -0.0222,-0.12752 -0.0312,-0.24824 -0.0312,-0.37482 0,-0.24245 0.0553,-0.4811 0.12494,-0.68717 0.003,-0.009 -0.003,-0.0222 0,-0.0312 0.0379,-0.10661 0.0703,-0.187 0.12494,-0.28112 0.0556,-0.0931 0.11632,-0.17091 0.18741,-0.24988 0.0743,-0.0874 0.15928,-0.14961 0.24989,-0.21864 0.16828,-0.12821 0.34631,-0.22632 0.56223,-0.28112 0.10796,-0.0274 0.22583,-0.0559 0.34359,-0.0625 0.28111,-0.0156 0.75366,0.0974 1.12446,0.31235 0.0452,-0.15676 0.0937,-0.30582 0.12494,-0.46853 0.0359,-0.17515 0.0735,-0.35064 0.0937,-0.53099 0.002,-0.0208 -0.002,-0.0417 0,-0.0625 0.0184,-0.1815 0.0294,-0.37633 0.0312,-0.56224 0,-0.22877 -0.005,-0.46587 -0.0312,-0.68717 -0.0194,-0.19125 -0.0568,-0.37672 -0.0937,-0.56223 -0.002,-0.009 0.002,-0.0219 0,-0.0312 -0.0271,-0.13217 -0.0812,-0.2515 -0.12494,-0.37482 -0.28135,0.18305 -0.57837,0.28112 -0.93705,0.28112 -0.50028,0 -0.9528,-0.19751 -1.28059,-0.531 -0.082,-0.0834 -0.15354,-0.18308 -0.21865,-0.28112 -0.19529,-0.29412 -0.3123,-0.64909 -0.3123,-1.03071 0,-0.31023 0.0867,-0.59612 0.21864,-0.84335 0.0661,-0.12475 0.12763,-0.23742 0.21865,-0.34359 0.0928,-0.10463 0.19685,-0.19762 0.31235,-0.28111 -0.53401,-0.43231 -1.12137,-0.80126 -1.7803498,-1.03071 0.014,0.0688 0.0312,0.14698 0.0312,0.21864 0,0.79434 -0.895,1.43682 -1.99905,1.43682 -0.69003,0 -1.29618,-0.24254 -1.65541,-0.6247 -0.0719,-0.0765 -0.13684,-0.16391 -0.18741,-0.24988 -0.10112,-0.17194 -0.15613,-0.36365 -0.15613,-0.56224 0,-0.0717 0.0171,-0.14988 0.0312,-0.21864 z m -4.34174,0.68717 c -0.24751,0.0619 -0.47477,0.22684 -0.6247,0.46853 -0.29989998,0.48339 -0.15637998,1.11477 0.31235,1.40553 l 0.81211,0.49976 0.31235,0.18741 c 0.12655,0.0462 0.26342,0.0937 0.40606,0.0937 0.1531,0 0.30609,-0.0409 0.43729,-0.0937 0.1312,-0.0529 0.24521,-0.12484 0.34359,-0.21864 0.19676,-0.18761 0.31235,-0.43808 0.31235,-0.71841 0,-0.29517 -0.12801,-0.5995 -0.34359,-0.78088 l -0.37482,-0.21865 -0.84335,-0.49976 c -0.23437,-0.14541 -0.50213,-0.18677 -0.74964,-0.12494 z m 12.2441798,0 c -0.12739,0.0192 -0.25763,0.0523 -0.37482,0.12494 l -0.84335,0.49976 -0.37482,0.21865 c -0.0111,0.009 -0.0206,0.0215 -0.0312,0.0312 -0.21562,0.18138 -0.3124,0.42323 -0.3124,0.7184 0,0.28033 0.1156,0.5308 0.31235,0.71841 0.0984,0.0939 0.21239,0.16581 0.34359,0.21865 0.1312,0.0529 0.2842,0.0937 0.43729,0.0937 0.14265,0 0.27951,-0.0163 0.40606,-0.0625 l 0.31235,-0.18741 0.81212,-0.49976 c 0.46872,-0.29079 0.61225,-0.92219 0.31235,-1.40553 -0.22491,-0.36254 -0.61736,-0.52608 -0.99953,-0.46853 z m -5.9371798,2.96859 c 1.10408,0 1.99905,0.89501 1.99905,1.99905 0,1.10405 -0.895,1.99905 -1.99905,1.99905 -0.55201,0 -1.0438,-0.23171 -1.40553,-0.59347 -0.0905,-0.0904 -0.17803,-0.17476 -0.24988,-0.28111 -0.21555,-0.31905 -0.34359,-0.71046 -0.34359,-1.12447 0,-0.138 0.005,-0.27592 0.0312,-0.40606 0.18645,-0.91093 1.00182,-1.59304 1.96786,-1.59304 z m 0,0.99953 c -0.41491,0 -0.75436,0.26595 -0.90582,0.6247 -0.0506,0.11958 -0.0937,0.23682 -0.0937,0.37482 0,0.55205 0.4463,0.99953 0.99952,0.99953 0.55323,0 0.99953,-0.44748 0.99953,-0.99953 0,-0.55205 -0.4463,-0.99952 -0.99953,-0.99952 z m -5.09138,3.34221 c -0.23329,0.0254 -0.29451,0.0845 -0.40606,0.12494 l -0.21864,0.12494 -0.81212,0.49976 c -0.46872,0.29079 -0.61224998,0.92219 -0.31235,1.40553 0.29988,0.48339 0.93686,0.63441 1.40553,0.34359 l 0.81212,-0.49976 0.28112,-0.18741 c 0.13595,-0.143 0.26245,-0.30288 0.31235,-0.49976 0.0187,-0.0631 0.0312,-0.11889 0.0312,-0.18742 0,-0.15437 -0.0329,-0.29174 -0.0936,-0.43729 -0.0516,-0.12927 -0.1284,-0.23964 -0.21865,-0.34358 -0.0976,-0.10885 -0.21331,-0.22386 -0.34359,-0.28112 -0.13027,-0.0573 -0.28516,-0.0791 -0.43729,-0.0625 z m 10.2141498,0.0625 c -0.58652,0 -1.062,0.48065 -1.062,1.06199 0,0.27409 0.0767,0.47378 0.24989,0.65594 l 0.31235,0.21865 0.81211,0.49976 c 0.46873,0.29082 1.10568,0.1398 1.40553,-0.34359 0.2999,-0.48339 0.15638,-1.11477 -0.31235,-1.40553 l -0.81211,-0.49976 c -0.0715,-0.0421 -0.13898,-0.0884 -0.21865,-0.12494 -0.11155,-0.0401 -0.24961,-0.0625 -0.37482,-0.0625 z m -5.1275598,2.59876 c -0.12922,0 -0.25462,0.0162 -0.37483,0.0625 -0.1202,0.0463 -0.24575,0.13593 -0.34358,0.21865 -0.19566,0.16545 -0.31754,0.37287 -0.34359,0.6247 v 0.12494 0.96829 c 0,0.55161 0.46191,0.99953 1.03071,0.99953 0.56885,0 1.03071,-0.44792 1.03071,-0.99953 v -0.96829 -0.12494 c -0.0522,-0.50367 -0.48267,-0.90582 -0.99952,-0.90582 z"/>
</svg>
