<svg xmlns="http://www.w3.org/2000/svg" width="16" height="16" version="1.1">
 <defs>
   <style id="current-color-scheme" type="text/css">
   .ColorScheme-Text { color: #e5112a; } .ColorScheme-Highlight { color:#5294e2; }
  </style>
  <linearGradient id="arrongin" x1="0%" x2="0%" y1="0%" y2="100%">
   <stop offset="0%" style="stop-color:#dd9b44; stop-opacity:1"/>
   <stop offset="100%" style="stop-color:#ad6c16; stop-opacity:1"/>
  </linearGradient>
  <linearGradient id="aurora" x1="0%" x2="0%" y1="0%" y2="100%">
   <stop offset="0%" style="stop-color:#09D4DF; stop-opacity:1"/>
   <stop offset="100%" style="stop-color:#9269F4; stop-opacity:1"/>
  </linearGradient>
  <linearGradient id="cyberneon" x1="0%" x2="0%" y1="0%" y2="100%">
    <stop offset="0" style="stop-color:#0abdc6; stop-opacity:1"/>
    <stop offset="1" style="stop-color:#ea00d9; stop-opacity:1"/>
  </linearGradient>
  <linearGradient id="fitdance" x1="0%" x2="0%" y1="0%" y2="100%">
   <stop offset="0%" style="stop-color:#1AD6AB; stop-opacity:1"/>
   <stop offset="100%" style="stop-color:#329DB6; stop-opacity:1"/>
  </linearGradient>
  <linearGradient id="oomox" x1="0%" x2="0%" y1="0%" y2="100%">
   <stop offset="0%" style="stop-color:#efefe7; stop-opacity:1"/>
   <stop offset="100%" style="stop-color:#8f8f8b; stop-opacity:1"/>
  </linearGradient>
  <linearGradient id="rainblue" x1="0%" x2="0%" y1="0%" y2="100%">
   <stop offset="0%" style="stop-color:#00F260; stop-opacity:1"/>
   <stop offset="100%" style="stop-color:#0575E6; stop-opacity:1"/>
  </linearGradient>
  <linearGradient id="sunrise" x1="0%" x2="0%" y1="0%" y2="100%">
   <stop offset="0%" style="stop-color: #FF8501; stop-opacity:1"/>
   <stop offset="100%" style="stop-color: #FFCB01; stop-opacity:1"/>
  </linearGradient>
  <linearGradient id="telinkrin" x1="0%" x2="0%" y1="0%" y2="100%">
   <stop offset="0%" style="stop-color: #b2ced6; stop-opacity:1"/>
   <stop offset="100%" style="stop-color: #6da5b7; stop-opacity:1"/>
  </linearGradient>
  <linearGradient id="60spsycho" x1="0%" x2="0%" y1="0%" y2="100%">
   <stop offset="0%" style="stop-color: #df5940; stop-opacity:1"/>
   <stop offset="25%" style="stop-color: #d8d15f; stop-opacity:1"/>
   <stop offset="50%" style="stop-color: #e9882a; stop-opacity:1"/>
   <stop offset="100%" style="stop-color: #279362; stop-opacity:1"/>
  </linearGradient>
  <linearGradient id="90ssummer" x1="0%" x2="0%" y1="0%" y2="100%">
   <stop offset="0%" style="stop-color: #f618c7; stop-opacity:1"/>
   <stop offset="20%" style="stop-color: #94ffab; stop-opacity:1"/>
   <stop offset="50%" style="stop-color: #fbfd54; stop-opacity:1"/>
   <stop offset="100%" style="stop-color: #0f83ae; stop-opacity:1"/>
  </linearGradient>
 </defs>
 <path fill="currentColor" class="ColorScheme-Text" fill-rule="evenodd" d="M 8.853 5.836 L 8.983 5.836 C 9.534 5.836 9.982 5.389 9.982 4.838 L 9.982 4.838 C 9.982 4.378 9.671 3.991 9.246 3.878 C 9.671 3.765 9.982 3.378 9.982 2.918 L 9.982 2.918 C 9.982 2.462 9.675 2.076 9.253 1.962 C 9.682 1.851 9.997 1.461 9.997 0.999 L 9.997 0.999 C 9.997 0.448 9.55 0 8.999 0 L 7.001 0 C 6.45 0 6.002 0.448 6.002 0.999 L 6.002 0.999 C 6.002 1.455 6.309 1.841 6.731 1.955 C 6.302 2.066 5.987 2.456 5.987 2.918 L 5.987 2.918 C 5.987 3.378 6.298 3.765 6.723 3.878 C 6.298 3.991 5.987 4.378 5.987 4.838 L 5.987 4.838 C 5.987 5.376 6.413 5.815 6.947 5.834 L 6.947 5.834 C 5.997 6.442 5.197 7.261 4.614 8.23 C 4.035 9.179 3.725 10.267 3.715 11.376 C 3.685 12.544 4.095 13.693 4.854 14.582 C 5.253 15.031 5.743 15.391 6.292 15.63 C 6.881 15.88 7.52 16 8.16 16 L 8.17 16 C 8.779 16 9.388 15.87 9.947 15.61 C 10.467 15.371 10.926 15.011 11.286 14.562 C 11.965 13.683 12.314 12.584 12.285 11.486 C 12.275 10.117 11.825 8.779 11.006 7.68 C 10.431 6.909 9.694 6.281 8.853 5.836 Z M 7.89 7.591 C 9.348 8.35 10.277 9.858 10.287 11.506 C 10.307 12.165 10.107 12.804 9.718 13.323 C 9.548 13.523 9.338 13.693 9.099 13.803 C 8.809 13.933 8.499 14.002 8.18 14.002 C 8.18 14.002 8.17 14.002 8.17 14.002 L 8.15 14.002 C 8.15 14.002 8.15 14.002 8.14 14.002 C 7.78 14.002 7.421 13.933 7.081 13.793 C 6.811 13.673 6.562 13.493 6.362 13.273 C 5.922 12.754 5.693 12.095 5.713 11.416 C 5.723 10.657 5.932 9.918 6.322 9.268 C 6.721 8.609 7.261 8.03 7.89 7.591 L 7.89 7.591 Z"/>
</svg>
