<svg xmlns="http://www.w3.org/2000/svg" width="16" height="16" version="1.1">
 <defs>
   <style id="current-color-scheme" type="text/css">
   .ColorScheme-Text { color: #e5112a; } .ColorScheme-Highlight { color:#5294e2; }
  </style>
  <linearGradient id="arrongin" x1="0%" x2="0%" y1="0%" y2="100%">
   <stop offset="0%" style="stop-color:#dd9b44; stop-opacity:1"/>
   <stop offset="100%" style="stop-color:#ad6c16; stop-opacity:1"/>
  </linearGradient>
  <linearGradient id="aurora" x1="0%" x2="0%" y1="0%" y2="100%">
   <stop offset="0%" style="stop-color:#09D4DF; stop-opacity:1"/>
   <stop offset="100%" style="stop-color:#9269F4; stop-opacity:1"/>
  </linearGradient>
  <linearGradient id="cyberneon" x1="0%" x2="0%" y1="0%" y2="100%">
    <stop offset="0" style="stop-color:#0abdc6; stop-opacity:1"/>
    <stop offset="1" style="stop-color:#ea00d9; stop-opacity:1"/>
  </linearGradient>
  <linearGradient id="fitdance" x1="0%" x2="0%" y1="0%" y2="100%">
   <stop offset="0%" style="stop-color:#1AD6AB; stop-opacity:1"/>
   <stop offset="100%" style="stop-color:#329DB6; stop-opacity:1"/>
  </linearGradient>
  <linearGradient id="oomox" x1="0%" x2="0%" y1="0%" y2="100%">
   <stop offset="0%" style="stop-color:#efefe7; stop-opacity:1"/>
   <stop offset="100%" style="stop-color:#8f8f8b; stop-opacity:1"/>
  </linearGradient>
  <linearGradient id="rainblue" x1="0%" x2="0%" y1="0%" y2="100%">
   <stop offset="0%" style="stop-color:#00F260; stop-opacity:1"/>
   <stop offset="100%" style="stop-color:#0575E6; stop-opacity:1"/>
  </linearGradient>
  <linearGradient id="sunrise" x1="0%" x2="0%" y1="0%" y2="100%">
   <stop offset="0%" style="stop-color: #FF8501; stop-opacity:1"/>
   <stop offset="100%" style="stop-color: #FFCB01; stop-opacity:1"/>
  </linearGradient>
  <linearGradient id="telinkrin" x1="0%" x2="0%" y1="0%" y2="100%">
   <stop offset="0%" style="stop-color: #b2ced6; stop-opacity:1"/>
   <stop offset="100%" style="stop-color: #6da5b7; stop-opacity:1"/>
  </linearGradient>
  <linearGradient id="60spsycho" x1="0%" x2="0%" y1="0%" y2="100%">
   <stop offset="0%" style="stop-color: #df5940; stop-opacity:1"/>
   <stop offset="25%" style="stop-color: #d8d15f; stop-opacity:1"/>
   <stop offset="50%" style="stop-color: #e9882a; stop-opacity:1"/>
   <stop offset="100%" style="stop-color: #279362; stop-opacity:1"/>
  </linearGradient>
  <linearGradient id="90ssummer" x1="0%" x2="0%" y1="0%" y2="100%">
   <stop offset="0%" style="stop-color: #f618c7; stop-opacity:1"/>
   <stop offset="20%" style="stop-color: #94ffab; stop-opacity:1"/>
   <stop offset="50%" style="stop-color: #fbfd54; stop-opacity:1"/>
   <stop offset="100%" style="stop-color: #0f83ae; stop-opacity:1"/>
  </linearGradient>
 </defs>
 <path fill="currentColor" class="ColorScheme-Text" fill-rule="evenodd" d="M 14.5 7.813 L 14.5 3.33 C 14.49 2.84 14.29 2.37 13.94 2.03 C 13.58 1.68 13.11 1.49 12.61 1.5 L 12.61 1.5 C 12.61 1.5 12.61 1.5 12.6 1.5 L 10.896 1.5 L 8.316 7.813 L 14.5 7.813 Z M 14.5 8.766 L 14.5 12.67 C 14.49 13.16 14.29 13.63 13.94 13.97 C 13.58 14.32 13.11 14.51 12.61 14.5 C 12.61 14.5 12.61 14.5 12.6 14.5 L 5.588 14.5 L 7.927 8.766 L 14.5 8.766 Z M 4.56 14.5 L 3.4 14.5 C 3.39 14.5 3.39 14.5 3.39 14.5 C 2.89 14.51 2.42 14.32 2.06 13.97 C 1.71 13.63 1.51 13.16 1.5 12.67 L 1.5 3.33 C 1.51 2.84 1.71 2.37 2.06 2.03 C 2.42 1.68 2.89 1.49 3.39 1.5 C 3.39 1.5 3.39 1.5 3.4 1.5 L 9.797 1.5 L 4.56 14.5 Z M 12.601 0.5 C 14.207 0.5 15.5 1.761 15.5 3.325 L 15.5 12.675 C 15.5 14.239 14.207 15.5 12.601 15.5 L 3.399 15.5 C 1.793 15.5 0.5 14.239 0.5 12.675 L 0.5 3.325 C 0.5 1.761 1.793 0.5 3.399 0.5 L 12.601 0.5 L 12.601 0.5 Z"/>
</svg>
