<svg xmlns="http://www.w3.org/2000/svg" width="16" height="16" version="1.1">
 <defs>
   <style id="current-color-scheme" type="text/css">
   .ColorScheme-Text { color: #e5112a; } .ColorScheme-Highlight { color:#5294e2; }
  </style>
  <linearGradient id="arrongin" x1="0%" x2="0%" y1="0%" y2="100%">
   <stop offset="0%" style="stop-color:#dd9b44; stop-opacity:1"/>
   <stop offset="100%" style="stop-color:#ad6c16; stop-opacity:1"/>
  </linearGradient>
  <linearGradient id="aurora" x1="0%" x2="0%" y1="0%" y2="100%">
   <stop offset="0%" style="stop-color:#09D4DF; stop-opacity:1"/>
   <stop offset="100%" style="stop-color:#9269F4; stop-opacity:1"/>
  </linearGradient>
  <linearGradient id="cyberneon" x1="0%" x2="0%" y1="0%" y2="100%">
    <stop offset="0" style="stop-color:#0abdc6; stop-opacity:1"/>
    <stop offset="1" style="stop-color:#ea00d9; stop-opacity:1"/>
  </linearGradient>
  <linearGradient id="fitdance" x1="0%" x2="0%" y1="0%" y2="100%">
   <stop offset="0%" style="stop-color:#1AD6AB; stop-opacity:1"/>
   <stop offset="100%" style="stop-color:#329DB6; stop-opacity:1"/>
  </linearGradient>
  <linearGradient id="oomox" x1="0%" x2="0%" y1="0%" y2="100%">
   <stop offset="0%" style="stop-color:#efefe7; stop-opacity:1"/>
   <stop offset="100%" style="stop-color:#8f8f8b; stop-opacity:1"/>
  </linearGradient>
  <linearGradient id="rainblue" x1="0%" x2="0%" y1="0%" y2="100%">
   <stop offset="0%" style="stop-color:#00F260; stop-opacity:1"/>
   <stop offset="100%" style="stop-color:#0575E6; stop-opacity:1"/>
  </linearGradient>
  <linearGradient id="sunrise" x1="0%" x2="0%" y1="0%" y2="100%">
   <stop offset="0%" style="stop-color: #FF8501; stop-opacity:1"/>
   <stop offset="100%" style="stop-color: #FFCB01; stop-opacity:1"/>
  </linearGradient>
  <linearGradient id="telinkrin" x1="0%" x2="0%" y1="0%" y2="100%">
   <stop offset="0%" style="stop-color: #b2ced6; stop-opacity:1"/>
   <stop offset="100%" style="stop-color: #6da5b7; stop-opacity:1"/>
  </linearGradient>
  <linearGradient id="60spsycho" x1="0%" x2="0%" y1="0%" y2="100%">
   <stop offset="0%" style="stop-color: #df5940; stop-opacity:1"/>
   <stop offset="25%" style="stop-color: #d8d15f; stop-opacity:1"/>
   <stop offset="50%" style="stop-color: #e9882a; stop-opacity:1"/>
   <stop offset="100%" style="stop-color: #279362; stop-opacity:1"/>
  </linearGradient>
  <linearGradient id="90ssummer" x1="0%" x2="0%" y1="0%" y2="100%">
   <stop offset="0%" style="stop-color: #f618c7; stop-opacity:1"/>
   <stop offset="20%" style="stop-color: #94ffab; stop-opacity:1"/>
   <stop offset="50%" style="stop-color: #fbfd54; stop-opacity:1"/>
   <stop offset="100%" style="stop-color: #0f83ae; stop-opacity:1"/>
  </linearGradient>
 </defs>
 <path fill="currentColor" class="ColorScheme-Text" fill-rule="evenodd" d="M 3.143 8 C 3.143 5.319 5.319 3.143 8 3.143 C 10.681 3.143 12.857 5.319 12.857 8 C 12.857 10.681 10.681 12.857 8 12.857 C 5.319 12.857 3.143 10.681 3.143 8 L 3.143 8 Z M 8 1.714 L 8 0 L 8 0 C 12.418 0 16 3.582 16 8 L 14.286 8 C 14.286 8 14.286 8 14.286 8 C 14.286 11.469 11.469 14.286 8 14.286 L 8 14.286 L 8 16 C 3.582 16 0 12.418 0 8 L 1.714 8 C 1.714 4.531 4.531 1.714 8 1.714 L 8 1.714 Z M 6.357 5.275 L 6.357 5.275 L 9.53 5.275 L 9.53 5.275 Q 9.989 5.275 10.317 5.6 L 10.317 5.6 L 10.317 5.6 Q 10.646 5.925 10.646 6.384 L 10.646 6.384 L 10.646 7.599 L 10.646 7.599 Q 10.646 8.058 10.317 8.387 L 10.317 8.387 L 10.317 8.387 Q 9.989 8.715 9.53 8.715 L 9.53 8.715 L 6.411 8.715 L 6.411 9.61 L 10.646 9.61 L 10.646 10.779 L 5.241 10.779 L 5.241 8.647 L 5.241 8.647 Q 5.241 8.188 5.57 7.863 L 5.57 7.863 L 5.57 7.863 Q 5.899 7.538 6.357 7.538 L 6.357 7.538 L 9.476 7.538 L 9.476 6.445 L 6.411 6.445 L 6.411 6.888 L 5.241 6.888 L 5.241 6.384 L 5.241 6.384 Q 5.241 5.925 5.57 5.6 L 5.57 5.6 L 5.57 5.6 Q 5.899 5.275 6.357 5.275 Z"/>
</svg>
