<svg xmlns="http://www.w3.org/2000/svg" width="16" height="16" version="1.1">
 <defs>
   <style id="current-color-scheme" type="text/css">
   .ColorScheme-Text { color: #e5112a; } .ColorScheme-Highlight { color:#5294e2; }
  </style>
  <linearGradient id="arrongin" x1="0%" x2="0%" y1="0%" y2="100%">
   <stop offset="0%" style="stop-color:#dd9b44; stop-opacity:1"/>
   <stop offset="100%" style="stop-color:#ad6c16; stop-opacity:1"/>
  </linearGradient>
  <linearGradient id="aurora" x1="0%" x2="0%" y1="0%" y2="100%">
   <stop offset="0%" style="stop-color:#09D4DF; stop-opacity:1"/>
   <stop offset="100%" style="stop-color:#9269F4; stop-opacity:1"/>
  </linearGradient>
  <linearGradient id="cyberneon" x1="0%" x2="0%" y1="0%" y2="100%">
    <stop offset="0" style="stop-color:#0abdc6; stop-opacity:1"/>
    <stop offset="1" style="stop-color:#ea00d9; stop-opacity:1"/>
  </linearGradient>
  <linearGradient id="fitdance" x1="0%" x2="0%" y1="0%" y2="100%">
   <stop offset="0%" style="stop-color:#1AD6AB; stop-opacity:1"/>
   <stop offset="100%" style="stop-color:#329DB6; stop-opacity:1"/>
  </linearGradient>
  <linearGradient id="oomox" x1="0%" x2="0%" y1="0%" y2="100%">
   <stop offset="0%" style="stop-color:#efefe7; stop-opacity:1"/>
   <stop offset="100%" style="stop-color:#8f8f8b; stop-opacity:1"/>
  </linearGradient>
  <linearGradient id="rainblue" x1="0%" x2="0%" y1="0%" y2="100%">
   <stop offset="0%" style="stop-color:#00F260; stop-opacity:1"/>
   <stop offset="100%" style="stop-color:#0575E6; stop-opacity:1"/>
  </linearGradient>
  <linearGradient id="sunrise" x1="0%" x2="0%" y1="0%" y2="100%">
   <stop offset="0%" style="stop-color: #FF8501; stop-opacity:1"/>
   <stop offset="100%" style="stop-color: #FFCB01; stop-opacity:1"/>
  </linearGradient>
  <linearGradient id="telinkrin" x1="0%" x2="0%" y1="0%" y2="100%">
   <stop offset="0%" style="stop-color: #b2ced6; stop-opacity:1"/>
   <stop offset="100%" style="stop-color: #6da5b7; stop-opacity:1"/>
  </linearGradient>
  <linearGradient id="60spsycho" x1="0%" x2="0%" y1="0%" y2="100%">
   <stop offset="0%" style="stop-color: #df5940; stop-opacity:1"/>
   <stop offset="25%" style="stop-color: #d8d15f; stop-opacity:1"/>
   <stop offset="50%" style="stop-color: #e9882a; stop-opacity:1"/>
   <stop offset="100%" style="stop-color: #279362; stop-opacity:1"/>
  </linearGradient>
  <linearGradient id="90ssummer" x1="0%" x2="0%" y1="0%" y2="100%">
   <stop offset="0%" style="stop-color: #f618c7; stop-opacity:1"/>
   <stop offset="20%" style="stop-color: #94ffab; stop-opacity:1"/>
   <stop offset="50%" style="stop-color: #fbfd54; stop-opacity:1"/>
   <stop offset="100%" style="stop-color: #0f83ae; stop-opacity:1"/>
  </linearGradient>
 </defs>
 <path fill="currentColor" class="ColorScheme-Text" d="M 9.4487382,0.49999966 0.504882,9.400433 v 3.591403 c 1.3435313,0.02374 3.554109,0 3.554109,0 L 13.002848,4.0523656 Z M 8.5504472,3.1935519 10.307974,4.9502163 6.7514239,8.5416193 4.9548413,6.743478 Z M 4.058991,7.6437685 5.8555735,9.400433 4.9572823,10.298284 3.1997558,8.5416193 Z m 9.09764,1.6005166 c -0.24496,0.00125 -0.912976,0.056838 -1.952807,0.7026657 -0.324947,0.2023682 -0.566158,0.4327832 -0.937347,0.7051052 -0.197468,0.144906 -0.9067278,0.617097 -1.1716848,0.78074 C 8.3211683,11.911233 8.0437135,12.032403 7.3763221,12.369683 6.7301773,12.69572 6.0534125,12.992401 5.5797396,13.228498 3.5900634,14.221598 0.4999999,14.243459 0.5,14.243459 v 1.249184 c 0,0 3.1213083,0.03997 5.3921887,-1.093036 0.301201,-0.149902 0.835489,-0.39724 1.3279089,-0.624592 0,0 1.3985226,-0.740453 1.4060216,-0.741703 0.24496,-0.136161 0.451489,-0.239843 0.820179,-0.468444 0.284953,-0.176134 0.9685918,-0.613661 1.2497958,-0.819777 0.412433,-0.303551 0.678327,-0.527467 0.898292,-0.663628 0.481171,-0.377253 1.024833,-0.601794 1.562245,-0.585555 -0.04249,0 0.162786,0.01218 0.351506,0.117111 0.188719,0.104932 0.388061,0.292309 0.546786,0.468444 0.3062,0.414729 0.44524,0.731084 0.507729,1.28822 -0.04499,1.632684 -1.599739,1.880022 -2.812042,1.873776 v 1.249184 C 14.223957,15.60382 15.5,14.450511 15.5,12.330646 15.495,11.970882 15.4372,11.675138 15.304719,11.276648 15.172241,10.878158 14.972273,10.432825 14.679821,10.105539 14.228644,9.5771339 14.001494,9.3454104 13.156631,9.2467248 Z"/>
</svg>
