<svg xmlns="http://www.w3.org/2000/svg" width="16" height="16" version="1.1">
 <defs>
   <style id="current-color-scheme" type="text/css">
   .ColorScheme-Text { color: #e5112a; } .ColorScheme-Highlight { color:#5294e2; }
  </style>
  <linearGradient id="arrongin" x1="0%" x2="0%" y1="0%" y2="100%">
   <stop offset="0%" style="stop-color:#dd9b44; stop-opacity:1"/>
   <stop offset="100%" style="stop-color:#ad6c16; stop-opacity:1"/>
  </linearGradient>
  <linearGradient id="aurora" x1="0%" x2="0%" y1="0%" y2="100%">
   <stop offset="0%" style="stop-color:#09D4DF; stop-opacity:1"/>
   <stop offset="100%" style="stop-color:#9269F4; stop-opacity:1"/>
  </linearGradient>
  <linearGradient id="cyberneon" x1="0%" x2="0%" y1="0%" y2="100%">
    <stop offset="0" style="stop-color:#0abdc6; stop-opacity:1"/>
    <stop offset="1" style="stop-color:#ea00d9; stop-opacity:1"/>
  </linearGradient>
  <linearGradient id="fitdance" x1="0%" x2="0%" y1="0%" y2="100%">
   <stop offset="0%" style="stop-color:#1AD6AB; stop-opacity:1"/>
   <stop offset="100%" style="stop-color:#329DB6; stop-opacity:1"/>
  </linearGradient>
  <linearGradient id="oomox" x1="0%" x2="0%" y1="0%" y2="100%">
   <stop offset="0%" style="stop-color:#efefe7; stop-opacity:1"/>
   <stop offset="100%" style="stop-color:#8f8f8b; stop-opacity:1"/>
  </linearGradient>
  <linearGradient id="rainblue" x1="0%" x2="0%" y1="0%" y2="100%">
   <stop offset="0%" style="stop-color:#00F260; stop-opacity:1"/>
   <stop offset="100%" style="stop-color:#0575E6; stop-opacity:1"/>
  </linearGradient>
  <linearGradient id="sunrise" x1="0%" x2="0%" y1="0%" y2="100%">
   <stop offset="0%" style="stop-color: #FF8501; stop-opacity:1"/>
   <stop offset="100%" style="stop-color: #FFCB01; stop-opacity:1"/>
  </linearGradient>
  <linearGradient id="telinkrin" x1="0%" x2="0%" y1="0%" y2="100%">
   <stop offset="0%" style="stop-color: #b2ced6; stop-opacity:1"/>
   <stop offset="100%" style="stop-color: #6da5b7; stop-opacity:1"/>
  </linearGradient>
  <linearGradient id="60spsycho" x1="0%" x2="0%" y1="0%" y2="100%">
   <stop offset="0%" style="stop-color: #df5940; stop-opacity:1"/>
   <stop offset="25%" style="stop-color: #d8d15f; stop-opacity:1"/>
   <stop offset="50%" style="stop-color: #e9882a; stop-opacity:1"/>
   <stop offset="100%" style="stop-color: #279362; stop-opacity:1"/>
  </linearGradient>
  <linearGradient id="90ssummer" x1="0%" x2="0%" y1="0%" y2="100%">
   <stop offset="0%" style="stop-color: #f618c7; stop-opacity:1"/>
   <stop offset="20%" style="stop-color: #94ffab; stop-opacity:1"/>
   <stop offset="50%" style="stop-color: #fbfd54; stop-opacity:1"/>
   <stop offset="100%" style="stop-color: #0f83ae; stop-opacity:1"/>
  </linearGradient>
 </defs>
 <path fill="currentColor" class="ColorScheme-Text" d="m 8.5321328,0.00383037 c -0.430981,-0.0128 -0.517978,0.0021 -0.641973,0.113298 -0.203991,0.177796 -0.193991,0.560289 0.017,0.722586 0.113996,0.0849 0.200991,0.104598 0.70297,0.132898 1.4859352,0.0848 2.6218852,0.47739103 3.7188382,1.28317643 1.315942,0.963282 2.140906,2.305358 2.452892,3.986227 0.08,0.428492 0.119995,0.786785 0.146994,1.341775 0.016,0.361993 0.028,0.441992 0.076,0.53499 0.150993,0.281995 0.591974,0.322994 0.792966,0.072 0.105996,-0.128998 0.117994,-0.228996 0.099,-0.680988 -0.05,-1.324675 -0.343986,-2.528653 -0.858963,-3.541134 -0.369984,-0.725587 -0.716968,-1.193478 -1.345942,-1.810567 -0.67097,-0.6534884 -1.178948,-1.0112814 -1.971913,-1.39057443 -0.806964,-0.384693 -1.541933,-0.599789 -2.4508932,-0.710987 -0.179992,-0.0208 -0.511978,-0.0453 -0.736967,-0.0527 z m -5.6421545,0.265595 c -0.1198948,-0.0109 -0.2362897,-0.0103 -0.322186,0.0078 h -0.002 c -0.251289,0.0519 -0.5662753,0.234695 -1.2479455,0.73048603 -0.40958213,0.299795 -0.97145753,0.837785 -1.10355183,1.0546814 -0.3064866,0.51399 -0.2891873,0.950582 0.083996,1.955064 0.639972,1.722568 1.57513113,3.382337 2.80457753,4.984308 2.3530972,3.0649432 5.3172683,5.2939022 9.0291055,6.7888742 0.47298,0.190997 0.626973,0.222996 0.997957,0.204997 0.448981,-0.021 0.789965,-0.156997 1.270944,-0.513991 0.531977,-0.393993 1.292944,-1.318975 1.488935,-1.811966 0.184993,-0.467992 0.135994,-0.891984 -0.138993,-1.222978 -0.155994,-0.182996 -1.308943,-1.102979 -1.84792,-1.471973 -0.408982,-0.278995 -1.042954,-0.662987 -1.333942,-0.810985 -0.382983,-0.1909962 -0.764967,-0.2239962 -1.13795,-0.1 -0.293987,0.099 -0.389983,0.182997 -0.818964,0.708987 -0.221991,0.268995 -0.426982,0.512991 -0.45298,0.53599 -0.029,0.023 -0.121995,0.074 -0.2089922,0.112998 -0.345984,0.157997 -0.819963,0.063 -1.59393,-0.314994 -0.602973,-0.290995 -1.13695,-0.659988 -1.741724,-1.2029782 -0.515277,-0.458991 -1.0350543,-1.05998 -1.3260419,-1.526972 -0.3752836,-0.601989 -0.6613711,-1.382674 -0.664071,-1.814466 0,-0.185897 0.076897,-0.449892 0.1718924,-0.58399 0.036998,-0.0539 0.2720882,-0.258295 0.5233772,-0.456991 0.626472,-0.493191 0.7666673,-0.646988 0.8515633,-0.941383 0.0822,-0.273495 -0.0062,-0.644088 -0.2675893,-1.142579 C 5.446166,2.5642808 4.048727,0.81751337 3.546249,0.49211937 c -0.082196,-0.0519 -0.2260901,-0.123298 -0.3183861,-0.154298 -0.095296,-0.0337 -0.2179905,-0.0574 -0.3378852,-0.0684 z M 8.7781208,1.8924954 c -0.148993,0.0229 -0.23599,0.0831 -0.303986,0.1874964 h -0.002 c -0.126995,0.188597 -0.111995,0.416193 0.039,0.58399 0.097,0.111098 0.23999,0.162697 0.499979,0.183596 0.716968,0.0565 1.5019342,0.285795 2.0349102,0.595689 0.617974,0.358994 1.125952,0.874784 1.473936,1.499973 0.306986,0.547689 0.484979,1.252876 0.484979,1.921764 0,0.433792 0.06,0.592789 0.263988,0.693787 0.120995,0.062 0.341985,0.067 0.444981,0.015 0.095,-0.049 0.205991,-0.165997 0.23999,-0.253995 0.037,-0.093 0.036,-0.653388 0.002,-0.960583 -0.098,-0.839384 -0.381984,-1.62277 -0.839964,-2.289057 -0.813965,-1.182979 -2.05691,-1.910165 -3.6618402,-2.1405614 -0.315987,-0.0465 -0.526977,-0.06 -0.675971,-0.0371 z m 0.560976,1.9315644 c -0.051,0.0058 -0.086,0.0187 -0.136994,0.043 -0.266989,0.134098 -0.340985,0.498291 -0.147994,0.722587 0.104996,0.121298 0.203991,0.156997 0.528977,0.195396 0.6929702,0.0828 1.1009522,0.335794 1.3339422,0.824185 0.107996,0.229696 0.172992,0.478291 0.206991,0.831985 0.029,0.266095 0.069,0.364093 0.194991,0.456991 0.174993,0.131598 0.461981,0.125598 0.617974,-0.0136 0.165992,-0.149597 0.195991,-0.329594 0.123995,-0.789086 -0.104997,-0.704687 -0.344986,-1.196678 -0.784967,-1.60157 -0.340985,-0.312494 -0.740967,-0.506691 -1.260945,-0.615189 -0.1079952,-0.0228 -0.3099862,-0.0452 -0.4479792,-0.0527 h -0.002 c -0.108996,-0.0063 -0.175993,-0.0077 -0.225991,-0.002 z"/>
</svg>
