<svg xmlns="http://www.w3.org/2000/svg" width="16" height="16" version="1.1">
 <defs>
   <style id="current-color-scheme" type="text/css">
   .ColorScheme-Text { color: #00aa00; } .ColorScheme-Highlight { color: #1AD6AB; }
  </style>
  <linearGradient id="arrongin" x1="0%" x2="0%" y1="0%" y2="100%">
   <stop offset="0%"    stop-color= "#dd9b44" stop-opacity="1"/>
   <stop offset="100%"  stop-color= "#ad6c16" stop-opacity="1"/>
  </linearGradient>
  <linearGradient id="aurora" x1="0%" x2="0%" y1="0%" y2="100%">
   <stop offset="0%"    stop-color= "#09D4DF" stop-opacity="1"/>
   <stop offset="100%"  stop-color= "#9269F4" stop-opacity="1"/>
  </linearGradient> 
  <linearGradient id="cyberblue" x1="0%" x2="0%" y1="0%" y2="100%">
   <stop offset="0%"    stop-color= "#07B3FF" stop-opacity="1"/>
   <stop offset="100%"  stop-color= "#007DE8" stop-opacity="1"/>
  </linearGradient>
  <linearGradient id="cyberneon" x1="0%" x2="0%" y1="0%" y2="100%">
    <stop offset="0%"   stop-color= "#0abdc6" stop-opacity="1"/>
    <stop offset="100%" stop-color= "#ea00d9" stop-opacity="1"/>
  </linearGradient>
  <linearGradient id="fitdance" x1="0%" x2="0%" y1="0%" y2="100%">
   <stop offset="0%"    stop-color= "#1AD6AB" stop-opacity="1"/>
   <stop offset="100%"  stop-color= "#329DB6" stop-opacity="1"/>
  </linearGradient>
  <linearGradient id="oomox" x1="0%" x2="0%" y1="0%" y2="100%">
   <stop offset="0%"    stop-color= "#00aa00" stop-opacity="1"/>
   <stop offset="100%"  stop-color= "#00cc00" stop-opacity="1"/>
  </linearGradient>
  <linearGradient id="rainblue" x1="0%" x2="0%" y1="0%" y2="100%">
   <stop offset="0%"    stop-color= "#00F260" stop-opacity="1"/>
   <stop offset="100%"  stop-color= "#0575E6" stop-opacity="1"/>
  </linearGradient>
  <linearGradient id="redcarbon" x1="0%" x2="0%" y1="0%" y2="100%">
   <stop offset="0%"    stop-color= "#FF6D57" stop-opacity="1"/>
   <stop offset="50%"   stop-color= "#FF5160" stop-opacity="1"/>
   <stop offset="100%"  stop-color= "#F50F22" stop-opacity="1"/>
  </linearGradient>
  <linearGradient id="sunrise" x1="0%" x2="0%" y1="0%" y2="100%">
   <stop offset="0%"    stop-color= "#FF8501" stop-opacity="1"/>
   <stop offset="100%"  stop-color= "#FFCB01" stop-opacity="1"/>
  </linearGradient>
  <linearGradient id="telinkrin" x1="0%" x2="0%" y1="0%" y2="100%">
   <stop offset="0%"    stop-color= "#b2ced6" stop-opacity="1"/>
   <stop offset="100%"  stop-color= "#6da5b7" stop-opacity="1"/>
  </linearGradient>
  <linearGradient id="60spsycho" x1="0%" x2="0%" y1="0%" y2="100%">
   <stop offset="0%"    stop-color= "#df5940" stop-opacity="1"/>
   <stop offset="25%"   stop-color= "#d8d15f" stop-opacity="1"/>
   <stop offset="50%"   stop-color= "#e9882a" stop-opacity="1"/>
   <stop offset="100%"  stop-color= "#279362" stop-opacity="1"/>
  </linearGradient>
  <linearGradient id="90ssummer" x1="0%" x2="0%" y1="0%" y2="100%">
   <stop offset="0%"    stop-color= "#f618c7" stop-opacity="1"/>
   <stop offset="20%"   stop-color= "#94ffab" stop-opacity="1"/>
   <stop offset="50%"   stop-color= "#fbfd54" stop-opacity="1"/>
   <stop offset="100%"  stop-color= "#0f83ae" stop-opacity="1"/>
  </linearGradient>
 </defs>
 <path fill="url(#oomox)" class="ColorScheme-Text" fill-rule="evenodd" d="M 3 1 C 1.892 1 1 1.892 1 3 L 1 13 C 1 14.108 1.892 15 3 15 L 13 15 C 14.108 15 15 14.108 15 13 L 15 3 C 15 1.892 14.108 1 13 1 L 3 1 Z M 7.757868 9.34518 L 7.757868 9.34518 L 7.757868 9.34518 Q 8.29594 9.34518 8.645686 8.854189 L 8.645686 8.854189 L 8.645686 8.854189 Q 8.995433 8.363199 8.995433 7.757868 L 8.995433 7.757868 L 8.995433 7.757868 Q 8.995433 7.287055 8.780204 7.011293 L 8.780204 7.011293 L 8.780204 7.011293 Q 8.564976 6.735531 8.174873 6.735531 L 8.174873 6.735531 L 8.174873 6.735531 Q 7.636801 6.735531 7.280329 7.192892 L 7.280329 7.192892 L 7.280329 7.192892 Q 6.923856 7.650253 6.923856 8.29594 L 6.923856 8.29594 L 6.923856 8.29594 Q 6.923856 8.766753 7.152537 9.055966 L 7.152537 9.055966 L 7.152537 9.055966 Q 7.381217 9.34518 7.757868 9.34518 L 7.757868 9.34518 L 7.757868 9.34518 Z M 8.094163 12.869552 L 8.094163 12.869552 L 8.094163 12.869552 Q 5.901519 12.869552 4.569791 11.62526 L 4.569791 11.62526 L 4.569791 11.62526 Q 3.238063 10.380969 3.238063 8.161422 L 3.238063 8.161422 L 3.238063 8.161422 Q 3.238063 5.98223 4.684131 4.556339 L 4.684131 4.556339 L 4.684131 4.556339 Q 6.1302 3.130448 8.228681 3.130448 L 8.228681 3.130448 L 8.228681 3.130448 Q 10.259902 3.130448 11.51092 4.294029 L 11.51092 4.294029 L 11.51092 4.294029 Q 12.761937 5.45761 12.761937 7.165988 L 12.761937 7.165988 L 12.761937 7.165988 Q 12.761937 8.618783 11.975007 9.587312 L 11.975007 9.587312 L 11.975007 9.587312 Q 11.188077 10.555842 10.058125 10.555842 L 10.058125 10.555842 L 10.058125 10.555842 Q 9.708379 10.555842 9.405713 10.360791 L 9.405713 10.360791 L 9.405713 10.360791 Q 9.103048 10.16574 9.022337 9.802541 L 9.022337 9.802541 L 9.022337 9.802541 Q 8.551524 10.582746 7.569542 10.582746 L 7.569542 10.582746 L 7.569542 10.582746 Q 6.708627 10.582746 6.170555 9.950511 L 6.170555 9.950511 L 6.170555 9.950511 Q 5.632483 9.318276 5.632483 8.282488 L 5.632483 8.282488 L 5.632483 8.282488 Q 5.632483 7.206344 6.331977 6.352155 L 6.331977 6.352155 L 6.331977 6.352155 Q 7.03147 5.497965 8.107614 5.497965 L 8.107614 5.497965 L 8.107614 5.497965 Q 8.96853 5.497965 9.318276 6.157103 L 9.318276 6.157103 L 9.412439 5.672839 L 10.676908 5.672839 L 10.232999 8 L 10.232999 8 Q 10.058125 8.914722 10.058125 9.156855 L 10.058125 9.156855 L 10.058125 9.156855 Q 10.058125 9.439343 10.286806 9.439343 L 10.286806 9.439343 L 10.286806 9.439343 Q 10.771071 9.439343 11.154447 8.793656 L 11.154447 8.793656 L 11.154447 8.793656 Q 11.537823 8.14797 11.537823 7.192892 L 11.537823 7.192892 L 11.537823 7.192892 Q 11.537823 5.955326 10.683634 5.148218 L 10.683634 5.148218 L 10.683634 5.148218 Q 9.829445 4.34111 8.282488 4.34111 L 8.282488 4.34111 L 8.282488 4.34111 Q 6.641368 4.34111 5.598854 5.430706 L 5.598854 5.430706 L 5.598854 5.430706 Q 4.556339 6.520302 4.556339 8.174873 L 4.556339 8.174873 L 4.556339 8.174873 Q 4.556339 9.829445 5.518143 10.744167 L 5.518143 10.744167 L 5.518143 10.744167 Q 6.479947 11.65889 8.14797 11.65889 L 8.14797 11.65889 L 8.14797 11.65889 Q 9.008885 11.65889 9.896704 11.430209 L 9.896704 11.430209 L 9.560409 12.775389 L 9.560409 12.775389 Q 8.901271 12.869552 8.094163 12.869552 L 8.094163 12.869552 L 8.094163 12.869552 Z"/>
</svg>
