<svg xmlns="http://www.w3.org/2000/svg" width="24" height="24" version="1.1">
 <defs>
  <style id="current-color-scheme" type="text/css">
   .ColorScheme-Text { color: #00aa00; } .ColorScheme-Highlight { color: #1AD6AB; }
  </style>
  <linearGradient id="arrongin" x1="0%" x2="0%" y1="0%" y2="100%">
   <stop offset="0%" style="stop-color:#dd9b44"/>
   <stop offset="100%" style="stop-color:#ad6c16"/>
  </linearGradient>
  <linearGradient id="aurora" x1="0%" x2="0%" y1="0%" y2="100%">
   <stop offset="0%" style="stop-color:#09D4DF"/>
   <stop offset="100%" style="stop-color:#9269F4"/>
  </linearGradient>
  <linearGradient id="cyberneon" x1="0%" x2="0%" y1="0%" y2="100%">
   <stop offset="0" style="stop-color:#0abdc6"/>
   <stop offset="1" style="stop-color:#ea00d9"/>
  </linearGradient>
  <linearGradient id="fitdance" x1="0%" x2="0%" y1="0%" y2="100%">
   <stop offset="0%" style="stop-color:#1AD6AB"/>
   <stop offset="100%" style="stop-color:#329DB6"/>
  </linearGradient>
  <linearGradient id="oomox" x1="0%" x2="0%" y1="0%" y2="100%">
   <stop offset="0%" style="stop-color:#00aa00"/>
   <stop offset="100%" style="stop-color:#00cc00"/>
  </linearGradient>
  <linearGradient id="rainblue" x1="0%" x2="0%" y1="0%" y2="100%">
   <stop offset="0%" style="stop-color:#00F260"/>
   <stop offset="100%" style="stop-color:#0575E6"/>
  </linearGradient>
  <linearGradient id="sunrise" x1="0%" x2="0%" y1="0%" y2="100%">
   <stop offset="0%" style="stop-color:#FF8501"/>
   <stop offset="100%" style="stop-color:#FFCB01"/>
  </linearGradient>
  <linearGradient id="telinkrin" x1="0%" x2="0%" y1="0%" y2="100%">
   <stop offset="0%" style="stop-color:#b2ced6"/>
   <stop offset="100%" style="stop-color:#6da5b7"/>
  </linearGradient>
  <linearGradient id="60spsycho" x1="0%" x2="0%" y1="0%" y2="100%">
   <stop offset="0%" style="stop-color:#df5940"/>
   <stop offset="25%" style="stop-color:#d8d15f"/>
   <stop offset="50%" style="stop-color:#e9882a"/>
   <stop offset="100%" style="stop-color:#279362"/>
  </linearGradient>
  <linearGradient id="90ssummer" x1="0%" x2="0%" y1="0%" y2="100%">
   <stop offset="0%" style="stop-color:#f618c7"/>
   <stop offset="20%" style="stop-color:#94ffab"/>
   <stop offset="50%" style="stop-color:#fbfd54"/>
   <stop offset="100%" style="stop-color:#0f83ae"/>
  </linearGradient>
 </defs>
 <g transform="matrix(1,0,0,1,1,1)">
  <path fill="url(#oomox)" class="ColorScheme-Text" d="M 4,3 C 2.892,3 2,3.892 2,5 V 17 C 2,18.108 2.892,19 4,19 H 18 C 19.108,19 20,18.108 20,17 V 5 C 20,3.892 19.108,3 18,3 Z M 3,7 H 4 V 8 H 3 Z M 10,8 H 11 V 9 H 12 V 10 H 11 V 12 C 11,12.258 11.053,13 11.324,13 H 12 V 14 H 11 C 10.069,14 10,12.83 10,12.199 Z M 18,8 H 19 V 14 C 18.14,13.918 18,13.594 18,13 Z M 3,9 H 4 V 14 C 3.1401,13.918 3,13.094 3,12.5 Z M 5,9 H 7.5 C 8.4976,8.9884 9,9.8671 9,10.5 V 14 H 8 V 10.5 C 8,10.236 7.664,10 7.3301,10 H 6 V 14 H 5 Z M 15.098,9 H 15.1 C 16.306,9.0012 17,10.055 17,11.439 V 12 H 14.145 C 14.191,12.561 14.535,12.969 15.131,12.969 15.634,12.969 15.884,12.818 16.174,12.508 L 16.871,13.232 C 16.422,13.709 15.954,13.998 15.123,13.998 14.039,13.998 13.002,13.359 13.002,11.494 13.002,9.9012 13.906,9.001 15.098,9 Z M 15,10 A 1,1 0 0 0 14,11 H 16 A 1,1 0 0 0 15,10 Z"/>
 </g>
</svg>
