<svg xmlns="http://www.w3.org/2000/svg" width="16" height="16" version="1.1">
 <defs>
   <style id="current-color-scheme" type="text/css">
   .ColorScheme-Text { color: #00aa00; } .ColorScheme-Highlight { color:#5294e2; }
  </style>
  <linearGradient id="arrongin" x1="0%" x2="0%" y1="0%" y2="100%">
   <stop offset="0%" style="stop-color:#dd9b44; stop-opacity:1"/>
   <stop offset="100%" style="stop-color:#ad6c16; stop-opacity:1"/>
  </linearGradient>
  <linearGradient id="aurora" x1="0%" x2="0%" y1="0%" y2="100%">
   <stop offset="0%" style="stop-color:#09D4DF; stop-opacity:1"/>
   <stop offset="100%" style="stop-color:#9269F4; stop-opacity:1"/>
  </linearGradient>
  <linearGradient id="cyberneon" x1="0%" x2="0%" y1="0%" y2="100%">
    <stop offset="0" style="stop-color:#0abdc6; stop-opacity:1"/>
    <stop offset="1" style="stop-color:#ea00d9; stop-opacity:1"/>
  </linearGradient>
  <linearGradient id="fitdance" x1="0%" x2="0%" y1="0%" y2="100%">
   <stop offset="0%" style="stop-color:#1AD6AB; stop-opacity:1"/>
   <stop offset="100%" style="stop-color:#329DB6; stop-opacity:1"/>
  </linearGradient>
  <linearGradient id="oomox" x1="0%" x2="0%" y1="0%" y2="100%">
   <stop offset="0%" style="stop-color:#00aa00; stop-opacity:1"/>
   <stop offset="100%" style="stop-color:#00cc00; stop-opacity:1"/>
  </linearGradient>
  <linearGradient id="rainblue" x1="0%" x2="0%" y1="0%" y2="100%">
   <stop offset="0%" style="stop-color:#00F260; stop-opacity:1"/>
   <stop offset="100%" style="stop-color:#0575E6; stop-opacity:1"/>
  </linearGradient>
  <linearGradient id="sunrise" x1="0%" x2="0%" y1="0%" y2="100%">
   <stop offset="0%" style="stop-color: #FF8501; stop-opacity:1"/>
   <stop offset="100%" style="stop-color: #FFCB01; stop-opacity:1"/>
  </linearGradient>
  <linearGradient id="telinkrin" x1="0%" x2="0%" y1="0%" y2="100%">
   <stop offset="0%" style="stop-color: #b2ced6; stop-opacity:1"/>
   <stop offset="100%" style="stop-color: #6da5b7; stop-opacity:1"/>
  </linearGradient>
  <linearGradient id="60spsycho" x1="0%" x2="0%" y1="0%" y2="100%">
   <stop offset="0%" style="stop-color: #df5940; stop-opacity:1"/>
   <stop offset="25%" style="stop-color: #d8d15f; stop-opacity:1"/>
   <stop offset="50%" style="stop-color: #e9882a; stop-opacity:1"/>
   <stop offset="100%" style="stop-color: #279362; stop-opacity:1"/>
  </linearGradient>
  <linearGradient id="90ssummer" x1="0%" x2="0%" y1="0%" y2="100%">
   <stop offset="0%" style="stop-color: #f618c7; stop-opacity:1"/>
   <stop offset="20%" style="stop-color: #94ffab; stop-opacity:1"/>
   <stop offset="50%" style="stop-color: #fbfd54; stop-opacity:1"/>
   <stop offset="100%" style="stop-color: #0f83ae; stop-opacity:1"/>
  </linearGradient>
 </defs>
 <path id="Hornet Logotype" fill="url(#oomox)" class="ColorScheme-Text" d="M 3.1793485,8.75e-8 4.9512177,2.5427832 6.4075681,2.0804412 10.571308,5.3644843 9.3540048,2.7491077 Z M 6.2458194,2.4722346 1.4383543,3.9101787 l 8.4366811,1.4267 z M 9.0707935,5.5669272 C 8.8632974,5.5710872 8.7947745,5.6418752 8.566937,5.8636201 L 7.8062504,6.7173474 C 7.5351448,7.0615868 7.4238491,7.2858376 7.5115984,7.6655478 L 8.1164665,9.5613363 9.9034688,10.299531 13.149887,6.3130778 9.3358177,5.5818374 C 9.2247374,5.5716327 9.1399626,5.5655855 9.0707972,5.5667193 Z M 13.507725,6.6257544 12.192884,8.17126 12.711458,10.327764 C 14.130905,9.9805766 14.365357,8.784186 14.561646,7.8945872 Z M 7.1788866,9.7793357 C 7.1163354,9.7773477 7.0565432,9.7798119 6.9999637,9.7872727 6.2869255,9.7645955 4.7166716,11.520084 4.7166716,11.520084 l 4.7440746,0.613255 0.1948725,-1.283354 c 0,0 -1.5383207,-1.0406663 -2.4767359,-1.0706871 z m -2.4106812,2.3998453 2.4313363,3.223722 2.3732638,-2.81393 z M 8.9254026,13.94001 7.522423,15.539703 9.1726253,16 12.173253,15.54911 Z"/>
</svg>
