<svg xmlns="http://www.w3.org/2000/svg" width="16" height="16" version="1.1">
 <defs>
   <style id="current-color-scheme" type="text/css">
   .ColorScheme-Text { color: #00aa00; } .ColorScheme-Highlight { color:#5294e2; }
  </style>
  <linearGradient id="arrongin" x1="0%" x2="0%" y1="0%" y2="100%">
   <stop offset="0%" style="stop-color:#dd9b44; stop-opacity:1"/>
   <stop offset="100%" style="stop-color:#ad6c16; stop-opacity:1"/>
  </linearGradient>
  <linearGradient id="aurora" x1="0%" x2="0%" y1="0%" y2="100%">
   <stop offset="0%" style="stop-color:#09D4DF; stop-opacity:1"/>
   <stop offset="100%" style="stop-color:#9269F4; stop-opacity:1"/>
  </linearGradient>
  <linearGradient id="cyberneon" x1="0%" x2="0%" y1="0%" y2="100%">
    <stop offset="0" style="stop-color:#0abdc6; stop-opacity:1"/>
    <stop offset="1" style="stop-color:#ea00d9; stop-opacity:1"/>
  </linearGradient>
  <linearGradient id="fitdance" x1="0%" x2="0%" y1="0%" y2="100%">
   <stop offset="0%" style="stop-color:#1AD6AB; stop-opacity:1"/>
   <stop offset="100%" style="stop-color:#329DB6; stop-opacity:1"/>
  </linearGradient>
  <linearGradient id="oomox" x1="0%" x2="0%" y1="0%" y2="100%">
   <stop offset="0%" style="stop-color:#00aa00; stop-opacity:1"/>
   <stop offset="100%" style="stop-color:#00cc00; stop-opacity:1"/>
  </linearGradient>
  <linearGradient id="rainblue" x1="0%" x2="0%" y1="0%" y2="100%">
   <stop offset="0%" style="stop-color:#00F260; stop-opacity:1"/>
   <stop offset="100%" style="stop-color:#0575E6; stop-opacity:1"/>
  </linearGradient>
  <linearGradient id="sunrise" x1="0%" x2="0%" y1="0%" y2="100%">
   <stop offset="0%" style="stop-color: #FF8501; stop-opacity:1"/>
   <stop offset="100%" style="stop-color: #FFCB01; stop-opacity:1"/>
  </linearGradient>
  <linearGradient id="telinkrin" x1="0%" x2="0%" y1="0%" y2="100%">
   <stop offset="0%" style="stop-color: #b2ced6; stop-opacity:1"/>
   <stop offset="100%" style="stop-color: #6da5b7; stop-opacity:1"/>
  </linearGradient>
  <linearGradient id="60spsycho" x1="0%" x2="0%" y1="0%" y2="100%">
   <stop offset="0%" style="stop-color: #df5940; stop-opacity:1"/>
   <stop offset="25%" style="stop-color: #d8d15f; stop-opacity:1"/>
   <stop offset="50%" style="stop-color: #e9882a; stop-opacity:1"/>
   <stop offset="100%" style="stop-color: #279362; stop-opacity:1"/>
  </linearGradient>
  <linearGradient id="90ssummer" x1="0%" x2="0%" y1="0%" y2="100%">
   <stop offset="0%" style="stop-color: #f618c7; stop-opacity:1"/>
   <stop offset="20%" style="stop-color: #94ffab; stop-opacity:1"/>
   <stop offset="50%" style="stop-color: #fbfd54; stop-opacity:1"/>
   <stop offset="100%" style="stop-color: #0f83ae; stop-opacity:1"/>
  </linearGradient>
 </defs>
 <path fill="url(#oomox)" class="ColorScheme-Text" fill-rule="evenodd" d="M 11.583 5.388 L 13.144 6.884 C 13.276 7.01 13.48 7.001 13.6 6.863 L 15.825 4.298 C 15.955 4.142 16.016 3.943 15.997 3.742 C 15.977 3.54 15.882 3.353 15.726 3.223 C 15.57 3.094 15.372 3.033 15.17 3.052 C 14.968 3.071 14.781 3.166 14.652 3.322 L 13.284 4.968 L 11.364 3.048 L 7.299 2.946 C 7.116 2.942 6.873 3.052 6.756 3.192 L 4.758 5.597 C 4.625 5.749 4.56 5.947 4.575 6.149 C 4.587 6.351 4.682 6.538 4.834 6.671 C 4.987 6.804 5.185 6.869 5.387 6.854 C 5.589 6.843 5.775 6.747 5.909 6.595 L 5.909 6.595 L 5.909 6.595 L 7.661 4.572 L 8.493 4.572 L 5.949 7.724 L 4.671 9.144 L 1.143 9.144 C 0.838 9.144 0.549 9.265 0.335 9.479 C 0.122 9.692 0 9.982 0 10.286 C 0 10.587 0.122 10.881 0.335 11.094 C 0.549 11.307 0.838 11.429 1.143 11.429 L 1.143 11.429 L 5.25 11.429 C 5.494 11.429 5.824 11.282 5.986 11.101 L 7.387 9.54 L 8.995 10.744 L 8.034 14.58 C 7.962 14.873 8.008 15.186 8.164 15.445 C 8.32 15.704 8.572 15.894 8.865 15.966 C 9.158 16.039 9.471 15.993 9.73 15.837 C 9.993 15.681 10.179 15.429 10.252 15.136 L 11.444 10.361 C 11.518 10.065 11.38 9.677 11.136 9.494 L 9.35 8.154 L 11.583 5.388 Z M 12.22 0 C 11.834 -0.003 11.446 0.136 11.155 0.401 C 10.642 0.871 10.516 1.669 10.86 2.285 C 11.053 2.631 11.546 2.968 11.95 3.03 C 12.871 3.171 13.715 2.45 13.715 1.522 C 13.715 0.946 13.334 0.357 12.81 0.125 C 12.624 0.043 12.422 0.002 12.22 0 L 12.22 0 L 12.22 0 Z"/>
</svg>
