<svg xmlns="http://www.w3.org/2000/svg" width="16" height="16" version="1.1">
 <defs>
   <style id="current-color-scheme" type="text/css">
   .ColorScheme-Text { color: #00aa00; } .ColorScheme-Highlight { color:#5294e2; }
  </style>
  <linearGradient id="arrongin" x1="0%" x2="0%" y1="0%" y2="100%">
   <stop offset="0%" style="stop-color:#dd9b44; stop-opacity:1"/>
   <stop offset="100%" style="stop-color:#ad6c16; stop-opacity:1"/>
  </linearGradient>
  <linearGradient id="aurora" x1="0%" x2="0%" y1="0%" y2="100%">
   <stop offset="0%" style="stop-color:#09D4DF; stop-opacity:1"/>
   <stop offset="100%" style="stop-color:#9269F4; stop-opacity:1"/>
  </linearGradient>
  <linearGradient id="cyberneon" x1="0%" x2="0%" y1="0%" y2="100%">
    <stop offset="0" style="stop-color:#0abdc6; stop-opacity:1"/>
    <stop offset="1" style="stop-color:#ea00d9; stop-opacity:1"/>
  </linearGradient>
  <linearGradient id="fitdance" x1="0%" x2="0%" y1="0%" y2="100%">
   <stop offset="0%" style="stop-color:#1AD6AB; stop-opacity:1"/>
   <stop offset="100%" style="stop-color:#329DB6; stop-opacity:1"/>
  </linearGradient>
  <linearGradient id="oomox" x1="0%" x2="0%" y1="0%" y2="100%">
   <stop offset="0%" style="stop-color:#00aa00; stop-opacity:1"/>
   <stop offset="100%" style="stop-color:#00cc00; stop-opacity:1"/>
  </linearGradient>
  <linearGradient id="rainblue" x1="0%" x2="0%" y1="0%" y2="100%">
   <stop offset="0%" style="stop-color:#00F260; stop-opacity:1"/>
   <stop offset="100%" style="stop-color:#0575E6; stop-opacity:1"/>
  </linearGradient>
  <linearGradient id="sunrise" x1="0%" x2="0%" y1="0%" y2="100%">
   <stop offset="0%" style="stop-color: #FF8501; stop-opacity:1"/>
   <stop offset="100%" style="stop-color: #FFCB01; stop-opacity:1"/>
  </linearGradient>
  <linearGradient id="telinkrin" x1="0%" x2="0%" y1="0%" y2="100%">
   <stop offset="0%" style="stop-color: #b2ced6; stop-opacity:1"/>
   <stop offset="100%" style="stop-color: #6da5b7; stop-opacity:1"/>
  </linearGradient>
  <linearGradient id="60spsycho" x1="0%" x2="0%" y1="0%" y2="100%">
   <stop offset="0%" style="stop-color: #df5940; stop-opacity:1"/>
   <stop offset="25%" style="stop-color: #d8d15f; stop-opacity:1"/>
   <stop offset="50%" style="stop-color: #e9882a; stop-opacity:1"/>
   <stop offset="100%" style="stop-color: #279362; stop-opacity:1"/>
  </linearGradient>
  <linearGradient id="90ssummer" x1="0%" x2="0%" y1="0%" y2="100%">
   <stop offset="0%" style="stop-color: #f618c7; stop-opacity:1"/>
   <stop offset="20%" style="stop-color: #94ffab; stop-opacity:1"/>
   <stop offset="50%" style="stop-color: #fbfd54; stop-opacity:1"/>
   <stop offset="100%" style="stop-color: #0f83ae; stop-opacity:1"/>
  </linearGradient>
 </defs>
 <path fill="url(#oomox)" class="ColorScheme-Text" fill-rule="evenodd" d="M 2.96 6.952 L 5.2 6.952 L 4.35 4.712 L 4.35 4.712 Q 4.153 4.22 4.08 3.937 L 4.08 3.937 L 4.08 3.937 Q 4.006 4.22 3.809 4.712 L 3.809 4.712 L 2.96 6.952 L 2.96 6.952 Z M 12.88 10.386 L 12.88 10.386 L 12.88 10.386 Q 11.907 10.386 11.181 9.998 L 11.181 9.998 L 11.181 9.998 Q 10.455 9.611 10.049 8.952 L 10.049 8.952 L 10.049 8.952 Q 9.643 8.294 9.452 7.543 L 9.452 7.543 L 9.452 7.543 Q 9.261 6.792 9.261 5.943 L 9.261 5.943 L 9.261 5.943 Q 9.261 5.155 9.458 4.411 L 9.458 4.411 L 9.458 4.411 Q 9.655 3.666 10.061 2.995 L 10.061 2.995 L 10.061 2.995 Q 10.467 2.325 11.193 1.912 L 11.193 1.912 L 11.193 1.912 Q 11.92 1.5 12.88 1.5 L 12.88 1.5 L 12.88 1.5 Q 14.036 1.5 14.83 2.066 L 14.83 2.066 L 14.83 2.066 Q 15.624 2.632 15.956 3.445 L 15.956 3.445 L 14.467 4.122 L 14.467 4.122 Q 14.123 3.592 13.766 3.346 L 13.766 3.346 L 13.766 3.346 Q 13.409 3.1 12.88 3.1 L 12.88 3.1 L 12.88 3.1 Q 12.203 3.1 11.753 3.562 L 11.753 3.562 L 11.753 3.562 Q 11.304 4.023 11.144 4.632 L 11.144 4.632 L 11.144 4.632 Q 10.984 5.242 10.984 5.943 L 10.984 5.943 L 10.984 5.943 Q 10.984 7.063 11.47 7.925 L 11.47 7.925 L 11.47 7.925 Q 11.956 8.786 12.88 8.786 L 12.88 8.786 L 12.88 8.786 Q 13.778 8.786 14.443 7.678 L 14.443 7.678 L 15.969 8.257 L 15.969 8.257 Q 15.009 10.386 12.88 10.386 L 12.88 10.386 Z M 8.19 10.251 L 6.406 10.251 L 5.741 8.466 L 2.418 8.466 L 1.753 10.251 L -0.031 10.251 L 3.267 1.635 L 4.892 1.635 L 8.19 10.251 L 8.19 10.251 Z M -0.031 12.5 L 15.969 12.5 L 15.969 14.5 L -0.031 14.5 L -0.031 12.5 Z"/>
</svg>
