<svg xmlns="http://www.w3.org/2000/svg" width="16" height="16" version="1.1">
 <defs>
   <style id="current-color-scheme" type="text/css">
   .ColorScheme-Text { color: #00aa00; } .ColorScheme-Highlight { color:#5294e2; }
  </style>
  <linearGradient id="arrongin" x1="0%" x2="0%" y1="0%" y2="100%">
   <stop offset="0%" style="stop-color:#dd9b44; stop-opacity:1"/>
   <stop offset="100%" style="stop-color:#ad6c16; stop-opacity:1"/>
  </linearGradient>
  <linearGradient id="aurora" x1="0%" x2="0%" y1="0%" y2="100%">
   <stop offset="0%" style="stop-color:#09D4DF; stop-opacity:1"/>
   <stop offset="100%" style="stop-color:#9269F4; stop-opacity:1"/>
  </linearGradient>
  <linearGradient id="cyberneon" x1="0%" x2="0%" y1="0%" y2="100%">
    <stop offset="0" style="stop-color:#0abdc6; stop-opacity:1"/>
    <stop offset="1" style="stop-color:#ea00d9; stop-opacity:1"/>
  </linearGradient>
  <linearGradient id="fitdance" x1="0%" x2="0%" y1="0%" y2="100%">
   <stop offset="0%" style="stop-color:#1AD6AB; stop-opacity:1"/>
   <stop offset="100%" style="stop-color:#329DB6; stop-opacity:1"/>
  </linearGradient>
  <linearGradient id="oomox" x1="0%" x2="0%" y1="0%" y2="100%">
   <stop offset="0%" style="stop-color:#00aa00; stop-opacity:1"/>
   <stop offset="100%" style="stop-color:#00cc00; stop-opacity:1"/>
  </linearGradient>
  <linearGradient id="rainblue" x1="0%" x2="0%" y1="0%" y2="100%">
   <stop offset="0%" style="stop-color:#00F260; stop-opacity:1"/>
   <stop offset="100%" style="stop-color:#0575E6; stop-opacity:1"/>
  </linearGradient>
  <linearGradient id="sunrise" x1="0%" x2="0%" y1="0%" y2="100%">
   <stop offset="0%" style="stop-color: #FF8501; stop-opacity:1"/>
   <stop offset="100%" style="stop-color: #FFCB01; stop-opacity:1"/>
  </linearGradient>
  <linearGradient id="telinkrin" x1="0%" x2="0%" y1="0%" y2="100%">
   <stop offset="0%" style="stop-color: #b2ced6; stop-opacity:1"/>
   <stop offset="100%" style="stop-color: #6da5b7; stop-opacity:1"/>
  </linearGradient>
  <linearGradient id="60spsycho" x1="0%" x2="0%" y1="0%" y2="100%">
   <stop offset="0%" style="stop-color: #df5940; stop-opacity:1"/>
   <stop offset="25%" style="stop-color: #d8d15f; stop-opacity:1"/>
   <stop offset="50%" style="stop-color: #e9882a; stop-opacity:1"/>
   <stop offset="100%" style="stop-color: #279362; stop-opacity:1"/>
  </linearGradient>
  <linearGradient id="90ssummer" x1="0%" x2="0%" y1="0%" y2="100%">
   <stop offset="0%" style="stop-color: #f618c7; stop-opacity:1"/>
   <stop offset="20%" style="stop-color: #94ffab; stop-opacity:1"/>
   <stop offset="50%" style="stop-color: #fbfd54; stop-opacity:1"/>
   <stop offset="100%" style="stop-color: #0f83ae; stop-opacity:1"/>
  </linearGradient>
 </defs>
 <g transform="matrix(0.99998208,0,0,0.99943469,-82.998513,-214.87846)">
  <path fill="url(#oomox)" class="ColorScheme-Text" d="m 84.25,215.01 c -0.70756,0.15767 -1.25,0.86404 -1.25,1.6864 v 12.586 c 0,0.93986 0.73509,1.7177 1.5938,1.7177 h 7.8126 c 0.85868,0 1.5938,-0.7778 1.5938,-1.7177 v -12.586 c 0,-0.93986 -0.73509,-1.6864 -1.5938,-1.6864 h -7.8126 c -0.10736,0 -0.24267,-0.0225 -0.34376,0 z m 1.0625,0.99936 h 0.37501 l 1.3125,2.9981 H 86.40626 L 86,218.0081 h -1 l -0.37501,0.99936 h -0.62501 l 1.3125,-2.9981 z m 0.1875,0.6246 -0.40625,0.99936 h 0.81251 z m 1.25,3.3728 c 0.96654,0 1.75,0.74236 1.75,1.6864 0,-0.94407 0.78349,-1.6864 1.75,-1.6864 0.96652,0 1.75,0.74236 1.75,1.6864 0,0.44866 -0.17924,0.88178 -0.46875,1.1867 -0.0152,0.0158 -0.0156,0.016 -0.0312,0.0312 l -3,3.0918 -2.8438,-2.9981 C 85.53515,222.90706 85.46551,222.7869 85.375,222.66123 85.17474,222.38326 85,222.05881 85,221.6931 c 0,-0.94408 0.7835,-1.6864 1.75,-1.6864 z m 3.25,6.9955 h 0.625 l 0.37501,0.99936 h 1 l 0.40626,-0.99936 h 0.59376 l -1.3125,2.9981 h -0.37501 l -1.3125,-2.9981 z m 1.0938,1.3741 0.40626,0.99937 0.40625,-0.99937 z"/>
  <path fill="url(#oomox)" class="ColorScheme-Text" fill-opacity=".34" d="m 96,217.01 h 0.37501 L 96,216.85385 l -2.5938,-1.093 0.12501,14.241 -1.0156,0.95251 c 0.9395,0.15886 1.7235,-0.14618 2.0469,-0.92128 l 4.3126,-10.4 c 0.3234,-0.7751 -0.0449,-1.6213 -0.78126,-1.905 l -1.7188,-0.71829 m -0.37501,0 v -0.15615"/>
  <path fill="#bdbdbd" fill-opacity=".35" d="m 94,230 c 0,0 0.004,-0.12102 0,-1.0072 0,0.6664 -0.0502,0.76696 -0.15625,1.0072 z"/>
  <path fill="url(#oomox)" class="ColorScheme-Text" d="m 93.281,215.41 v 0.53125 l 0.03125,13.688 -1.0625,0.71875 -0.90625,0.59375 1.0625,0.0625 c 0,0 0.23881,0.0108 0.53125,0 0.29244,-0.0108 0.64694,-0.0477 0.9375,-0.15625 0.47406,-0.17704 0.89926,-0.50086 1.0938,-1 l 3.906,-10.03 c 0.34858,-0.89466 -0.05472,-1.8826 -0.875,-2.25 -0.0072,-0.003 0.0073,-0.0281 0,-0.0312 H 97.9683 l -1.5312,-0.6875 -0.34375,-0.15625 -2.3438,-1.0625 -0.46875,-0.21875 z m 0.6875,1.0625 1.8438,0.84375 0.34375,0.15625 1.5312,0.6875 h 0.03125 c 0.47772,0.19713 0.72851,0.81975 0.5,1.4062 l -3.875,10.031 c -0.046,0.11 -0.228,0.17 -0.343,0.28 v -0.0312 l -0.03125,-13.375 z"/>
 </g>
</svg>
