<svg xmlns="http://www.w3.org/2000/svg" width="16" height="16" version="1.1">
 <defs>
   <style id="current-color-scheme" type="text/css">
   .ColorScheme-Text { color: #00aa00; } .ColorScheme-Highlight { color:#5294e2; }
  </style>
  <linearGradient id="arrongin" x1="0%" x2="0%" y1="0%" y2="100%">
   <stop offset="0%" style="stop-color:#dd9b44; stop-opacity:1"/>
   <stop offset="100%" style="stop-color:#ad6c16; stop-opacity:1"/>
  </linearGradient>
  <linearGradient id="aurora" x1="0%" x2="0%" y1="0%" y2="100%">
   <stop offset="0%" style="stop-color:#09D4DF; stop-opacity:1"/>
   <stop offset="100%" style="stop-color:#9269F4; stop-opacity:1"/>
  </linearGradient>
  <linearGradient id="cyberneon" x1="0%" x2="0%" y1="0%" y2="100%">
    <stop offset="0" style="stop-color:#0abdc6; stop-opacity:1"/>
    <stop offset="1" style="stop-color:#ea00d9; stop-opacity:1"/>
  </linearGradient>
  <linearGradient id="fitdance" x1="0%" x2="0%" y1="0%" y2="100%">
   <stop offset="0%" style="stop-color:#1AD6AB; stop-opacity:1"/>
   <stop offset="100%" style="stop-color:#329DB6; stop-opacity:1"/>
  </linearGradient>
  <linearGradient id="oomox" x1="0%" x2="0%" y1="0%" y2="100%">
   <stop offset="0%" style="stop-color:#00aa00; stop-opacity:1"/>
   <stop offset="100%" style="stop-color:#00cc00; stop-opacity:1"/>
  </linearGradient>
  <linearGradient id="rainblue" x1="0%" x2="0%" y1="0%" y2="100%">
   <stop offset="0%" style="stop-color:#00F260; stop-opacity:1"/>
   <stop offset="100%" style="stop-color:#0575E6; stop-opacity:1"/>
  </linearGradient>
  <linearGradient id="sunrise" x1="0%" x2="0%" y1="0%" y2="100%">
   <stop offset="0%" style="stop-color: #FF8501; stop-opacity:1"/>
   <stop offset="100%" style="stop-color: #FFCB01; stop-opacity:1"/>
  </linearGradient>
  <linearGradient id="telinkrin" x1="0%" x2="0%" y1="0%" y2="100%">
   <stop offset="0%" style="stop-color: #b2ced6; stop-opacity:1"/>
   <stop offset="100%" style="stop-color: #6da5b7; stop-opacity:1"/>
  </linearGradient>
  <linearGradient id="60spsycho" x1="0%" x2="0%" y1="0%" y2="100%">
   <stop offset="0%" style="stop-color: #df5940; stop-opacity:1"/>
   <stop offset="25%" style="stop-color: #d8d15f; stop-opacity:1"/>
   <stop offset="50%" style="stop-color: #e9882a; stop-opacity:1"/>
   <stop offset="100%" style="stop-color: #279362; stop-opacity:1"/>
  </linearGradient>
  <linearGradient id="90ssummer" x1="0%" x2="0%" y1="0%" y2="100%">
   <stop offset="0%" style="stop-color: #f618c7; stop-opacity:1"/>
   <stop offset="20%" style="stop-color: #94ffab; stop-opacity:1"/>
   <stop offset="50%" style="stop-color: #fbfd54; stop-opacity:1"/>
   <stop offset="100%" style="stop-color: #0f83ae; stop-opacity:1"/>
  </linearGradient>
 </defs>
 <rect fill="url(#oomox)" class="ColorScheme-Text" width="4.625" height="3.594" x="17.09" y="-.09" transform="matrix(1,0,0,1,0,0)"/>
 <path fill="url(#oomox)" class="ColorScheme-Text" d="M 3.994 0 C 2.736 0.017 1.815 -0.033 1.062 0.442 C 0.672 0.695 0.374 1.099 0.222 1.581 C 0.058 2.081 0 2.678 0 3.429 L 0 12.571 C 0 13.323 0.058 13.919 0.223 14.419 C 0.387 14.921 0.686 15.322 1.063 15.56 C 1.815 16.035 2.736 15.983 3.994 16 L 12.006 16 C 13.264 15.983 14.185 16.034 14.938 15.56 C 15.314 15.323 15.613 14.92 15.778 14.419 C 15.942 13.919 16 13.322 16 12.571 L 16 5.714 C 16 4.962 15.942 4.367 15.777 3.866 C 15.757 3.803 15.729 3.747 15.703 3.69 L 15.676 3.625 C 15.514 3.248 15.257 2.934 14.938 2.726 C 14.185 2.25 13.264 2.303 12.006 2.286 L 8.967 2.286 L 6.945 0 L 3.996 0 L 3.994 0 Z M 4.006 1.143 L 6.536 1.143 L 8.301 3.138 L 7.033 4.571 L 3.994 4.571 C 2.736 4.589 1.815 4.537 1.062 5.011 C 1.04 5.025 1.022 5.046 1 5.061 L 1 3.429 C 1 2.752 1.062 2.279 1.16 1.982 C 1.258 1.685 1.363 1.558 1.547 1.442 C 1.913 1.21 2.742 1.16 4.006 1.143 L 4.006 1.143 Z M 9.465 3.429 L 11.992 3.429 C 13.256 3.446 14.084 3.497 14.452 3.728 C 14.635 3.842 14.74 3.97 14.838 4.267 C 14.936 4.565 15 5.038 15 5.714 L 15 12.571 C 15 13.248 14.937 13.721 14.84 14.018 C 14.742 14.315 14.637 14.442 14.453 14.558 C 14.087 14.789 13.26 14.84 12 14.857 L 4 14.857 C 2.74 14.84 1.913 14.789 1.547 14.558 C 1.363 14.443 1.257 14.315 1.16 14.018 C 1.063 13.721 1 13.248 1 12.571 L 1 8 C 1 7.323 1.064 6.85 1.162 6.553 C 1.26 6.256 1.365 6.129 1.549 6.014 C 1.916 5.782 2.744 5.731 4.008 5.714 L 7.443 5.714 L 9.465 3.429 Z"/>
 <path fill="url(#oomox)" class="ColorScheme-Text" d="M 11.937 6.951 C 11.937 6.19 11.315 5.567 10.554 5.567 C 9.79 5.569 9.172 6.188 9.17 6.951 C 9.17 7.712 9.792 8.335 10.554 8.335 C 11.315 8.335 11.937 7.712 11.937 6.951 Z M 11.937 12.487 C 11.937 11.725 11.315 11.103 10.554 11.103 C 9.79 11.105 9.172 11.723 9.17 12.487 C 9.17 13.248 9.792 13.871 10.554 13.871 C 11.315 13.871 11.937 13.248 11.937 12.487 Z M 11.384 6.951 C 11.384 7.413 11.015 7.781 10.554 7.781 C 10.092 7.781 9.723 7.413 9.723 6.951 C 9.723 6.489 10.092 6.121 10.554 6.121 C 11.015 6.121 11.384 6.489 11.384 6.951 Z M 11.384 12.487 C 11.384 12.948 11.015 13.317 10.554 13.317 C 10.092 13.317 9.723 12.948 9.723 12.487 C 9.723 12.025 10.092 11.656 10.554 11.656 C 11.015 11.656 11.384 12.025 11.384 12.487 Z M 9.022 8.119 C 8.909 7.972 8.816 7.809 8.749 7.636 L 6.616 8.823 C 6.356 8.515 5.974 8.337 5.571 8.335 C 4.808 8.337 4.19 8.955 4.188 9.719 C 4.188 10.48 4.81 11.103 5.571 11.103 C 5.989 11.103 6.361 10.911 6.616 10.616 L 8.749 11.801 C 8.816 11.626 8.909 11.466 9.022 11.319 L 6.886 10.132 C 6.927 10.001 6.955 9.863 6.955 9.719 C 6.955 9.574 6.927 9.437 6.885 9.306 L 9.022 8.119 Z M 6.402 9.719 C 6.402 10.18 6.033 10.549 5.571 10.549 C 5.11 10.549 4.741 10.18 4.741 9.719 C 4.741 9.257 5.11 8.888 5.571 8.888 C 6.033 8.888 6.402 9.257 6.402 9.719 Z"/>
</svg>
