<svg xmlns="http://www.w3.org/2000/svg" width="16" height="16" version="1.1">
 <defs>
   <style id="current-color-scheme" type="text/css">
   .ColorScheme-Text { color: #00aa00; } .ColorScheme-Highlight { color:#5294e2; }
  </style>
  <linearGradient id="arrongin" x1="0%" x2="0%" y1="0%" y2="100%">
   <stop offset="0%" style="stop-color:#dd9b44; stop-opacity:1"/>
   <stop offset="100%" style="stop-color:#ad6c16; stop-opacity:1"/>
  </linearGradient>
  <linearGradient id="aurora" x1="0%" x2="0%" y1="0%" y2="100%">
   <stop offset="0%" style="stop-color:#09D4DF; stop-opacity:1"/>
   <stop offset="100%" style="stop-color:#9269F4; stop-opacity:1"/>
  </linearGradient>
  <linearGradient id="cyberneon" x1="0%" x2="0%" y1="0%" y2="100%">
    <stop offset="0" style="stop-color:#0abdc6; stop-opacity:1"/>
    <stop offset="1" style="stop-color:#ea00d9; stop-opacity:1"/>
  </linearGradient>
  <linearGradient id="fitdance" x1="0%" x2="0%" y1="0%" y2="100%">
   <stop offset="0%" style="stop-color:#1AD6AB; stop-opacity:1"/>
   <stop offset="100%" style="stop-color:#329DB6; stop-opacity:1"/>
  </linearGradient>
  <linearGradient id="oomox" x1="0%" x2="0%" y1="0%" y2="100%">
   <stop offset="0%" style="stop-color:#00aa00; stop-opacity:1"/>
   <stop offset="100%" style="stop-color:#00cc00; stop-opacity:1"/>
  </linearGradient>
  <linearGradient id="rainblue" x1="0%" x2="0%" y1="0%" y2="100%">
   <stop offset="0%" style="stop-color:#00F260; stop-opacity:1"/>
   <stop offset="100%" style="stop-color:#0575E6; stop-opacity:1"/>
  </linearGradient>
  <linearGradient id="sunrise" x1="0%" x2="0%" y1="0%" y2="100%">
   <stop offset="0%" style="stop-color: #FF8501; stop-opacity:1"/>
   <stop offset="100%" style="stop-color: #FFCB01; stop-opacity:1"/>
  </linearGradient>
  <linearGradient id="telinkrin" x1="0%" x2="0%" y1="0%" y2="100%">
   <stop offset="0%" style="stop-color: #b2ced6; stop-opacity:1"/>
   <stop offset="100%" style="stop-color: #6da5b7; stop-opacity:1"/>
  </linearGradient>
  <linearGradient id="60spsycho" x1="0%" x2="0%" y1="0%" y2="100%">
   <stop offset="0%" style="stop-color: #df5940; stop-opacity:1"/>
   <stop offset="25%" style="stop-color: #d8d15f; stop-opacity:1"/>
   <stop offset="50%" style="stop-color: #e9882a; stop-opacity:1"/>
   <stop offset="100%" style="stop-color: #279362; stop-opacity:1"/>
  </linearGradient>
  <linearGradient id="90ssummer" x1="0%" x2="0%" y1="0%" y2="100%">
   <stop offset="0%" style="stop-color: #f618c7; stop-opacity:1"/>
   <stop offset="20%" style="stop-color: #94ffab; stop-opacity:1"/>
   <stop offset="50%" style="stop-color: #fbfd54; stop-opacity:1"/>
   <stop offset="100%" style="stop-color: #0f83ae; stop-opacity:1"/>
  </linearGradient>
 </defs>
 <path fill="url(#oomox)" class="ColorScheme-Text" fill-rule="evenodd" d="M 9.769 12.303 C 10.255 12.485 10.783 12.581 11.333 12.581 C 11.37 12.581 11.407 12.58 11.443 12.577 L 11.443 12.577 C 11.268 13.083 10.976 13.544 10.59 13.93 C 9.91 14.61 8.97 15 8 15 C 7.03 15 6.09 14.61 5.41 13.93 C 5.047 13.567 4.767 13.137 4.593 12.664 C 4.617 12.666 4.642 12.667 4.667 12.667 C 5.256 12.667 5.82 12.557 6.334 12.347 C 6.847 12.557 7.411 12.667 8 12.667 C 8.629 12.667 9.228 12.542 9.769 12.303 L 9.769 12.303 Z M 5.088 11.647 C 4.95 11.662 4.81 11.67 4.67 11.67 C 4.56 11.67 4.45 11.665 4.341 11.659 C 4.335 11.55 4.33 11.44 4.33 11.33 L 4.33 11.33 C 4.33 11.19 4.338 11.05 4.353 10.912 C 4.571 11.183 4.817 11.429 5.088 11.647 L 5.088 11.647 Z M 3.653 6.333 C 3.443 5.82 3.333 5.256 3.333 4.667 L 3.333 4.667 C 3.333 4.642 3.334 4.617 3.336 4.593 C 2.863 4.767 2.433 5.047 2.07 5.41 C 1.39 6.09 1 7.03 1 8 L 1 8 C 1 8.97 1.39 9.91 2.07 10.59 C 2.433 10.953 2.863 11.233 3.336 11.407 C 3.334 11.383 3.333 11.358 3.333 11.333 L 3.333 11.333 C 3.333 10.744 3.443 10.18 3.654 9.668 C 3.443 9.154 3.333 8.59 3.333 8 L 3.333 8 C 3.333 7.411 3.443 6.847 3.653 6.333 L 3.653 6.333 Z M 11.647 5.088 C 11.662 4.95 11.67 4.81 11.67 4.67 C 11.67 4.532 11.662 4.396 11.649 4.26 L 11.649 4.26 C 11.543 4.255 11.437 4.25 11.33 4.25 C 11.158 4.25 10.987 4.262 10.82 4.291 C 11.13 4.518 11.406 4.788 11.647 5.088 L 11.647 5.088 Z M 11.009 11.569 C 11.116 11.575 11.223 11.58 11.33 11.58 C 11.441 11.58 11.552 11.575 11.662 11.569 L 11.662 11.569 C 11.667 11.49 11.67 11.41 11.67 11.33 C 11.67 11.19 11.662 11.05 11.647 10.912 C 11.455 11.15 11.241 11.37 11.009 11.569 L 11.009 11.569 Z M 5.088 4.353 C 4.95 4.338 4.81 4.33 4.67 4.33 C 4.56 4.33 4.45 4.335 4.341 4.341 C 4.335 4.45 4.33 4.56 4.33 4.67 L 4.33 4.67 C 4.33 4.81 4.338 4.95 4.353 5.088 C 4.571 4.817 4.817 4.571 5.088 4.353 L 5.088 4.353 Z M 12.347 6.333 C 12.557 5.82 12.667 5.256 12.667 4.667 C 12.667 4.613 12.666 4.56 12.661 4.507 L 12.661 4.507 C 13.135 4.678 13.566 4.956 13.93 5.32 C 14.61 6.01 15 6.94 15 7.91 C 15 8.89 14.61 9.82 13.93 10.51 C 13.567 10.867 13.138 11.145 12.666 11.318 L 12.666 11.318 C 12.664 10.734 12.555 10.175 12.346 9.667 C 12.557 9.153 12.667 8.589 12.667 8 C 12.667 7.411 12.557 6.847 12.347 6.333 L 12.347 6.333 Z M 9.567 3.611 C 10.106 3.372 10.705 3.248 11.333 3.248 C 11.346 3.248 11.359 3.248 11.371 3.249 L 11.371 3.249 C 11.198 2.81 10.931 2.411 10.59 2.07 C 9.91 1.39 8.97 1 8 1 C 7.03 1 6.09 1.39 5.41 2.07 C 5.047 2.433 4.767 2.863 4.593 3.336 C 4.617 3.334 4.642 3.333 4.667 3.333 C 5.256 3.333 5.819 3.443 6.332 3.654 C 6.846 3.443 7.41 3.333 8 3.333 C 8.551 3.333 9.08 3.429 9.567 3.611 L 9.567 3.611 Z M 12.526 12.418 C 14.526 11.897 16 10.077 16 7.914 C 16 5.739 14.508 3.909 12.49 3.403 L 12.49 3.403 C 11.941 1.44 10.137 0 8 0 C 5.831 0 4.006 1.483 3.492 3.492 C 1.483 4.006 0 5.831 0 8 L 0 8 C 0 10.169 1.483 11.994 3.492 12.508 C 4.006 14.517 5.831 16 8 16 C 10.201 16 12.047 14.474 12.526 12.418 L 12.526 12.418 L 12.526 12.418 Z M 4.281 8.031 C 4.281 5.962 5.962 4.281 8.031 4.281 C 10.101 4.281 11.781 5.962 11.781 8.031 C 11.781 10.101 10.101 11.781 8.031 11.781 C 5.962 11.781 4.281 10.101 4.281 8.031 Z"/>
</svg>
