<svg xmlns="http://www.w3.org/2000/svg" width="16" height="16" version="1.1">
 <defs>
   <style id="current-color-scheme" type="text/css">
   .ColorScheme-Text { color: #00aa00; } .ColorScheme-Highlight { color:#5294e2; }
  </style>
  <linearGradient id="arrongin" x1="0%" x2="0%" y1="0%" y2="100%">
   <stop offset="0%" style="stop-color:#dd9b44; stop-opacity:1"/>
   <stop offset="100%" style="stop-color:#ad6c16; stop-opacity:1"/>
  </linearGradient>
  <linearGradient id="aurora" x1="0%" x2="0%" y1="0%" y2="100%">
   <stop offset="0%" style="stop-color:#09D4DF; stop-opacity:1"/>
   <stop offset="100%" style="stop-color:#9269F4; stop-opacity:1"/>
  </linearGradient>
  <linearGradient id="cyberneon" x1="0%" x2="0%" y1="0%" y2="100%">
    <stop offset="0" style="stop-color:#0abdc6; stop-opacity:1"/>
    <stop offset="1" style="stop-color:#ea00d9; stop-opacity:1"/>
  </linearGradient>
  <linearGradient id="fitdance" x1="0%" x2="0%" y1="0%" y2="100%">
   <stop offset="0%" style="stop-color:#1AD6AB; stop-opacity:1"/>
   <stop offset="100%" style="stop-color:#329DB6; stop-opacity:1"/>
  </linearGradient>
  <linearGradient id="oomox" x1="0%" x2="0%" y1="0%" y2="100%">
   <stop offset="0%" style="stop-color:#00aa00; stop-opacity:1"/>
   <stop offset="100%" style="stop-color:#00cc00; stop-opacity:1"/>
  </linearGradient>
  <linearGradient id="rainblue" x1="0%" x2="0%" y1="0%" y2="100%">
   <stop offset="0%" style="stop-color:#00F260; stop-opacity:1"/>
   <stop offset="100%" style="stop-color:#0575E6; stop-opacity:1"/>
  </linearGradient>
  <linearGradient id="sunrise" x1="0%" x2="0%" y1="0%" y2="100%">
   <stop offset="0%" style="stop-color: #FF8501; stop-opacity:1"/>
   <stop offset="100%" style="stop-color: #FFCB01; stop-opacity:1"/>
  </linearGradient>
  <linearGradient id="telinkrin" x1="0%" x2="0%" y1="0%" y2="100%">
   <stop offset="0%" style="stop-color: #b2ced6; stop-opacity:1"/>
   <stop offset="100%" style="stop-color: #6da5b7; stop-opacity:1"/>
  </linearGradient>
  <linearGradient id="60spsycho" x1="0%" x2="0%" y1="0%" y2="100%">
   <stop offset="0%" style="stop-color: #df5940; stop-opacity:1"/>
   <stop offset="25%" style="stop-color: #d8d15f; stop-opacity:1"/>
   <stop offset="50%" style="stop-color: #e9882a; stop-opacity:1"/>
   <stop offset="100%" style="stop-color: #279362; stop-opacity:1"/>
  </linearGradient>
  <linearGradient id="90ssummer" x1="0%" x2="0%" y1="0%" y2="100%">
   <stop offset="0%" style="stop-color: #f618c7; stop-opacity:1"/>
   <stop offset="20%" style="stop-color: #94ffab; stop-opacity:1"/>
   <stop offset="50%" style="stop-color: #fbfd54; stop-opacity:1"/>
   <stop offset="100%" style="stop-color: #0f83ae; stop-opacity:1"/>
  </linearGradient>
 </defs>
 <path fill="url(#oomox)" class="ColorScheme-Text" d="M7.3912 15.7371C7.11313 15.4983 7.09581 15.4413 7.09581 14.765V14.0467L6.61856 14.288C6.35606 14.4206 5.804 14.6153 5.39175 14.7206C4.55843 14.9333 3.84207 14.8727 3.27567 14.5416C2.7309 14.2231 2.56936 13.8966 2.56748 13.1105C2.56671 12.7213 2.6007 12.2259 2.64329 12.0096C2.68643 11.7909 2.68368 11.6711 2.63722 11.7397C2.44566 12.0223 1.86999 12.3537 1.57063 12.3537C1.05488 12.3537 0.743928 11.9004 0.743928 11.1485C0.743928 10.7931 0.826465 10.3161 0.946189 9.97949L1.14845 9.41088L0.921582 9.10424C0.744148 8.86457 0.695376 8.67213 0.698024 8.22225C0.700893 7.7385 0.770741 7.51218 1.13753 6.80013C1.57571 5.94937 1.82839 5.61106 1.82597 5.8782C1.82519 5.95235 1.72103 6.19434 1.59413 6.4158C1.17361 7.14981 0.903265 8.04305 0.979182 8.44735C1.03877 8.76426 1.08489 8.81469 1.31463 8.81436C1.71099 8.8137 2.07512 8.55251 3.28152 7.40239L4.37415 6.36085L3.64257 5.82755C3.24025 5.53426 2.71424 5.17001 2.47369 5.01806C1.86724 4.63506 1.69289 4.20317 1.93267 3.67771C2.05052 3.4195 2.21361 3.30386 3.03358 2.89713C3.34497 2.74265 3.59976 2.59843 3.59976 2.5768C3.59976 2.55517 3.52715 2.46491 3.43843 2.3763C3.17956 2.11799 3.40643 1.5037 3.82177 1.33818C3.99755 1.26811 4.42083 1.08527 4.76224 0.931892C5.43534 0.629438 7.4531 -0.0526024 7.50916 0.00323199C7.62888 0.122735 7.36019 0.349493 6.91992 0.500555C5.43744 1.00924 3.59976 1.77846 3.59976 1.89024C3.59976 1.91948 3.66696 2.07286 3.74894 2.23131L3.89824 2.51931L4.41377 2.31297C6.05834 1.65476 8.48835 0.95054 9.11489 0.95054C9.22799 0.95054 9.43125 1.06111 9.56664 1.19628C9.77475 1.40395 9.80267 1.49906 9.74717 1.81068C9.6515 2.34772 9.39936 2.70943 8.66844 3.35793C8.31081 3.67517 7.87837 4.12924 7.70722 4.36703C7.32929 4.89238 7.24201 4.75997 7.55451 4.13542C7.76096 3.72273 8.37812 3.05536 9.16289 2.39616C9.45409 2.15153 9.4553 2.14635 9.2707 1.94287C9.13464 1.79269 8.96559 1.73697 8.64637 1.73697C8.19583 1.73697 6.75981 2.08201 5.71705 2.44086C4.5474 2.84339 2.22111 3.88052 2.22111 3.99936C2.22111 4.03258 2.36511 4.13387 2.54111 4.22446C2.87656 4.39715 3.67722 4.87715 4.65862 5.49387L5.24025 5.85944L5.69564 5.68686C5.94623 5.59197 6.17465 5.49089 6.20323 5.46231C6.23192 5.43362 6.16152 4.87594 6.04676 4.22292C5.84781 3.08979 5.85344 2.52339 6.06364 2.52339C6.11672 2.52339 6.16019 2.56466 6.16019 2.61509C6.16019 2.66563 6.30011 2.93145 6.47103 3.20598C6.77889 3.70044 6.79666 3.94474 6.50734 3.70496C6.32019 3.54993 6.31181 3.67848 6.46298 4.38226C6.5901 4.97382 6.8664 5.35009 7.30932 5.53481C7.60328 5.65751 7.63738 5.71235 7.63738 6.06358C7.63738 6.49745 7.59125 6.52228 7.18088 6.30865C6.85205 6.1374 6.32825 6.11643 6.05305 6.26352C5.88179 6.355 5.97823 6.45056 6.92124 7.12443C7.50474 7.54142 8.14827 8.00907 8.35142 8.16366L8.72063 8.44482V8.179C8.72063 8.03279 8.67296 7.058 8.61481 6.01282C8.52344 4.37486 8.52918 4.07407 8.65597 3.83407L8.80317 3.55556L9.01613 4.04703C9.51312 5.19384 9.60317 5.78639 9.20118 5.26468L9.02044 5.03009L9.02706 5.57078C9.0307 5.86816 9.0851 6.72653 9.148 7.4782L9.26242 8.84504L9.64543 9.04333C9.99743 9.22539 10.0615 9.23014 10.4333 9.10192L10.838 8.96222L10.8561 8.37243C10.8661 8.04802 10.8333 7.42865 10.7833 6.9961C10.7333 6.56366 10.6497 5.61249 10.5975 4.88267C10.5454 4.15274 10.4536 2.94612 10.3937 2.2013C10.2918 0.935202 10.3143 0.456417 10.4753 0.460831C10.5688 0.463479 11.1827 1.87401 11.1827 2.08599C11.1827 2.2493 11.1718 2.24908 10.9858 2.08102C10.7449 1.86342 10.7481 1.7725 10.9301 3.65387C11.3287 7.77668 11.3531 8.37905 11.148 9.05833C10.9486 9.71875 10.2356 10.055 9.57017 9.8025L9.32344 9.70881L9.3422 11.3507C9.36019 12.9361 9.23197 13.9265 9.00863 13.9265C8.96438 13.9265 8.9369 13.4952 8.94761 12.9681C8.95831 12.4409 8.92951 11.4068 8.88361 10.67L8.80041 9.33044L8.14507 8.8329C7.78469 8.55913 7.40113 8.25513 7.29277 8.15715C7.18441 8.05927 6.83616 7.78606 6.51881 7.55003L5.94171 7.1209L6.19142 7.55003C6.51793 8.11135 6.60356 8.61066 6.45338 9.07863C6.26679 9.66004 6.00383 9.87157 5.13465 10.1394C4.20698 10.4253 3.37377 10.8786 3.15032 11.2191C3.06381 11.3509 2.94751 11.7374 2.89179 12.0781C2.76147 12.8744 2.91352 13.3488 3.43314 13.7666C3.75369 14.0245 3.90707 14.0737 4.49233 14.1067C5.47848 14.1624 6.78651 13.6866 7.76957 12.9149C8.219 12.562 8.21724 12.4673 7.73757 11.1379C7.49779 10.4737 7.43876 10.1821 7.4894 9.9124L7.55594 9.55863L7.98684 10.0468C8.46507 10.5886 8.52146 10.7305 8.22838 10.654C7.98529 10.5906 7.98529 10.6101 8.22838 11.2488C8.44709 11.8231 8.48482 12.5478 8.31313 12.8761C8.25133 12.9943 8.01453 13.2917 7.78689 13.5372C7.4478 13.9027 7.36041 14.0779 7.30347 14.5057C7.25051 14.9045 7.2707 15.0837 7.38888 15.2637C7.70513 15.7455 8.01498 15.5389 9.48852 13.8635C10.0087 13.2721 10.2236 13.1299 11.3178 12.6542L11.896 12.4028L11.9167 11.7147C11.9441 10.7967 12.225 10.2892 12.7055 10.2892C12.8803 10.2892 12.9711 10.3821 13.0924 10.6845C13.1794 10.9019 13.2507 11.1617 13.2507 11.2619C13.2507 11.5688 12.9604 12.2865 12.7426 12.5179C12.4438 12.8353 12.567 13.0418 13.0552 13.0418C13.3501 13.0418 13.5208 12.9778 13.6984 12.8004C13.9917 12.5077 13.9959 12.372 13.7954 9.65033C13.3399 3.46816 13.3014 2.42044 13.5293 2.42695C13.6049 2.42905 14.2355 3.82292 14.2355 3.98767C14.2355 4.15495 14.06 4.11622 13.948 3.92411C13.8059 3.68058 13.812 4.0616 13.9847 6.20405C14.4443 11.9058 14.4179 12.7405 13.7581 13.3716C13.1927 13.9122 12.4996 13.8993 12.2531 13.3433C12.1796 13.1775 12.0693 13.0418 12.008 13.0418C11.7617 13.0418 10.3449 13.7572 9.98904 14.0614C9.78005 14.2399 9.39174 14.6726 9.12615 15.0228C8.35914 16.0342 7.93895 16.2071 7.39131 15.7371H7.3912ZM12.6379 12.004C12.8921 11.8262 12.9286 11.4065 12.7148 11.1191C12.4171 10.7188 12.0538 11.2984 12.2108 11.9232C12.2799 12.1979 12.3435 12.2099 12.6379 12.004ZM1.93808 11.5912C2.08031 11.4969 2.43617 11.1724 2.72892 10.8702C3.47275 10.1021 3.92902 9.8281 5.14833 9.41773C6.02712 9.12189 6.2147 9.02379 6.23997 8.84691C6.28521 8.52989 5.93189 7.91207 5.35688 7.3022C4.74855 6.65712 4.9122 6.59025 3.33239 8.13044C2.65653 8.78931 2.0429 9.29767 1.78702 9.41066C1.44462 9.56183 1.33217 9.67891 1.20429 10.0173C0.823045 11.0268 0.908341 11.7644 1.40622 11.7632C1.55651 11.7629 1.79584 11.6854 1.93808 11.5912ZM2.28677 10.5186C2.16373 10.3959 2.22067 9.68101 2.38001 9.34567C2.54034 9.00846 2.79457 8.86346 2.6647 9.18335C2.45416 9.70208 2.40395 9.91416 2.45835 10.0558C2.50734 10.1832 2.54674 10.19 2.66536 10.0917C2.83728 9.94936 2.84599 9.99052 2.7159 10.332C2.6242 10.5729 2.42701 10.6587 2.28677 10.5186ZM3.77774 8.88498C3.51943 8.6729 3.51689 8.66032 3.67755 8.39693C3.86293 8.09282 4.01057 8.05751 4.19065 8.27411C4.36091 8.47891 4.54773 8.45817 4.71799 8.21552L4.86254 8.00951L5.16665 8.23406C5.52086 8.49546 5.53421 8.58352 5.26773 8.90297L5.0712 9.13855L4.81951 8.90297L4.56781 8.66727L4.38806 8.88851C4.16759 9.15974 4.1122 9.15941 3.77774 8.88498ZM9.51158 15.9171C9.51335 15.8766 9.57977 15.7576 9.65933 15.6526C9.84736 15.4044 9.8457 15.1946 9.65624 15.2672C9.44283 15.349 9.47483 15.167 9.71141 14.9533C9.88521 14.7964 9.92758 14.7906 10.0054 14.9134C10.1355 15.1188 10.1244 15.1823 9.88432 15.6088C9.69001 15.9539 9.50353 16.1081 9.51158 15.9171ZM11.1395 15.253C11.0557 15.0529 10.8899 14.8683 10.7442 14.813C10.4567 14.7039 10.3761 14.2215 10.6455 14.2215C10.8044 14.2215 11.1594 14.5478 11.3331 14.8535C11.4274 15.0195 11.4354 15.0176 11.4499 14.8251C11.4711 14.5453 11.6974 14.0972 11.8411 14.0505C11.9918 14.0015 12.304 14.4736 12.2154 14.6167C12.169 14.6915 12.0897 14.6732 11.9628 14.5585C11.7563 14.372 11.7782 14.34 11.5734 15.1307C11.5068 15.3875 11.4145 15.5977 11.3681 15.5977C11.3217 15.5977 11.2188 15.4425 11.1395 15.253ZM1.73217 13.6562C1.73416 13.6156 1.79904 13.4719 1.87639 13.3367C2.05769 13.02 2.05769 12.9435 1.87639 12.9435C1.6983 12.9435 1.68605 12.8288 1.84682 12.6683C2.00892 12.5065 2.18845 12.5203 2.25752 12.6998C2.3191 12.8599 1.93907 13.7299 1.80754 13.7299C1.76417 13.7299 1.7303 13.6967 1.73217 13.6562ZM4.093 13.3403C3.93178 13.2374 3.89007 12.4983 4.01951 12.0368L4.09465 11.7691L3.74453 11.9752C3.37741 12.1915 3.19336 12.1633 3.39418 11.9217C3.52108 11.7689 4.71104 11.0326 5.01658 10.9176C5.31915 10.8038 5.15749 11.0934 4.77393 11.3524C4.28941 11.6796 4.14552 12.0129 4.17973 12.7289C4.18844 12.9102 4.23082 12.944 4.38762 12.8944C4.63049 12.8173 4.64053 12.9528 4.41222 13.2269C4.28753 13.3767 4.19937 13.408 4.093 13.3403ZM5.53675 12.4475C5.22955 12.2062 5.20957 12.0584 5.44626 11.7784L5.61862 11.5746L5.91004 11.8122C6.16472 12.0199 6.18954 12.0834 6.10701 12.3166C5.98265 12.6678 5.85476 12.6972 5.53675 12.4475ZM6.80957 12.3638C6.61183 12.1458 6.61183 11.9184 6.80957 11.3389C6.99087 10.808 7.17724 10.8035 7.03059 11.3337C6.91749 11.7428 7.00444 12.2858 7.14645 12.0565C7.26463 11.8657 7.3464 11.9715 7.27909 12.2283C7.20427 12.514 6.99936 12.5733 6.80957 12.3639V12.3638ZM10.0008 12.075C10.0008 12.0184 10.0438 11.9456 10.0962 11.9133C10.1485 11.8809 10.1668 11.7315 10.1367 11.5814C10.0955 11.3761 10.1487 11.2289 10.3499 10.9901C10.6536 10.6299 11.0349 10.5954 11.0349 10.9282C11.0349 11.0798 10.9692 11.1249 10.7485 11.1249C10.591 11.1249 10.4445 11.1764 10.423 11.2394C10.3673 11.4029 10.7467 11.4987 11.1503 11.4231C11.4394 11.3689 11.4895 11.3851 11.4618 11.5234C11.4414 11.6252 11.2216 11.7544 10.8871 11.8611C10.5893 11.9561 10.268 12.0663 10.1732 12.1059C10.0728 12.148 10.0008 12.1351 10.0008 12.075ZM14.8755 10.7071C14.8755 9.90964 14.7973 8.1449 14.7016 6.78556C14.571 4.92902 14.5548 4.24411 14.6365 4.03302C14.7438 3.75594 14.7499 3.76289 15.0778 4.53862C15.2606 4.97106 15.4118 5.38033 15.4137 5.44786C15.4188 5.62772 15.2459 5.59781 15.1297 5.39875C14.9875 5.15522 14.9974 5.66369 15.1718 7.586C15.3598 9.65916 15.3584 11.005 15.1672 11.6477C15.0839 11.9278 14.9841 12.157 14.9456 12.1571C14.9071 12.1571 14.8755 11.5047 14.8755 10.7071ZM5.37476 11.0238C5.44339 10.9411 5.84461 10.583 6.26623 10.2278C6.68786 9.87256 7.05685 9.51946 7.08632 9.44299C7.11567 9.36652 7.09029 9.19571 7.02993 9.06341C6.94187 8.87041 6.95346 8.7721 7.08841 8.56642C7.22414 8.35974 7.28394 8.33271 7.39782 8.42694C7.47539 8.49127 7.53895 8.6623 7.53895 8.80708C7.53895 8.95185 7.58827 9.11957 7.64852 9.17971C7.77718 9.30815 7.67556 9.52024 7.50419 9.48095C7.43909 9.46606 7.21167 9.64636 6.9987 9.88161C6.55468 10.3722 5.54282 11.174 5.36781 11.174C5.27909 11.174 5.28086 11.1367 5.37476 11.0238ZM10.9857 10.3982C10.9857 10.3383 11.0743 10.2893 11.1826 10.2893C11.291 10.2893 11.3796 10.2416 11.3796 10.1832C11.3796 10.1153 11.2642 10.1011 11.0595 10.1437L10.7395 10.2102L10.9519 9.9913C11.1257 9.81221 11.2285 9.78451 11.5181 9.83869C11.9141 9.91284 11.9514 9.99074 11.6996 10.2173C11.4742 10.4201 10.9857 10.5439 10.9857 10.3982ZM0.0200667 10.2149C-0.010278 10.1658 0.0736944 9.96559 0.20677 9.77005C0.431763 9.43957 0.436618 9.40768 0.276287 9.31676C0.115846 9.22584 0.115184 9.20763 0.266687 9.05447C0.493335 8.82528 0.678383 8.96951 0.608093 9.3204C0.538576 9.66755 0.0970873 10.3391 0.0200667 10.2149ZM11.9235 9.60366C11.7587 9.42192 11.7579 9.39378 11.9105 9.16128C12.0979 8.87582 12.1464 8.86622 12.4075 9.06341C12.579 9.19295 12.6216 9.18567 12.8288 8.99146L13.059 8.77541L13.325 9.0409L13.5909 9.30628L13.3261 9.57066C13.0671 9.82909 13.0567 9.83097 12.8605 9.65375C12.6734 9.48459 12.6477 9.48338 12.4797 9.6351C12.2459 9.8463 12.1379 9.84023 11.9235 9.60366ZM12.2659 8.50473C12.2659 8.31262 12.2373 7.88294 12.2024 7.54981L12.1391 6.94424L11.7962 7.14617C11.4211 7.36719 11.2109 7.31489 11.5275 7.07941C12.2007 6.57867 12.1562 6.70424 12.0621 5.57078C11.7715 2.07186 11.7521 1.14706 11.9691 1.14706C12.0618 1.14706 12.6598 2.5629 12.6598 2.78215C12.6598 2.93211 12.6421 2.93101 12.4629 2.76913C12.268 2.59313 12.2663 2.59644 12.3084 3.07335C12.3317 3.33851 12.3843 4.02 12.4253 4.58772C12.4664 5.15544 12.5082 5.6531 12.5183 5.69359C12.5284 5.7342 12.5422 5.88339 12.549 6.02518C12.5595 6.24587 12.5831 6.26485 12.7132 6.15704C12.8186 6.06976 12.8337 5.99991 12.7624 5.92874C12.6182 5.78485 12.6348 5.44576 12.7969 5.22463C12.9096 5.07059 12.9604 5.05944 13.0833 5.16129C13.2714 5.31699 13.2807 6.16057 13.0945 6.16057C12.8463 6.16057 12.5546 6.66341 12.615 6.98683C12.6811 7.33971 12.4957 8.62313 12.3589 8.76062C12.3004 8.81933 12.2659 8.72421 12.2659 8.50473ZM15.4575 8.37177C15.382 8.07174 15.4825 7.49265 15.6743 7.12245C15.909 6.66959 15.9897 6.81381 15.8055 7.35682C15.6233 7.89398 15.6491 8.17204 15.8731 8.0862C16.0339 8.02462 16.0361 8.04029 15.912 8.36603C15.7894 8.68802 15.5378 8.69122 15.4575 8.37177ZM9.8435 7.97552C9.7454 7.58534 10.0199 6.55373 10.2219 6.55373C10.3295 6.55373 10.3156 6.64421 10.1367 7.11207C9.95174 7.59527 10.0117 7.9284 10.2482 7.73243C10.4264 7.58479 10.4497 7.74225 10.2928 8.03478C10.1497 8.30181 9.91787 8.27135 9.8435 7.97552ZM2.41079 7.32669C2.28048 7.08349 2.33267 6.65315 2.55777 6.11533C2.75485 5.64449 2.86254 5.71688 2.72119 6.22512C2.66337 6.4329 2.61581 6.70545 2.61559 6.83069C2.61526 7.01652 2.65267 7.04664 2.81907 6.9939C3.01736 6.93111 3.01868 6.93795 2.86585 7.23301C2.68059 7.59053 2.56505 7.61436 2.41079 7.32669ZM7.84935 7.40736C7.72974 7.26358 7.84505 6.71704 8.09873 6.22512C8.31964 5.79677 8.36675 5.98965 8.17906 6.55373C8.00041 7.09078 8.0312 7.24934 8.27517 7.0473C8.45613 6.89723 8.48107 7.05227 8.32328 7.34667C8.2051 7.56702 8.0035 7.59284 7.84935 7.40736ZM0.0189635 6.70126C0.0500807 6.62016 0.10746 6.55373 0.146411 6.55373C0.247928 6.55373 1.37742 5.67009 1.41791 5.55886C1.43656 5.50766 1.39794 5.40096 1.33206 5.32173C1.16379 5.11936 1.38834 4.58772 1.64213 4.58772C1.79319 4.58772 1.82718 4.66198 1.82718 4.99136C1.82718 5.49089 1.43689 6.02043 0.707293 6.51092C0.169253 6.87263 -0.0726226 6.9395 0.0189635 6.70126ZM0.550714 5.47941C0.463321 5.31655 0.479983 5.18391 0.630162 4.84504C0.734658 4.60935 0.869389 4.38601 0.929748 4.34882C1.0722 4.26099 1.06834 4.29773 0.891679 4.72002C0.810355 4.91412 0.743928 5.12399 0.743928 5.18645C0.743928 5.26821 0.785086 5.26579 0.891679 5.17751C1.12285 4.98606 1.08379 5.30353 0.85019 5.5145C0.669776 5.67748 0.655983 5.67594 0.550714 5.47941ZM4.59573 4.8062C4.46188 4.54424 4.31347 4.39429 4.16759 4.37354C3.88621 4.33371 3.80069 3.92962 4.05316 3.83296C4.17421 3.78651 4.30298 3.86055 4.49013 4.08444L4.75551 4.40168L4.86497 3.9678C5.00422 3.41564 5.21608 3.21492 5.36549 3.49354C5.56235 3.86066 5.41901 4.21343 5.21013 3.876C5.11733 3.72615 5.00323 4.08995 4.98679 4.58772C4.96726 5.18181 4.82756 5.25983 4.59573 4.8062ZM9.70568 4.3422C9.57017 4.17922 9.61166 3.64571 9.79671 3.17321C9.96454 2.74463 10.0453 2.94778 9.9054 3.44665C9.78391 3.87975 9.8307 4.15208 10.0077 4.04284C10.1528 3.95335 10.1142 4.25647 9.96477 4.38027C9.86225 4.46513 9.80035 4.45608 9.70568 4.3422ZM11.1795 4.18871C11.0585 3.96306 11.1312 3.491 11.3451 3.11318C11.4744 2.88455 11.4798 2.90342 11.4225 3.38397C11.3692 3.83109 11.3821 3.89244 11.518 3.84036C11.6987 3.77117 11.722 3.92322 11.573 4.20096C11.4417 4.44593 11.3153 4.44195 11.1795 4.18871ZM7.36659 3.49167C7.29884 3.42403 7.24345 3.28643 7.24345 3.18568C7.24345 2.94248 7.72532 1.93349 7.84151 1.93349C7.98375 1.93349 7.95031 2.0968 7.73625 2.44726C7.49316 2.84516 7.46215 3.20091 7.68659 3.01487C7.9032 2.83545 7.88466 3.12764 7.66198 3.40207C7.52416 3.57211 7.46513 3.58998 7.36659 3.49167ZM1.98453 3.23743C1.8701 3.12323 1.9277 2.5096 2.08064 2.21443C2.27617 1.83694 2.37824 1.91892 2.23248 2.33636C2.08958 2.74563 2.09388 2.81823 2.26106 2.81823C2.34944 2.81823 2.38166 2.88698 2.34988 3.00803C2.29802 3.20598 2.08616 3.33895 1.98453 3.23743ZM8.72063 0.674569C8.72063 0.630982 8.84256 0.543259 8.99152 0.47981C9.25514 0.367369 9.25249 0.365383 8.89299 0.405438C8.51009 0.448142 8.43947 0.385797 8.64184 0.183756C8.76433 0.0614941 9.52692 0.0185701 9.63638 0.127811C9.75544 0.246763 9.51059 0.5373 9.20041 0.645217C8.82899 0.774541 8.72063 0.781161 8.72063 0.674569Z"/>
</svg>
