<svg xmlns="http://www.w3.org/2000/svg" width="16" height="16" version="1.1">
 <defs>
   <style id="current-color-scheme" type="text/css">
   .ColorScheme-Text { color: #00aa00; } .ColorScheme-Highlight { color:#5294e2; }
  </style>
  <linearGradient id="arrongin" x1="0%" x2="0%" y1="0%" y2="100%">
   <stop offset="0%" style="stop-color:#dd9b44; stop-opacity:1"/>
   <stop offset="100%" style="stop-color:#ad6c16; stop-opacity:1"/>
  </linearGradient>
  <linearGradient id="aurora" x1="0%" x2="0%" y1="0%" y2="100%">
   <stop offset="0%" style="stop-color:#09D4DF; stop-opacity:1"/>
   <stop offset="100%" style="stop-color:#9269F4; stop-opacity:1"/>
  </linearGradient>
  <linearGradient id="cyberneon" x1="0%" x2="0%" y1="0%" y2="100%">
    <stop offset="0" style="stop-color:#0abdc6; stop-opacity:1"/>
    <stop offset="1" style="stop-color:#ea00d9; stop-opacity:1"/>
  </linearGradient>
  <linearGradient id="fitdance" x1="0%" x2="0%" y1="0%" y2="100%">
   <stop offset="0%" style="stop-color:#1AD6AB; stop-opacity:1"/>
   <stop offset="100%" style="stop-color:#329DB6; stop-opacity:1"/>
  </linearGradient>
  <linearGradient id="oomox" x1="0%" x2="0%" y1="0%" y2="100%">
   <stop offset="0%" style="stop-color:#00aa00; stop-opacity:1"/>
   <stop offset="100%" style="stop-color:#00cc00; stop-opacity:1"/>
  </linearGradient>
  <linearGradient id="rainblue" x1="0%" x2="0%" y1="0%" y2="100%">
   <stop offset="0%" style="stop-color:#00F260; stop-opacity:1"/>
   <stop offset="100%" style="stop-color:#0575E6; stop-opacity:1"/>
  </linearGradient>
  <linearGradient id="sunrise" x1="0%" x2="0%" y1="0%" y2="100%">
   <stop offset="0%" style="stop-color: #FF8501; stop-opacity:1"/>
   <stop offset="100%" style="stop-color: #FFCB01; stop-opacity:1"/>
  </linearGradient>
  <linearGradient id="telinkrin" x1="0%" x2="0%" y1="0%" y2="100%">
   <stop offset="0%" style="stop-color: #b2ced6; stop-opacity:1"/>
   <stop offset="100%" style="stop-color: #6da5b7; stop-opacity:1"/>
  </linearGradient>
  <linearGradient id="60spsycho" x1="0%" x2="0%" y1="0%" y2="100%">
   <stop offset="0%" style="stop-color: #df5940; stop-opacity:1"/>
   <stop offset="25%" style="stop-color: #d8d15f; stop-opacity:1"/>
   <stop offset="50%" style="stop-color: #e9882a; stop-opacity:1"/>
   <stop offset="100%" style="stop-color: #279362; stop-opacity:1"/>
  </linearGradient>
  <linearGradient id="90ssummer" x1="0%" x2="0%" y1="0%" y2="100%">
   <stop offset="0%" style="stop-color: #f618c7; stop-opacity:1"/>
   <stop offset="20%" style="stop-color: #94ffab; stop-opacity:1"/>
   <stop offset="50%" style="stop-color: #fbfd54; stop-opacity:1"/>
   <stop offset="100%" style="stop-color: #0f83ae; stop-opacity:1"/>
  </linearGradient>
 </defs>
 <path fill="url(#oomox)" class="ColorScheme-Text" d="M 11.377 5.745 C 10.026 5.746 8.894 6.575 8.317 7.734 L 8.375 7.729 C 8.349 7.73 8.329 7.746 8.303 7.748 C 8.29 7.775 8.26 7.788 8.247 7.815 L 8.275 7.756 C 6.996 7.905 6 9.013 6 10.357 C 6 11.801 7.137 13 8.552 13 L 11.378 13 L 14.014 13 C 15.116 13 16 12.065 16 10.948 C 16 10.141 15.519 9.472 14.848 9.141 L 14.853 9.197 L 14.853 9.205 C 14.852 9.179 14.837 9.157 14.835 9.131 C 14.806 9.117 14.791 9.082 14.761 9.069 L 14.827 9.098 C 14.688 7.243 13.22 5.748 11.38 5.747 L 11.4 5.747 L 11.388 5.746 L 11.377 5.745 Z M 11.813 6.424 C 13.153 6.645 14.199 7.777 14.265 9.231 L 14.265 9.235 L 14.284 9.505 L 14.529 9.611 C 15.047 9.83 15.412 10.336 15.412 10.949 C 15.412 11.328 15.254 11.659 15.028 11.919 C 15.254 11.658 15.411 11.325 15.408 10.947 C 15.407 10.338 15.04 9.829 14.527 9.611 L 14.28 9.506 L 14.263 9.241 L 14.263 9.239 L 14.262 9.232 C 14.196 7.78 13.152 6.647 11.814 6.425 L 11.813 6.424 Z M 11.377 6.923 L 11.383 6.923 C 12.611 6.927 13.615 7.936 13.675 9.257 L 13.675 9.259 L 13.717 9.906 L 14.298 10.151 C 14.608 10.283 14.821 10.568 14.821 10.948 L 14.821 10.949 L 14.821 10.95 C 14.826 11.454 14.451 11.823 14.015 11.823 L 11.381 11.823 L 8.553 11.823 C 7.804 11.823 7.178 11.19 7.178 10.357 C 7.178 9.563 7.759 8.953 8.46 8.902 L 9.057 8.859 L 9.317 8.305 C 9.704 7.471 10.47 6.923 11.377 6.922 L 11.377 6.923 Z M 8.753 8.124 L 8.671 8.298 L 8.67 8.298 L 8.753 8.124 Z M 7.122 8.957 C 6.792 9.323 6.589 9.816 6.589 10.358 C 6.589 10.641 6.644 10.911 6.743 11.156 C 6.644 10.911 6.588 10.642 6.588 10.358 C 6.588 9.814 6.792 9.323 7.122 8.957 L 7.122 8.957 Z M 7.165 11.81 C 7.343 11.996 7.554 12.146 7.789 12.25 C 7.554 12.146 7.343 11.996 7.165 11.81 Z M 15.003 11.981 C 14.804 12.19 14.516 12.266 14.228 12.319 C 14.516 12.266 14.804 12.19 15.003 11.981 Z"/>
 <path fill="url(#oomox)" class="ColorScheme-Text" d="M 6.17 1.17 L 5.113 3 L 3 3 L 3 5.113 L 1.17 6.17 L 2.227 8 L 1.17 9.83 L 3 10.887 L 3 13 L 5.113 13 L 6.17 14.83 L 8 13.773 L 9.83 14.83 L 10.887 13 L 13 13 L 13 11.895 C 11.91 11.948 10.796 11.904 9.697 11.908 C 9.03 11.839 8.251 12.062 7.689 11.588 C 6.754 10.921 6.984 9.201 8.135 8.912 C 8.427 8.774 8.864 8.898 9.057 8.654 C 9.421 7.77 10.175 6.867 11.213 6.879 C 11.456 6.879 11.704 6.869 11.943 6.924 C 13.133 7.218 13.821 8.474 13.779 9.643 C 13.658 10.008 14.215 9.866 14.248 10.152 C 14.239 10.165 14.225 10.173 14.215 10.186 L 14.83 9.83 L 13.773 8 L 14.83 6.17 L 13 5.113 L 13 3 L 10.887 3 L 9.83 1.17 L 8 2.227 L 6.17 1.17 Z"/>
</svg>
