<svg xmlns="http://www.w3.org/2000/svg" width="16" height="16" version="1.1">
 <defs>
   <style id="current-color-scheme" type="text/css">
   .ColorScheme-Text { color: #00aa00; } .ColorScheme-Highlight { color:#5294e2; }
  </style>
  <linearGradient id="arrongin" x1="0%" x2="0%" y1="0%" y2="100%">
   <stop offset="0%" style="stop-color:#dd9b44; stop-opacity:1"/>
   <stop offset="100%" style="stop-color:#ad6c16; stop-opacity:1"/>
  </linearGradient>
  <linearGradient id="aurora" x1="0%" x2="0%" y1="0%" y2="100%">
   <stop offset="0%" style="stop-color:#09D4DF; stop-opacity:1"/>
   <stop offset="100%" style="stop-color:#9269F4; stop-opacity:1"/>
  </linearGradient>
  <linearGradient id="cyberneon" x1="0%" x2="0%" y1="0%" y2="100%">
    <stop offset="0" style="stop-color:#0abdc6; stop-opacity:1"/>
    <stop offset="1" style="stop-color:#ea00d9; stop-opacity:1"/>
  </linearGradient>
  <linearGradient id="fitdance" x1="0%" x2="0%" y1="0%" y2="100%">
   <stop offset="0%" style="stop-color:#1AD6AB; stop-opacity:1"/>
   <stop offset="100%" style="stop-color:#329DB6; stop-opacity:1"/>
  </linearGradient>
  <linearGradient id="oomox" x1="0%" x2="0%" y1="0%" y2="100%">
   <stop offset="0%" style="stop-color:#00aa00; stop-opacity:1"/>
   <stop offset="100%" style="stop-color:#00cc00; stop-opacity:1"/>
  </linearGradient>
  <linearGradient id="rainblue" x1="0%" x2="0%" y1="0%" y2="100%">
   <stop offset="0%" style="stop-color:#00F260; stop-opacity:1"/>
   <stop offset="100%" style="stop-color:#0575E6; stop-opacity:1"/>
  </linearGradient>
  <linearGradient id="sunrise" x1="0%" x2="0%" y1="0%" y2="100%">
   <stop offset="0%" style="stop-color: #FF8501; stop-opacity:1"/>
   <stop offset="100%" style="stop-color: #FFCB01; stop-opacity:1"/>
  </linearGradient>
  <linearGradient id="telinkrin" x1="0%" x2="0%" y1="0%" y2="100%">
   <stop offset="0%" style="stop-color: #b2ced6; stop-opacity:1"/>
   <stop offset="100%" style="stop-color: #6da5b7; stop-opacity:1"/>
  </linearGradient>
  <linearGradient id="60spsycho" x1="0%" x2="0%" y1="0%" y2="100%">
   <stop offset="0%" style="stop-color: #df5940; stop-opacity:1"/>
   <stop offset="25%" style="stop-color: #d8d15f; stop-opacity:1"/>
   <stop offset="50%" style="stop-color: #e9882a; stop-opacity:1"/>
   <stop offset="100%" style="stop-color: #279362; stop-opacity:1"/>
  </linearGradient>
  <linearGradient id="90ssummer" x1="0%" x2="0%" y1="0%" y2="100%">
   <stop offset="0%" style="stop-color: #f618c7; stop-opacity:1"/>
   <stop offset="20%" style="stop-color: #94ffab; stop-opacity:1"/>
   <stop offset="50%" style="stop-color: #fbfd54; stop-opacity:1"/>
   <stop offset="100%" style="stop-color: #0f83ae; stop-opacity:1"/>
  </linearGradient>
 </defs>
 <path fill="url(#oomox)" class="ColorScheme-Text" d="M 10.462973 13.935307 C 10.737316 13.934426 11.000721 14.042811 11.194996 14.236516 C 11.389274 14.430223 11.498431 14.69331 11.498357 14.967653 C 11.498058 15.241517 11.388838 15.504011 11.194782 15.697255 C 11.000434 15.890905 10.737331 15.999749 10.462973 16 L 2.186938 16 C 1.912641 15.99945 1.649647 15.890652 1.455129 15.697255 C 1.261138 15.503969 1.151929 15.2415 1.151554 14.967653 C 1.151639 14.693343 1.260864 14.430339 1.455129 14.236672 C 1.649787 14.043654 1.912808 13.93534 2.186938 13.935307 L 10.462973 13.935307 L 10.462973 13.935307 Z"/>
 <path fill="url(#oomox)" class="ColorScheme-Text" fill-rule="evenodd" d="M 3.044609 2.366671 L 3.574214 2.366671 C 3.727303 2.366671 3.879012 2.383222 4.027964 2.417701 C 4.145194 2.443905 4.256907 2.48666 4.361725 2.541828 C 4.462406 2.595615 4.554811 2.663195 4.637561 2.740429 C 4.732725 2.831455 4.818233 2.933514 4.889951 3.045227 C 4.967185 3.165216 5.034764 3.2921 5.094069 3.423123 C 5.154753 3.559662 5.205783 3.701717 5.247158 3.846531 C 5.291292 4.006515 5.324393 4.167879 5.346459 4.332002 C 5.369905 4.523708 5.382318 4.715413 5.382318 4.907119 C 5.382318 5.072621 5.372664 5.236743 5.353356 5.400866 C 5.335426 5.553955 5.307842 5.707044 5.270604 5.857374 C 5.234746 6.003568 5.187853 6.148381 5.129928 6.287678 C 5.073381 6.426976 5.007181 6.560756 4.931326 6.68902 C 4.866504 6.799354 4.785133 6.900034 4.692729 6.988302 C 4.58929 7.086223 4.474818 7.170353 4.350692 7.237933 C 4.227945 7.304134 4.095544 7.355163 3.959005 7.386884 C 3.787986 7.426881 3.612831 7.447568 3.437676 7.447568 L 3.044609 7.447568 L 3.044609 2.366671 L 3.044609 2.366671 Z M 3.288724 9.665289 L 1.291672 9.665289 C 0.987196 9.665289 0.74 9.418093 0.74 9.113617 L 0.74 0.700622 C 0.74 0.396147 0.987196 0.148951 1.291672 0.148951 L 3.338374 0.148951 C 3.640414 0.148951 3.939697 0.173776 4.237599 0.222048 C 4.499643 0.264802 4.75755 0.331002 5.007181 0.422029 C 5.255434 0.511675 5.494031 0.623389 5.722976 0.75579 C 5.921577 0.871641 6.107766 1.00818 6.278785 1.161269 C 6.447045 1.312978 6.600134 1.479859 6.73943 1.657773 C 6.882865 1.842584 7.011129 2.039805 7.122842 2.246682 C 7.233177 2.450801 7.32834 2.661816 7.409711 2.878347 C 7.488325 3.09212 7.553146 3.31003 7.602797 3.532078 C 7.652447 3.751367 7.688306 3.973415 7.711752 4.196843 C 7.736577 4.432682 7.748989 4.669901 7.748989 4.907119 C 7.748989 5.127789 7.737957 5.347078 7.715889 5.566368 C 7.693822 5.78152 7.660722 5.996671 7.616588 6.207685 C 7.571075 6.424217 7.51177 6.63661 7.435916 6.844867 C 7.357303 7.064156 7.264898 7.279308 7.157321 7.486185 C 7.048367 7.6972 6.922861 7.89856 6.780806 8.088886 C 6.642888 8.273696 6.489799 8.444715 6.322918 8.603319 C 6.151901 8.764685 5.962953 8.90674 5.760213 9.026728 C 5.525753 9.167405 5.2775 9.284634 5.020973 9.379798 C 4.763066 9.473583 4.496885 9.543921 4.225187 9.589434 C 3.914871 9.640463 3.603177 9.665289 3.288724 9.665289 L 3.288724 9.665289 Z M 12.90712 6.611785 C 12.904361 6.642127 12.900224 6.672469 12.896087 6.701432 C 12.883675 6.782804 12.865745 6.862796 12.83954 6.941409 C 12.817475 7.008989 12.79127 7.07381 12.758169 7.135874 C 12.727827 7.191041 12.693347 7.244829 12.65473 7.294479 C 12.618872 7.338613 12.577497 7.379988 12.531983 7.415847 C 12.489229 7.448947 12.442338 7.47791 12.392687 7.501356 C 12.33614 7.52756 12.276837 7.546869 12.216152 7.557902 C 12.129263 7.575832 12.042374 7.584107 11.954107 7.584107 C 11.845153 7.584107 11.737577 7.570315 11.632758 7.541353 C 11.544491 7.517906 11.46036 7.480668 11.383127 7.432397 C 11.297618 7.379988 11.221763 7.315166 11.155563 7.240692 C 11.063158 7.135874 10.983166 7.020022 10.916966 6.897275 C 10.849385 6.77177 10.79146 6.640748 10.741809 6.506968 C 10.686641 6.360774 10.64113 6.210444 10.60527 6.057355 C 10.563894 5.883579 10.534932 5.708423 10.515624 5.533267 C 10.492178 5.325012 10.481144 5.115376 10.481144 4.907119 C 10.481144 4.672659 10.496315 4.438199 10.523899 4.206497 C 10.550103 3.998241 10.58872 3.792743 10.642508 3.590004 C 10.69078 3.403815 10.761118 3.223141 10.850763 3.052124 C 10.937652 2.886622 11.04385 2.732154 11.166597 2.591477 C 11.221763 2.529414 11.282447 2.472869 11.347269 2.423218 C 11.402435 2.381842 11.461741 2.345983 11.525182 2.317021 C 11.587247 2.289438 11.652066 2.26875 11.718268 2.254958 C 11.795502 2.238407 11.875495 2.230133 11.954107 2.230133 C 11.996861 2.230133 12.038237 2.23427 12.078234 2.241166 C 12.119608 2.248062 12.159605 2.259095 12.198222 2.274266 C 12.240976 2.289438 12.280974 2.308746 12.320969 2.332192 C 12.369241 2.361154 12.416133 2.394255 12.458887 2.430113 C 12.543017 2.500452 12.618872 2.579065 12.686451 2.665953 C 12.79127 2.803871 12.885053 2.950065 12.967805 3.103154 C 13.020214 3.202454 13.10986 3.275551 13.217436 3.305892 C 13.325012 3.337614 13.440862 3.323822 13.537406 3.267275 L 14.84073 2.522518 C 14.935894 2.46873 15.004853 2.380463 15.033815 2.275646 C 15.062778 2.170828 15.050364 2.059115 14.997957 1.963951 C 14.837971 1.675702 14.651781 1.402625 14.442148 1.148856 C 14.258717 0.929567 14.053218 0.730964 13.827033 0.557188 C 13.711182 0.46892 13.589814 0.391686 13.460171 0.325486 C 13.325012 0.256527 13.184335 0.198601 13.038142 0.153089 C 12.876778 0.102059 12.709899 0.064821 12.541639 0.039995 C 12.347174 0.013792 12.151331 0 11.954107 0 C 11.749989 0 11.544491 0.016549 11.341751 0.051029 C 11.152804 0.08413 10.965236 0.132401 10.784563 0.198601 C 10.60665 0.263423 10.434253 0.344795 10.271509 0.441337 C 10.10187 0.540638 9.941885 0.653731 9.792933 0.781994 C 9.648119 0.906121 9.510201 1.0399 9.38056 1.180577 C 9.255054 1.319875 9.137823 1.466067 9.031626 1.619156 C 8.92405 1.775003 8.827508 1.936367 8.740619 2.103249 C 8.650973 2.275646 8.573739 2.453559 8.506159 2.635612 C 8.376515 2.988681 8.279973 3.354164 8.216532 3.723784 C 8.148952 4.115471 8.114472 4.511296 8.114472 4.907119 C 8.114472 5.323632 8.148952 5.738765 8.215152 6.148381 C 8.274457 6.515243 8.368241 6.875209 8.492368 7.225521 C 8.55719 7.406193 8.634423 7.582727 8.72131 7.753745 C 8.806821 7.919248 8.901984 8.077852 9.00818 8.230941 C 9.114377 8.382652 9.230228 8.526086 9.354355 8.662625 C 9.482618 8.801922 9.620536 8.932945 9.76535 9.054312 C 9.911543 9.177058 10.07015 9.286015 10.235651 9.381179 C 10.399773 9.474962 10.572171 9.553576 10.750084 9.617017 C 10.934893 9.683217 11.125221 9.731489 11.319686 9.76321 C 11.529319 9.797689 11.741714 9.814241 11.954107 9.814241 C 12.194085 9.814241 12.434063 9.790793 12.669901 9.745282 C 12.885053 9.702525 13.094689 9.637704 13.29605 9.549436 C 13.491893 9.463928 13.678081 9.357731 13.850479 9.230846 C 14.031151 9.099825 14.196654 8.949495 14.346984 8.783994 C 14.490418 8.625387 14.617302 8.451611 14.72488 8.266801 C 14.83935 8.072337 14.934514 7.86546 15.00899 7.653066 C 15.09312 7.413089 15.153803 7.166216 15.192422 6.915205 C 15.237933 6.615922 15.26 6.313883 15.26 6.011842 L 15.26 4.975389 C 15.26 4.670914 15.012804 4.423717 14.708328 4.423717 L 11.955487 4.423717 C 11.651012 4.423717 11.403816 4.670914 11.403816 4.975389 L 11.403816 6.089765 C 11.403816 6.394241 11.650964 6.636562 11.95538 6.630558 L 12.90712 6.611785 Z"/>
</svg>
