<svg xmlns="http://www.w3.org/2000/svg" width="16" height="16" version="1.1">
 <defs>
   <style id="current-color-scheme" type="text/css">
   .ColorScheme-Text { color: #00aa00; } .ColorScheme-Highlight { color:#5294e2; }
  </style>
  <linearGradient id="arrongin" x1="0%" x2="0%" y1="0%" y2="100%">
   <stop offset="0%" style="stop-color:#dd9b44; stop-opacity:1"/>
   <stop offset="100%" style="stop-color:#ad6c16; stop-opacity:1"/>
  </linearGradient>
  <linearGradient id="aurora" x1="0%" x2="0%" y1="0%" y2="100%">
   <stop offset="0%" style="stop-color:#09D4DF; stop-opacity:1"/>
   <stop offset="100%" style="stop-color:#9269F4; stop-opacity:1"/>
  </linearGradient>
  <linearGradient id="cyberneon" x1="0%" x2="0%" y1="0%" y2="100%">
    <stop offset="0" style="stop-color:#0abdc6; stop-opacity:1"/>
    <stop offset="1" style="stop-color:#ea00d9; stop-opacity:1"/>
  </linearGradient>
  <linearGradient id="fitdance" x1="0%" x2="0%" y1="0%" y2="100%">
   <stop offset="0%" style="stop-color:#1AD6AB; stop-opacity:1"/>
   <stop offset="100%" style="stop-color:#329DB6; stop-opacity:1"/>
  </linearGradient>
  <linearGradient id="oomox" x1="0%" x2="0%" y1="0%" y2="100%">
   <stop offset="0%" style="stop-color:#00aa00; stop-opacity:1"/>
   <stop offset="100%" style="stop-color:#00cc00; stop-opacity:1"/>
  </linearGradient>
  <linearGradient id="rainblue" x1="0%" x2="0%" y1="0%" y2="100%">
   <stop offset="0%" style="stop-color:#00F260; stop-opacity:1"/>
   <stop offset="100%" style="stop-color:#0575E6; stop-opacity:1"/>
  </linearGradient>
  <linearGradient id="sunrise" x1="0%" x2="0%" y1="0%" y2="100%">
   <stop offset="0%" style="stop-color: #FF8501; stop-opacity:1"/>
   <stop offset="100%" style="stop-color: #FFCB01; stop-opacity:1"/>
  </linearGradient>
  <linearGradient id="telinkrin" x1="0%" x2="0%" y1="0%" y2="100%">
   <stop offset="0%" style="stop-color: #b2ced6; stop-opacity:1"/>
   <stop offset="100%" style="stop-color: #6da5b7; stop-opacity:1"/>
  </linearGradient>
  <linearGradient id="60spsycho" x1="0%" x2="0%" y1="0%" y2="100%">
   <stop offset="0%" style="stop-color: #df5940; stop-opacity:1"/>
   <stop offset="25%" style="stop-color: #d8d15f; stop-opacity:1"/>
   <stop offset="50%" style="stop-color: #e9882a; stop-opacity:1"/>
   <stop offset="100%" style="stop-color: #279362; stop-opacity:1"/>
  </linearGradient>
  <linearGradient id="90ssummer" x1="0%" x2="0%" y1="0%" y2="100%">
   <stop offset="0%" style="stop-color: #f618c7; stop-opacity:1"/>
   <stop offset="20%" style="stop-color: #94ffab; stop-opacity:1"/>
   <stop offset="50%" style="stop-color: #fbfd54; stop-opacity:1"/>
   <stop offset="100%" style="stop-color: #0f83ae; stop-opacity:1"/>
  </linearGradient>
 </defs>
 <path fill="url(#oomox)" class="ColorScheme-Text" fill-rule="evenodd" d="M 8.262 13.927 C 6.441 14.248 4.559 13.408 3.602 11.75 C 2.474 9.797 2.973 7.302 4.762 5.93 C 5.656 5.244 6.737 4.942 7.795 5.012 L 7.795 5.012 L 7.795 5.012 L 7.795 5.012 C 8.853 5.082 9.887 5.521 10.684 6.319 L 11.037 6.672 L 10.684 7.024 L 10.33 7.379 L 10.328 7.379 L 9.652 8.055 L 8.945 7.348 L 9.59 6.703 C 8.351 5.776 6.63 5.755 5.369 6.723 C 3.972 7.795 3.588 9.725 4.469 11.25 C 5.2 12.516 6.61 13.167 7.998 12.962 C 8.041 13.301 8.129 13.625 8.262 13.927 L 8.262 13.927 Z M 13 7.816 L 13 3 C 13 2.408 12.937 1.994 12.84 1.734 C 12.742 1.475 12.637 1.363 12.453 1.262 C 12.087 1.06 11.259 1.015 10 1 L 5 1 L 5 1 L 5 1 L 5 1 L 5 1 C 3.741 1.015 2.911 1.06 2.545 1.262 C 2.362 1.363 2.258 1.475 2.16 1.734 C 2.063 1.994 2 2.408 2 3 L 2 13 C 2 13.592 2.063 14.006 2.16 14.266 C 2.258 14.526 2.362 14.637 2.545 14.738 C 2.911 14.94 3.741 14.985 5 15 L 5.006 15 L 8.852 15 C 9.147 15.387 9.502 15.725 9.904 16 L 4.998 16 L 4.994 16 C 3.736 15.986 2.815 16.031 2.063 15.615 C 1.686 15.408 1.389 15.056 1.225 14.617 C 1.06 14.179 1 13.658 1 13 L 1 3 C 1 2.342 1.06 1.822 1.225 1.383 C 1.389 0.944 1.686 0.593 2.063 0.385 C 2.815 -0.03 3.736 0.015 4.994 0 L 4.994 0 L 4.994 0 L 4.994 0 L 4.998 0 L 10.002 0 L 10.006 0 C 11.264 0.015 12.185 -0.03 12.938 0.385 C 13.314 0.593 13.611 0.944 13.775 1.383 C 13.94 1.822 14 2.342 14 3 L 14 8.06 C 13.682 7.942 13.347 7.86 13 7.816 L 13 7.816 Z M 7.5 9 C 7.776 9 8 9.224 8 9.5 C 8 9.776 7.776 10 7.5 10 C 7.224 10 7 9.776 7 9.5 C 7 9.224 7.224 9 7.5 9 L 7.5 9 L 7.5 9 L 7.5 9 Z M 8.185 10.819 C 7.985 10.939 7.749 11 7.5 11 C 6.672 11 6 10.329 6 9.5 C 6 8.672 6.672 8 7.5 8 L 7.5 8 L 7.5 8 C 8.289 8 8.936 8.609 8.992 9.383 C 8.641 9.804 8.364 10.288 8.185 10.819 L 8.185 10.819 Z M 12.346 11.259 C 12.625 11.259 12.893 11.37 13.091 11.568 C 13.288 11.765 13.399 12.033 13.399 12.313 C 13.399 12.592 13.288 12.86 13.091 13.058 C 12.893 13.256 12.625 13.367 12.346 13.367 C 12.066 13.367 11.798 13.256 11.6 13.058 C 11.403 12.86 11.292 12.592 11.292 12.313 C 11.292 12.033 11.403 11.765 11.6 11.568 C 11.798 11.37 12.066 11.259 12.346 11.259 L 12.346 11.259 L 12.346 11.259 Z M 11.424 8.625 L 11.342 9.597 C 11.034 9.711 10.748 9.876 10.496 10.086 L 9.613 9.671 L 8.691 11.267 L 9.492 11.824 C 9.464 11.985 9.449 12.149 9.448 12.313 C 9.448 12.477 9.462 12.641 9.49 12.803 L 8.691 13.358 L 9.613 14.955 L 10.493 14.54 C 10.747 14.749 11.034 14.914 11.342 15.027 L 11.424 16 L 13.267 16 L 13.349 15.029 C 13.657 14.915 13.943 14.749 14.195 14.539 L 15.078 14.955 L 16 13.358 L 15.198 12.801 C 15.227 12.64 15.242 12.476 15.243 12.313 C 15.243 12.148 15.229 11.984 15.201 11.822 L 16 11.267 L 15.078 9.671 L 14.197 10.085 C 13.944 9.876 13.657 9.711 13.348 9.598 L 13.267 8.625 L 11.424 8.625 L 11.424 8.625 L 11.424 8.625 Z"/>
</svg>
