<svg xmlns="http://www.w3.org/2000/svg" width="16" height="16" version="1.1">
 <defs>
   <style id="current-color-scheme" type="text/css">
   .ColorScheme-Text { color: #00aa00; } .ColorScheme-Highlight { color:#5294e2; }
  </style>
  <linearGradient id="arrongin" x1="0%" x2="0%" y1="0%" y2="100%">
   <stop offset="0%" style="stop-color:#dd9b44; stop-opacity:1"/>
   <stop offset="100%" style="stop-color:#ad6c16; stop-opacity:1"/>
  </linearGradient>
  <linearGradient id="aurora" x1="0%" x2="0%" y1="0%" y2="100%">
   <stop offset="0%" style="stop-color:#09D4DF; stop-opacity:1"/>
   <stop offset="100%" style="stop-color:#9269F4; stop-opacity:1"/>
  </linearGradient>
  <linearGradient id="cyberneon" x1="0%" x2="0%" y1="0%" y2="100%">
    <stop offset="0" style="stop-color:#0abdc6; stop-opacity:1"/>
    <stop offset="1" style="stop-color:#ea00d9; stop-opacity:1"/>
  </linearGradient>
  <linearGradient id="fitdance" x1="0%" x2="0%" y1="0%" y2="100%">
   <stop offset="0%" style="stop-color:#1AD6AB; stop-opacity:1"/>
   <stop offset="100%" style="stop-color:#329DB6; stop-opacity:1"/>
  </linearGradient>
  <linearGradient id="oomox" x1="0%" x2="0%" y1="0%" y2="100%">
   <stop offset="0%" style="stop-color:#00aa00; stop-opacity:1"/>
   <stop offset="100%" style="stop-color:#00cc00; stop-opacity:1"/>
  </linearGradient>
  <linearGradient id="rainblue" x1="0%" x2="0%" y1="0%" y2="100%">
   <stop offset="0%" style="stop-color:#00F260; stop-opacity:1"/>
   <stop offset="100%" style="stop-color:#0575E6; stop-opacity:1"/>
  </linearGradient>
  <linearGradient id="sunrise" x1="0%" x2="0%" y1="0%" y2="100%">
   <stop offset="0%" style="stop-color: #FF8501; stop-opacity:1"/>
   <stop offset="100%" style="stop-color: #FFCB01; stop-opacity:1"/>
  </linearGradient>
  <linearGradient id="telinkrin" x1="0%" x2="0%" y1="0%" y2="100%">
   <stop offset="0%" style="stop-color: #b2ced6; stop-opacity:1"/>
   <stop offset="100%" style="stop-color: #6da5b7; stop-opacity:1"/>
  </linearGradient>
  <linearGradient id="60spsycho" x1="0%" x2="0%" y1="0%" y2="100%">
   <stop offset="0%" style="stop-color: #df5940; stop-opacity:1"/>
   <stop offset="25%" style="stop-color: #d8d15f; stop-opacity:1"/>
   <stop offset="50%" style="stop-color: #e9882a; stop-opacity:1"/>
   <stop offset="100%" style="stop-color: #279362; stop-opacity:1"/>
  </linearGradient>
  <linearGradient id="90ssummer" x1="0%" x2="0%" y1="0%" y2="100%">
   <stop offset="0%" style="stop-color: #f618c7; stop-opacity:1"/>
   <stop offset="20%" style="stop-color: #94ffab; stop-opacity:1"/>
   <stop offset="50%" style="stop-color: #fbfd54; stop-opacity:1"/>
   <stop offset="100%" style="stop-color: #0f83ae; stop-opacity:1"/>
  </linearGradient>
 </defs>
 <path fill="url(#oomox)" class="ColorScheme-Text" d="M 9.669 0.727 C 9.275 0.728 8.853 0.733 8.4 0.744 C 4.957 0.829 3.494 1.268 1.715 2.513 C 0.443 3.404 -0.389 4.656 0.185 5.021 C 0.67 5.33 2.067 4.64 2.487 3.883 C 3.016 2.929 3.622 2.661 4.757 2.661 C 5.437 2.661 5.506 2.843 5.336 4.196 C 4.967 7.137 4.132 10.478 3.066 13.115 C 2.758 13.876 2.507 14.645 2.507 14.822 C 2.506 15.359 2.98 15.418 3.841 14.99 C 4.728 14.548 5.091 14.051 5.796 12.3 C 6.148 11.428 6.435 10.666 6.435 10.608 C 6.435 10.331 6.955 10.119 7.97 9.983 C 11.459 9.514 14.461 7.706 15.565 5.407 C 16.328 3.82 16.084 2.54 14.86 1.712 C 13.807 1 12.428 0.725 9.669 0.727 Z M 9.121 2.67 C 9.234 2.674 9.358 2.684 9.496 2.699 C 11.108 2.873 12.327 3.369 12.829 4.055 C 13.169 4.519 13.18 5.629 12.851 6.3 C 12.218 7.594 11.17 8.063 8.056 8.446 C 7.498 8.515 7.332 8.495 7.279 8.355 C 7.242 8.257 7.377 7.34 7.578 6.315 C 7.78 5.291 7.984 4.126 8.03 3.727 C 8.115 3 8.277 2.718 8.818 2.673 C 8.908 2.666 9.009 2.665 9.121 2.67 L 9.121 2.67 Z"/>
</svg>
