<svg xmlns="http://www.w3.org/2000/svg" width="16" height="16" version="1.1">
 <defs>
   <style id="current-color-scheme" type="text/css">
   .ColorScheme-Text { color: #cc00cc; } .ColorScheme-Highlight { color:#5294e2; }
  </style>
  <linearGradient id="arrongin" x1="0%" x2="0%" y1="0%" y2="100%">
   <stop offset="0%" style="stop-color:#dd9b44; stop-opacity:1"/>
   <stop offset="100%" style="stop-color:#ad6c16; stop-opacity:1"/>
  </linearGradient>
  <linearGradient id="aurora" x1="0%" x2="0%" y1="0%" y2="100%">
   <stop offset="0%" style="stop-color:#09D4DF; stop-opacity:1"/>
   <stop offset="100%" style="stop-color:#9269F4; stop-opacity:1"/>
  </linearGradient>
  <linearGradient id="cyberneon" x1="0%" x2="0%" y1="0%" y2="100%">
    <stop offset="0" style="stop-color:#0abdc6; stop-opacity:1"/>
    <stop offset="1" style="stop-color:#ea00d9; stop-opacity:1"/>
  </linearGradient>
  <linearGradient id="fitdance" x1="0%" x2="0%" y1="0%" y2="100%">
   <stop offset="0%" style="stop-color:#1AD6AB; stop-opacity:1"/>
   <stop offset="100%" style="stop-color:#329DB6; stop-opacity:1"/>
  </linearGradient>
  <linearGradient id="oomox" x1="0%" x2="0%" y1="0%" y2="100%">
   <stop offset="0%" style="stop-color:#efefe7; stop-opacity:1"/>
   <stop offset="100%" style="stop-color:#8f8f8b; stop-opacity:1"/>
  </linearGradient>
  <linearGradient id="rainblue" x1="0%" x2="0%" y1="0%" y2="100%">
   <stop offset="0%" style="stop-color:#00F260; stop-opacity:1"/>
   <stop offset="100%" style="stop-color:#0575E6; stop-opacity:1"/>
  </linearGradient>
  <linearGradient id="sunrise" x1="0%" x2="0%" y1="0%" y2="100%">
   <stop offset="0%" style="stop-color: #FF8501; stop-opacity:1"/>
   <stop offset="100%" style="stop-color: #FFCB01; stop-opacity:1"/>
  </linearGradient>
  <linearGradient id="telinkrin" x1="0%" x2="0%" y1="0%" y2="100%">
   <stop offset="0%" style="stop-color: #b2ced6; stop-opacity:1"/>
   <stop offset="100%" style="stop-color: #6da5b7; stop-opacity:1"/>
  </linearGradient>
  <linearGradient id="60spsycho" x1="0%" x2="0%" y1="0%" y2="100%">
   <stop offset="0%" style="stop-color: #df5940; stop-opacity:1"/>
   <stop offset="25%" style="stop-color: #d8d15f; stop-opacity:1"/>
   <stop offset="50%" style="stop-color: #e9882a; stop-opacity:1"/>
   <stop offset="100%" style="stop-color: #279362; stop-opacity:1"/>
  </linearGradient>
  <linearGradient id="90ssummer" x1="0%" x2="0%" y1="0%" y2="100%">
   <stop offset="0%" style="stop-color: #f618c7; stop-opacity:1"/>
   <stop offset="20%" style="stop-color: #94ffab; stop-opacity:1"/>
   <stop offset="50%" style="stop-color: #fbfd54; stop-opacity:1"/>
   <stop offset="100%" style="stop-color: #0f83ae; stop-opacity:1"/>
  </linearGradient>
 </defs>
 <path fill="currentColor" class="ColorScheme-Text" d="M 8 0.8 C 7.196 0.813 6.316 1.004 5.998 1.355 C 5.659 1.729 5.586 2.254 5.681 2.836 C 5.862 3.945 7.027 5.306 7.923 6.529 C 7.917 6.537 7.911 6.547 7.905 6.554 C 7.453 7.124 6.706 7.778 6.266 8.22 C 6.337 7.897 6.389 7.546 6.401 7.322 C 6.411 7.13 6.405 6.981 6.346 6.859 C 6.316 6.798 6.264 6.739 6.191 6.715 C 6.119 6.692 6.043 6.708 5.979 6.739 C 5.849 6.8 5.726 6.924 5.569 7.122 C 5.413 7.32 5.23 7.651 5.013 8.015 C 4.797 8.379 4.643 8.671 4.544 8.903 C 4.493 9.022 4.455 9.126 4.432 9.217 C 4.409 9.302 4.398 9.379 4.402 9.448 C 4.526 9.617 4.727 9.592 4.89 9.603 C 4.96 9.602 5.033 9.59 5.115 9.54 C 5.306 9.423 5.54 9.238 5.79 9.022 C 5.611 9.619 5.653 9.796 5.369 10.465 C 5.365 10.475 5.359 10.484 5.355 10.493 C 3.853 10.286 2.286 10.418 1.226 10.787 C 0.67 10.981 0.243 11.412 0.076 11.889 C -0.091 12.365 0.012 13.211 0.431 13.962 C 0.85 14.713 1.312 15.058 1.804 15.165 C 2.297 15.272 2.789 15.132 3.245 14.759 C 4.114 14.048 4.9 12.158 5.509 10.768 C 5.519 10.77 5.529 10.77 5.539 10.772 C 6.257 10.879 6.946 11.476 7.548 11.637 C 7.233 11.737 6.953 11.84 6.753 11.942 C 6.582 12.029 6.457 12.11 6.381 12.221 C 6.343 12.277 6.318 12.352 6.334 12.426 C 6.35 12.501 6.4 12.557 6.459 12.598 C 6.577 12.68 6.746 12.727 6.995 12.764 C 7.245 12.8 7.574 12.822 7.997 12.828 C 7.998 12.828 7.999 12.828 8 12.828 C 8.001 12.828 8.002 12.828 8.003 12.828 C 8.426 12.822 8.755 12.8 9.005 12.764 C 9.254 12.727 9.423 12.68 9.541 12.598 C 9.6 12.557 9.65 12.501 9.666 12.426 C 9.682 12.352 9.657 12.277 9.619 12.221 C 9.543 12.11 9.418 12.029 9.247 11.942 C 9.047 11.84 8.767 11.737 8.452 11.637 C 9.054 11.476 9.743 10.879 10.461 10.772 C 10.471 10.77 10.481 10.77 10.491 10.768 C 11.1 12.158 11.886 14.048 12.755 14.759 C 13.211 15.132 13.703 15.272 14.196 15.165 C 14.688 15.058 15.15 14.713 15.569 13.962 C 15.988 13.211 16.091 12.365 15.924 11.889 C 15.757 11.412 15.33 10.981 14.774 10.787 C 13.714 10.418 12.147 10.286 10.645 10.493 C 10.641 10.484 10.635 10.475 10.631 10.465 C 10.347 9.796 10.388 9.619 10.21 9.022 C 10.46 9.238 10.694 9.423 10.885 9.54 C 10.966 9.59 11.039 9.602 11.11 9.603 C 11.272 9.592 11.474 9.617 11.597 9.448 C 11.601 9.379 11.59 9.302 11.568 9.217 C 11.544 9.126 11.506 9.022 11.455 8.903 C 11.356 8.671 11.203 8.379 10.986 8.015 C 10.77 7.651 10.587 7.32 10.43 7.122 C 10.274 6.924 10.15 6.8 10.021 6.739 C 9.956 6.708 9.881 6.692 9.808 6.715 C 9.736 6.739 9.683 6.798 9.654 6.859 C 9.595 6.981 9.589 7.13 9.599 7.322 C 9.611 7.546 9.662 7.897 9.733 8.22 C 9.293 7.778 8.547 7.124 8.095 6.554 C 8.089 6.547 8.083 6.537 8.077 6.529 C 8.973 5.306 10.138 3.945 10.319 2.836 C 10.414 2.254 10.341 1.729 10.002 1.355 C 9.684 1.004 8.804 0.813 8 0.8 Z"/>
</svg>
