<svg xmlns="http://www.w3.org/2000/svg" width="16" height="16" version="1.1">
 <defs>
   <style id="current-color-scheme" type="text/css">
   .ColorScheme-Text { color: #cc00cc; } .ColorScheme-Highlight { color:#5294e2; }
  </style>
  <linearGradient id="arrongin" x1="0%" x2="0%" y1="0%" y2="100%">
   <stop offset="0%" style="stop-color:#dd9b44; stop-opacity:1"/>
   <stop offset="100%" style="stop-color:#ad6c16; stop-opacity:1"/>
  </linearGradient>
  <linearGradient id="aurora" x1="0%" x2="0%" y1="0%" y2="100%">
   <stop offset="0%" style="stop-color:#09D4DF; stop-opacity:1"/>
   <stop offset="100%" style="stop-color:#9269F4; stop-opacity:1"/>
  </linearGradient>
  <linearGradient id="cyberneon" x1="0%" x2="0%" y1="0%" y2="100%">
    <stop offset="0" style="stop-color:#0abdc6; stop-opacity:1"/>
    <stop offset="1" style="stop-color:#ea00d9; stop-opacity:1"/>
  </linearGradient>
  <linearGradient id="fitdance" x1="0%" x2="0%" y1="0%" y2="100%">
   <stop offset="0%" style="stop-color:#1AD6AB; stop-opacity:1"/>
   <stop offset="100%" style="stop-color:#329DB6; stop-opacity:1"/>
  </linearGradient>
  <linearGradient id="oomox" x1="0%" x2="0%" y1="0%" y2="100%">
   <stop offset="0%" style="stop-color:#efefe7; stop-opacity:1"/>
   <stop offset="100%" style="stop-color:#8f8f8b; stop-opacity:1"/>
  </linearGradient>
  <linearGradient id="rainblue" x1="0%" x2="0%" y1="0%" y2="100%">
   <stop offset="0%" style="stop-color:#00F260; stop-opacity:1"/>
   <stop offset="100%" style="stop-color:#0575E6; stop-opacity:1"/>
  </linearGradient>
  <linearGradient id="sunrise" x1="0%" x2="0%" y1="0%" y2="100%">
   <stop offset="0%" style="stop-color: #FF8501; stop-opacity:1"/>
   <stop offset="100%" style="stop-color: #FFCB01; stop-opacity:1"/>
  </linearGradient>
  <linearGradient id="telinkrin" x1="0%" x2="0%" y1="0%" y2="100%">
   <stop offset="0%" style="stop-color: #b2ced6; stop-opacity:1"/>
   <stop offset="100%" style="stop-color: #6da5b7; stop-opacity:1"/>
  </linearGradient>
  <linearGradient id="60spsycho" x1="0%" x2="0%" y1="0%" y2="100%">
   <stop offset="0%" style="stop-color: #df5940; stop-opacity:1"/>
   <stop offset="25%" style="stop-color: #d8d15f; stop-opacity:1"/>
   <stop offset="50%" style="stop-color: #e9882a; stop-opacity:1"/>
   <stop offset="100%" style="stop-color: #279362; stop-opacity:1"/>
  </linearGradient>
  <linearGradient id="90ssummer" x1="0%" x2="0%" y1="0%" y2="100%">
   <stop offset="0%" style="stop-color: #f618c7; stop-opacity:1"/>
   <stop offset="20%" style="stop-color: #94ffab; stop-opacity:1"/>
   <stop offset="50%" style="stop-color: #fbfd54; stop-opacity:1"/>
   <stop offset="100%" style="stop-color: #0f83ae; stop-opacity:1"/>
  </linearGradient>
 </defs>
 <path fill="currentColor" class="ColorScheme-Text" d="M 15.403 0.597 C 14.608 -0.199 13.319 -0.199 12.523 0.597 L 10.123 2.997 L 9.461 2.334 C 9.113 1.986 8.548 1.986 8.2 2.334 C 7.852 2.682 7.852 3.247 8.2 3.595 L 8.863 4.258 L 1.483 11.637 C 1.121 11.999 0.923 12.464 0.891 12.939 C 0.878 13.132 0.83 13.491 0.771 13.88 C 0.762 13.943 0.734 14.005 0.685 14.054 L 0.133 14.607 C -0.044 14.783 -0.044 15.07 0.133 15.246 L 0.754 15.867 C 0.93 16.044 1.217 16.044 1.394 15.867 L 1.946 15.315 C 1.995 15.267 2.056 15.238 2.12 15.229 C 2.509 15.171 2.868 15.122 3.061 15.109 C 3.535 15.077 4.001 14.88 4.363 14.517 L 11.742 7.138 L 12.405 7.801 C 12.753 8.149 13.318 8.149 13.666 7.801 C 14.014 7.452 14.014 6.888 13.666 6.54 L 11.468 4.341 L 13.192 5.688 L 15.403 3.476 C 16.199 2.681 16.199 1.392 15.403 0.597 L 15.403 0.597 Z M 10.676 6.711 L 7.026 10.361 C 6.849 10.537 6.563 10.537 6.386 10.361 L 5.805 9.779 C 5.628 9.603 5.341 9.603 5.165 9.78 L 5.055 9.889 L 5.055 9.889 L 2.437 12.507 C 2.377 12.567 2.291 12.578 2.245 12.532 C 2.2 12.486 2.211 12.401 2.271 12.341 L 6.509 8.103 L 6.51 8.103 L 9.289 5.324 C 9.466 5.147 9.752 5.147 9.929 5.324 L 10.676 6.071 C 10.852 6.248 10.852 6.534 10.676 6.711 L 10.676 6.711 Z"/>
</svg>
