<svg xmlns="http://www.w3.org/2000/svg" width="16" height="16" version="1.1">
 <defs>
   <style id="current-color-scheme" type="text/css">
   .ColorScheme-Text { color: #cc00cc; } .ColorScheme-Highlight { color:#5294e2; }
  </style>
  <linearGradient id="arrongin" x1="0%" x2="0%" y1="0%" y2="100%">
   <stop offset="0%" style="stop-color:#dd9b44; stop-opacity:1"/>
   <stop offset="100%" style="stop-color:#ad6c16; stop-opacity:1"/>
  </linearGradient>
  <linearGradient id="aurora" x1="0%" x2="0%" y1="0%" y2="100%">
   <stop offset="0%" style="stop-color:#09D4DF; stop-opacity:1"/>
   <stop offset="100%" style="stop-color:#9269F4; stop-opacity:1"/>
  </linearGradient>
  <linearGradient id="cyberneon" x1="0%" x2="0%" y1="0%" y2="100%">
    <stop offset="0" style="stop-color:#0abdc6; stop-opacity:1"/>
    <stop offset="1" style="stop-color:#ea00d9; stop-opacity:1"/>
  </linearGradient>
  <linearGradient id="fitdance" x1="0%" x2="0%" y1="0%" y2="100%">
   <stop offset="0%" style="stop-color:#1AD6AB; stop-opacity:1"/>
   <stop offset="100%" style="stop-color:#329DB6; stop-opacity:1"/>
  </linearGradient>
  <linearGradient id="oomox" x1="0%" x2="0%" y1="0%" y2="100%">
   <stop offset="0%" style="stop-color:#efefe7; stop-opacity:1"/>
   <stop offset="100%" style="stop-color:#8f8f8b; stop-opacity:1"/>
  </linearGradient>
  <linearGradient id="rainblue" x1="0%" x2="0%" y1="0%" y2="100%">
   <stop offset="0%" style="stop-color:#00F260; stop-opacity:1"/>
   <stop offset="100%" style="stop-color:#0575E6; stop-opacity:1"/>
  </linearGradient>
  <linearGradient id="sunrise" x1="0%" x2="0%" y1="0%" y2="100%">
   <stop offset="0%" style="stop-color: #FF8501; stop-opacity:1"/>
   <stop offset="100%" style="stop-color: #FFCB01; stop-opacity:1"/>
  </linearGradient>
  <linearGradient id="telinkrin" x1="0%" x2="0%" y1="0%" y2="100%">
   <stop offset="0%" style="stop-color: #b2ced6; stop-opacity:1"/>
   <stop offset="100%" style="stop-color: #6da5b7; stop-opacity:1"/>
  </linearGradient>
  <linearGradient id="60spsycho" x1="0%" x2="0%" y1="0%" y2="100%">
   <stop offset="0%" style="stop-color: #df5940; stop-opacity:1"/>
   <stop offset="25%" style="stop-color: #d8d15f; stop-opacity:1"/>
   <stop offset="50%" style="stop-color: #e9882a; stop-opacity:1"/>
   <stop offset="100%" style="stop-color: #279362; stop-opacity:1"/>
  </linearGradient>
  <linearGradient id="90ssummer" x1="0%" x2="0%" y1="0%" y2="100%">
   <stop offset="0%" style="stop-color: #f618c7; stop-opacity:1"/>
   <stop offset="20%" style="stop-color: #94ffab; stop-opacity:1"/>
   <stop offset="50%" style="stop-color: #fbfd54; stop-opacity:1"/>
   <stop offset="100%" style="stop-color: #0f83ae; stop-opacity:1"/>
  </linearGradient>
 </defs>
 <path fill="currentColor" class="ColorScheme-Text" d="M 2.75 0.64 C 1.761 0.64 0.61 1.323 0.61 3.26 C 0.61 3.845 0.923 4.719 1.45 5.31 C 1.48 5.266 1.515 5.225 1.54 5.19 C 1.926 3.544 2.677 2.297 3.7 1.53 C 3.628 1.437 3.555 1.353 3.51 1.29 C 3.235 0.914 3.036 0.64 2.75 0.64 Z M 13.28 0.64 C 12.997 0.64 12.803 0.904 12.53 1.27 C 12.479 1.339 12.401 1.437 12.32 1.54 C 13.335 2.309 14.076 3.553 14.46 5.19 C 14.49 5.231 14.524 5.277 14.56 5.33 C 15.099 4.738 15.42 3.852 15.42 3.26 C 15.42 1.323 14.269 0.64 13.28 0.64 Z M 6.46 1.28 C 4.29 1.28 2.714 2.801 2.131 5.46 C 2.059 5.555 1.92 5.755 1.74 6.04 C 1.83 6.175 1.948 6.336 2.07 6.48 C 2.07 6.48 2.632 7.083 3.61 7.37 C 3.78 7.42 3.88 7.6 3.83 7.77 C 3.789 7.907 3.663 8 3.52 8 C 3.49 8.001 3.459 7.998 3.43 7.99 C 2.268 7.649 1.618 6.93 1.59 6.9 C 1.529 6.829 1.451 6.744 1.38 6.65 C 1.256 6.883 1.139 7.12 1.03 7.36 C 1.173 7.57 1.329 7.757 1.41 7.84 C 1.418 7.847 1.424 7.851 1.43 7.86 C 1.437 7.868 2.175 8.754 3.93 9.29 C 4.099 9.341 4.202 9.521 4.15 9.69 C 4.108 9.829 3.978 9.92 3.84 9.92 C 3.809 9.92 3.781 9.92 3.75 9.91 C 1.892 9.344 1.06 8.411 0.95 8.28 C 0.918 8.246 0.835 8.155 0.74 8.04 C 0.611 8.371 0.497 8.708 0.4 9.05 C 0.51 9.235 0.637 9.409 0.78 9.57 C 0.793 9.583 1.498 10.332 2.99 10.9 C 3.156 10.961 3.241 11.144 3.18 11.31 C 3.133 11.435 3.014 11.518 2.88 11.52 C 2.842 11.52 2.805 11.513 2.77 11.5 C 1.141 10.88 0.362 10.065 0.31 10.01 C 0.304 10.004 0.263 9.955 0.2 9.88 C 0.069 10.525 0.002 11.182 0 11.84 C 0 11.938 0.044 12.03 0.12 12.09 C 0.812 12.637 2.835 13.167 4.5 13.4 C 4.485 13.249 4.481 13.153 4.48 13.14 L 4.48 13.12 C 4.48 10.426 5.626 8.26 6.19 7.36 C 5.985 7.413 5.769 7.402 5.57 7.33 C 4.226 6.883 4.48 5.44 4.48 5.44 L 6.91 6.88 C 6.923 6.889 6.939 6.899 6.95 6.91 C 7.07 7.03 7.071 7.224 6.96 7.35 C 6.899 7.433 5.123 9.915 5.12 13.11 C 5.124 13.169 5.142 13.48 5.2 13.84 C 5.393 13.9 5.601 13.951 5.79 13.99 C 5.795 13.991 5.805 13.999 5.81 14 C 5.815 14.001 5.815 13.999 5.82 14 C 6.038 14.062 6.661 14.031 7.13 13.68 C 7.492 13.407 7.68 13.006 7.68 12.48 C 7.68 12.303 7.823 12.16 8 12.16 C 8.177 12.16 8.32 12.303 8.32 12.48 C 8.32 13.006 8.508 13.409 8.87 13.68 C 9.32 14.018 9.911 14.052 10.15 14 C 10.16 13.996 10.169 13.993 10.18 13.99 C 10.379 13.948 10.599 13.894 10.8 13.83 C 10.855 13.479 10.876 13.174 10.88 13.11 C 10.877 9.875 9.059 7.372 9.04 7.35 C 8.915 7.225 8.925 7.025 9.05 6.9 C 9.087 6.866 9.132 6.842 9.18 6.83 L 11.52 5.44 C 11.52 5.44 11.774 6.883 10.43 7.33 C 10.231 7.402 10.015 7.413 9.81 7.36 C 10.374 8.26 11.52 10.426 11.52 13.12 L 11.52 13.14 C 11.519 13.153 11.515 13.249 11.5 13.4 C 13.165 13.167 15.188 12.637 15.88 12.09 C 15.956 12.029 16 11.937 16 11.84 C 16 11.175 15.933 10.512 15.8 9.86 C 15.733 9.944 15.68 9.999 15.67 10.01 C 15.637 10.045 14.861 10.873 13.21 11.5 C 13.175 11.514 13.138 11.521 13.1 11.52 C 12.971 11.52 12.849 11.437 12.8 11.31 C 12.769 11.232 12.77 11.144 12.804 11.067 C 12.838 10.99 12.901 10.93 12.98 10.9 C 14.479 10.33 15.193 9.578 15.2 9.57 C 15.204 9.566 15.4 9.356 15.59 9.03 C 15.489 8.675 15.381 8.332 15.26 8.02 C 15.157 8.145 15.065 8.244 15.03 8.28 C 14.92 8.41 14.089 9.342 12.23 9.91 C 12.199 9.92 12.171 9.92 12.14 9.92 C 12.002 9.92 11.873 9.827 11.83 9.69 C 11.778 9.522 11.872 9.343 12.04 9.29 C 13.813 8.749 14.533 7.869 14.54 7.86 C 14.546 7.851 14.563 7.847 14.57 7.84 C 14.685 7.723 14.831 7.535 14.96 7.34 C 14.851 7.099 14.734 6.863 14.61 6.63 C 14.536 6.727 14.463 6.826 14.4 6.9 C 14.366 6.938 13.711 7.649 12.55 7.99 C 12.521 7.998 12.49 8.001 12.46 8 C 12.321 8 12.191 7.909 12.15 7.77 C 12.101 7.599 12.199 7.42 12.37 7.37 C 13.35 7.081 13.914 6.476 13.92 6.47 C 14.043 6.325 14.16 6.167 14.25 6.03 C 14.075 5.754 13.94 5.553 13.87 5.46 C 13.286 2.802 11.711 1.28 9.54 1.28 C 8.789 1.28 8.372 1.397 8 1.52 C 7.628 1.397 7.211 1.28 6.46 1.28 Z M 6.08 2.56 C 6.609 2.56 7.293 2.636 8 3.15 C 8.707 2.636 9.391 2.56 9.92 2.56 C 10.097 2.56 10.24 2.703 10.24 2.88 C 10.24 3.057 10.097 3.2 9.92 3.2 C 9.21 3.2 8.701 3.382 8.21 3.8 C 8.194 3.814 8.178 3.82 8.16 3.83 C 8.149 3.836 8.132 3.845 8.12 3.85 C 8.082 3.865 8.041 3.872 8 3.87 C 7.959 3.872 7.918 3.865 7.88 3.85 C 7.866 3.844 7.853 3.837 7.84 3.83 C 7.822 3.82 7.806 3.814 7.79 3.8 C 7.299 3.382 6.788 3.2 6.08 3.2 C 5.904 3.2 5.76 3.056 5.76 2.88 C 5.76 2.704 5.904 2.56 6.08 2.56 Z M 4.8 3.52 C 5.351 3.52 7.075 3.605 8 4.62 C 8.925 3.605 10.649 3.52 11.2 3.52 C 11.377 3.52 11.52 3.663 11.52 3.84 C 11.52 4.017 11.377 4.16 11.2 4.16 C 10.674 4.16 8.913 4.239 8.28 5.31 C 8.276 5.316 8.264 5.324 8.26 5.33 C 8.255 5.338 8.246 5.343 8.24 5.35 C 8.218 5.378 8.199 5.403 8.17 5.42 C 8.167 5.421 8.163 5.429 8.16 5.43 C 8.142 5.44 8.129 5.444 8.11 5.45 L 8.08 5.46 C 8.06 5.465 8.04 5.469 8.02 5.47 L 8 5.47 C 7.993 5.47 7.987 5.471 7.98 5.47 C 7.96 5.468 7.94 5.465 7.92 5.46 C 7.911 5.458 7.899 5.452 7.89 5.45 C 7.871 5.444 7.856 5.44 7.84 5.43 C 7.837 5.429 7.833 5.421 7.83 5.42 C 7.8 5.401 7.773 5.378 7.75 5.35 C 7.744 5.342 7.745 5.337 7.74 5.33 C 7.736 5.324 7.724 5.316 7.72 5.31 C 7.089 4.239 5.326 4.16 4.8 4.16 C 4.624 4.16 4.48 4.016 4.48 3.84 C 4.48 3.664 4.624 3.52 4.8 3.52 Z M 8 9.28 C 8.96 9.287 9.92 9.468 9.92 9.82 L 9.92 10.14 C 9.92 10.3 9.7 10.524 9.38 10.78 C 9.38 10.748 9.372 10.751 9.34 10.72 C 9.18 10.56 8.927 10.532 8.8 10.66 C 8.673 10.788 8.702 11.01 8.83 11.17 C 8.502 11.361 8.064 11.525 8 11.57 C 7.938 11.524 7.5 11.359 7.2 11.14 C 7.296 10.98 7.327 10.788 7.2 10.66 C 7.073 10.532 6.82 10.56 6.66 10.72 L 6.66 10.75 C 6.34 10.494 6.08 10.3 6.08 10.3 L 6.08 9.79 C 6.08 9.439 7.04 9.273 8 9.28 Z M 8 13.67 C 7.874 13.875 7.711 14.054 7.52 14.2 C 7.061 14.544 6.498 14.66 6.07 14.66 C 5.919 14.66 5.788 14.647 5.68 14.62 C 5.675 14.619 5.665 14.621 5.66 14.62 C 5.63 14.614 5.59 14.604 5.53 14.59 C 6.054 15.04 6.795 15.36 8 15.36 C 9.213 15.36 9.955 15.035 10.48 14.58 C 10.441 14.589 10.409 14.594 10.38 14.6 C 10.374 14.603 10.366 14.609 10.36 14.61 C 10.249 14.643 10.099 14.66 9.93 14.66 C 9.502 14.66 8.939 14.544 8.48 14.2 C 8.289 14.054 8.127 13.874 8 13.67 Z"/>
</svg>
