<svg xmlns="http://www.w3.org/2000/svg" width="16" height="16" version="1.1">
 <defs>
   <style id="current-color-scheme" type="text/css">
   .ColorScheme-Text { color: #cc00cc; } .ColorScheme-Highlight { color:#5294e2; }
  </style>
  <linearGradient id="arrongin" x1="0%" x2="0%" y1="0%" y2="100%">
   <stop offset="0%" style="stop-color:#dd9b44; stop-opacity:1"/>
   <stop offset="100%" style="stop-color:#ad6c16; stop-opacity:1"/>
  </linearGradient>
  <linearGradient id="aurora" x1="0%" x2="0%" y1="0%" y2="100%">
   <stop offset="0%" style="stop-color:#09D4DF; stop-opacity:1"/>
   <stop offset="100%" style="stop-color:#9269F4; stop-opacity:1"/>
  </linearGradient>
  <linearGradient id="cyberneon" x1="0%" x2="0%" y1="0%" y2="100%">
    <stop offset="0" style="stop-color:#0abdc6; stop-opacity:1"/>
    <stop offset="1" style="stop-color:#ea00d9; stop-opacity:1"/>
  </linearGradient>
  <linearGradient id="fitdance" x1="0%" x2="0%" y1="0%" y2="100%">
   <stop offset="0%" style="stop-color:#1AD6AB; stop-opacity:1"/>
   <stop offset="100%" style="stop-color:#329DB6; stop-opacity:1"/>
  </linearGradient>
  <linearGradient id="oomox" x1="0%" x2="0%" y1="0%" y2="100%">
   <stop offset="0%" style="stop-color:#efefe7; stop-opacity:1"/>
   <stop offset="100%" style="stop-color:#8f8f8b; stop-opacity:1"/>
  </linearGradient>
  <linearGradient id="rainblue" x1="0%" x2="0%" y1="0%" y2="100%">
   <stop offset="0%" style="stop-color:#00F260; stop-opacity:1"/>
   <stop offset="100%" style="stop-color:#0575E6; stop-opacity:1"/>
  </linearGradient>
  <linearGradient id="sunrise" x1="0%" x2="0%" y1="0%" y2="100%">
   <stop offset="0%" style="stop-color: #FF8501; stop-opacity:1"/>
   <stop offset="100%" style="stop-color: #FFCB01; stop-opacity:1"/>
  </linearGradient>
  <linearGradient id="telinkrin" x1="0%" x2="0%" y1="0%" y2="100%">
   <stop offset="0%" style="stop-color: #b2ced6; stop-opacity:1"/>
   <stop offset="100%" style="stop-color: #6da5b7; stop-opacity:1"/>
  </linearGradient>
  <linearGradient id="60spsycho" x1="0%" x2="0%" y1="0%" y2="100%">
   <stop offset="0%" style="stop-color: #df5940; stop-opacity:1"/>
   <stop offset="25%" style="stop-color: #d8d15f; stop-opacity:1"/>
   <stop offset="50%" style="stop-color: #e9882a; stop-opacity:1"/>
   <stop offset="100%" style="stop-color: #279362; stop-opacity:1"/>
  </linearGradient>
  <linearGradient id="90ssummer" x1="0%" x2="0%" y1="0%" y2="100%">
   <stop offset="0%" style="stop-color: #f618c7; stop-opacity:1"/>
   <stop offset="20%" style="stop-color: #94ffab; stop-opacity:1"/>
   <stop offset="50%" style="stop-color: #fbfd54; stop-opacity:1"/>
   <stop offset="100%" style="stop-color: #0f83ae; stop-opacity:1"/>
  </linearGradient>
 </defs>
 <path fill="currentColor" class="ColorScheme-Text" fill-rule="evenodd" d="M 6.236 10.004 C 5.886 10.372 5.774 10.908 5.947 11.386 C 6.199 12.081 6.964 12.439 7.656 12.186 C 8.348 11.933 8.705 11.165 8.453 10.471 C 8.279 9.993 7.85 9.656 7.346 9.6 L 7.342 9.69 L 7.276 11.138 L 6.298 10.071 L 6.236 10.004 L 6.236 10.004 L 6.236 10.004 L 6.236 10.004 L 6.236 10.004 L 6.236 10.004 L 6.236 10.004 L 6.236 10.004 L 6.236 10.004 Z M 11.036 8.138 C 10.686 8.506 10.574 9.041 10.747 9.52 C 10.999 10.214 11.764 10.572 12.456 10.319 C 13.148 10.067 13.505 9.299 13.253 8.604 C 13.079 8.126 12.65 7.789 12.146 7.733 L 12.142 7.823 L 12.076 9.271 L 11.098 8.205 L 11.036 8.138 L 11.036 8.138 L 11.036 8.138 L 11.036 8.138 L 11.036 8.138 L 11.036 8.138 L 11.036 8.138 Z M 2.004 6.133 C 1.794 6.134 1.571 6.155 1.333 6.2 C 1.333 6.2 2.805 6.348 3.537 7.252 C 3.228 8.434 2.826 9.333 2.826 9.333 L 4.267 7.046 C 4.267 7.046 3.474 6.124 2.004 6.133 L 2.004 6.133 L 2.004 6.133 L 2.004 6.133 L 2.004 6.133 L 2.004 6.133 Z M 9.333 1.333 L 8 3.733 L 8.813 3.499 C 8.813 3.499 9.223 2.498 9.333 1.333 L 9.333 1.333 L 9.333 1.333 L 9.333 1.333 Z M 9.339 0 L 6.989 3.309 C 6.302 3.549 5.659 3.9 5.088 4.349 C 2.749 3.793 0.267 5.658 0.267 5.658 L 2.675 10.596 C 3.226 13.718 5.957 15.997 9.152 16 C 12.787 16 15.733 13.076 15.733 9.469 C 15.73 7.415 14.753 5.482 13.095 4.251 C 12.694 1.522 9.339 0 9.339 0 L 9.339 0 L 9.339 0 L 9.339 0 L 9.339 0 L 9.339 0 L 9.339 0 L 9.339 0 L 9.339 0 Z M 13.096 12.056 L 13.323 11.917 L 13.6 12.373 L 13.371 12.512 C 13.139 12.653 12.891 12.768 12.632 12.853 C 12.4 12.928 12.157 12.968 11.915 12.971 C 11.651 12.971 11.392 12.917 11.149 12.813 C 11.101 12.792 11.053 12.768 11.005 12.744 C 10.989 13.128 10.859 13.499 10.629 13.808 C 10.501 13.981 10.349 14.139 10.181 14.275 C 9.995 14.429 9.792 14.565 9.579 14.683 L 9.344 14.813 L 9.088 14.344 L 9.323 14.216 C 9.507 14.115 9.683 13.997 9.845 13.864 C 9.979 13.755 10.099 13.627 10.203 13.488 C 10.376 13.256 10.469 12.973 10.472 12.683 C 10.472 12.533 10.451 12.384 10.411 12.237 C 10.379 12.123 10.768 11.893 10.853 11.976 C 11.003 12.123 11.173 12.24 11.363 12.325 C 11.536 12.4 11.723 12.437 11.912 12.437 C 12.099 12.435 12.285 12.405 12.464 12.347 C 12.685 12.275 12.896 12.176 13.096 12.056 Z"/>
</svg>
