<svg xmlns="http://www.w3.org/2000/svg" width="16" height="16" version="1.1">
 <defs>
   <style id="current-color-scheme" type="text/css">
   .ColorScheme-Text { color: #00aa00; } .ColorScheme-Highlight { color:#5294e2; }
  </style>
  <linearGradient id="arrongin" x1="0%" x2="0%" y1="0%" y2="100%">
   <stop offset="0%" style="stop-color:#dd9b44; stop-opacity:1"/>
   <stop offset="100%" style="stop-color:#ad6c16; stop-opacity:1"/>
  </linearGradient>
  <linearGradient id="aurora" x1="0%" x2="0%" y1="0%" y2="100%">
   <stop offset="0%" style="stop-color:#09D4DF; stop-opacity:1"/>
   <stop offset="100%" style="stop-color:#9269F4; stop-opacity:1"/>
  </linearGradient>
  <linearGradient id="cyberneon" x1="0%" x2="0%" y1="0%" y2="100%">
    <stop offset="0" style="stop-color:#0abdc6; stop-opacity:1"/>
    <stop offset="1" style="stop-color:#ea00d9; stop-opacity:1"/>
  </linearGradient>
  <linearGradient id="fitdance" x1="0%" x2="0%" y1="0%" y2="100%">
   <stop offset="0%" style="stop-color:#1AD6AB; stop-opacity:1"/>
   <stop offset="100%" style="stop-color:#329DB6; stop-opacity:1"/>
  </linearGradient>
  <linearGradient id="oomox" x1="0%" x2="0%" y1="0%" y2="100%">
   <stop offset="0%" style="stop-color:#00aa00; stop-opacity:1"/>
   <stop offset="100%" style="stop-color:#00cc00; stop-opacity:1"/>
  </linearGradient>
  <linearGradient id="rainblue" x1="0%" x2="0%" y1="0%" y2="100%">
   <stop offset="0%" style="stop-color:#00F260; stop-opacity:1"/>
   <stop offset="100%" style="stop-color:#0575E6; stop-opacity:1"/>
  </linearGradient>
  <linearGradient id="sunrise" x1="0%" x2="0%" y1="0%" y2="100%">
   <stop offset="0%" style="stop-color: #FF8501; stop-opacity:1"/>
   <stop offset="100%" style="stop-color: #FFCB01; stop-opacity:1"/>
  </linearGradient>
  <linearGradient id="telinkrin" x1="0%" x2="0%" y1="0%" y2="100%">
   <stop offset="0%" style="stop-color: #b2ced6; stop-opacity:1"/>
   <stop offset="100%" style="stop-color: #6da5b7; stop-opacity:1"/>
  </linearGradient>
  <linearGradient id="60spsycho" x1="0%" x2="0%" y1="0%" y2="100%">
   <stop offset="0%" style="stop-color: #df5940; stop-opacity:1"/>
   <stop offset="25%" style="stop-color: #d8d15f; stop-opacity:1"/>
   <stop offset="50%" style="stop-color: #e9882a; stop-opacity:1"/>
   <stop offset="100%" style="stop-color: #279362; stop-opacity:1"/>
  </linearGradient>
  <linearGradient id="90ssummer" x1="0%" x2="0%" y1="0%" y2="100%">
   <stop offset="0%" style="stop-color: #f618c7; stop-opacity:1"/>
   <stop offset="20%" style="stop-color: #94ffab; stop-opacity:1"/>
   <stop offset="50%" style="stop-color: #fbfd54; stop-opacity:1"/>
   <stop offset="100%" style="stop-color: #0f83ae; stop-opacity:1"/>
  </linearGradient>
 </defs>
 <path fill="url(#oomox)" class="ColorScheme-Text" fill-rule="evenodd" d="M 7.047 5.646 L 9.711 8.31 C 10.096 8.695 10.72 8.695 11.106 8.31 C 11.491 7.924 11.491 7.3 11.106 6.915 L 8.441 4.25 C 6.535 2.344 3.454 2.313 1.506 4.154 C 1.489 4.169 1.471 4.185 1.454 4.201 C 1.446 4.21 1.438 4.218 1.43 4.227 C 1.422 4.235 1.413 4.242 1.405 4.25 C 1.388 4.267 1.373 4.285 1.358 4.303 C -0.484 6.25 -0.452 9.331 1.454 11.238 L 4.119 13.902 C 4.504 14.287 5.128 14.287 5.513 13.902 C 5.898 13.517 5.898 12.892 5.513 12.508 L 2.849 9.843 C 1.687 8.68 1.678 6.794 2.825 5.621 C 3.998 4.475 5.884 4.483 7.047 5.646 Z M 10.487 2.098 C 10.101 2.483 10.102 3.107 10.487 3.492 L 13.151 6.157 C 14.314 7.32 14.321 9.206 13.175 10.379 C 12.002 11.525 10.116 11.517 8.953 10.355 L 6.289 7.69 C 5.904 7.305 5.279 7.305 4.894 7.69 C 4.509 8.076 4.509 8.7 4.894 9.085 L 7.558 11.75 C 9.465 13.656 12.546 13.687 14.493 11.846 C 14.511 11.831 14.529 11.816 14.546 11.799 C 14.554 11.79 14.561 11.782 14.57 11.774 C 14.578 11.766 14.587 11.758 14.595 11.75 C 14.612 11.733 14.627 11.715 14.642 11.697 C 16.484 9.75 16.453 6.669 14.546 4.762 L 11.882 2.098 C 11.497 1.713 10.872 1.713 10.487 2.098 L 10.487 2.098 Z"/>
</svg>
