<svg xmlns="http://www.w3.org/2000/svg" width="16" height="16" version="1.1">
 <defs>
   <style id="current-color-scheme" type="text/css">
   .ColorScheme-Text { color: #00aa00; } .ColorScheme-Highlight { color:#5294e2; }
  </style>
  <linearGradient id="arrongin" x1="0%" x2="0%" y1="0%" y2="100%">
   <stop offset="0%" style="stop-color:#dd9b44; stop-opacity:1"/>
   <stop offset="100%" style="stop-color:#ad6c16; stop-opacity:1"/>
  </linearGradient>
  <linearGradient id="aurora" x1="0%" x2="0%" y1="0%" y2="100%">
   <stop offset="0%" style="stop-color:#09D4DF; stop-opacity:1"/>
   <stop offset="100%" style="stop-color:#9269F4; stop-opacity:1"/>
  </linearGradient>
  <linearGradient id="cyberneon" x1="0%" x2="0%" y1="0%" y2="100%">
    <stop offset="0" style="stop-color:#0abdc6; stop-opacity:1"/>
    <stop offset="1" style="stop-color:#ea00d9; stop-opacity:1"/>
  </linearGradient>
  <linearGradient id="fitdance" x1="0%" x2="0%" y1="0%" y2="100%">
   <stop offset="0%" style="stop-color:#1AD6AB; stop-opacity:1"/>
   <stop offset="100%" style="stop-color:#329DB6; stop-opacity:1"/>
  </linearGradient>
  <linearGradient id="oomox" x1="0%" x2="0%" y1="0%" y2="100%">
   <stop offset="0%" style="stop-color:#00aa00; stop-opacity:1"/>
   <stop offset="100%" style="stop-color:#00cc00; stop-opacity:1"/>
  </linearGradient>
  <linearGradient id="rainblue" x1="0%" x2="0%" y1="0%" y2="100%">
   <stop offset="0%" style="stop-color:#00F260; stop-opacity:1"/>
   <stop offset="100%" style="stop-color:#0575E6; stop-opacity:1"/>
  </linearGradient>
  <linearGradient id="sunrise" x1="0%" x2="0%" y1="0%" y2="100%">
   <stop offset="0%" style="stop-color: #FF8501; stop-opacity:1"/>
   <stop offset="100%" style="stop-color: #FFCB01; stop-opacity:1"/>
  </linearGradient>
  <linearGradient id="telinkrin" x1="0%" x2="0%" y1="0%" y2="100%">
   <stop offset="0%" style="stop-color: #b2ced6; stop-opacity:1"/>
   <stop offset="100%" style="stop-color: #6da5b7; stop-opacity:1"/>
  </linearGradient>
  <linearGradient id="60spsycho" x1="0%" x2="0%" y1="0%" y2="100%">
   <stop offset="0%" style="stop-color: #df5940; stop-opacity:1"/>
   <stop offset="25%" style="stop-color: #d8d15f; stop-opacity:1"/>
   <stop offset="50%" style="stop-color: #e9882a; stop-opacity:1"/>
   <stop offset="100%" style="stop-color: #279362; stop-opacity:1"/>
  </linearGradient>
  <linearGradient id="90ssummer" x1="0%" x2="0%" y1="0%" y2="100%">
   <stop offset="0%" style="stop-color: #f618c7; stop-opacity:1"/>
   <stop offset="20%" style="stop-color: #94ffab; stop-opacity:1"/>
   <stop offset="50%" style="stop-color: #fbfd54; stop-opacity:1"/>
   <stop offset="100%" style="stop-color: #0f83ae; stop-opacity:1"/>
  </linearGradient>
 </defs>
 <path fill="url(#oomox)" class="ColorScheme-Text" fill-rule="evenodd" d="M 9.688 2.978 L 14.771 2.978 L 14.771 13.456 L 9.688 13.456 L 9.688 2.978 Z M 9.688 3.956 L 13.646 3.956 L 13.646 4.706 L 9.688 8.206 L 9.688 3.956 Z M 13.646 5.706 L 10.896 8.081 L 13.646 10.331 L 13.646 5.706 Z M 9.688 9.103 L 10.313 8.603 L 13.646 11.456 L 13.646 12.456 L 9.688 12.456 L 9.688 9.103 Z M 8.546 1 C 6.108 1.434 3.668 2.01 1.23 2.436 C 1.23 6.145 1.228 9.856 1.23 13.567 C 3.655 13.991 6.082 14.558 8.503 15 L 9.229 15 L 9.229 1 L 8.546 1 Z M 7.846 8.185 L 7.846 8.185 L 7.846 8.185 Q 7.846 9.514 7.187 10.229 L 7.187 10.229 L 7.187 10.229 Q 6.528 10.943 5.297 10.943 L 5.297 10.943 L 5.297 10.943 Q 4.067 10.943 3.408 10.229 L 3.408 10.229 L 3.408 10.229 Q 2.748 9.514 2.748 8.178 L 2.748 8.178 L 2.748 8.178 Q 2.748 6.841 3.409 6.136 L 3.409 6.136 L 3.409 6.136 Q 4.071 5.431 5.305 5.431 L 5.305 5.431 L 5.305 5.431 Q 6.539 5.431 7.192 6.142 L 7.192 6.142 L 7.192 6.142 Q 7.846 6.852 7.846 8.185 Z M 3.939 8.185 L 3.939 8.185 L 3.939 8.185 Q 3.939 9.082 4.279 9.536 L 4.279 9.536 L 4.279 9.536 Q 4.62 9.991 5.297 9.991 L 5.297 9.991 L 5.297 9.991 Q 6.656 9.991 6.656 8.185 L 6.656 8.185 L 6.656 8.185 Q 6.656 6.376 5.305 6.376 L 5.305 6.376 L 5.305 6.376 Q 4.627 6.376 4.283 6.832 L 4.283 6.832 L 4.283 6.832 Q 3.939 7.288 3.939 8.185 Z"/>
</svg>
