<svg xmlns="http://www.w3.org/2000/svg" width="16" height="16" version="1.1">
 <defs>
   <style id="current-color-scheme" type="text/css">
   .ColorScheme-Text { color: #00aa00; } .ColorScheme-Highlight { color:#5294e2; }
  </style>
  <linearGradient id="arrongin" x1="0%" x2="0%" y1="0%" y2="100%">
   <stop offset="0%" style="stop-color:#dd9b44; stop-opacity:1"/>
   <stop offset="100%" style="stop-color:#ad6c16; stop-opacity:1"/>
  </linearGradient>
  <linearGradient id="aurora" x1="0%" x2="0%" y1="0%" y2="100%">
   <stop offset="0%" style="stop-color:#09D4DF; stop-opacity:1"/>
   <stop offset="100%" style="stop-color:#9269F4; stop-opacity:1"/>
  </linearGradient>
  <linearGradient id="cyberneon" x1="0%" x2="0%" y1="0%" y2="100%">
    <stop offset="0" style="stop-color:#0abdc6; stop-opacity:1"/>
    <stop offset="1" style="stop-color:#ea00d9; stop-opacity:1"/>
  </linearGradient>
  <linearGradient id="fitdance" x1="0%" x2="0%" y1="0%" y2="100%">
   <stop offset="0%" style="stop-color:#1AD6AB; stop-opacity:1"/>
   <stop offset="100%" style="stop-color:#329DB6; stop-opacity:1"/>
  </linearGradient>
  <linearGradient id="oomox" x1="0%" x2="0%" y1="0%" y2="100%">
   <stop offset="0%" style="stop-color:#00aa00; stop-opacity:1"/>
   <stop offset="100%" style="stop-color:#00cc00; stop-opacity:1"/>
  </linearGradient>
  <linearGradient id="rainblue" x1="0%" x2="0%" y1="0%" y2="100%">
   <stop offset="0%" style="stop-color:#00F260; stop-opacity:1"/>
   <stop offset="100%" style="stop-color:#0575E6; stop-opacity:1"/>
  </linearGradient>
  <linearGradient id="sunrise" x1="0%" x2="0%" y1="0%" y2="100%">
   <stop offset="0%" style="stop-color: #FF8501; stop-opacity:1"/>
   <stop offset="100%" style="stop-color: #FFCB01; stop-opacity:1"/>
  </linearGradient>
  <linearGradient id="telinkrin" x1="0%" x2="0%" y1="0%" y2="100%">
   <stop offset="0%" style="stop-color: #b2ced6; stop-opacity:1"/>
   <stop offset="100%" style="stop-color: #6da5b7; stop-opacity:1"/>
  </linearGradient>
  <linearGradient id="60spsycho" x1="0%" x2="0%" y1="0%" y2="100%">
   <stop offset="0%" style="stop-color: #df5940; stop-opacity:1"/>
   <stop offset="25%" style="stop-color: #d8d15f; stop-opacity:1"/>
   <stop offset="50%" style="stop-color: #e9882a; stop-opacity:1"/>
   <stop offset="100%" style="stop-color: #279362; stop-opacity:1"/>
  </linearGradient>
  <linearGradient id="90ssummer" x1="0%" x2="0%" y1="0%" y2="100%">
   <stop offset="0%" style="stop-color: #f618c7; stop-opacity:1"/>
   <stop offset="20%" style="stop-color: #94ffab; stop-opacity:1"/>
   <stop offset="50%" style="stop-color: #fbfd54; stop-opacity:1"/>
   <stop offset="100%" style="stop-color: #0f83ae; stop-opacity:1"/>
  </linearGradient>
 </defs>
 <path fill="url(#oomox)" class="ColorScheme-Text" d="M 14.846 0.012 C 14.559 0.015 14.289 0.13 14.137 0.362 L 11.709 4.928 C 11.889 4.99 12.294 5.17 13.637 5.777 L 13.657 5.787 C 13.889 5.892 14.067 5.967 14.137 5.997 C 14.161 6.008 14.183 6.026 14.207 6.037 L 15.976 1.141 C 16.086 0.754 15.809 0.308 15.366 0.132 C 15.205 0.052 15.027 0.011 14.847 0.012 L 14.846 0.012 Z M 1.279 2.56 C 0.573 2.56 0 3.133 0 3.839 C 0 4.544 0.573 5.118 1.279 5.118 C 1.984 5.118 2.558 4.544 2.558 3.839 C 2.558 3.133 1.984 2.56 1.279 2.56 Z M 4.156 3.519 C 3.803 3.519 3.517 3.805 3.517 4.158 C 3.517 4.512 3.803 4.798 4.156 4.798 C 4.509 4.798 4.796 4.512 4.796 4.158 C 4.796 3.805 4.509 3.519 4.156 3.519 Z M 10.28 5.317 C 9.662 5.364 9.124 5.671 8.742 6.206 C 8.983 6.613 9.405 7.108 10.001 7.096 C 10.157 7.092 10.292 7.202 10.32 7.355 C 10.442 7.544 11.186 7.879 11.399 7.795 C 11.488 7.76 11.587 7.768 11.669 7.815 C 11.753 7.863 11.813 7.94 11.829 8.035 C 11.842 8.087 11.981 8.271 12.269 8.404 C 12.495 8.509 12.715 8.536 12.838 8.474 C 12.916 8.436 13.007 8.432 13.088 8.465 C 13.171 8.496 13.244 8.562 13.278 8.644 C 13.494 9.171 14.48 9.21 15.156 9.154 C 15.255 8.726 15.227 8.278 15.076 7.865 C 14.865 7.294 14.447 6.843 13.877 6.586 C 13.817 6.56 13.623 6.468 13.378 6.356 C 12.239 5.842 11.596 5.562 11.469 5.527 C 11.052 5.362 10.651 5.29 10.28 5.317 Z M 3.677 5.757 C 2.706 5.758 1.92 6.545 1.918 7.515 C 1.918 8.484 2.708 9.274 3.677 9.274 C 4.646 9.274 5.435 8.484 5.435 7.515 C 5.435 6.546 4.646 5.757 3.677 5.757 Z M 8.402 6.846 C 8.304 7.075 8.194 7.298 8.072 7.515 C 8.21 7.85 8.616 8.626 9.361 8.455 C 9.446 8.433 9.537 8.447 9.611 8.495 C 9.685 8.543 9.726 8.618 9.741 8.704 C 9.762 8.824 9.903 8.966 10.101 9.074 C 10.38 9.225 10.683 9.259 10.81 9.204 C 10.892 9.166 10.987 9.166 11.07 9.204 C 11.152 9.243 11.214 9.316 11.239 9.404 C 11.284 9.556 11.442 9.712 11.659 9.823 C 11.915 9.953 12.208 10 12.398 9.933 C 12.545 9.881 12.707 9.945 12.778 10.083 C 13.06 10.606 13.987 10.662 14.706 10.612 C 14.797 10.353 14.882 10.085 14.966 9.803 C 14.88 9.808 14.79 9.813 14.696 9.813 C 14.027 9.813 13.226 9.681 12.828 9.134 C 12.558 9.17 12.248 9.111 11.939 8.954 C 11.714 8.839 11.467 8.663 11.319 8.444 C 10.912 8.444 10.444 8.218 10.211 8.075 C 10.029 7.964 9.888 7.854 9.801 7.735 C 9.167 7.676 8.713 7.263 8.402 6.846 L 8.402 6.846 Z M 7.673 8.145 C 5.691 10.899 2.307 10.818 2.268 10.812 C 2.14 10.802 2.018 10.869 1.958 10.983 C 1.897 11.094 1.909 11.232 1.988 11.332 C 2.527 11.996 3.133 12.602 3.796 13.141 C 4.091 13.199 5.946 13.461 7.783 11.332 C 7.838 11.268 7.917 11.23 8.001 11.224 C 8.086 11.218 8.169 11.247 8.232 11.302 C 8.366 11.417 8.377 11.618 8.262 11.752 C 6.981 13.237 5.63 13.701 4.686 13.8 C 5.417 14.291 6.197 14.706 7.013 15.039 C 7.486 14.94 9.069 14.467 10.47 12.331 C 10.568 12.184 10.772 12.134 10.92 12.231 C 11.067 12.329 11.107 12.533 11.01 12.681 C 9.953 14.29 8.797 15.046 7.982 15.398 C 9.645 15.937 10.885 15.984 10.99 15.988 L 11 15.988 C 11.06 15.988 11.119 15.97 11.17 15.938 C 11.259 15.882 13.11 14.673 14.467 11.272 C 14.414 11.273 14.36 11.282 14.307 11.282 C 13.607 11.282 12.799 11.141 12.358 10.593 C 12.049 10.63 11.694 10.559 11.37 10.393 C 11.105 10.257 10.895 10.075 10.76 9.864 C 10.42 9.892 10.053 9.77 9.801 9.634 C 9.541 9.493 9.338 9.315 9.221 9.114 C 8.486 9.153 7.975 8.652 7.673 8.145 Z"/>
</svg>
