<svg xmlns="http://www.w3.org/2000/svg" width="16" height="16" version="1.1">
 <defs>
   <style id="current-color-scheme" type="text/css">
   .ColorScheme-Text { color: #00aa00; } .ColorScheme-Highlight { color:#5294e2; }
  </style>
  <linearGradient id="arrongin" x1="0%" x2="0%" y1="0%" y2="100%">
   <stop offset="0%" style="stop-color:#dd9b44; stop-opacity:1"/>
   <stop offset="100%" style="stop-color:#ad6c16; stop-opacity:1"/>
  </linearGradient>
  <linearGradient id="aurora" x1="0%" x2="0%" y1="0%" y2="100%">
   <stop offset="0%" style="stop-color:#09D4DF; stop-opacity:1"/>
   <stop offset="100%" style="stop-color:#9269F4; stop-opacity:1"/>
  </linearGradient>
  <linearGradient id="cyberneon" x1="0%" x2="0%" y1="0%" y2="100%">
    <stop offset="0" style="stop-color:#0abdc6; stop-opacity:1"/>
    <stop offset="1" style="stop-color:#ea00d9; stop-opacity:1"/>
  </linearGradient>
  <linearGradient id="fitdance" x1="0%" x2="0%" y1="0%" y2="100%">
   <stop offset="0%" style="stop-color:#1AD6AB; stop-opacity:1"/>
   <stop offset="100%" style="stop-color:#329DB6; stop-opacity:1"/>
  </linearGradient>
  <linearGradient id="oomox" x1="0%" x2="0%" y1="0%" y2="100%">
   <stop offset="0%" style="stop-color:#00aa00; stop-opacity:1"/>
   <stop offset="100%" style="stop-color:#00cc00; stop-opacity:1"/>
  </linearGradient>
  <linearGradient id="rainblue" x1="0%" x2="0%" y1="0%" y2="100%">
   <stop offset="0%" style="stop-color:#00F260; stop-opacity:1"/>
   <stop offset="100%" style="stop-color:#0575E6; stop-opacity:1"/>
  </linearGradient>
  <linearGradient id="sunrise" x1="0%" x2="0%" y1="0%" y2="100%">
   <stop offset="0%" style="stop-color: #FF8501; stop-opacity:1"/>
   <stop offset="100%" style="stop-color: #FFCB01; stop-opacity:1"/>
  </linearGradient>
  <linearGradient id="telinkrin" x1="0%" x2="0%" y1="0%" y2="100%">
   <stop offset="0%" style="stop-color: #b2ced6; stop-opacity:1"/>
   <stop offset="100%" style="stop-color: #6da5b7; stop-opacity:1"/>
  </linearGradient>
  <linearGradient id="60spsycho" x1="0%" x2="0%" y1="0%" y2="100%">
   <stop offset="0%" style="stop-color: #df5940; stop-opacity:1"/>
   <stop offset="25%" style="stop-color: #d8d15f; stop-opacity:1"/>
   <stop offset="50%" style="stop-color: #e9882a; stop-opacity:1"/>
   <stop offset="100%" style="stop-color: #279362; stop-opacity:1"/>
  </linearGradient>
  <linearGradient id="90ssummer" x1="0%" x2="0%" y1="0%" y2="100%">
   <stop offset="0%" style="stop-color: #f618c7; stop-opacity:1"/>
   <stop offset="20%" style="stop-color: #94ffab; stop-opacity:1"/>
   <stop offset="50%" style="stop-color: #fbfd54; stop-opacity:1"/>
   <stop offset="100%" style="stop-color: #0f83ae; stop-opacity:1"/>
  </linearGradient>
 </defs>
 <path fill="url(#oomox)" class="ColorScheme-Text" d="M 14.191 0 C 14.507 0 14.683 0.248 14.72 0.745 L 14.322 3.086 L 14.419 3.086 L 14.628 2.912 L 14.683 2.912 L 14.683 2.964 C 14.396 3.184 14.117 3.785 13.848 4.767 C 13.746 5.611 13.575 6.391 13.333 7.107 C 13.12 7.847 13.013 8.529 13.013 9.153 L 12.61 10.384 C 12.61 10.488 12.763 10.592 13.069 10.696 C 13.013 10.938 12.93 11.06 12.818 11.06 L 12.818 11.129 L 12.916 11.129 L 12.916 11.181 C 12.916 11.308 12.758 11.372 12.443 11.372 L 12.498 11.441 L 12.498 11.684 L 12.401 11.684 C 12.466 11.926 12.605 12.048 12.818 12.048 L 12.818 12.169 L 12.401 12.169 L 12.401 12.238 C 12.54 12.238 12.61 12.342 12.61 12.55 L 12.025 12.793 L 12.081 12.862 L 12.081 12.914 C 12.081 12.995 12.011 13.036 11.872 13.036 L 11.872 13.105 C 12.048 13.105 12.136 13.145 12.136 13.226 C 11.886 13.33 11.556 13.845 11.148 14.769 C 10.731 15.59 10.369 16 10.062 16 L 9.951 16 C 9.719 15.815 9.529 15.203 9.381 14.163 C 8.787 12.579 8.49 11.649 8.49 11.372 C 8.49 10.655 8.299 10.02 7.919 9.211 C 7.817 8.853 7.747 8.227 7.71 7.683 L 7.46 7.683 C 6.829 8.874 6.499 9.783 6.472 10.453 C 6.295 10.846 6.156 11.32 6.054 11.874 C 6.434 12.001 6.625 12.123 6.625 12.238 L 6.625 12.308 C 6.328 12.262 6.119 12.175 5.998 12.048 C 5.868 12.36 5.697 13.034 5.483 14.456 C 5.316 15.115 5.108 15.36 4.857 15.36 C 4.152 15.071 3.563 14.681 3.089 14.023 C 3.015 14.023 2.895 13.693 2.728 13.034 C 2.625 13.034 2.556 12.705 2.519 12.046 C 2.166 11.11 1.925 10.233 1.795 9.031 L 1.795 7.229 L 1.739 7.229 L 1.489 7.298 L 1.489 7.229 C 1.489 7.148 1.572 7.107 1.739 7.107 L 1.684 6.067 L 1.684 5.252 L 1.28 2.652 L 1.28 1.671 C 1.456 0.977 1.763 0.631 2.199 0.631 L 2.366 0.804 L 2.199 0.752 C 2.876 1.677 3.275 2.329 3.396 2.964 L 3.869 2.964 L 3.869 3.086 L 3.507 3.086 L 3.507 3.224 C 3.646 3.756 3.748 4.022 3.813 4.022 L 3.925 4.022 L 4.175 3.952 L 4.231 4.022 L 4.286 3.952 L 4.342 4.022 L 4.342 4.074 C 4.156 4.212 4.031 4.403 3.966 4.646 L 3.925 4.646 L 3.925 4.767 L 4.022 4.767 C 4.152 6.697 4.393 8.415 4.746 9.409 L 4.954 9.6 L 5.066 9.6 C 5.205 9.6 5.497 8.842 5.943 7.49 C 6.23 6.878 6.439 6.429 6.569 5.967 L 6.513 5.776 C 6.801 5.325 7.098 5.12 7.404 5.12 L 7.502 5.12 C 7.696 5.12 7.836 5.227 7.919 5.481 C 8.179 5.863 8.388 6.346 8.545 7.109 L 9.325 8.719 C 9.427 8.847 9.478 8.991 9.478 9.153 C 9.766 9.835 10.025 10.66 10.257 10.88 L 10.424 10.88 C 10.619 10.88 10.879 9.661 11.204 7.974 C 11.259 7.974 11.413 7.523 11.663 6.622 L 11.663 6.552 L 11.398 6.431 L 11.19 6.501 L 10.925 6.501 L 10.925 6.362 L 11.454 6.31 L 11.872 6.31 C 12.271 4.819 12.637 3.663 12.971 2.843 C 13.083 1.156 13.236 0.312 13.431 0.312 L 14.191 0 Z"/>
</svg>
