<svg xmlns="http://www.w3.org/2000/svg" width="16" height="16" version="1.1">
 <defs>
   <style id="current-color-scheme" type="text/css">
   .ColorScheme-Text { color: #00aa00; } .ColorScheme-Highlight { color: #1AD6AB; }
  </style>
  <linearGradient id="arrongin" x1="0%" x2="0%" y1="0%" y2="100%">
   <stop offset="0%" style="stop-color: #dd9b44; stop-opacity: 1"/>
   <stop offset="100%" style="stop-color: #ad6c16; stop-opacity: 1"/>
  </linearGradient>
  <linearGradient id="aurora" x1="0%" x2="0%" y1="0%" y2="100%">
   <stop offset="0%" style="stop-color: #09D4DF; stop-opacity: 1"/>
   <stop offset="100%" style="stop-color: #9269F4; stop-opacity: 1"/>
  </linearGradient>
  <linearGradient id="cyberneon" x1="0%" x2="0%" y1="0%" y2="100%">
    <stop offset="0" style="stop-color: #0abdc6; stop-opacity: 1"/>
    <stop offset="1" style="stop-color: #ea00d9; stop-opacity: 1"/>
  </linearGradient>
  <linearGradient id="fitdance" x1="0%" x2="0%" y1="0%" y2="100%">
   <stop offset="0%" style="stop-color: #1AD6AB; stop-opacity: 1"/>
   <stop offset="100%" style="stop-color: #329DB6; stop-opacity: 1"/>
  </linearGradient>
  <linearGradient id="oomox" x1="0%" x2="0%" y1="0%" y2="100%">
   <stop offset="0%" style="stop-color: #00aa00; stop-opacity: 1"/>
   <stop offset="100%" style="stop-color: #00cc00; stop-opacity: 1"/>
  </linearGradient>
  <linearGradient id="rainblue" x1="0%" x2="0%" y1="0%" y2="100%">
   <stop offset="0%" style="stop-color: #00F260; stop-opacity: 1"/>
   <stop offset="100%" style="stop-color: #0575E6; stop-opacity: 1"/>
  </linearGradient>
  <linearGradient id="sunrise" x1="0%" x2="0%" y1="0%" y2="100%">
   <stop offset="0%" style="stop-color: #FF8501; stop-opacity: 1"/>
   <stop offset="100%" style="stop-color: #FFCB01; stop-opacity: 1"/>
  </linearGradient>
  <linearGradient id="telinkrin" x1="0%" x2="0%" y1="0%" y2="100%">
   <stop offset="0%" style="stop-color: #b2ced6; stop-opacity: 1"/>
   <stop offset="100%" style="stop-color: #6da5b7; stop-opacity: 1"/>
  </linearGradient>
  <linearGradient id="60spsycho" x1="0%" x2="0%" y1="0%" y2="100%">
   <stop offset="0%" style="stop-color: #df5940; stop-opacity: 1"/>
   <stop offset="25%" style="stop-color: #d8d15f; stop-opacity: 1"/>
   <stop offset="50%" style="stop-color: #e9882a; stop-opacity: 1"/>
   <stop offset="100%" style="stop-color: #279362; stop-opacity: 1"/>
  </linearGradient>
  <linearGradient id="90ssummer" x1="0%" x2="0%" y1="0%" y2="100%">
   <stop offset="0%" style="stop-color: #f618c7; stop-opacity: 1"/>
   <stop offset="20%" style="stop-color: #94ffab; stop-opacity: 1"/>
   <stop offset="50%" style="stop-color: #fbfd54; stop-opacity: 1"/>
   <stop offset="100%" style="stop-color: #0f83ae; stop-opacity: 1"/>
  </linearGradient>
 </defs>
 <path fill="url(#oomox)" class="ColorScheme-Text" d="M 1.600021 13.100894 C 1.520776 13.078172 1.383767 12.971848 1.221882 12.807425 C 1.018096 12.600447 0.932174 12.475962 0.786341 12.17641 C -0.272488 10.001467 -0.260176 6.041533 0.812163 3.871945 C 1.11767 3.253837 1.469253 2.903559 1.824296 2.863566 C 2.199828 2.821264 3.011315 3.145593 3.726289 3.623736 C 4.712241 4.283093 5.766004 5.297757 6.266035 6.069248 C 6.39442 6.267331 6.422449 6.345618 6.456726 6.601881 C 6.478826 6.767112 6.496907 7.027637 6.496907 7.180831 L 6.496907 7.459369 L 6.255596 7.357191 C 5.920085 7.21512 5.366052 7.049775 4.938899 6.964228 C 4.496868 6.875696 3.739158 6.806724 3.587755 6.841237 C 3.479183 6.865974 3.481573 6.86807 3.672664 6.916214 C 4.28939 7.071519 6.419045 7.765818 6.486998 7.833723 C 6.519399 7.866114 6.41697 8.696119 6.377479 8.721211 C 6.288227 8.777955 5.657707 8.970914 4.943499 9.160113 C 4.53153 9.269253 4.18565 9.367521 4.174877 9.378489 C 4.164109 9.389487 4.227681 9.389084 4.316162 9.377635 C 4.404643 9.366235 4.710305 9.33207 4.99541 9.30177 C 5.280516 9.271434 5.694014 9.214991 5.914294 9.176287 C 6.134573 9.137529 6.321447 9.105908 6.329569 9.105908 C 6.355778 9.105908 6.246861 9.542965 6.133703 9.891873 C 6.005153 10.288244 5.973079 10.326905 5.241665 10.967025 C 3.91827 12.125245 2.902814 12.829576 2.236365 13.051531 C 1.946681 13.148004 1.803287 13.15912 1.600023 13.100842 L 1.600021 13.100894 Z M 13.789888 13.08639 C 13.308317 12.959471 12.492811 12.47047 11.772962 11.876995 C 11.309935 11.495249 10.673984 10.905574 10.391917 10.596441 L 10.170962 10.354287 L 10.231455 10.114143 C 10.264726 9.982064 10.301204 9.732098 10.312516 9.558669 C 10.33203 9.25951 10.336935 9.24445 10.408053 9.265297 C 10.884334 9.404894 11.50771 9.52207 12.21689 9.605313 C 12.403685 9.62727 12.604777 9.65251 12.663765 9.661514 C 12.768555 9.677469 12.768963 9.676985 12.681641 9.639155 C 12.632482 9.617883 12.278561 9.513224 11.895143 9.406623 C 11.511725 9.300021 11.004191 9.147278 10.767293 9.067194 L 10.336567 8.921585 L 10.271671 8.415337 C 10.23598 8.136903 10.204582 7.868894 10.201898 7.819775 C 10.197482 7.739421 10.250809 7.702824 10.73327 7.454921 C 11.028206 7.303371 11.570827 7.039115 11.939093 6.867683 C 12.307358 6.696254 12.604084 6.551408 12.598481 6.545812 C 12.569691 6.517046 11.671645 6.782224 10.934847 7.037073 C 10.475503 7.195947 10.08736 7.31246 10.072306 7.295986 C 10.057256 7.279508 10.016821 7.177605 9.982464 7.069536 C 9.948104 6.96146 9.86569 6.761472 9.79932 6.625102 C 9.732951 6.488739 9.678647 6.362945 9.678647 6.345553 C 9.678647 6.328148 9.752866 6.198587 9.843576 6.0576 C 10.429814 5.146456 11.677668 3.966673 12.683188 3.372896 C 13.276017 3.02282 13.923424 2.809581 14.221512 2.866217 C 14.557147 2.92998 14.888605 3.276342 15.184095 3.872073 C 15.739072 4.990954 16.046621 6.699808 15.994238 8.373523 C 15.946919 9.88539 15.668771 11.234957 15.210462 12.176375 C 15.064749 12.475679 14.978709 12.600392 14.775775 12.806415 C 14.439018 13.148313 14.239642 13.204932 13.789889 13.086394 L 13.789888 13.08639 Z M 7.660169 10.530921 C 7.224615 10.467512 6.807073 10.301917 6.643193 10.127588 C 6.571578 10.051407 6.57157 10.050187 6.64057 9.783945 C 6.831141 9.048604 6.940255 7.815433 6.890231 6.962359 C 6.863115 6.499924 6.866204 6.439428 6.91904 6.398616 C 7.115258 6.24705 8.166575 6.043045 8.546919 6.08274 C 8.800597 6.109209 9.020198 6.20353 9.149601 6.341589 C 9.371424 6.578243 9.644816 7.360599 9.774082 8.128637 C 9.866541 8.677985 9.865454 9.781085 9.772152 10.094601 C 9.709329 10.305668 9.698831 10.31848 9.528651 10.391637 C 9.430837 10.433698 9.230106 10.491177 9.082586 10.519378 C 8.789093 10.57552 8.009767 10.581824 7.660177 10.53094 L 7.660169 10.530921 Z"/>
</svg>
