<svg xmlns="http://www.w3.org/2000/svg" width="16" height="16" version="1.1">
 <defs>
   <style id="current-color-scheme" type="text/css">
   .ColorScheme-Text { color: #cc00cc; } .ColorScheme-Highlight { color: #1AD6AB; }
  </style>
  <linearGradient id="arrongin" x1="0%" x2="0%" y1="0%" y2="100%">
   <stop offset="0%"    stop-color= "#dd9b44" stop-opacity="1"/>
   <stop offset="100%"  stop-color= "#ad6c16" stop-opacity="1"/>
  </linearGradient>
  <linearGradient id="aurora" x1="0%" x2="0%" y1="0%" y2="100%">
   <stop offset="0%"    stop-color= "#09D4DF" stop-opacity="1"/>
   <stop offset="100%"  stop-color= "#9269F4" stop-opacity="1"/>
  </linearGradient> 
  <linearGradient id="cyberblue" x1="0%" x2="0%" y1="0%" y2="100%">
   <stop offset="0%"    stop-color= "#07B3FF" stop-opacity="1"/>
   <stop offset="100%"  stop-color= "#007DE8" stop-opacity="1"/>
  </linearGradient>
  <linearGradient id="cyberneon" x1="0%" x2="0%" y1="0%" y2="100%">
    <stop offset="0%"   stop-color= "#0abdc6" stop-opacity="1"/>
    <stop offset="100%" stop-color= "#ea00d9" stop-opacity="1"/>
  </linearGradient>
  <linearGradient id="fitdance" x1="0%" x2="0%" y1="0%" y2="100%">
   <stop offset="0%"    stop-color= "#1AD6AB" stop-opacity="1"/>
   <stop offset="100%"  stop-color= "#329DB6" stop-opacity="1"/>
  </linearGradient>
  <linearGradient id="oomox" x1="0%" x2="0%" y1="0%" y2="100%">
   <stop offset="0%"    stop-color= "#efefe7" stop-opacity="1"/>
   <stop offset="100%"  stop-color= "#8f8f8b" stop-opacity="1"/>
  </linearGradient>
  <linearGradient id="rainblue" x1="0%" x2="0%" y1="0%" y2="100%">
   <stop offset="0%"    stop-color= "#00F260" stop-opacity="1"/>
   <stop offset="100%"  stop-color= "#0575E6" stop-opacity="1"/>
  </linearGradient>
  <linearGradient id="redcarbon" x1="0%" x2="0%" y1="0%" y2="100%">
   <stop offset="0%"    stop-color= "#FF6D57" stop-opacity="1"/>
   <stop offset="50%"   stop-color= "#FF5160" stop-opacity="1"/>
   <stop offset="100%"  stop-color= "#F50F22" stop-opacity="1"/>
  </linearGradient>
  <linearGradient id="sunrise" x1="0%" x2="0%" y1="0%" y2="100%">
   <stop offset="0%"    stop-color= "#FF8501" stop-opacity="1"/>
   <stop offset="100%"  stop-color= "#FFCB01" stop-opacity="1"/>
  </linearGradient>
  <linearGradient id="telinkrin" x1="0%" x2="0%" y1="0%" y2="100%">
   <stop offset="0%"    stop-color= "#b2ced6" stop-opacity="1"/>
   <stop offset="100%"  stop-color= "#6da5b7" stop-opacity="1"/>
  </linearGradient>
  <linearGradient id="60spsycho" x1="0%" x2="0%" y1="0%" y2="100%">
   <stop offset="0%"    stop-color= "#df5940" stop-opacity="1"/>
   <stop offset="25%"   stop-color= "#d8d15f" stop-opacity="1"/>
   <stop offset="50%"   stop-color= "#e9882a" stop-opacity="1"/>
   <stop offset="100%"  stop-color= "#279362" stop-opacity="1"/>
  </linearGradient>
  <linearGradient id="90ssummer" x1="0%" x2="0%" y1="0%" y2="100%">
   <stop offset="0%"    stop-color= "#f618c7" stop-opacity="1"/>
   <stop offset="20%"   stop-color= "#94ffab" stop-opacity="1"/>
   <stop offset="50%"   stop-color= "#fbfd54" stop-opacity="1"/>
   <stop offset="100%"  stop-color= "#0f83ae" stop-opacity="1"/>
  </linearGradient>
 </defs>
 <path fill="currentColor" class="ColorScheme-Text" d="M 3.25,3 H 4.75 C 4.8885,3 5,3.1115 5,3.25 V 4.75 C 5,4.8885 4.8885,5 4.75,5 H 3.25 C 3.1115,5 3,4.8885 3,4.75 V 3.25 C 3,3.1115 3.1115,3 3.25,3 Z"/>
 <path fill="currentColor" class="ColorScheme-Text" d="M 7.25,3 H 8.75 C 8.8885,3 9,3.1115 9,3.25 V 4.75 C 9,4.8885 8.8885,5 8.75,5 H 7.25 C 7.1115,5 7,4.8885 7,4.75 V 3.25 C 7,3.1115 7.1115,3 7.25,3 Z"/>
 <path fill="currentColor" class="ColorScheme-Text" d="M 11.25,3 H 12.75 C 12.889,3 13,3.1115 13,3.25 V 4.75 C 13,4.8885 12.889,5 12.75,5 H 11.25 C 11.112,5 11,4.8885 11,4.75 V 3.25 C 11,3.1115 11.112,3 11.25,3 Z"/>
 <path fill="currentColor" class="ColorScheme-Text" d="M 11.25,7 H 12.75 C 12.889,7 13,7.1115 13,7.25 V 8.75 C 13,8.8885 12.889,9 12.75,9 H 11.25 C 11.112,9 11,8.8885 11,8.75 V 7.25 C 11,7.1115 11.112,7 11.25,7 Z"/>
 <path fill="currentColor" class="ColorScheme-Text" d="M 7.25,7 H 8.75 C 8.8885,7 9,7.1115 9,7.25 V 8.75 C 9,8.8885 8.8885,9 8.75,9 H 7.25 C 7.1115,9 7,8.8885 7,8.75 V 7.25 C 7,7.1115 7.1115,7 7.25,7 Z"/>
 <path fill="currentColor" class="ColorScheme-Text" d="M 3.25,7 H 4.75 C 4.8885,7 5,7.1115 5,7.25 V 8.75 C 5,8.8885 4.8885,9 4.75,9 H 3.25 C 3.1115,9 3,8.8885 3,8.75 V 7.25 C 3,7.1115 3.1115,7 3.25,7 Z"/>
 <path fill="currentColor" class="ColorScheme-Text" d="M 3.25,11 H 4.75 C 4.8885,11 5,11.112 5,11.25 V 12.75 C 5,12.889 4.8885,13 4.75,13 H 3.25 C 3.1115,13 3,12.889 3,12.75 V 11.25 C 3,11.112 3.1115,11 3.25,11 Z"/>
 <path fill="currentColor" class="ColorScheme-Text" d="M 7.25,11 H 8.75 C 8.8885,11 9,11.112 9,11.25 V 12.75 C 9,12.889 8.8885,13 8.75,13 H 7.25 C 7.1115,13 7,12.889 7,12.75 V 11.25 C 7,11.112 7.1115,11 7.25,11 Z"/>
 <path fill="currentColor" class="ColorScheme-Text" d="M 11.25,11 H 12.75 C 12.889,11 13,11.112 13,11.25 V 12.75 C 13,12.889 12.889,13 12.75,13 H 11.25 C 11.112,13 11,12.889 11,12.75 V 11.25 C 11,11.112 11.112,11 11.25,11 Z"/>
</svg>
