<svg xmlns="http://www.w3.org/2000/svg" width="16" height="16" version="1.1">
 <defs>
   <style id="current-color-scheme" type="text/css">
   .ColorScheme-Text { color: #00aa00; } .ColorScheme-Highlight { color:#5294e2; }
  </style>
  <linearGradient id="arrongin" x1="0%" x2="0%" y1="0%" y2="100%">
   <stop offset="0%" style="stop-color:#dd9b44; stop-opacity:1"/>
   <stop offset="100%" style="stop-color:#ad6c16; stop-opacity:1"/>
  </linearGradient>
  <linearGradient id="aurora" x1="0%" x2="0%" y1="0%" y2="100%">
   <stop offset="0%" style="stop-color:#09D4DF; stop-opacity:1"/>
   <stop offset="100%" style="stop-color:#9269F4; stop-opacity:1"/>
  </linearGradient>
  <linearGradient id="cyberneon" x1="0%" x2="0%" y1="0%" y2="100%">
    <stop offset="0" style="stop-color:#0abdc6; stop-opacity:1"/>
    <stop offset="1" style="stop-color:#ea00d9; stop-opacity:1"/>
  </linearGradient>
  <linearGradient id="fitdance" x1="0%" x2="0%" y1="0%" y2="100%">
   <stop offset="0%" style="stop-color:#1AD6AB; stop-opacity:1"/>
   <stop offset="100%" style="stop-color:#329DB6; stop-opacity:1"/>
  </linearGradient>
  <linearGradient id="oomox" x1="0%" x2="0%" y1="0%" y2="100%">
   <stop offset="0%" style="stop-color:#00aa00; stop-opacity:1"/>
   <stop offset="100%" style="stop-color:#00cc00; stop-opacity:1"/>
  </linearGradient>
  <linearGradient id="rainblue" x1="0%" x2="0%" y1="0%" y2="100%">
   <stop offset="0%" style="stop-color:#00F260; stop-opacity:1"/>
   <stop offset="100%" style="stop-color:#0575E6; stop-opacity:1"/>
  </linearGradient>
  <linearGradient id="sunrise" x1="0%" x2="0%" y1="0%" y2="100%">
   <stop offset="0%" style="stop-color: #FF8501; stop-opacity:1"/>
   <stop offset="100%" style="stop-color: #FFCB01; stop-opacity:1"/>
  </linearGradient>
  <linearGradient id="telinkrin" x1="0%" x2="0%" y1="0%" y2="100%">
   <stop offset="0%" style="stop-color: #b2ced6; stop-opacity:1"/>
   <stop offset="100%" style="stop-color: #6da5b7; stop-opacity:1"/>
  </linearGradient>
  <linearGradient id="60spsycho" x1="0%" x2="0%" y1="0%" y2="100%">
   <stop offset="0%" style="stop-color: #df5940; stop-opacity:1"/>
   <stop offset="25%" style="stop-color: #d8d15f; stop-opacity:1"/>
   <stop offset="50%" style="stop-color: #e9882a; stop-opacity:1"/>
   <stop offset="100%" style="stop-color: #279362; stop-opacity:1"/>
  </linearGradient>
  <linearGradient id="90ssummer" x1="0%" x2="0%" y1="0%" y2="100%">
   <stop offset="0%" style="stop-color: #f618c7; stop-opacity:1"/>
   <stop offset="20%" style="stop-color: #94ffab; stop-opacity:1"/>
   <stop offset="50%" style="stop-color: #fbfd54; stop-opacity:1"/>
   <stop offset="100%" style="stop-color: #0f83ae; stop-opacity:1"/>
  </linearGradient>
 </defs>
 <rect fill="url(#oomox)" class="ColorScheme-Text" fill-opacity="0" width="16" height="16"/>
 <path fill="url(#oomox)" class="ColorScheme-Text" fill-rule="evenodd" d="M 12 9.283 C 11.831 9.658 11.75 9.826 11.532 10.157 C 11.229 10.619 10.801 11.196 10.27 11.2 C 9.798 11.204 9.677 10.893 9.037 10.898 C 8.398 10.901 8.263 11.206 7.792 11.201 C 7.016 11.201 5.655 9.518 5.655 8.001 C 5.655 6.334 6.816 5.617 7.58 5.617 C 8.142 5.617 8.565 5.995 9.029 5.995 C 9.48 5.995 9.754 5.598 10.406 5.598 C 10.897 5.598 11.716 6.05 11.999 6.534 C 10.5 6.95 10.75 8.966 12 9.283 L 12 9.283 Z M 10.009 5.078 C 10.262 4.798 10.455 4.403 10.386 4 C 9.94 4.04 9.523 4.233 9.203 4.546 C 8.947 4.814 8.735 5.212 8.818 5.597 C 9.269 5.609 9.738 5.378 10.009 5.078 L 10.009 5.078 Z M 1.6 8.8 C 1.158 8.8 0.8 8.442 0.8 8 C 0.8 7.558 1.158 7.2 1.6 7.2 C 2.042 7.2 2.4 7.558 2.4 8 C 2.4 8.442 2.042 8.8 1.6 8.8 L 1.6 8.8 Z M 14.4 12.8 L 3.2 12.8 L 3.2 3.2 L 14.4 3.2 L 14.4 12.8 L 14.4 12.8 Z M 14.4 1.6 L 1.6 1.6 C 0.718 1.6 0 2.318 0 3.2 L 0 12.8 C 0 13.682 0.718 14.4 1.6 14.4 L 14.4 14.4 C 15.282 14.4 16 13.682 16 12.8 L 16 3.2 C 16 2.318 15.282 1.6 14.4 1.6 L 14.4 1.6 Z"/>
</svg>
