<svg xmlns="http://www.w3.org/2000/svg" width="16" height="16" version="1.1">
 <defs>
  <style id="current-color-scheme" type="text/css">
   .ColorScheme-Text { color: #00aa00; } .ColorScheme-Highlight { color: #1AD6AB; }
  </style>
  <linearGradient id="arrongin" x1="0%" x2="0%" y1="0%" y2="100%">
   <stop id="stop3" offset="0%" style="stop-color:#dd9b44"/>
   <stop id="stop5" offset="100%" style="stop-color:#ad6c16"/>
  </linearGradient>
  <linearGradient id="aurora" x1="0%" x2="0%" y1="0%" y2="100%">
   <stop id="stop8" offset="0%" style="stop-color:#09D4DF"/>
   <stop id="stop10" offset="100%" style="stop-color:#9269F4"/>
  </linearGradient>
  <linearGradient id="cyberneon" x1="0%" x2="0%" y1="0%" y2="100%">
   <stop id="stop13" offset="0" style="stop-color:#0abdc6"/>
   <stop id="stop15" offset="1" style="stop-color:#ea00d9"/>
  </linearGradient>
  <linearGradient id="fitdance" x1="0%" x2="0%" y1="0%" y2="100%">
   <stop id="stop18" offset="0%" style="stop-color:#1AD6AB"/>
   <stop id="stop20" offset="100%" style="stop-color:#329DB6"/>
  </linearGradient>
  <linearGradient id="oomox" x1="0%" x2="0%" y1="0%" y2="100%">
   <stop id="stop23" offset="0%" style="stop-color:#00aa00"/>
   <stop id="stop25" offset="100%" style="stop-color:#00cc00"/>
  </linearGradient>
  <linearGradient id="rainblue" x1="0%" x2="0%" y1="0%" y2="100%">
   <stop id="stop28" offset="0%" style="stop-color:#00F260"/>
   <stop id="stop30" offset="100%" style="stop-color:#0575E6"/>
  </linearGradient>
  <linearGradient id="sunrise" x1="0%" x2="0%" y1="0%" y2="100%">
   <stop id="stop33" offset="0%" style="stop-color:#FF8501"/>
   <stop id="stop35" offset="100%" style="stop-color:#FFCB01"/>
  </linearGradient>
  <linearGradient id="telinkrin" x1="0%" x2="0%" y1="0%" y2="100%">
   <stop id="stop38" offset="0%" style="stop-color:#b2ced6"/>
   <stop id="stop40" offset="100%" style="stop-color:#6da5b7"/>
  </linearGradient>
  <linearGradient id="60spsycho" x1="0%" x2="0%" y1="0%" y2="100%">
   <stop id="stop43" offset="0%" style="stop-color:#df5940"/>
   <stop id="stop45" offset="25%" style="stop-color:#d8d15f"/>
   <stop id="stop47" offset="50%" style="stop-color:#e9882a"/>
   <stop id="stop49" offset="100%" style="stop-color:#279362"/>
  </linearGradient>
  <linearGradient id="90ssummer" x1="0%" x2="0%" y1="0%" y2="100%">
   <stop id="stop52" offset="0%" style="stop-color:#f618c7"/>
   <stop id="stop54" offset="20%" style="stop-color:#94ffab"/>
   <stop id="stop56" offset="50%" style="stop-color:#fbfd54"/>
   <stop id="stop58" offset="100%" style="stop-color:#0f83ae"/>
  </linearGradient>
 </defs>
 <path fill="url(#oomox)" class="ColorScheme-Text" d="m 0,2.265337217 6.538691762,-0.887773928 0.0028422,6.287664794 -6.541533962,0.03779531 z m 6.535577429,6.124351279 0.0049134,6.293145114 -6.540490829,-0.89578653 v -5.43957594 z m 0.792643144,-7.12827018 8.669770607,-1.261418316 v 7.585253217 l -8.669770607,0.06878745 z m 8.671785097,7.187457628 -0.001996,7.551124056 -8.66977061,-1.21988128 -0.0120945,-6.34537822 z"/>
</svg>
