<svg xmlns="http://www.w3.org/2000/svg" width="16" height="16" version="1.1">
 <defs>
   <style id="current-color-scheme" type="text/css">
   .ColorScheme-Text { color: #cc00cc; } .ColorScheme-Highlight { color:#5294e2; }
  </style>
  <linearGradient id="arrongin" x1="0%" x2="0%" y1="0%" y2="100%">
   <stop offset="0%" style="stop-color:#dd9b44; stop-opacity:1"/>
   <stop offset="100%" style="stop-color:#ad6c16; stop-opacity:1"/>
  </linearGradient>
  <linearGradient id="aurora" x1="0%" x2="0%" y1="0%" y2="100%">
   <stop offset="0%" style="stop-color:#09D4DF; stop-opacity:1"/>
   <stop offset="100%" style="stop-color:#9269F4; stop-opacity:1"/>
  </linearGradient>
  <linearGradient id="cyberneon" x1="0%" x2="0%" y1="0%" y2="100%">
    <stop offset="0" style="stop-color:#0abdc6; stop-opacity:1"/>
    <stop offset="1" style="stop-color:#ea00d9; stop-opacity:1"/>
  </linearGradient>
  <linearGradient id="fitdance" x1="0%" x2="0%" y1="0%" y2="100%">
   <stop offset="0%" style="stop-color:#1AD6AB; stop-opacity:1"/>
   <stop offset="100%" style="stop-color:#329DB6; stop-opacity:1"/>
  </linearGradient>
  <linearGradient id="oomox" x1="0%" x2="0%" y1="0%" y2="100%">
   <stop offset="0%" style="stop-color:#efefe7; stop-opacity:1"/>
   <stop offset="100%" style="stop-color:#8f8f8b; stop-opacity:1"/>
  </linearGradient>
  <linearGradient id="rainblue" x1="0%" x2="0%" y1="0%" y2="100%">
   <stop offset="0%" style="stop-color:#00F260; stop-opacity:1"/>
   <stop offset="100%" style="stop-color:#0575E6; stop-opacity:1"/>
  </linearGradient>
  <linearGradient id="sunrise" x1="0%" x2="0%" y1="0%" y2="100%">
   <stop offset="0%" style="stop-color: #FF8501; stop-opacity:1"/>
   <stop offset="100%" style="stop-color: #FFCB01; stop-opacity:1"/>
  </linearGradient>
  <linearGradient id="telinkrin" x1="0%" x2="0%" y1="0%" y2="100%">
   <stop offset="0%" style="stop-color: #b2ced6; stop-opacity:1"/>
   <stop offset="100%" style="stop-color: #6da5b7; stop-opacity:1"/>
  </linearGradient>
  <linearGradient id="60spsycho" x1="0%" x2="0%" y1="0%" y2="100%">
   <stop offset="0%" style="stop-color: #df5940; stop-opacity:1"/>
   <stop offset="25%" style="stop-color: #d8d15f; stop-opacity:1"/>
   <stop offset="50%" style="stop-color: #e9882a; stop-opacity:1"/>
   <stop offset="100%" style="stop-color: #279362; stop-opacity:1"/>
  </linearGradient>
  <linearGradient id="90ssummer" x1="0%" x2="0%" y1="0%" y2="100%">
   <stop offset="0%" style="stop-color: #f618c7; stop-opacity:1"/>
   <stop offset="20%" style="stop-color: #94ffab; stop-opacity:1"/>
   <stop offset="50%" style="stop-color: #fbfd54; stop-opacity:1"/>
   <stop offset="100%" style="stop-color: #0f83ae; stop-opacity:1"/>
  </linearGradient>
 </defs>
 <path fill="currentColor" class="ColorScheme-Text" fill-rule="evenodd" d="M 5.224 12.551 C 6.109 13.057 6.416 14.185 5.91 15.07 C 5.404 15.955 4.277 16.262 3.392 15.756 C 2.507 15.25 2.199 14.123 2.705 13.237 C 3.211 12.353 4.338 12.045 5.224 12.551 L 5.224 12.551 L 5.224 12.551 L 5.224 12.551 L 5.224 12.551 Z M 3.223 7.669 C 4.255 8.259 4.614 9.575 4.023 10.607 C 3.433 11.64 2.118 11.998 1.085 11.408 C 0.053 10.818 -0.306 9.502 0.284 8.469 C 0.875 7.437 2.19 7.079 3.223 7.669 L 3.223 7.669 L 3.223 7.669 L 3.223 7.669 L 3.223 7.669 L 3.223 7.669 Z M 4.914 2.171 C 6.093 2.846 6.503 4.349 5.829 5.529 C 5.154 6.709 3.651 7.119 2.471 6.444 C 1.291 5.77 0.881 4.266 1.556 3.086 C 2.23 1.906 3.734 1.497 4.914 2.171 L 4.914 2.171 L 4.914 2.171 L 4.914 2.171 Z M 13.064 0.447 C 14.686 1.374 15.25 3.442 14.322 5.064 C 13.395 6.687 11.327 7.25 9.705 6.323 C 8.082 5.395 7.519 3.328 8.447 1.705 C 9.374 0.083 11.441 -0.481 13.064 0.447 L 13.064 0.447 L 13.064 0.447 Z M 14.76 7.71 C 15.94 8.384 16.35 9.888 15.675 11.068 C 15.001 12.248 13.497 12.657 12.317 11.983 C 11.137 11.308 10.727 9.805 11.402 8.625 C 12.076 7.445 13.58 7.035 14.76 7.71 L 14.76 7.71 Z M 11.119 11.921 C 12.182 12.454 12.612 13.748 12.079 14.811 C 11.546 15.874 10.252 16.304 9.189 15.771 C 8.126 15.238 7.696 13.944 8.229 12.881 C 8.762 11.818 10.056 11.388 11.119 11.921 Z"/>
</svg>
