<svg xmlns="http://www.w3.org/2000/svg" width="16" height="16" version="1.1">
 <defs>
   <style id="current-color-scheme" type="text/css">
   .ColorScheme-Text { color: #cc00cc; } .ColorScheme-Highlight { color:#5294e2; }
  </style>
  <linearGradient id="arrongin" x1="0%" x2="0%" y1="0%" y2="100%">
   <stop offset="0%" style="stop-color:#dd9b44; stop-opacity:1"/>
   <stop offset="100%" style="stop-color:#ad6c16; stop-opacity:1"/>
  </linearGradient>
  <linearGradient id="aurora" x1="0%" x2="0%" y1="0%" y2="100%">
   <stop offset="0%" style="stop-color:#09D4DF; stop-opacity:1"/>
   <stop offset="100%" style="stop-color:#9269F4; stop-opacity:1"/>
  </linearGradient>
  <linearGradient id="cyberneon" x1="0%" x2="0%" y1="0%" y2="100%">
    <stop offset="0" style="stop-color:#0abdc6; stop-opacity:1"/>
    <stop offset="1" style="stop-color:#ea00d9; stop-opacity:1"/>
  </linearGradient>
  <linearGradient id="fitdance" x1="0%" x2="0%" y1="0%" y2="100%">
   <stop offset="0%" style="stop-color:#1AD6AB; stop-opacity:1"/>
   <stop offset="100%" style="stop-color:#329DB6; stop-opacity:1"/>
  </linearGradient>
  <linearGradient id="oomox" x1="0%" x2="0%" y1="0%" y2="100%">
   <stop offset="0%" style="stop-color:#efefe7; stop-opacity:1"/>
   <stop offset="100%" style="stop-color:#8f8f8b; stop-opacity:1"/>
  </linearGradient>
  <linearGradient id="rainblue" x1="0%" x2="0%" y1="0%" y2="100%">
   <stop offset="0%" style="stop-color:#00F260; stop-opacity:1"/>
   <stop offset="100%" style="stop-color:#0575E6; stop-opacity:1"/>
  </linearGradient>
  <linearGradient id="sunrise" x1="0%" x2="0%" y1="0%" y2="100%">
   <stop offset="0%" style="stop-color: #FF8501; stop-opacity:1"/>
   <stop offset="100%" style="stop-color: #FFCB01; stop-opacity:1"/>
  </linearGradient>
  <linearGradient id="telinkrin" x1="0%" x2="0%" y1="0%" y2="100%">
   <stop offset="0%" style="stop-color: #b2ced6; stop-opacity:1"/>
   <stop offset="100%" style="stop-color: #6da5b7; stop-opacity:1"/>
  </linearGradient>
  <linearGradient id="60spsycho" x1="0%" x2="0%" y1="0%" y2="100%">
   <stop offset="0%" style="stop-color: #df5940; stop-opacity:1"/>
   <stop offset="25%" style="stop-color: #d8d15f; stop-opacity:1"/>
   <stop offset="50%" style="stop-color: #e9882a; stop-opacity:1"/>
   <stop offset="100%" style="stop-color: #279362; stop-opacity:1"/>
  </linearGradient>
  <linearGradient id="90ssummer" x1="0%" x2="0%" y1="0%" y2="100%">
   <stop offset="0%" style="stop-color: #f618c7; stop-opacity:1"/>
   <stop offset="20%" style="stop-color: #94ffab; stop-opacity:1"/>
   <stop offset="50%" style="stop-color: #fbfd54; stop-opacity:1"/>
   <stop offset="100%" style="stop-color: #0f83ae; stop-opacity:1"/>
  </linearGradient>
 </defs>
 <path fill="currentColor" class="ColorScheme-Text" d="M 10.214003,3.0640751 C 10.036309,3.2158018 9.9372712,3.375832 9.8024533,3.4658112 c -0.06054,0.040763 -0.1861484,0.089677 -0.2152859,0.1693905 -0.00483,0.013437 0.04197,0.027024 0.065824,0.01872 0.2332516,-0.081525 0.4583506,-0.1775429 0.6872236,-0.2711455 0.255897,-0.1047745 0.521608,-0.1674278 0.790187,-0.2303831 0.26405,-0.061596 0.526288,-0.1360256 0.798792,-0.1470466 0.259672,-0.010266 0.546971,0.066126 0.80151,0.00257 0.201849,-0.050575 0.283676,-0.2403472 0.424986,-0.3722966 0.170447,-0.1591244 0.376071,-0.1778449 0.597999,-0.1458389 0.200189,0.028987 0.398264,0.074731 0.556785,-0.083789 0.125306,-0.1251556 0.190073,-0.3410454 0.397961,-0.3393847 0.222835,0.00181 0.433894,0.1997358 0.658993,0.1025099 0.09677,-0.041819 0.171504,-0.1266654 0.255293,-0.188111 C 15.72659,1.904913 15.841479,1.851318 15.959539,1.8014972 15.084355,1.6675852 14.198302,1.5018181 13.310889,1.486268 12.525986,1.4725295 11.80268,1.6603385 11.173731,2.1420898 10.992716,2.280682 10.823476,2.4342204 10.660426,2.5933448 10.484544,2.7653017 10.341574,2.9709254 10.144556,3.1208405"/>
 <path fill="currentColor" class="ColorScheme-Text" d="m 10.108624,4.1850413 c 0.231591,-0.1080959 0.489904,-0.1420646 0.736894,-0.2010946 0.257558,-0.061446 0.518135,-0.1086997 0.780676,-0.1414606 0.573844,-0.071561 1.157803,-0.091942 1.735572,-0.087413 0.485979,0.00393 1.028421,0.017966 1.435139,0.3193055 0.415626,0.3079826 0.641932,0.8332138 0.823099,1.3009247 C 15.793621,5.8244449 15.918475,6.2841543 16,6.758055 15.832572,6.6094987 15.662427,6.45747 15.456199,6.3644713 15.283487,6.2865699 15.065484,6.2764547 14.913153,6.1589986 14.752066,6.0348997 14.735158,5.8164434 14.615437,5.662754 14.472315,5.4790213 14.24616,5.5225012 14.040838,5.5081588 13.797018,5.490948 13.702208,5.3487325 13.594867,5.1479399 13.484959,4.9427691 13.353765,4.8274266 13.11387,4.8176135 12.868843,4.8074983 12.637554,4.8349752 12.396905,4.7670379 12.148405,4.696685 11.920589,4.5710764 11.681902,4.4753602 11.410304,4.3662075 11.135082,4.3298233 10.844008,4.3225767 c -0.148556,-0.00362 -0.297414,-0.00302 -0.44582,-0.012078 -0.07956,-0.00483 -0.236875,0.015097 -0.316739,-0.031855 -0.02204,-0.013135 0.01359,-0.096924 0.02718,-0.093603"/>
 <path fill="currentColor" class="ColorScheme-Text" d="m 9.4796754,4.9495629 c 0.089375,-0.012229 0.1899226,0.014493 0.2773353,0.02325 0.092395,0.00951 0.1964145,0.00725 0.2898663,0.016607 0.09119,0.00921 0.176033,0.046197 0.26254,0.067484 0.08122,0.020079 0.168183,0.033365 0.2485,0.057973 0.177693,0.054803 0.35116,0.1221362 0.524627,0.1766371 0.179958,0.056765 0.358407,0.085601 0.51889,0.1943008 0.18645,0.1263635 0.368523,0.2337045 0.501076,0.4100396 0.02008,0.026571 0.06733,0.042725 0.09179,0.070957 0.02944,0.033818 0.0539,0.072014 0.07775,0.1099075 0.05284,0.084393 0.102661,0.1695415 0.160181,0.2519721 0.101152,0.145084 0.201397,0.2934893 0.302246,0.4406869 0.200944,0.2933384 0.402793,0.5715796 0.528855,0.8972259 0.06673,0.1728628 0.145084,0.332893 0.219815,0.5066616 0.06537,0.1518777 0.138743,0.3122099 0.204416,0.4655973 0.04937,0.1156445 0.09572,0.241555 0.127722,0.3658049 0.0014,0.00513 -0.06613,-0.015399 -0.07398,-0.021891 -0.02687,-0.022495 -0.04786,-0.049217 -0.06431,-0.080619 -0.02582,-0.049519 -0.05284,-0.081978 -0.08485,-0.099038 -0.06265,-0.033667 -0.103113,-0.066277 -0.173164,-0.087413 -0.06839,-0.020532 -0.144178,-0.010719 -0.21438,-0.017966 -0.09119,-0.00936 -0.195056,-3.019e-4 -0.283224,-0.02325 C 12.754104,8.6308612 12.760143,8.417085 12.693414,8.2895138 12.60585,8.1216331 12.463182,8.1000441 12.285186,8.0908348 12.13829,8.0831352 11.888583,8.1042713 11.827137,7.9418255 11.797547,7.8633202 11.793923,7.77319 11.765088,7.6916651 11.740781,7.6231239 11.691866,7.5597157 11.644461,7.5000818 11.551764,7.3835315 11.409096,7.284494 11.264163,7.2435806 11.124816,7.204026 10.930062,7.1477135 10.872089,6.9887401 10.843253,6.9094798 10.868919,6.8127069 10.84265,6.7338995 10.818494,6.6620369 10.78362,6.6164434 10.748292,6.5574134 10.703453,6.4829843 10.6796,6.3978361 10.635969,6.3229541 10.567126,6.205196 10.458728,6.1075172 10.394414,5.9858339 10.354557,5.9104989 10.317116,5.8357678 10.259143,5.7673776 10.208719,5.7081966 10.155426,5.6588288 10.104699,5.5981381 10.057294,5.5416746 10.009134,5.4880796 9.9617286,5.4285967 9.911304,5.3654904 9.868579,5.2971001 9.8172485,5.2312764 9.7674278,5.1675663 9.7008492,5.1215199 9.6380449,5.0745676 9.5939611,5.0650564 9.5397622,5.0484495 9.5021702,5.0276153 9.4731836,5.0114614 9.4106812,4.9231428 9.4917531,4.943675"/>
 <path fill="currentColor" class="ColorScheme-Text" d="m 7.9604454,3.5008367 c 0.015701,-0.020079 0.027326,-0.038649 0.035025,-0.072617 C 8.0634082,3.1321634 7.8704661,2.8453168 7.7436497,2.5912311 7.5910172,2.2856641 7.5356105,1.8698875 7.6583506,1.5440902 7.7712776,1.244411 7.9744857,1.0194629 8.1521797,0.76190487 8.2205699,0.66286732 8.3396867,0.5378626 8.4625778,0.51416002 8.4760143,0.71374484 8.4192489,0.87785128 8.4095867,1.067321 8.3929798,1.3952319 8.6078128,1.7137826 8.7258728,2.0033466 8.8667296,2.3487703 8.7957728,2.6626408 8.5611625,2.9475248 8.3848273,3.1619049 8.1576146,3.3104612 7.9604454,3.5008367"/>
 <path fill="currentColor" class="ColorScheme-Text" d="M 6.2156633,3.8824936 C 6.1472731,3.7949299 6.0505001,3.7220105 5.9662578,3.6502989 5.8764295,3.5737561 5.7843367,3.4997799 5.6929987,3.4248979 5.5264767,3.2881173 5.3549727,3.1573757 5.1748632,3.0390137 4.99883,2.9233693 4.8146443,2.8199535 4.6223061,2.7338996 4.4314777,2.6486005 4.2331006,2.5803612 4.0300434,2.5311443 3.8241178,2.4811726 3.6139649,2.4505254 3.4026043,2.436183 3.1859597,2.4215388 2.9684092,2.4241053 2.7519155,2.4392025 2.5308927,2.4546016 2.3109266,2.4828333 2.0926213,2.5199724 1.8725043,2.5572625 1.654048,2.6036108 1.4367995,2.6552432 1.2201548,2.7067246 1.0050199,2.7634901 0.79048884,2.822973 0.57731654,2.8823049 0.36489911,2.9442034 0.15248167,3.0067058 0.10160415,3.021652 0.05072663,3.0365982 7.412e-8,3.0515444 0.09979249,3.0923068 0.19701838,3.1359377 0.28850734,3.193156 c 0.0904321,0.056766 0.17709001,0.1227402 0.27854312,0.1592754 0.1025099,0.036837 0.20577467,0.031704 0.30768069,-0.00468 C 0.97709008,3.3110654 1.0726553,3.2564134 1.1821099,3.242675 1.4111342,3.214141 1.5548595,3.3746244 1.7360257,3.4793989 c 0.088168,0.051029 0.1888658,0.083035 0.2915267,0.067032 0.1025099,-0.015852 0.1870542,-0.077147 0.2789961,-0.1203246 0.096169,-0.045292 0.1988299,-0.061446 0.3025476,-0.033063 0.1040196,0.028534 0.1912814,0.093301 0.273712,0.1604831 0.081827,0.066428 0.1632006,0.1334591 0.2593697,0.1785997 0.099189,0.04665 0.2066805,0.066881 0.3155312,0.072769 0.236271,0.012682 0.4746556,-0.014191 0.7106247,-0.024155 0.2352142,-0.00981 0.4751085,-0.014644 0.7101717,0.00121 0.2278166,0.015399 0.4515569,0.078656 0.6737875,0.1281751 0.1194188,0.026571 0.236271,0.061295 0.3549349,0.090734 0.085752,0.021438 0.2089451,0.057218 0.2871485,-0.00317 0.018872,-0.014644 0.038498,-0.035327 0.050878,-0.055558 0.018871,-0.032006 0.00121,-0.046348 -0.029591,-0.059634"/>
 <path fill="currentColor" class="ColorScheme-Text" d="M 6.2529534,4.6441468 C 6.1572372,4.6326729 6.0911115,4.6086684 6.002642,4.5854187 5.7991319,4.5321256 5.5802227,4.5503932 5.3717305,4.5442034 5.1374222,4.5372587 4.9034158,4.524577 4.6694094,4.5129522 4.2013965,4.4895516 3.7324779,4.471133 3.264465,4.503139 2.9995094,4.5214066 2.7348557,4.5591496 2.4763918,4.621199 2.0397811,4.7261245 1.6262692,4.9266152 1.3324779,5.2747563 1.0395924,5.6219916 0.89209291,6.0647922 0.79743354,6.5026106 0.67831673,7.0530541 0.69628238,7.3115179 0.64208348,7.8713217 0.77373096,7.6839656 0.84257414,7.8005159 1.0226836,7.6558848 1.1739574,7.5343524 1.3570863,7.4747185 1.514248,7.3652639 1.659634,7.2641128 1.691791,7.1137448 1.7426685,6.9541675 1.804265,6.7615274 1.9132667,6.6476946 2.1123986,6.5978739 2.3020193,6.5504687 2.5367806,6.5607348 2.6838272,6.4114236 2.8118513,6.2815878 2.802944,6.0853243 2.904699,5.9417501 3.017777,5.7821728 3.2419702,5.7859471 3.4163427,5.7604328 3.6447632,5.7270681 3.8387621,5.6505253 4.0223439,5.5096686 4.225854,5.3535636 4.4124552,5.2077248 4.6592942,5.1243883 4.9804114,5.0159905 5.31572,4.9617916 5.6463484,4.8921936 5.7314965,4.8742279 5.8196641,4.8671322 5.9055671,4.8526389 6.0165314,4.8340694 6.1373089,4.814896 6.239215,4.7646223 c 0.019173,-0.00951 0.039404,-0.021136 0.056161,-0.034573 0.00996,-0.00815 0.02174,-0.017362 0.023401,-0.0311 0.00559,-0.046801 -0.060691,-0.051029 -0.091489,-0.061446"/>
 <path fill="currentColor" class="ColorScheme-Text" d="M 5.9695792,5.5593383 C 5.5207398,5.6553564 5.0397434,5.9719445 4.7246651,6.2932126 4.6127949,6.4071964 4.483563,6.5128767 4.3896585,6.639995 4.2821665,6.7856829 4.1900736,6.9360509 4.0849972,7.0835504 3.967843,7.2484117 3.8793735,7.4378814 3.806907,7.6259924 3.7351954,7.8121407 3.715418,8.0269737 3.6441593,8.2137259 3.5676166,8.4140656 3.4808077,8.5389193 3.4223816,8.7465057 3.3278732,9.0824181 3.2157011,9.0964585 3.1631629,9.7084985 3.3636536,9.5422784 3.4128704,9.5249167 3.4648047,9.5131409 3.5685224,9.4895893 3.6213626,9.5212934 3.7196453,9.5013651 3.822759,9.4805309 3.8111342,9.464226 3.8906964,9.3923634 3.9636158,9.3263887 3.9877713,9.2131597 4.0197774,9.1274077 4.0581242,9.024143 4.0706549,8.9405045 4.1713531,8.8773983 4.2569542,8.8238033 4.3549349,8.8026672 4.4476317,8.7668869 4.5351953,8.7330692 4.6408757,8.7120841 4.7174184,8.6498837 4.7987923,8.583607 4.8264201,8.4974021 4.864314,8.4031956 4.9499151,8.1904762 5.0030572,7.9871171 5.1979619,7.8575832 5.2757124,7.8057999 5.3684092,7.7682079 5.4333271,7.7060075 5.5020193,7.6400328 5.5417249,7.5438637 5.5735799,7.4600743 5.7151916,7.0879286 5.8335535,6.7029503 5.9710889,6.3265774 6.0354029,6.1505442 6.131874,5.9568473 6.2931119,5.8377305 6.3637668,5.7853432 6.4513305,5.7403536 6.5130779,5.6638108 6.5514248,5.6159528 6.6640498,5.512688 6.6435177,5.4450526 6.6112097,5.3392213 6.356973,5.3959867 6.2881298,5.4249733 6.1868277,5.4680003 6.0773731,5.5250677 5.9695792,5.5593383"/>
 <path fill="currentColor" class="ColorScheme-Text" d="M 8.2871094 4.3945312 C 8.2227954 4.3821512 8.1021685 4.4057309 8.0390625 4.4199219 C 7.9842597 4.432302 7.9170273 4.4157886 7.8632812 4.4316406 C 7.8124039 4.4465846 7.7869041 4.4393771 7.7363281 4.4550781 C 7.7175759 4.4608907 7.7079807 4.4725633 7.703125 4.4863281 C 7.703125 4.4863281 7.703125 4.4882812 7.703125 4.4882812 C 7.7039223 4.541518 7.7222845 4.6176205 7.7363281 4.6679688 C 7.7509724 4.720356 7.7851836 4.8148193 7.8105469 4.8632812 C 7.8448175 4.928954 7.8673563 4.9521692 7.8945312 5.0253906 C 7.9189886 5.0912143 7.953679 5.1160656 7.9941406 5.1308594 C 8.072344 5.1595454 8.1729754 5.1230231 8.2558594 5.1269531 C 8.3420643 5.1310301 8.4909854 5.1480151 8.5839844 5.0800781 C 8.6282184 5.0479211 8.5724926 4.9189616 8.5566406 4.8691406 C 8.5327866 4.7942585 8.5036052 4.7207535 8.4726562 4.6484375 C 8.4225336 4.5309813 8.4249467 4.4211022 8.2871094 4.3945312 z M 7.703125 4.4882812 C 7.703125 4.4882812 7.7011719 4.4902344 7.7011719 4.4902344 C 7.6970956 4.5055958 7.7004544 4.5233709 7.7089844 4.5371094 L 7.703125 4.4882812 z M 8.7695312 5.828125 C 8.7280146 5.8302431 8.6857462 5.8278181 8.6445312 5.8300781 C 8.5501739 5.8350581 8.4570441 5.8353138 8.3613281 5.8398438 C 8.2696882 5.8440737 8.1742654 5.8403994 8.0839844 5.8496094 C 8.0587723 5.8523264 7.9680375 5.8487211 7.9609375 5.8769531 C 7.9562575 5.8962771 8.0012919 5.9426981 8.0136719 5.9550781 C 8.061379 6.0027852 8.1106101 6.0575251 8.1347656 6.1230469 C 8.159525 6.1900785 8.1881872 6.2531776 8.2324219 6.3105469 L 8.1875 6.234375 C 8.2173924 6.2742316 8.2333836 6.3393135 8.2519531 6.3867188 C 8.306454 6.525311 8.3506543 6.66986 8.4140625 6.8066406 C 8.438218 6.8590278 8.4902606 6.9332062 8.546875 6.9511719 C 8.6243236 6.9754784 8.6964028 6.9822717 8.78125 6.9824219 C 8.8591515 6.9825719 8.9396672 6.9765625 9.0195312 6.9765625 C 9.0882234 6.9765625 9.1893386 6.995851 9.2128906 6.921875 C 9.2349346 6.8528808 9.2304688 6.7978403 9.2304688 6.7226562 C 9.2304688 6.6449058 9.2032681 6.5611726 9.1738281 6.4941406 C 9.1425761 6.4230328 9.1353993 6.3197391 9.0976562 6.2519531 C 9.0581012 6.1812982 9.0354593 6.133759 9.0039062 6.0625 C 8.9715983 5.9898825 8.927538 5.9012799 8.875 5.8417969 C 8.8509958 5.8144709 8.8045562 5.826465 8.7695312 5.828125 z M 8.671875 7.6464844 C 8.6086178 7.6504094 8.5287985 7.6543995 8.4765625 7.6953125 C 8.4502934 7.7161466 8.3828659 7.7226883 8.4648438 7.8710938 C 8.5324792 7.9935319 8.5438639 8.1024447 8.5761719 8.2304688 C 8.5785869 8.2571908 8.5892131 8.2802206 8.5957031 8.3066406 C 8.6124641 8.3736721 8.611335 8.4433287 8.609375 8.5117188 C 8.6000147 8.8527642 8.5458599 9.0055467 8.6933594 9.0390625 C 8.8209306 9.0678981 8.8977255 9.1105055 9.0136719 9.15625 C 9.1515092 9.2105999 9.3900395 9.2787027 9.5410156 9.2773438 C 9.6675264 9.2761359 9.6435305 9.185655 9.6640625 9.0703125 C 9.6918375 8.9139056 9.6777916 8.7491096 9.6660156 8.5917969 C 9.6528806 8.4157637 9.6148574 8.2404864 9.5996094 8.0644531 C 9.5789263 7.8256156 9.5570257 7.6950431 9.3535156 7.6894531 C 9.200883 7.6853771 9.1001716 7.6511644 8.953125 7.6464844 C 8.8592205 7.6433144 8.765779 7.6405944 8.671875 7.6464844 z M 8.4140625 9.734375 C 8.3802259 9.7480191 8.3611771 9.7869555 8.3613281 9.8652344 C 8.3616301 9.9995994 8.3832319 10.139375 8.3886719 10.273438 C 8.3942579 10.402971 8.3710938 10.525216 8.3710938 10.654297 L 8.3671875 10.632812 C 8.3570725 10.740456 8.3379953 10.839935 8.3164062 10.945312 C 8.2249174 11.392793 8.0717462 11.481556 8.3339844 11.566406 C 8.4928068 11.617586 8.6064995 11.676163 8.796875 11.751953 C 8.9621892 11.817776 9.1596689 11.933045 9.3222656 11.921875 C 9.3994123 11.91644 9.5216916 11.419258 9.5410156 11.277344 C 9.5733239 11.037903 9.6112886 10.733723 9.6503906 10.496094 C 9.7035327 10.173766 9.6635026 10.130529 9.5 10.105469 C 9.3112852 10.076633 9.1892712 10.015769 9.0097656 9.9550781 C 8.8501883 9.9010302 8.7053764 9.8197204 8.5507812 9.7558594 C 8.49545 9.7330626 8.4478991 9.7207309 8.4140625 9.734375 z M 7.7324219 12.205078 C 7.6607105 12.257013 7.6162164 12.524556 7.5996094 12.603516 C 7.5680564 12.752676 7.572767 12.908991 7.53125 13.056641 C 7.5217975 13.089989 7.5134222 13.137338 7.5039062 13.181641 C 7.4889878 13.250621 7.4690006 13.318919 7.4257812 13.355469 L 7.4453125 13.310547 C 7.3944654 13.439755 7.3273015 13.531757 7.2558594 13.652344 C 7.1741836 13.789577 7.0903846 13.924663 7.0097656 14.0625 C 6.9558686 14.154593 6.8913633 14.311004 6.8320312 14.402344 C 6.7008366 14.604194 6.9394033 14.620847 7.2597656 14.888672 C 7.3846194 14.992993 7.5089871 15.097331 7.6386719 15.195312 C 7.7387663 15.27095 7.9161714 15.442594 8.0390625 15.476562 C 8.2791078 15.542689 8.3834213 15.216115 8.5058594 15.046875 C 8.868192 14.545648 9.1228614 13.97254 9.2851562 13.376953 C 9.3541502 13.123773 9.5549347 12.940489 9.2558594 12.757812 C 9.1396111 12.686704 8.9315229 12.653997 8.8007812 12.623047 C 8.6372787 12.583945 8.4674256 12.494682 8.3066406 12.445312 C 8.1746912 12.404702 8.1540281 12.390093 8.0234375 12.345703 C 7.9577647 12.323208 7.7958299 12.159488 7.7324219 12.205078 z"/>
</svg>
