<svg xmlns="http://www.w3.org/2000/svg" width="16" height="16" version="1.1">
 <defs>
   <style id="current-color-scheme" type="text/css">
   .ColorScheme-Text { color: #cc00cc; } .ColorScheme-Highlight { color:#5294e2; }
  </style>
  <linearGradient id="arrongin" x1="0%" x2="0%" y1="0%" y2="100%">
   <stop offset="0%" style="stop-color:#dd9b44; stop-opacity:1"/>
   <stop offset="100%" style="stop-color:#ad6c16; stop-opacity:1"/>
  </linearGradient>
  <linearGradient id="aurora" x1="0%" x2="0%" y1="0%" y2="100%">
   <stop offset="0%" style="stop-color:#09D4DF; stop-opacity:1"/>
   <stop offset="100%" style="stop-color:#9269F4; stop-opacity:1"/>
  </linearGradient>
  <linearGradient id="cyberneon" x1="0%" x2="0%" y1="0%" y2="100%">
    <stop offset="0" style="stop-color:#0abdc6; stop-opacity:1"/>
    <stop offset="1" style="stop-color:#ea00d9; stop-opacity:1"/>
  </linearGradient>
  <linearGradient id="fitdance" x1="0%" x2="0%" y1="0%" y2="100%">
   <stop offset="0%" style="stop-color:#1AD6AB; stop-opacity:1"/>
   <stop offset="100%" style="stop-color:#329DB6; stop-opacity:1"/>
  </linearGradient>
  <linearGradient id="oomox" x1="0%" x2="0%" y1="0%" y2="100%">
   <stop offset="0%" style="stop-color:#efefe7; stop-opacity:1"/>
   <stop offset="100%" style="stop-color:#8f8f8b; stop-opacity:1"/>
  </linearGradient>
  <linearGradient id="rainblue" x1="0%" x2="0%" y1="0%" y2="100%">
   <stop offset="0%" style="stop-color:#00F260; stop-opacity:1"/>
   <stop offset="100%" style="stop-color:#0575E6; stop-opacity:1"/>
  </linearGradient>
  <linearGradient id="sunrise" x1="0%" x2="0%" y1="0%" y2="100%">
   <stop offset="0%" style="stop-color: #FF8501; stop-opacity:1"/>
   <stop offset="100%" style="stop-color: #FFCB01; stop-opacity:1"/>
  </linearGradient>
  <linearGradient id="telinkrin" x1="0%" x2="0%" y1="0%" y2="100%">
   <stop offset="0%" style="stop-color: #b2ced6; stop-opacity:1"/>
   <stop offset="100%" style="stop-color: #6da5b7; stop-opacity:1"/>
  </linearGradient>
  <linearGradient id="60spsycho" x1="0%" x2="0%" y1="0%" y2="100%">
   <stop offset="0%" style="stop-color: #df5940; stop-opacity:1"/>
   <stop offset="25%" style="stop-color: #d8d15f; stop-opacity:1"/>
   <stop offset="50%" style="stop-color: #e9882a; stop-opacity:1"/>
   <stop offset="100%" style="stop-color: #279362; stop-opacity:1"/>
  </linearGradient>
  <linearGradient id="90ssummer" x1="0%" x2="0%" y1="0%" y2="100%">
   <stop offset="0%" style="stop-color: #f618c7; stop-opacity:1"/>
   <stop offset="20%" style="stop-color: #94ffab; stop-opacity:1"/>
   <stop offset="50%" style="stop-color: #fbfd54; stop-opacity:1"/>
   <stop offset="100%" style="stop-color: #0f83ae; stop-opacity:1"/>
  </linearGradient>
 </defs>
 <path fill="currentColor" class="ColorScheme-Text" d="M 7.08 0.09 C 3.454 0.523 0.482 3.423 0.046 7.122 C -0.462 11.907 3.309 15.97 8.023 15.97 C 8.46 15.97 8.893 15.896 9.256 15.752 C 11.069 15.245 11.866 12.995 10.779 11.401 C 10.199 10.605 10.85 9.443 11.866 9.443 L 14.55 9.443 C 15.349 9.443 16 8.792 16 7.993 C 16 3.279 11.938 -0.492 7.08 0.09 Z M 8.023 14.519 C 7.224 14.519 6.573 13.868 6.573 13.069 C 6.573 12.27 7.224 11.619 8.023 11.619 C 8.822 11.619 9.473 12.27 9.473 13.069 C 9.473 13.868 8.822 14.519 8.023 14.519 Z M 12.737 7.268 C 12.157 7.268 11.649 6.76 11.649 6.18 C 11.649 5.6 12.157 5.092 12.737 5.092 C 13.317 5.092 13.824 5.6 13.824 6.18 C 13.824 6.76 13.317 7.268 12.737 7.268 Z M 9.836 4.367 C 9.256 4.367 8.748 3.859 8.748 3.279 C 8.748 2.699 9.256 2.191 9.836 2.191 C 10.416 2.191 10.924 2.699 10.924 3.279 C 10.924 3.859 10.416 4.367 9.836 4.367 Z M 6.21 4.367 C 5.63 4.367 5.122 3.859 5.122 3.279 C 5.122 2.699 5.63 2.191 6.21 2.191 C 6.79 2.191 7.298 2.699 7.298 3.279 C 7.298 3.859 6.79 4.367 6.21 4.367 Z M 3.309 6.542 C 2.729 6.542 2.221 6.035 2.221 5.455 C 2.221 4.874 2.729 4.367 3.309 4.367 C 3.889 4.367 4.397 4.874 4.397 5.455 C 4.397 6.035 3.889 6.542 3.309 6.542 Z M 2.584 10.168 C 2.004 10.168 1.496 9.661 1.496 9.08 C 1.496 8.5 2.004 7.993 2.584 7.993 C 3.164 7.993 3.672 8.5 3.672 9.08 C 3.672 9.661 3.164 10.168 2.584 10.168 Z"/>
</svg>
