<svg xmlns="http://www.w3.org/2000/svg" width="16" height="16" version="1.1">
 <defs>
  <style id="current-color-scheme" type="text/css">
   .ColorScheme-Text { color: #00aa00; } .ColorScheme-Highlight { color: #5294e2; }
  </style>
  <linearGradient id="arrongin" x1="0%" x2="0%" y1="0%" y2="100%">
   <stop id="stop3" offset="0%" style="stop-color: #dd9b44"/>
   <stop id="stop5" offset="100%" style="stop-color: #ad6c16"/>
  </linearGradient>
  <linearGradient id="aurora" x1="0%" x2="0%" y1="0%" y2="100%">
   <stop id="stop8" offset="0%" style="stop-color: #09D4DF"/>
   <stop id="stop10" offset="100%" style="stop-color: #9269F4"/>
  </linearGradient>
  <linearGradient id="cyberneon" x1="0%" x2="0%" y1="0%" y2="100%">
   <stop id="stop56" offset="0" style="stop-color: #0abdc6"/>
   <stop id="stop58" offset="1" style="stop-color: #ea00d9"/>
  </linearGradient>
  <linearGradient id="fitdance" x1="0%" x2="0%" y1="0%" y2="100%">
   <stop id="stop13" offset="0%" style="stop-color: #1AD6AB"/>
   <stop id="stop15" offset="100%" style="stop-color: #329DB6"/>
  </linearGradient>
  <linearGradient id="oomox" x1="0%" x2="0%" y1="0%" y2="100%">
   <stop id="stop18" offset="0%" style="stop-color: #00aa00"/>
   <stop id="stop20" offset="100%" style="stop-color: #00cc00"/>
  </linearGradient>
  <linearGradient id="rainblue" x1="0%" x2="0%" y1="0%" y2="100%">
   <stop id="stop23" offset="0%" style="stop-color: #00F260"/>
   <stop id="stop25" offset="100%" style="stop-color: #0575E6"/>
  </linearGradient>
  <linearGradient id="sunrise" x1="0%" x2="0%" y1="0%" y2="100%">
   <stop id="stop28" offset="0%" style="stop-color: #FF8501"/>
   <stop id="stop30" offset="100%" style="stop-color: #FFCB01"/>
  </linearGradient>
  <linearGradient id="telinkrin" x1="0%" x2="0%" y1="0%" y2="100%">
   <stop id="stop33" offset="0%" style="stop-color: #b2ced6"/>
   <stop id="stop35" offset="100%" style="stop-color: #6da5b7"/>
  </linearGradient>
  <linearGradient id="60spsycho" x1="0%" x2="0%" y1="0%" y2="100%">
   <stop id="stop38" offset="0%" style="stop-color: #df5940"/>
   <stop id="stop40" offset="25%" style="stop-color: #d8d15f"/>
   <stop id="stop42" offset="50%" style="stop-color: #e9882a"/>
   <stop id="stop44" offset="100%" style="stop-color: #279362"/>
  </linearGradient>
  <linearGradient id="90ssummer" x1="0%" x2="0%" y1="0%" y2="100%">
   <stop id="stop47" offset="0%" style="stop-color: #f618c7"/>
   <stop id="stop49" offset="20%" style="stop-color: #94ffab"/>
   <stop id="stop51" offset="50%" style="stop-color: #fbfd54"/>
   <stop id="stop53" offset="100%" style="stop-color: #0f83ae"/>
  </linearGradient>
 </defs>
 <path fill="url(#oomox)" class="ColorScheme-Text" fill-rule="evenodd" d="m 2.4498914,9.6451605 c -1.12138,0.148554 -1.69946201,0.274339 -2.26204701,0.8910775 -0.822562,-1.0967395 1.16530701,-4.7982855 3.83862901,-6.3063375 0.123102,0.779804 0.682463,0.951497 1.850711,1.165282 h 0.822648 v -0.616863 l 0.34277,0.479755 h 1.919265 l 0.34277,-0.479755 v 0.616863 h 0.8225246 c 1.168248,-0.213785 1.65908,-0.454032 1.782157,-1.233824 2.673359,1.50804 4.729733,5.27814 3.907208,6.3748805 C 15.253941,9.9194995 14.675848,9.7937145 13.554492,9.6451605 L 13.211722,10.056361 12.731967,9.4394985 H 11.498118 L 8.0022354,11.838641 c 1.94425,-1.413787 2.9990206,-2.2763115 4.6611776,-4.2499775 -0.333293,-0.698832 -0.693294,-1.116802 -1.713726,-1.919265 -2.4384046,-0.131323 -3.7545916,-0.144 -5.9635806,0 -0.795313,0.708801 -1.190366,1.122587 -1.713641,1.919265 1.510932,1.747819 2.540104,2.6800055 4.729647,4.2498545 L 4.5063014,9.4394985 h -1.233836 l -0.479828,0.6168625 z m 5.552221,2.1933575 c 0,1.23e-4 1.23e-4,1.23e-4 1.23e-4,1.23e-4 0,0 0,0 0,0 v 0 z m 0.351385,-4.8024705 c 1.8593266,0 3.0075136,0.664001 3.2216676,1.375264 l 0.509909,-0.578463 c -0.50154,-0.685539 -0.914587,-1.041848 -1.747942,-1.439387 -1.0440636,-0.48837 -1.8594496,-0.43717 -3.1678836,-0.354955 h -8.61e-4 c -0.0416,0.0026 -0.08345,0.0053 -0.125785,0.0079 -0.247139,0.01538 -1.255387,0.239878 -0.835448,0.659817 0.356308,0.356308 1.043202,0.345355 1.761357,0.333908 0.127878,-0.002 0.256862,-0.0041 0.384986,-0.0041 z m 1.330218,-1.081725 c 0,0 0.9982786,-0.109293 1.1675096,0.100677 0.151508,0.187939 -0.0094,0.276185 -0.09858,0.239877 -0.642586,-0.261293 -1.0689246,-0.340554 -1.0689246,-0.340554 z m 2.6004966,1.59151 -0.08135,0.124308 C 12.101939,7.5439865 12.0052,7.4311255 11.914246,7.3250325 v 0 c -0.272123,-0.317416 -0.492801,-0.574647 -0.619693,-0.948802 0.406278,0.40197 0.630155,0.637909 0.989663,1.169602 z m -8.5704776,0 c 0.420985,-0.645416 0.758241,-0.972925 1.426587,-1.55508 h 0.227078 c -0.820777,0.744125 -1.161393,1.205295 -1.143855,2.257728 -0.04943,0.07114 -0.205157,-0.190646 -0.454487,-0.609724 l -1.11e-4,-1.23e-4 c -0.01792,-0.03015 -0.03633,-0.06105 -0.05521,-0.0928 z m 5.727888,2.09502 c 0.118277,0.08738 0.214277,0.201354 0.06117,0.3812925 -0.04849,0.05699 -0.196308,0.184985 -0.744493,0.300062 -1.345234,0.282585 -2.600498,-0.0944 -3.703638,-1.3197555 0,0 1.074832,0.320493 1.747941,0.3728 0.556186,0.04308 0.943633,0.03077 1.256003,0.02092 0.03286,-0.0011 0.06535,-0.0022 0.0976,-0.0033 0.484063,-0.01661 0.90794,-0.03114 1.285418,0.248001 z m -0.524801,1.0582165 c -0.744494,0.07065 -1.158279,0.06658 -1.89145,0 0.289478,0.239263 0.477047,0.387078 0.707817,0.568863 v 0 l 9.85e-4,8.62e-4 4.92e-4,3.69e-4 c 0.08098,0.06388 0.167385,0.131939 0.265354,0.2096 z" clip-rule="evenodd"/>
</svg>
