<svg xmlns="http://www.w3.org/2000/svg" width="16" height="16" version="1.1">
 <defs>
   <style id="current-color-scheme" type="text/css">
   .ColorScheme-Text { color: #00aa00; } .ColorScheme-Highlight { color: #5294e2; }
  </style>
  <linearGradient id="arrongin" x1="0%" x2="0%" y1="0%" y2="100%">
   <stop offset="0%" style="stop-color: #dd9b44; stop-opacity: 1"/>
   <stop offset="100%" style="stop-color: #ad6c16; stop-opacity: 1"/>
  </linearGradient>
  <linearGradient id="aurora" x1="0%" x2="0%" y1="0%" y2="100%">
   <stop offset="0%" style="stop-color: #09D4DF; stop-opacity: 1"/>
   <stop offset="100%" style="stop-color: #9269F4; stop-opacity: 1"/>
  </linearGradient>
  <linearGradient id="cyberneon" x1="0%" x2="0%" y1="0%" y2="100%">
    <stop offset="0" style="stop-color: #0abdc6; stop-opacity: 1"/>
    <stop offset="1" style="stop-color: #ea00d9; stop-opacity: 1"/>
  </linearGradient>
  <linearGradient id="fitdance" x1="0%" x2="0%" y1="0%" y2="100%">
   <stop offset="0%" style="stop-color: #1AD6AB; stop-opacity: 1"/>
   <stop offset="100%" style="stop-color: #329DB6; stop-opacity: 1"/>
  </linearGradient>
  <linearGradient id="oomox" x1="0%" x2="0%" y1="0%" y2="100%">
   <stop offset="0%" style="stop-color: #00aa00; stop-opacity: 1"/>
   <stop offset="100%" style="stop-color: #00cc00; stop-opacity: 1"/>
  </linearGradient>
  <linearGradient id="rainblue" x1="0%" x2="0%" y1="0%" y2="100%">
   <stop offset="0%" style="stop-color: #00F260; stop-opacity: 1"/>
   <stop offset="100%" style="stop-color: #0575E6; stop-opacity: 1"/>
  </linearGradient>
  <linearGradient id="sunrise" x1="0%" x2="0%" y1="0%" y2="100%">
   <stop offset="0%" style="stop-color: #FF8501; stop-opacity: 1"/>
   <stop offset="100%" style="stop-color: #FFCB01; stop-opacity: 1"/>
  </linearGradient>
  <linearGradient id="telinkrin" x1="0%" x2="0%" y1="0%" y2="100%">
   <stop offset="0%" style="stop-color: #b2ced6; stop-opacity: 1"/>
   <stop offset="100%" style="stop-color: #6da5b7; stop-opacity: 1"/>
  </linearGradient>
  <linearGradient id="60spsycho" x1="0%" x2="0%" y1="0%" y2="100%">
   <stop offset="0%" style="stop-color: #df5940; stop-opacity: 1"/>
   <stop offset="25%" style="stop-color: #d8d15f; stop-opacity: 1"/>
   <stop offset="50%" style="stop-color: #e9882a; stop-opacity: 1"/>
   <stop offset="100%" style="stop-color: #279362; stop-opacity: 1"/>
  </linearGradient>
  <linearGradient id="90ssummer" x1="0%" x2="0%" y1="0%" y2="100%">
   <stop offset="0%" style="stop-color: #f618c7; stop-opacity: 1"/>
   <stop offset="20%" style="stop-color: #94ffab; stop-opacity: 1"/>
   <stop offset="50%" style="stop-color: #fbfd54; stop-opacity: 1"/>
   <stop offset="100%" style="stop-color: #0f83ae; stop-opacity: 1"/>
  </linearGradient>
 </defs>
   <path fill="url(#oomox)" class="ColorScheme-Text" d="M 8.000335 -0.32055 C 6.353136 -0.321495 5.02559 -0.013664 3.94638 0.480839 C 3.725711 0.578144 3.510744 0.683652 3.303926 0.800947 C 3.247893 0.833738 3.197107 0.869956 3.142753 0.903866 C 3.006168 0.986621 2.868849 1.069114 2.739819 1.161296 C 2.633105 1.237528 2.537304 1.321979 2.43762 1.403073 C 1.735565 1.974157 1.22172 2.666769 0.839318 3.41996 C 0.820291 3.457787 0.794828 3.493883 0.776605 3.531938 C 0.757822 3.571025 0.745335 3.611248 0.727322 3.650579 C 0.493118 4.159125 0.299626 4.684372 0.185601 5.230973 C 0.1643 5.333315 0.160733 5.438962 0.143104 5.542127 C 0.091409 5.823358 0.051745 6.101021 0.026701 6.374855 C 0.024393 6.399619 0.02212 6.42391 0.019811 6.448779 C -0.007821 6.778033 0.000329 7.078204 0.004106 7.386717 C 0.006415 7.501214 0.003197 7.614819 0.008688 7.72921 C 0.023833 8.05892 0.048597 8.353494 0.089275 8.640287 C 0.113689 8.840687 0.145658 9.037641 0.178781 9.235733 C 0.184517 9.262105 0.18679 9.299583 0.192177 9.325256 L 0.192177 9.327547 L 0.216836 9.439403 C 0.252372 9.634084 0.278954 9.832402 0.322046 10.023656 L 0.447403 10.583285 L 0.456567 10.580994 L 1.665366 16.320552 L 3.010715 16.08327 C 3.767544 15.949064 4.307061 15.831297 4.55753 15.631089 C 4.683272 15.530583 4.755394 15.421893 4.792575 15.228156 C 4.829825 15.034419 4.820311 14.751964 4.738815 14.366327 L 3.832216 10.079566 C 3.75072 9.693912 3.645475 9.428053 3.530016 9.25803 C 3.414593 9.088008 3.297875 9.007491 3.136037 8.95583 C 2.812396 8.852456 2.265778 8.928321 1.504158 9.063227 L 1.318361 9.096805 C 1.109689 7.872073 1.068556 6.607381 1.306924 5.463691 C 1.589606 4.108549 2.227339 2.935653 3.404379 2.094722 C 4.563651 1.266489 6.286995 0.848725 8.000055 0.852345 C 9.713116 0.8489 11.436494 1.266489 12.595766 2.094722 C 13.772807 2.935653 14.410539 4.108549 14.693222 5.463691 C 14.931554 6.607381 14.890736 7.872073 14.681785 9.096805 L 14.495988 9.063227 C 13.734367 8.928321 13.187749 8.852387 12.864109 8.95583 C 12.702271 9.007526 12.585553 9.088008 12.47013 9.25803 C 12.354671 9.428053 12.249391 9.693912 12.16793 10.079566 L 11.261295 14.366327 C 11.179834 14.751964 11.17032 15.034419 11.207571 15.228156 C 11.244821 15.421893 11.316908 15.530583 11.442615 15.631089 C 11.693084 15.831297 12.232602 15.949064 12.989431 16.08327 L 14.334745 16.320552 L 15.543579 10.580994 L 15.552743 10.583285 L 15.6781 10.023656 C 15.721191 9.832402 15.747774 9.634101 15.78331 9.439403 L 15.807934 9.327547 L 15.807934 9.325256 C 15.81367 9.299583 15.815978 9.262105 15.821365 9.235733 C 15.854488 9.037641 15.886457 8.840687 15.910871 8.640287 C 15.951549 8.353494 15.976312 8.05892 15.991457 7.72921 C 15.997158 7.614836 15.993731 7.501214 15.996039 7.386717 C 15.999467 7.078204 16.007966 6.778033 15.980335 6.448779 C 15.978026 6.42391 15.975753 6.399724 15.973444 6.374855 C 15.948366 6.101021 15.908702 5.823358 15.857041 5.542127 C 15.839413 5.438962 15.835845 5.333315 15.814544 5.230973 C 15.700485 4.684372 15.507028 4.159125 15.272788 3.650579 C 15.25481 3.611265 15.242323 3.571042 15.223506 3.531938 C 15.205283 3.493883 15.179855 3.457787 15.160827 3.41996 C 14.778426 2.666769 14.264581 1.974157 13.562526 1.403073 C 13.462807 1.321927 13.36704 1.237528 13.260326 1.161296 C 13.131297 1.069149 12.993978 0.986621 12.857393 0.903866 C 12.803074 0.869956 12.752288 0.833738 12.69622 0.800947 C 12.489402 0.683652 12.274434 0.578144 12.053765 0.480839 C 10.97508 -0.013664 9.647534 -0.321495 8.000335 -0.32055 Z"/>
</svg>
