<svg xmlns="http://www.w3.org/2000/svg" width="16" height="16" version="1.1">
 <defs>
   <style id="current-color-scheme" type="text/css">
   .ColorScheme-Text { color: #00aa00; } .ColorScheme-Highlight { color: #5294e2; }
  </style>
  <linearGradient id="arrongin" x1="0%" x2="0%" y1="0%" y2="100%">
   <stop offset="0%" style="stop-color: #dd9b44; stop-opacity: 1"/>
   <stop offset="100%" style="stop-color: #ad6c16; stop-opacity: 1"/>
  </linearGradient>
  <linearGradient id="aurora" x1="0%" x2="0%" y1="0%" y2="100%">
   <stop offset="0%" style="stop-color: #09D4DF; stop-opacity: 1"/>
   <stop offset="100%" style="stop-color: #9269F4; stop-opacity: 1"/>
  </linearGradient>
  <linearGradient id="cyberneon" x1="0%" x2="0%" y1="0%" y2="100%">
    <stop offset="0" style="stop-color: #0abdc6; stop-opacity: 1"/>
    <stop offset="1" style="stop-color: #ea00d9; stop-opacity: 1"/>
  </linearGradient>
  <linearGradient id="fitdance" x1="0%" x2="0%" y1="0%" y2="100%">
   <stop offset="0%" style="stop-color: #1AD6AB; stop-opacity: 1"/>
   <stop offset="100%" style="stop-color: #329DB6; stop-opacity: 1"/>
  </linearGradient>
  <linearGradient id="oomox" x1="0%" x2="0%" y1="0%" y2="100%">
   <stop offset="0%" style="stop-color: #00aa00; stop-opacity: 1"/>
   <stop offset="100%" style="stop-color: #00cc00; stop-opacity: 1"/>
  </linearGradient>
  <linearGradient id="rainblue" x1="0%" x2="0%" y1="0%" y2="100%">
   <stop offset="0%" style="stop-color: #00F260; stop-opacity: 1"/>
   <stop offset="100%" style="stop-color: #0575E6; stop-opacity: 1"/>
  </linearGradient>
  <linearGradient id="sunrise" x1="0%" x2="0%" y1="0%" y2="100%">
   <stop offset="0%" style="stop-color: #FF8501; stop-opacity: 1"/>
   <stop offset="100%" style="stop-color: #FFCB01; stop-opacity: 1"/>
  </linearGradient>
  <linearGradient id="telinkrin" x1="0%" x2="0%" y1="0%" y2="100%">
   <stop offset="0%" style="stop-color: #b2ced6; stop-opacity: 1"/>
   <stop offset="100%" style="stop-color: #6da5b7; stop-opacity: 1"/>
  </linearGradient>
  <linearGradient id="60spsycho" x1="0%" x2="0%" y1="0%" y2="100%">
   <stop offset="0%" style="stop-color: #df5940; stop-opacity: 1"/>
   <stop offset="25%" style="stop-color: #d8d15f; stop-opacity: 1"/>
   <stop offset="50%" style="stop-color: #e9882a; stop-opacity: 1"/>
   <stop offset="100%" style="stop-color: #279362; stop-opacity: 1"/>
  </linearGradient>
  <linearGradient id="90ssummer" x1="0%" x2="0%" y1="0%" y2="100%">
   <stop offset="0%" style="stop-color: #f618c7; stop-opacity: 1"/>
   <stop offset="20%" style="stop-color: #94ffab; stop-opacity: 1"/>
   <stop offset="50%" style="stop-color: #fbfd54; stop-opacity: 1"/>
   <stop offset="100%" style="stop-color: #0f83ae; stop-opacity: 1"/>
  </linearGradient>
 </defs>
   <path fill="url(#oomox)" class="ColorScheme-Text" d="M 4.786286 0.672793 C 3.408343 0.672793 2.294971 1.174051 1.448686 2.176565 C 0.483086 3.318851 0 4.866965 0 6.825251 C 0 8.28228 0.279429 9.548908 0.843543 10.621251 C 1.700686 12.218166 3.017829 13.014394 4.786286 13.014394 C 5.168343 14.720794 6.2224 15.618395 8.701486 15.242394 L 8.701486 14.004566 C 7.547429 14.110966 7.296801 13.47668 7.206857 12.354165 L 7.206857 12.280793 C 7.554058 12.059309 7.869257 11.78445 8.151315 11.446394 C 9.073486 10.339079 9.535886 8.795194 9.535886 6.825251 C 9.535886 5.356565 9.241486 4.092451 8.655658 3.020108 C 7.787657 1.458165 6.500457 0.672793 4.786286 0.672793 Z M 14.074515 1.167993 L 12.332458 1.213822 L 11.754743 3.946165 L 10.516914 3.946165 L 10.516914 5.990851 L 11.653943 5.990851 L 11.653943 9.906051 C 11.653943 10.978394 11.806858 11.730394 12.1032 12.161593 C 12.476343 12.732794 13.268916 13.014394 14.487087 13.014394 C 14.893258 13.014394 15.396343 12.959194 16 12.830966 L 16 10.88708 C 15.582973 10.910394 15.273258 10.923766 15.0648 10.923766 C 14.724573 10.923766 14.483086 10.866165 14.340458 10.749594 C 14.1648 10.609708 14.074515 10.247994 14.074515 9.676794 L 14.074515 5.990851 L 15.871657 5.990851 L 15.871657 3.946165 L 14.074515 3.946165 L 14.074515 1.167993 Z M 4.786286 2.965022 C 6.131658 2.965137 6.803429 4.255879 6.803429 6.843536 C 6.803429 9.431308 6.131658 10.731308 4.786286 10.731308 C 3.4192 10.731308 2.732457 9.424565 2.732457 6.825251 C 2.732457 6.720337 2.732457 6.618393 2.732457 6.513479 C 2.797486 4.147308 3.484343 2.965137 4.786286 2.965022 Z"/>
</svg>
