<svg xmlns="http://www.w3.org/2000/svg" width="16" height="16" version="1.1">
 <defs>
   <style id="current-color-scheme" type="text/css">
   .ColorScheme-Text { color: #cc00cc; } .ColorScheme-Highlight { color:#5294e2; }
  </style>
  <linearGradient id="arrongin" x1="0%" x2="0%" y1="0%" y2="100%">
   <stop offset="0%" style="stop-color:#dd9b44; stop-opacity:1"/>
   <stop offset="100%" style="stop-color:#ad6c16; stop-opacity:1"/>
  </linearGradient>
  <linearGradient id="aurora" x1="0%" x2="0%" y1="0%" y2="100%">
   <stop offset="0%" style="stop-color:#09D4DF; stop-opacity:1"/>
   <stop offset="100%" style="stop-color:#9269F4; stop-opacity:1"/>
  </linearGradient>
  <linearGradient id="cyberneon" x1="0%" x2="0%" y1="0%" y2="100%">
    <stop offset="0" style="stop-color:#0abdc6; stop-opacity:1"/>
    <stop offset="1" style="stop-color:#ea00d9; stop-opacity:1"/>
  </linearGradient>
  <linearGradient id="fitdance" x1="0%" x2="0%" y1="0%" y2="100%">
   <stop offset="0%" style="stop-color:#1AD6AB; stop-opacity:1"/>
   <stop offset="100%" style="stop-color:#329DB6; stop-opacity:1"/>
  </linearGradient>
  <linearGradient id="oomox" x1="0%" x2="0%" y1="0%" y2="100%">
   <stop offset="0%" style="stop-color:#efefe7; stop-opacity:1"/>
   <stop offset="100%" style="stop-color:#8f8f8b; stop-opacity:1"/>
  </linearGradient>
  <linearGradient id="rainblue" x1="0%" x2="0%" y1="0%" y2="100%">
   <stop offset="0%" style="stop-color:#00F260; stop-opacity:1"/>
   <stop offset="100%" style="stop-color:#0575E6; stop-opacity:1"/>
  </linearGradient>
  <linearGradient id="sunrise" x1="0%" x2="0%" y1="0%" y2="100%">
   <stop offset="0%" style="stop-color: #FF8501; stop-opacity:1"/>
   <stop offset="100%" style="stop-color: #FFCB01; stop-opacity:1"/>
  </linearGradient>
  <linearGradient id="telinkrin" x1="0%" x2="0%" y1="0%" y2="100%">
   <stop offset="0%" style="stop-color: #b2ced6; stop-opacity:1"/>
   <stop offset="100%" style="stop-color: #6da5b7; stop-opacity:1"/>
  </linearGradient>
  <linearGradient id="60spsycho" x1="0%" x2="0%" y1="0%" y2="100%">
   <stop offset="0%" style="stop-color: #df5940; stop-opacity:1"/>
   <stop offset="25%" style="stop-color: #d8d15f; stop-opacity:1"/>
   <stop offset="50%" style="stop-color: #e9882a; stop-opacity:1"/>
   <stop offset="100%" style="stop-color: #279362; stop-opacity:1"/>
  </linearGradient>
  <linearGradient id="90ssummer" x1="0%" x2="0%" y1="0%" y2="100%">
   <stop offset="0%" style="stop-color: #f618c7; stop-opacity:1"/>
   <stop offset="20%" style="stop-color: #94ffab; stop-opacity:1"/>
   <stop offset="50%" style="stop-color: #fbfd54; stop-opacity:1"/>
   <stop offset="100%" style="stop-color: #0f83ae; stop-opacity:1"/>
  </linearGradient>
 </defs>
 <path fill="currentColor" class="ColorScheme-Text" d="m 13.127883,5.7608113 c -0.571257,0 -1.036676,-0.4654185 -1.036676,-1.0366757 0,-0.5712572 0.459991,-1.0366757 1.036676,-1.0366757 0.571257,0 1.036676,0.4599909 1.036676,1.0366757 0,0.5712572 -0.465419,1.0366757 -1.036676,1.0366757 M 8.1837268,13.692602 c 0,0.571258 -0.4654186,1.036676 -1.0366757,1.036676 -0.5712572,0 -1.0366758,-0.465418 -1.0366758,-1.036676 0,-0.571257 0.459991,-1.038032 1.0366758,-1.038032 0.5712571,0.0065 1.0366757,0.465418 1.0366757,1.038032 M 13.127883,2.9285427 c -0.993255,0 -1.79505,0.8005742 -1.79505,1.7950501 0,0.7205168 0.421997,1.335195 1.036676,1.6210949 C 12.301663,7.530623 11.419675,7.9286034 9.8789087,8.5124798 9.2262372,8.7540089 8.5123693,9.0281038 7.8975554,9.4378893 V 5.0838512 H 9.717437 L 7.1086506,0.49995341 4.5,5.0838512 h 1.9006174 v 6.9937628 c -0.6146782,0.286307 -1.0434603,0.900985 -1.0434603,1.627336 0,0.993255 0.8005742,1.79505 1.7950502,1.79505 0.9932547,0 1.7950501,-0.800574 1.7950501,-1.79505 0,-0.720516 -0.4219975,-1.335195 -1.0366757,-1.621095 0.067845,-1.185935 0.9498338,-1.58378 2.4907353,-2.1676565 1.515528,-0.5712573 3.391314,-1.2795619 3.465808,-3.5527855 0.621463,-0.286307 1.055672,-0.9064128 1.055672,-1.6273366 0,-1.0000393 -0.801931,-1.8075337 -1.79505,-1.8075337"/>
</svg>
