<svg xmlns="http://www.w3.org/2000/svg" width="16" height="16" version="1.1">
 <defs>
   <style id="current-color-scheme" type="text/css">
   .ColorScheme-Text { color: #cc00cc; } .ColorScheme-Highlight { color:#5294e2; }
  </style>
  <linearGradient id="arrongin" x1="0%" x2="0%" y1="0%" y2="100%">
   <stop offset="0%" style="stop-color:#dd9b44; stop-opacity:1"/>
   <stop offset="100%" style="stop-color:#ad6c16; stop-opacity:1"/>
  </linearGradient>
  <linearGradient id="aurora" x1="0%" x2="0%" y1="0%" y2="100%">
   <stop offset="0%" style="stop-color:#09D4DF; stop-opacity:1"/>
   <stop offset="100%" style="stop-color:#9269F4; stop-opacity:1"/>
  </linearGradient>
  <linearGradient id="cyberneon" x1="0%" x2="0%" y1="0%" y2="100%">
    <stop offset="0" style="stop-color:#0abdc6; stop-opacity:1"/>
    <stop offset="1" style="stop-color:#ea00d9; stop-opacity:1"/>
  </linearGradient>
  <linearGradient id="fitdance" x1="0%" x2="0%" y1="0%" y2="100%">
   <stop offset="0%" style="stop-color:#1AD6AB; stop-opacity:1"/>
   <stop offset="100%" style="stop-color:#329DB6; stop-opacity:1"/>
  </linearGradient>
  <linearGradient id="oomox" x1="0%" x2="0%" y1="0%" y2="100%">
   <stop offset="0%" style="stop-color:#efefe7; stop-opacity:1"/>
   <stop offset="100%" style="stop-color:#8f8f8b; stop-opacity:1"/>
  </linearGradient>
  <linearGradient id="rainblue" x1="0%" x2="0%" y1="0%" y2="100%">
   <stop offset="0%" style="stop-color:#00F260; stop-opacity:1"/>
   <stop offset="100%" style="stop-color:#0575E6; stop-opacity:1"/>
  </linearGradient>
  <linearGradient id="sunrise" x1="0%" x2="0%" y1="0%" y2="100%">
   <stop offset="0%" style="stop-color: #FF8501; stop-opacity:1"/>
   <stop offset="100%" style="stop-color: #FFCB01; stop-opacity:1"/>
  </linearGradient>
  <linearGradient id="telinkrin" x1="0%" x2="0%" y1="0%" y2="100%">
   <stop offset="0%" style="stop-color: #b2ced6; stop-opacity:1"/>
   <stop offset="100%" style="stop-color: #6da5b7; stop-opacity:1"/>
  </linearGradient>
  <linearGradient id="60spsycho" x1="0%" x2="0%" y1="0%" y2="100%">
   <stop offset="0%" style="stop-color: #df5940; stop-opacity:1"/>
   <stop offset="25%" style="stop-color: #d8d15f; stop-opacity:1"/>
   <stop offset="50%" style="stop-color: #e9882a; stop-opacity:1"/>
   <stop offset="100%" style="stop-color: #279362; stop-opacity:1"/>
  </linearGradient>
  <linearGradient id="90ssummer" x1="0%" x2="0%" y1="0%" y2="100%">
   <stop offset="0%" style="stop-color: #f618c7; stop-opacity:1"/>
   <stop offset="20%" style="stop-color: #94ffab; stop-opacity:1"/>
   <stop offset="50%" style="stop-color: #fbfd54; stop-opacity:1"/>
   <stop offset="100%" style="stop-color: #0f83ae; stop-opacity:1"/>
  </linearGradient>
 </defs>
 <path fill="currentColor" class="ColorScheme-Text" d="m 6.906316,0.50157923 c -0.498755,-0.010607 -0.931248,0.033908 -1.108572,0.082659 -0.27911,0.074358 -0.698071,0.23274657 -0.868966,0.47398117 -0.116251,0.1618413 -0.214494,0.3694996 -0.214494,0.65761 0.0043,0.5437561 -0.0069,0.9935442 0,1.541747 0,0.3060035 -0.105616,0.449592 -0.420619,0.456717 H 2.8507944 c -0.3084572,0 -0.5428384,-0.00641 -0.7209121,0.072719 C 1.9498802,3.868388 1.8217375,3.9733271 1.7260043,4.1019536 1.5318592,4.3547064 1.5,4.8258791 1.5,5.1435615 c 0,0 0.00212,0.2543465 0.066441,0.7591023 0.054643,0.3918742 0.4859025,3.1093506 0.896693,3.9320562 0.159425,0.321754 0.2652362,0.454644 0.5775666,0.596401 0.9000634,0.209306 4.0638894,1.262273 4.4076074,0.537283 0.281376,-0.736348 0.421737,-1.9510726 0.480259,-2.4326853 0,0.3251288 0.05048,1.6401353 0.938023,1.9487643 0.351679,0.121126 1.076587,0.228176 1.815881,0.311802 0.669115,0.07447 0.996094,0.331113 0.996094,2.006312 0,1.018404 -0.06213,1.090261 -1.205357,1.090261 -1.032333,0 -1.473213,7e-6 -1.473213,-0.535714 0,-0.53572 0.31513,-0.535714 1.071428,-0.535714 v -1.071428 c -1.512607,0 -2.142856,-9e-6 -2.142856,1.765136 0,1.609894 0.612485,1.984862 2.755474,1.984862 1.680501,0 2.273286,-0.05614 2.96683,-2.155412 0.136887,-0.415124 0.471856,-1.681245 0.672258,-3.808591 0.125894,-1.3430509 -0.121994,-5.3989503 -0.318603,-6.4269977 v -0.00158 C 13.890417,2.5081195 13.52838,2.215152 13.19677,2.0982579 12.841051,1.9720421 12.119342,1.8452992 11.215046,1.740941 10.484324,1.655922 9.518036,1.5551517 8.999995,1.5714376 8.999995,1.1964333 8.750428,0.8852985 8.416674,0.7521719 7.972026,0.57908063 7.405608,0.51224013 6.906316,0.50157923 Z m 4.504392,6.42699767 c 0.443806,0 0.803571,0.4796871 0.803571,1.0714278 h -1.607142 c 0,-0.5917568 0.359764,-1.0714278 0.803571,-1.0714278 z"/>
</svg>
