<svg xmlns="http://www.w3.org/2000/svg" width="16" height="16" version="1.1">
 <defs>
   <style id="current-color-scheme" type="text/css">
   .ColorScheme-Text { color: #cc00cc; } .ColorScheme-Highlight { color:#5294e2; }
  </style>
  <linearGradient id="arrongin" x1="0%" x2="0%" y1="0%" y2="100%">
   <stop offset="0%" style="stop-color:#dd9b44; stop-opacity:1"/>
   <stop offset="100%" style="stop-color:#ad6c16; stop-opacity:1"/>
  </linearGradient>
  <linearGradient id="aurora" x1="0%" x2="0%" y1="0%" y2="100%">
   <stop offset="0%" style="stop-color:#09D4DF; stop-opacity:1"/>
   <stop offset="100%" style="stop-color:#9269F4; stop-opacity:1"/>
  </linearGradient>
  <linearGradient id="cyberneon" x1="0%" x2="0%" y1="0%" y2="100%">
    <stop offset="0" style="stop-color:#0abdc6; stop-opacity:1"/>
    <stop offset="1" style="stop-color:#ea00d9; stop-opacity:1"/>
  </linearGradient>
  <linearGradient id="fitdance" x1="0%" x2="0%" y1="0%" y2="100%">
   <stop offset="0%" style="stop-color:#1AD6AB; stop-opacity:1"/>
   <stop offset="100%" style="stop-color:#329DB6; stop-opacity:1"/>
  </linearGradient>
  <linearGradient id="oomox" x1="0%" x2="0%" y1="0%" y2="100%">
   <stop offset="0%" style="stop-color:#efefe7; stop-opacity:1"/>
   <stop offset="100%" style="stop-color:#8f8f8b; stop-opacity:1"/>
  </linearGradient>
  <linearGradient id="rainblue" x1="0%" x2="0%" y1="0%" y2="100%">
   <stop offset="0%" style="stop-color:#00F260; stop-opacity:1"/>
   <stop offset="100%" style="stop-color:#0575E6; stop-opacity:1"/>
  </linearGradient>
  <linearGradient id="sunrise" x1="0%" x2="0%" y1="0%" y2="100%">
   <stop offset="0%" style="stop-color: #FF8501; stop-opacity:1"/>
   <stop offset="100%" style="stop-color: #FFCB01; stop-opacity:1"/>
  </linearGradient>
  <linearGradient id="telinkrin" x1="0%" x2="0%" y1="0%" y2="100%">
   <stop offset="0%" style="stop-color: #b2ced6; stop-opacity:1"/>
   <stop offset="100%" style="stop-color: #6da5b7; stop-opacity:1"/>
  </linearGradient>
  <linearGradient id="60spsycho" x1="0%" x2="0%" y1="0%" y2="100%">
   <stop offset="0%" style="stop-color: #df5940; stop-opacity:1"/>
   <stop offset="25%" style="stop-color: #d8d15f; stop-opacity:1"/>
   <stop offset="50%" style="stop-color: #e9882a; stop-opacity:1"/>
   <stop offset="100%" style="stop-color: #279362; stop-opacity:1"/>
  </linearGradient>
  <linearGradient id="90ssummer" x1="0%" x2="0%" y1="0%" y2="100%">
   <stop offset="0%" style="stop-color: #f618c7; stop-opacity:1"/>
   <stop offset="20%" style="stop-color: #94ffab; stop-opacity:1"/>
   <stop offset="50%" style="stop-color: #fbfd54; stop-opacity:1"/>
   <stop offset="100%" style="stop-color: #0f83ae; stop-opacity:1"/>
  </linearGradient>
 </defs>
 <path fill="currentColor" class="ColorScheme-Text" fill-rule="evenodd" d="M 3.961 8.185 C 4.415 8.235 4.863 8.319 5.3 8.437 C 5.782 8.565 6.235 8.762 6.655 9.025 C 7.07 9.288 7.429 9.641 7.697 10.056 C 7.916 10.386 8.095 10.739 8.23 11.109 C 8.347 11.423 8.409 11.759 8.415 12.095 C 8.431 12.706 8.168 13.288 7.709 13.68 C 7.277 14.028 6.728 14.207 6.174 14.19 C 5.647 14.185 5.132 14.05 4.672 13.804 C 4.14 13.523 3.681 13.12 3.333 12.633 C 2.992 12.056 2.74 11.428 2.599 10.773 C 2.515 10.397 2.454 10.022 2.415 9.647 C 2.275 9.641 2.134 9.635 1.994 9.635 C 1.994 9.635 1.994 9.635 1.989 9.635 L 0.784 9.607 L 0 9.591 L 0.034 8.022 L 0.818 8.039 L 2.022 8.067 C 2.146 8.067 2.269 8.072 2.398 8.072 C 2.42 7.748 2.459 7.428 2.515 7.109 C 2.599 6.599 2.74 6.1 2.936 5.619 C 3.12 5.17 3.373 4.75 3.697 4.386 C 4.028 4.011 4.459 3.736 4.941 3.602 C 5.232 3.529 5.535 3.495 5.832 3.495 C 6.336 3.495 6.829 3.602 7.283 3.809 C 7.703 4.005 8.084 4.263 8.42 4.577 C 8.74 4.874 9.031 5.199 9.294 5.54 C 9.541 5.865 9.782 6.19 10.011 6.526 C 10.174 6.756 10.342 6.986 10.51 7.21 C 10.644 7.395 10.79 7.568 10.952 7.731 C 11.053 7.837 11.165 7.932 11.294 8.005 C 11.345 8.033 11.406 8.05 11.468 8.056 C 11.541 8.05 11.613 8.028 11.681 7.994 C 11.725 7.972 11.765 7.938 11.787 7.893 C 11.832 7.787 11.849 7.669 11.843 7.552 C 11.843 7.305 11.815 7.064 11.759 6.823 C 11.697 6.509 11.625 6.207 11.546 5.899 C 11.457 5.568 11.378 5.232 11.311 4.896 C 11.238 4.56 11.199 4.212 11.193 3.871 C 11.182 3.518 11.244 3.17 11.384 2.846 C 11.546 2.481 11.826 2.179 12.174 1.988 C 12.403 1.865 12.661 1.804 12.919 1.809 C 13.249 1.82 13.574 1.899 13.871 2.039 C 14.134 2.157 14.387 2.291 14.622 2.448 C 14.896 2.622 15.154 2.812 15.401 3.019 L 16 3.529 L 14.986 4.722 L 14.387 4.218 C 14.196 4.05 13.989 3.904 13.776 3.764 C 13.602 3.652 13.417 3.552 13.221 3.467 C 13.12 3.417 13.014 3.389 12.902 3.383 C 12.868 3.406 12.84 3.439 12.818 3.473 C 12.773 3.585 12.756 3.708 12.762 3.832 C 12.762 4.078 12.79 4.33 12.846 4.577 C 12.908 4.885 12.98 5.193 13.064 5.501 C 13.148 5.832 13.227 6.162 13.294 6.498 C 13.367 6.829 13.406 7.17 13.412 7.512 C 13.423 7.871 13.356 8.224 13.21 8.549 C 13.042 8.913 12.751 9.21 12.392 9.389 C 12.106 9.54 11.793 9.619 11.468 9.624 C 11.137 9.619 10.807 9.529 10.515 9.367 C 10.258 9.221 10.022 9.036 9.815 8.818 C 9.613 8.605 9.423 8.381 9.249 8.151 C 9.07 7.91 8.896 7.664 8.723 7.417 C 8.51 7.103 8.286 6.801 8.05 6.498 C 7.838 6.224 7.608 5.966 7.35 5.725 C 7.137 5.523 6.891 5.361 6.627 5.232 C 6.375 5.12 6.106 5.064 5.838 5.064 C 5.67 5.064 5.507 5.081 5.345 5.12 C 5.16 5.176 4.997 5.283 4.874 5.423 C 4.667 5.658 4.504 5.921 4.392 6.207 C 4.241 6.582 4.129 6.974 4.062 7.372 C 4.011 7.641 3.978 7.91 3.961 8.185 Z M 4.011 9.77 C 4.039 9.994 4.078 10.212 4.129 10.431 C 4.23 10.902 4.403 11.355 4.65 11.77 C 4.852 12.039 5.109 12.263 5.406 12.42 C 5.653 12.554 5.933 12.622 6.213 12.622 C 6.387 12.633 6.566 12.582 6.706 12.476 C 6.801 12.386 6.852 12.257 6.846 12.129 C 6.846 11.966 6.812 11.804 6.756 11.647 C 6.661 11.389 6.538 11.142 6.387 10.918 C 6.241 10.689 6.045 10.498 5.815 10.347 C 5.535 10.173 5.221 10.039 4.902 9.955 C 4.605 9.876 4.308 9.815 4.011 9.77 Z"/>
</svg>
