<svg xmlns="http://www.w3.org/2000/svg" width="16" height="16" version="1.1">
 <defs>
   <style id="current-color-scheme" type="text/css">
   .ColorScheme-Text { color: #cc00cc; } .ColorScheme-Highlight { color:#5294e2; }
  </style>
  <linearGradient id="arrongin" x1="0%" x2="0%" y1="0%" y2="100%">
   <stop offset="0%" style="stop-color:#dd9b44; stop-opacity:1"/>
   <stop offset="100%" style="stop-color:#ad6c16; stop-opacity:1"/>
  </linearGradient>
  <linearGradient id="aurora" x1="0%" x2="0%" y1="0%" y2="100%">
   <stop offset="0%" style="stop-color:#09D4DF; stop-opacity:1"/>
   <stop offset="100%" style="stop-color:#9269F4; stop-opacity:1"/>
  </linearGradient>
  <linearGradient id="cyberneon" x1="0%" x2="0%" y1="0%" y2="100%">
    <stop offset="0" style="stop-color:#0abdc6; stop-opacity:1"/>
    <stop offset="1" style="stop-color:#ea00d9; stop-opacity:1"/>
  </linearGradient>
  <linearGradient id="fitdance" x1="0%" x2="0%" y1="0%" y2="100%">
   <stop offset="0%" style="stop-color:#1AD6AB; stop-opacity:1"/>
   <stop offset="100%" style="stop-color:#329DB6; stop-opacity:1"/>
  </linearGradient>
  <linearGradient id="oomox" x1="0%" x2="0%" y1="0%" y2="100%">
   <stop offset="0%" style="stop-color:#efefe7; stop-opacity:1"/>
   <stop offset="100%" style="stop-color:#8f8f8b; stop-opacity:1"/>
  </linearGradient>
  <linearGradient id="rainblue" x1="0%" x2="0%" y1="0%" y2="100%">
   <stop offset="0%" style="stop-color:#00F260; stop-opacity:1"/>
   <stop offset="100%" style="stop-color:#0575E6; stop-opacity:1"/>
  </linearGradient>
  <linearGradient id="sunrise" x1="0%" x2="0%" y1="0%" y2="100%">
   <stop offset="0%" style="stop-color: #FF8501; stop-opacity:1"/>
   <stop offset="100%" style="stop-color: #FFCB01; stop-opacity:1"/>
  </linearGradient>
  <linearGradient id="telinkrin" x1="0%" x2="0%" y1="0%" y2="100%">
   <stop offset="0%" style="stop-color: #b2ced6; stop-opacity:1"/>
   <stop offset="100%" style="stop-color: #6da5b7; stop-opacity:1"/>
  </linearGradient>
  <linearGradient id="60spsycho" x1="0%" x2="0%" y1="0%" y2="100%">
   <stop offset="0%" style="stop-color: #df5940; stop-opacity:1"/>
   <stop offset="25%" style="stop-color: #d8d15f; stop-opacity:1"/>
   <stop offset="50%" style="stop-color: #e9882a; stop-opacity:1"/>
   <stop offset="100%" style="stop-color: #279362; stop-opacity:1"/>
  </linearGradient>
  <linearGradient id="90ssummer" x1="0%" x2="0%" y1="0%" y2="100%">
   <stop offset="0%" style="stop-color: #f618c7; stop-opacity:1"/>
   <stop offset="20%" style="stop-color: #94ffab; stop-opacity:1"/>
   <stop offset="50%" style="stop-color: #fbfd54; stop-opacity:1"/>
   <stop offset="100%" style="stop-color: #0f83ae; stop-opacity:1"/>
  </linearGradient>
 </defs>
 <path fill="currentColor" class="ColorScheme-Text" d="M 9.5 1 C 9.224 1 9 1.224 9 1.5 L 9 5 C 9 5.658 9.06 6.179 9.225 6.617 C 9.389 7.056 9.686 7.407 10.062 7.615 C 10.815 8.031 11.736 7.985 12.994 8 C 12.996 8 12.998 8 13 8 L 15.5 8 C 15.776 8 16 7.776 16 7.5 L 16 7 C 16 6.867 15.948 6.74 15.854 6.646 L 10.354 1.146 C 10.26 1.052 10.133 1 10 1 L 9.5 1 Z M 10 2.207 L 14.793 7 L 13 7 C 11.741 6.985 10.913 6.94 10.547 6.738 C 10.363 6.638 10.257 6.526 10.16 6.266 C 10.063 6.006 10 5.592 10 5 L 10 2.207 Z"/>
 <path fill="currentColor" class="ColorScheme-Text" fill-rule="evenodd" d="M 6 13 L 3.994 13 C 2.736 12.985 1.815 13.031 1.062 12.615 C 0.686 12.407 0.389 12.056 0.225 11.617 C 0.06 11.179 0 10.658 0 10 L 0 4 C 0 3.343 0.06 2.821 0.225 2.383 C 0.376 1.961 0.673 1.607 1.062 1.385 C 1.815 0.97 2.736 1.015 3.994 1 L 3.994 1 L 3.998 1 L 12.006 1 C 13.264 1.015 14.185 0.969 14.938 1.385 C 15.327 1.607 15.624 1.961 15.775 2.383 C 15.94 2.821 16 3.342 16 4 L 16 10 C 16 10.657 15.94 11.179 15.776 11.617 C 15.625 12.039 15.327 12.393 14.938 12.615 C 14.185 13.03 13.264 12.985 12.006 13 L 10 13 L 10 13.5 C 10 15 10.5 15 11.5 15 L 12 15 L 12 16 L 4 16 L 4 15 L 4.5 15 C 5.5 15 6 15 6 13.5 L 6 13 Z M 11 2 L 4 2 L 4 2 C 2.741 2.015 1.911 2.06 1.545 2.262 C 1.362 2.363 1.258 2.474 1.16 2.734 C 1.063 2.994 1 3.408 1 4 L 1 10 C 1 10.592 1.063 11.006 1.16 11.266 C 1.258 11.526 1.362 11.638 1.545 11.738 C 1.91 11.94 2.741 11.985 4 12 L 6 12 L 6 12 L 6 12 L 10 12 L 12 12 C 13.259 11.985 14.087 11.94 14.453 11.738 C 14.637 11.637 14.742 11.526 14.84 11.266 C 14.937 11.006 15 10.592 15 10 L 15 6 L 11 2 Z"/>
</svg>
