<svg xmlns="http://www.w3.org/2000/svg" width="16" height="16" version="1.1">
 <defs>
   <style id="current-color-scheme" type="text/css">
   .ColorScheme-Text { color: #cc00cc; } .ColorScheme-Highlight { color:#5294e2; }
  </style>
  <linearGradient id="arrongin" x1="0%" x2="0%" y1="0%" y2="100%">
   <stop offset="0%" style="stop-color:#dd9b44; stop-opacity:1"/>
   <stop offset="100%" style="stop-color:#ad6c16; stop-opacity:1"/>
  </linearGradient>
  <linearGradient id="aurora" x1="0%" x2="0%" y1="0%" y2="100%">
   <stop offset="0%" style="stop-color:#09D4DF; stop-opacity:1"/>
   <stop offset="100%" style="stop-color:#9269F4; stop-opacity:1"/>
  </linearGradient>
  <linearGradient id="cyberneon" x1="0%" x2="0%" y1="0%" y2="100%">
    <stop offset="0" style="stop-color:#0abdc6; stop-opacity:1"/>
    <stop offset="1" style="stop-color:#ea00d9; stop-opacity:1"/>
  </linearGradient>
  <linearGradient id="fitdance" x1="0%" x2="0%" y1="0%" y2="100%">
   <stop offset="0%" style="stop-color:#1AD6AB; stop-opacity:1"/>
   <stop offset="100%" style="stop-color:#329DB6; stop-opacity:1"/>
  </linearGradient>
  <linearGradient id="oomox" x1="0%" x2="0%" y1="0%" y2="100%">
   <stop offset="0%" style="stop-color:#efefe7; stop-opacity:1"/>
   <stop offset="100%" style="stop-color:#8f8f8b; stop-opacity:1"/>
  </linearGradient>
  <linearGradient id="rainblue" x1="0%" x2="0%" y1="0%" y2="100%">
   <stop offset="0%" style="stop-color:#00F260; stop-opacity:1"/>
   <stop offset="100%" style="stop-color:#0575E6; stop-opacity:1"/>
  </linearGradient>
  <linearGradient id="sunrise" x1="0%" x2="0%" y1="0%" y2="100%">
   <stop offset="0%" style="stop-color: #FF8501; stop-opacity:1"/>
   <stop offset="100%" style="stop-color: #FFCB01; stop-opacity:1"/>
  </linearGradient>
  <linearGradient id="telinkrin" x1="0%" x2="0%" y1="0%" y2="100%">
   <stop offset="0%" style="stop-color: #b2ced6; stop-opacity:1"/>
   <stop offset="100%" style="stop-color: #6da5b7; stop-opacity:1"/>
  </linearGradient>
  <linearGradient id="60spsycho" x1="0%" x2="0%" y1="0%" y2="100%">
   <stop offset="0%" style="stop-color: #df5940; stop-opacity:1"/>
   <stop offset="25%" style="stop-color: #d8d15f; stop-opacity:1"/>
   <stop offset="50%" style="stop-color: #e9882a; stop-opacity:1"/>
   <stop offset="100%" style="stop-color: #279362; stop-opacity:1"/>
  </linearGradient>
  <linearGradient id="90ssummer" x1="0%" x2="0%" y1="0%" y2="100%">
   <stop offset="0%" style="stop-color: #f618c7; stop-opacity:1"/>
   <stop offset="20%" style="stop-color: #94ffab; stop-opacity:1"/>
   <stop offset="50%" style="stop-color: #fbfd54; stop-opacity:1"/>
   <stop offset="100%" style="stop-color: #0f83ae; stop-opacity:1"/>
  </linearGradient>
 </defs>
 <path fill="currentColor" class="ColorScheme-Text" d="M 8 0.001 C 3.582 0.001 0 3.584 0 8.003 C 0.004 11.334 2.07 14.313 5.188 15.484 C 5.184 15.37 5.183 15.224 5.176 15.139 C 5.152 14.874 5.216 13.689 5.274 13.329 C 5.294 13.204 5.366 12.959 5.435 12.784 C 5.571 12.438 5.725 11.918 5.78 11.612 C 5.799 11.505 5.848 11.301 5.889 11.158 C 5.952 10.939 5.96 10.844 5.939 10.553 C 5.919 10.287 5.927 10.169 5.97 10.036 C 6.043 9.809 6.04 9.731 5.954 9.527 C 5.91 9.422 5.883 9.27 5.882 9.125 L 5.88 8.891 L 5.811 8.981 C 5.774 9.029 5.717 9.17 5.686 9.292 C 5.549 9.828 5.339 10.14 4.73 10.716 C 4.509 10.925 4.315 11.132 4.298 11.178 C 4.061 11.811 4.038 11.901 4.057 12.145 C 4.067 12.279 4.086 12.425 4.1 12.47 C 4.133 12.581 4.023 12.627 3.934 12.54 C 3.897 12.505 3.843 12.489 3.809 12.502 C 3.761 12.522 3.753 12.565 3.767 12.72 C 3.788 12.953 3.799 12.969 3.951 12.964 C 4.05 12.964 4.075 12.978 4.108 13.073 C 4.13 13.136 4.134 13.186 4.115 13.186 C 4.097 13.186 4.082 13.236 4.082 13.302 C 4.082 13.414 4.076 13.419 3.923 13.419 C 3.785 13.419 3.761 13.43 3.751 13.505 C 3.744 13.56 3.711 13.598 3.66 13.605 C 3.554 13.622 3.262 13.308 3.149 13.055 C 3.036 12.802 3.057 12.41 3.209 11.922 C 3.269 11.73 3.338 11.467 3.362 11.339 C 3.419 11.036 3.487 10.899 3.594 10.87 C 3.66 10.853 3.721 10.755 3.858 10.452 C 3.956 10.234 4.075 9.943 4.12 9.804 C 4.219 9.503 4.327 9.324 4.615 8.98 C 4.734 8.839 4.85 8.657 4.875 8.575 C 4.9 8.491 4.995 8.25 5.085 8.036 L 5.25 7.648 L 5.273 6.948 C 5.286 6.564 5.314 6.186 5.337 6.111 C 5.359 6.035 5.467 5.857 5.576 5.714 C 5.693 5.56 5.774 5.416 5.774 5.362 C 5.774 5.252 5.942 4.99 6.071 4.899 C 6.121 4.863 6.209 4.823 6.266 4.809 C 6.468 4.76 6.495 4.745 6.532 4.67 C 6.563 4.609 6.547 4.545 6.457 4.354 C 6.394 4.222 6.322 4.079 6.295 4.037 C 6.251 3.97 6.253 3.954 6.316 3.907 C 6.355 3.877 6.488 3.829 6.612 3.804 C 6.822 3.756 6.837 3.748 6.847 3.641 C 6.857 3.538 6.836 3.513 6.631 3.384 C 6.159 3.086 5.989 2.891 5.992 2.655 C 5.994 2.39 6.136 2.239 6.542 2.069 C 6.749 1.983 6.803 1.943 6.813 1.87 C 6.819 1.822 6.839 1.763 6.857 1.743 C 6.875 1.721 6.891 1.633 6.891 1.545 C 6.891 1.279 6.967 0.93 7.048 0.833 C 7.198 0.653 7.316 0.615 7.701 0.617 C 8.003 0.617 8.086 0.632 8.216 0.704 C 8.392 0.803 8.427 0.873 8.547 1.37 C 8.591 1.552 8.656 1.729 8.692 1.764 C 8.729 1.798 8.768 1.869 8.78 1.921 C 8.796 1.992 8.856 2.038 9.018 2.107 C 9.438 2.287 9.663 2.605 9.585 2.908 C 9.518 3.171 9.174 3.47 8.939 3.47 C 8.901 3.47 8.87 3.497 8.87 3.528 C 8.87 3.559 8.893 3.586 8.919 3.586 C 8.954 3.586 8.974 3.668 8.99 3.873 C 9.003 4.031 9.032 4.207 9.055 4.262 C 9.096 4.359 9.11 4.362 9.407 4.362 C 9.671 4.362 9.758 4.379 10.004 4.486 C 10.162 4.555 10.305 4.633 10.321 4.661 C 10.337 4.691 10.426 4.755 10.519 4.807 C 10.755 4.937 11.092 5.325 11.35 5.761 C 11.47 5.964 11.602 6.172 11.642 6.222 C 11.682 6.271 11.714 6.339 11.714 6.371 C 11.714 6.404 11.751 6.485 11.796 6.552 C 11.84 6.621 11.879 6.74 11.882 6.821 C 11.89 7.01 12.031 7.33 12.389 7.965 C 12.612 8.36 12.685 8.525 12.704 8.678 C 12.718 8.788 12.74 9.338 12.752 9.901 C 12.775 10.885 12.779 10.927 12.856 11.015 C 12.935 11.106 12.935 11.106 12.903 12.059 C 12.885 12.582 12.854 13.057 12.834 13.114 C 12.814 13.171 12.749 13.244 12.69 13.278 C 12.631 13.31 12.574 13.369 12.562 13.409 C 12.551 13.448 12.443 13.53 12.323 13.593 C 12.203 13.655 12.097 13.719 12.088 13.734 C 12.079 13.75 12.14 13.908 12.222 14.085 C 12.308 14.269 12.41 14.419 12.541 14.58 C 14.704 13.088 15.997 10.629 16 8.002 C 16 3.583 12.418 0 8 0 L 8 0.001 Z M 10.157 7.591 C 10.143 7.591 10.135 7.682 10.139 7.794 C 10.146 7.959 10.13 8.024 10.058 8.132 C 10.008 8.205 9.893 8.423 9.802 8.617 L 9.636 8.97 L 10.321 10.427 C 11.077 12.032 11.151 12.175 11.227 12.175 C 11.256 12.175 11.342 12.075 11.419 11.952 L 11.421 11.952 C 11.498 11.829 11.618 11.654 11.689 11.563 C 11.776 11.45 11.831 11.327 11.862 11.174 C 11.886 11.052 11.917 10.934 11.931 10.912 C 12.021 10.779 12.003 10.619 11.853 10.207 C 11.682 9.734 11.611 9.374 11.608 8.964 L 11.606 8.685 L 11.351 8.575 C 11.148 8.487 11.032 8.4 10.779 8.145 C 10.604 7.969 10.436 7.824 10.405 7.824 C 10.374 7.824 10.33 7.785 10.306 7.738 C 10.263 7.649 10.206 7.593 10.157 7.592 L 10.157 7.591 Z M 10.059 11.274 C 10.008 11.233 10.015 11.386 10.022 11.688 C 10.029 12.029 10.142 12.573 10.211 12.598 C 10.236 12.607 10.296 12.659 10.347 12.715 L 10.44 12.814 L 10.487 14.327 C 10.506 14.974 10.529 15.328 10.548 15.578 C 11.114 15.388 11.658 15.135 12.168 14.824 C 11.729 14.572 11.331 14.067 11.037 13.355 C 10.941 13.122 10.673 12.529 10.443 12.038 C 10.217 11.555 10.11 11.316 10.059 11.274 L 10.059 11.274 Z M 11.749 12.321 C 11.725 12.311 11.703 12.313 11.673 12.333 C 11.51 12.427 11.515 12.528 11.698 12.949 C 11.813 13.212 11.881 13.326 11.9 13.293 C 11.916 13.264 11.929 13.083 11.929 12.887 C 11.929 12.56 11.923 12.521 11.838 12.412 C 11.799 12.362 11.773 12.333 11.749 12.322 L 11.749 12.321 Z M 7.59 14.274 C 7.554 14.274 7.539 14.318 7.538 14.419 C 7.538 14.563 7.426 15.242 7.356 15.526 C 7.345 15.57 7.308 15.802 7.28 15.969 C 7.485 15.987 7.691 15.997 7.897 16 C 7.895 15.738 7.816 15.269 7.737 15.066 C 7.696 14.962 7.681 14.829 7.687 14.643 C 7.698 14.357 7.676 14.273 7.59 14.273 L 7.59 14.274 Z"/>
</svg>
