<svg xmlns="http://www.w3.org/2000/svg" width="16" height="16" version="1.1">
 <defs>
   <style id="current-color-scheme" type="text/css">
   .ColorScheme-Text { color: #cc00cc; } .ColorScheme-Highlight { color:#5294e2; }
  </style>
  <linearGradient id="arrongin" x1="0%" x2="0%" y1="0%" y2="100%">
   <stop offset="0%" style="stop-color:#dd9b44; stop-opacity:1"/>
   <stop offset="100%" style="stop-color:#ad6c16; stop-opacity:1"/>
  </linearGradient>
  <linearGradient id="aurora" x1="0%" x2="0%" y1="0%" y2="100%">
   <stop offset="0%" style="stop-color:#09D4DF; stop-opacity:1"/>
   <stop offset="100%" style="stop-color:#9269F4; stop-opacity:1"/>
  </linearGradient>
  <linearGradient id="cyberneon" x1="0%" x2="0%" y1="0%" y2="100%">
    <stop offset="0" style="stop-color:#0abdc6; stop-opacity:1"/>
    <stop offset="1" style="stop-color:#ea00d9; stop-opacity:1"/>
  </linearGradient>
  <linearGradient id="fitdance" x1="0%" x2="0%" y1="0%" y2="100%">
   <stop offset="0%" style="stop-color:#1AD6AB; stop-opacity:1"/>
   <stop offset="100%" style="stop-color:#329DB6; stop-opacity:1"/>
  </linearGradient>
  <linearGradient id="oomox" x1="0%" x2="0%" y1="0%" y2="100%">
   <stop offset="0%" style="stop-color:#efefe7; stop-opacity:1"/>
   <stop offset="100%" style="stop-color:#8f8f8b; stop-opacity:1"/>
  </linearGradient>
  <linearGradient id="rainblue" x1="0%" x2="0%" y1="0%" y2="100%">
   <stop offset="0%" style="stop-color:#00F260; stop-opacity:1"/>
   <stop offset="100%" style="stop-color:#0575E6; stop-opacity:1"/>
  </linearGradient>
  <linearGradient id="sunrise" x1="0%" x2="0%" y1="0%" y2="100%">
   <stop offset="0%" style="stop-color: #FF8501; stop-opacity:1"/>
   <stop offset="100%" style="stop-color: #FFCB01; stop-opacity:1"/>
  </linearGradient>
  <linearGradient id="telinkrin" x1="0%" x2="0%" y1="0%" y2="100%">
   <stop offset="0%" style="stop-color: #b2ced6; stop-opacity:1"/>
   <stop offset="100%" style="stop-color: #6da5b7; stop-opacity:1"/>
  </linearGradient>
  <linearGradient id="60spsycho" x1="0%" x2="0%" y1="0%" y2="100%">
   <stop offset="0%" style="stop-color: #df5940; stop-opacity:1"/>
   <stop offset="25%" style="stop-color: #d8d15f; stop-opacity:1"/>
   <stop offset="50%" style="stop-color: #e9882a; stop-opacity:1"/>
   <stop offset="100%" style="stop-color: #279362; stop-opacity:1"/>
  </linearGradient>
  <linearGradient id="90ssummer" x1="0%" x2="0%" y1="0%" y2="100%">
   <stop offset="0%" style="stop-color: #f618c7; stop-opacity:1"/>
   <stop offset="20%" style="stop-color: #94ffab; stop-opacity:1"/>
   <stop offset="50%" style="stop-color: #fbfd54; stop-opacity:1"/>
   <stop offset="100%" style="stop-color: #0f83ae; stop-opacity:1"/>
  </linearGradient>
 </defs>
 <path fill="currentColor" class="ColorScheme-Text" d="m 9.1071399,2.2776148 a 0.25716852,0.25716852 0 0 0 -0.2321415,0.24391 v 0.0282 L 8.3511894,10.912775 7.6904749,6.2103948 a 0.25716852,0.25716852 0 0 0 -0.5119051,-0.0121 l -0.4940469,2.68453 -0.3095261,-0.94047 a 0.25716852,0.25716852 0 0 0 -0.4999997,0.0415 L 5.3988074,11.204095 4.4345217,4.7041148 a 0.25716852,0.25716852 0 0 0 -0.5059531,-0.004 l -0.6428559,3.73815 H -6.65e-7 v 0.51784 H 3.4999993 a 0.25716852,0.25716852 0 0 0 0.2559516,-0.21447 l 0.4047613,-2.375 0.9821428,6.6250002 a 0.25716852,0.25716852 0 0 0 0.505953,0 L 6.2261883,9.1344648 6.5119004,10.003535 a 0.25716852,0.25716852 0 0 0 0.494048,-0.0282 l 0.3928571,-2.13097 0.7976181,5.6547802 a 0.25716852,0.25716852 0 0 0 0.5119051,-0.0242 v -0.0476 l 0.4226184,-6.7857002 0.1011946,1.5714 a 0.25716852,0.25716852 0 0 0 0.5059518,0.0415 l 0.4642865,-2.0357 0.517856,3.6964 a 0.25716852,0.25716852 0 0 0 0.505952,0.0161 l 0.333332,-1.49403 0.03572,0.29148 a 0.25716852,0.25716852 0 0 0 0.255952,0.22617 h 4.148809 v -0.51785 h -3.922623 l -0.196427,-1.52382 a 0.25716852,0.25716852 0 0 0 -0.505952,-0.0161 l -0.345237,1.54168 -0.511903,-3.67261 a 0.25716852,0.25716852 0 0 0 -0.505953,-0.0242 l -0.3809527,1.66666 -0.2440465,-3.85713 v -0.0282 a 0.25716852,0.25716852 0 0 0 -0.2797616,-0.24391 z"/>
</svg>
