<svg xmlns="http://www.w3.org/2000/svg" width="16" height="16" version="1.1">
 <defs>
   <style id="current-color-scheme" type="text/css">
   .ColorScheme-Text { color: #E7E7E7; } .ColorScheme-Highlight { color: #1AD6AB; }
  </style>
  <linearGradient id="arrongin" x1="0%" x2="0%" y1="0%" y2="100%">
   <stop offset="0%" style="stop-color: #dd9b44; stop-opacity: 1"/>
   <stop offset="100%" style="stop-color: #ad6c16; stop-opacity: 1"/>
  </linearGradient>
  <linearGradient id="aurora" x1="0%" x2="0%" y1="0%" y2="100%">
   <stop offset="0%" style="stop-color: #09D4DF; stop-opacity: 1"/>
   <stop offset="100%" style="stop-color: #9269F4; stop-opacity: 1"/>
  </linearGradient>
  <linearGradient id="cyberneon" x1="0%" x2="0%" y1="0%" y2="100%">
    <stop offset="0" style="stop-color: #0abdc6; stop-opacity: 1"/>
    <stop offset="1" style="stop-color: #ea00d9; stop-opacity: 1"/>
  </linearGradient>
  <linearGradient id="fitdance" x1="0%" x2="0%" y1="0%" y2="100%">
   <stop offset="0%" style="stop-color: #1AD6AB; stop-opacity: 1"/>
   <stop offset="100%" style="stop-color: #329DB6; stop-opacity: 1"/>
  </linearGradient>
  <linearGradient id="oomox" x1="0%" x2="0%" y1="0%" y2="100%">
   <stop offset="0%" style="stop-color: #efefe7; stop-opacity: 1"/>
   <stop offset="100%" style="stop-color: #8f8f8b; stop-opacity: 1"/>
  </linearGradient>
  <linearGradient id="rainblue" x1="0%" x2="0%" y1="0%" y2="100%">
   <stop offset="0%" style="stop-color: #00F260; stop-opacity: 1"/>
   <stop offset="100%" style="stop-color: #0575E6; stop-opacity: 1"/>
  </linearGradient>
  <linearGradient id="sunrise" x1="0%" x2="0%" y1="0%" y2="100%">
   <stop offset="0%" style="stop-color: #FF8501; stop-opacity: 1"/>
   <stop offset="100%" style="stop-color: #FFCB01; stop-opacity: 1"/>
  </linearGradient>
  <linearGradient id="telinkrin" x1="0%" x2="0%" y1="0%" y2="100%">
   <stop offset="0%" style="stop-color: #b2ced6; stop-opacity: 1"/>
   <stop offset="100%" style="stop-color: #6da5b7; stop-opacity: 1"/>
  </linearGradient>
  <linearGradient id="60spsycho" x1="0%" x2="0%" y1="0%" y2="100%">
   <stop offset="0%" style="stop-color: #df5940; stop-opacity: 1"/>
   <stop offset="25%" style="stop-color: #d8d15f; stop-opacity: 1"/>
   <stop offset="50%" style="stop-color: #e9882a; stop-opacity: 1"/>
   <stop offset="100%" style="stop-color: #279362; stop-opacity: 1"/>
  </linearGradient>
  <linearGradient id="90ssummer" x1="0%" x2="0%" y1="0%" y2="100%">
   <stop offset="0%" style="stop-color: #f618c7; stop-opacity: 1"/>
   <stop offset="20%" style="stop-color: #94ffab; stop-opacity: 1"/>
   <stop offset="50%" style="stop-color: #fbfd54; stop-opacity: 1"/>
   <stop offset="100%" style="stop-color: #0f83ae; stop-opacity: 1"/>
  </linearGradient>
 </defs>
 <path fill="currentColor" class="ColorScheme-Text" d="m 7.0001772,1.0000021 c -0.03076,0 -0.340073,0.6290934 -0.53125,1.0078125 -0.2798665,0.5544135 -0.4131959,0.9820769 -0.4589844,1.4746094 -0.011312,0.12171 -0.00954,0.241871 -0.00195,0.359375 -0.00473,0.052935 -0.00733,0.1050611 -0.00782,0.1582031 0,0.4587653 0.1601643,0.8774025 0.4199219,1.2148438 -1.4584053,0.3982369 -2.6975116,1.3301952 -3.4882816,2.5761718 -0.155196,0.2029376 -0.291233,0.4139074 -0.390625,0.640625 -0.156183,0.3562616 -0.273413,0.7247073 -0.361328,1.1230469 -0.0585,0.2363652 -0.107175,0.4761704 -0.136719,0.7226564 -0.0026,0.02194 0.0049,0.02655 0.01563,0.02344 -0.01128,0.09494 -0.02638,0.185724 -0.03516,0.285157 -0.02812,0.318758 -0.03121,0.449217 -0.0098,0.449218 L 6.0001772,7.0000021 5.0392397,10.011721 c 0.0052,0.0052 -0.1058844,0.04768 0.027344,-0.013672 0.8185449,-0.3768902 1.5688629,-0.8865107 2.4707029,-0.9941408 0.3110088,-0.037116 1.388661,-0.037884 1.7128906,-0.00391 0.6567952,0.06882 1.2566758,0.744406 1.9941408,0.9472656 0.326767,0.08989 0.48823,0.062447 0.755859,0.052734 0.267826,-0.0097 0.425206,0.0033 0.623047,-0.091797 0.493682,-0.2373962 0.751724,-0.926123 0.679687,-1.4824219 -0.0068,-0.052432 -0.02062,-0.1014581 -0.03125,-0.1523437 0.02116,-0.052393 0.0015,-0.141107 -0.08203,-0.2871094 C 13.107441,7.7679249 12.985633,7.5499883 12.802911,7.3027323 11.917952,6.3302744 10.837077,5.5643681 9.5802553,5.2128885 9.839457,4.875645 10.000177,4.4582206 10.000177,3.9999979 10.00016,3.9491609 9.998227,3.8983432 9.994317,3.8476541 9.996017,3.7969841 10.000807,3.7451699 9.998227,3.6953104 9.962936,3.0104989 9.567062,2.5413443 8.968927,2.2324198 8.6522557,2.0688653 8.1678222,1.9928161 7.8517397,1.9921854 7.3697041,1.9261024 7.2901803,1.2786966 7.0001772,0.9999979 Z M 4.5529116,9.8867209 c 0,-3e-7 -0.414017,0.3631911 -1.8281251,1.8515621 -0.167851,0.169733 -0.392884,0.261141 -0.628906,0.28125 a 6,6 0 0 0 1.441406,2.980469 l 8.9277345,0 a 6,6 0 0 0 1.535156,-4 6,6 0 0 0 -0.07813,-0.927734 c -0.201217,0.296135 -0.483031,0.55254 -0.865229,0.736328 -0.416543,0.200206 -0.798162,0.183406 -1.019532,0.191406 -0.213971,0.0078 -0.600414,0.03815 -1.058593,-0.08789 C 10.403099,10.753779 9.9968904,10.466156 9.6857241,10.271486 9.3745578,10.076817 9.1691416,9.9965027 9.1466616,9.9941427 c -0.094239,-0.00988 -1.4475054,-0.00315 -1.4902344,0.00195 -0.5962637,0.071161 -1.2510578,0.4863303 -2.1660156,0.9082033 -0.0024,0.0012 -0.00346,8.53e-4 -0.00586,0.002 -0.00328,0.0016 -0.012435,0.0082 -0.015625,0.0098 -0.050698,0.02504 -0.057682,0.03073 -0.1386719,0.05859 -0.020247,0.007 -0.1164672,0.03305 -0.1171875,0.0332 -3.601e-4,8.4e-5 -0.2595855,0.02149 -0.2597656,0.02149 l -0.3281244,-0.07235 -0.085937,-0.03906 0.4609375,-0.886719 c 0,0 -0.2241481,-0.072871 -0.4472656,-0.1445313 z m 0.4472656,2.1132811 a 1,1 0 0 1 1,1 1,1 0 0 1 -1,1 1,1 0 0 1 -1,-1 1,1 0 0 1 1,-1 z m 5.9999998,0 a 1,1 0 0 1 1,1 1,1 0 0 1 -1,1 1,1 0 0 1 -1,-1 1,1 0 0 1 1,-1 z"/>
 <circle fill="currentColor" class="ColorScheme-Highlight" cx="13.5" cy="3.5" r="1.5"/>
</svg>
