<svg xmlns="http://www.w3.org/2000/svg" width="22" height="22" version="1.1">
 <defs>
  <style id="current-color-scheme" type="text/css">
   .ColorScheme-Text { color: #e5112a; } .ColorScheme-Highlight { color: #1AD6AB; }
  </style>
  <linearGradient id="arrongin" x1="0%" x2="0%" y1="0%" y2="100%">
   <stop offset="0%" style="stop-color:#dd9b44"/>
   <stop offset="100%" style="stop-color:#ad6c16"/>
  </linearGradient>
  <linearGradient id="aurora" x1="0%" x2="0%" y1="0%" y2="100%">
   <stop offset="0%" style="stop-color:#09D4DF"/>
   <stop offset="100%" style="stop-color:#9269F4"/>
  </linearGradient>
  <linearGradient id="cyberneon" x1="0%" x2="0%" y1="0%" y2="100%">
   <stop offset="0" style="stop-color:#0abdc6"/>
   <stop offset="1" style="stop-color:#ea00d9"/>
  </linearGradient>
  <linearGradient id="fitdance" x1="0%" x2="0%" y1="0%" y2="100%">
   <stop offset="0%" style="stop-color:#1AD6AB"/>
   <stop offset="100%" style="stop-color:#329DB6"/>
  </linearGradient>
  <linearGradient id="oomox" x1="0%" x2="0%" y1="0%" y2="100%">
   <stop offset="0%" style="stop-color:#efefe7"/>
   <stop offset="100%" style="stop-color:#8f8f8b"/>
  </linearGradient>
  <linearGradient id="rainblue" x1="0%" x2="0%" y1="0%" y2="100%">
   <stop offset="0%" style="stop-color:#00F260"/>
   <stop offset="100%" style="stop-color:#0575E6"/>
  </linearGradient>
  <linearGradient id="sunrise" x1="0%" x2="0%" y1="0%" y2="100%">
   <stop offset="0%" style="stop-color:#FF8501"/>
   <stop offset="100%" style="stop-color:#FFCB01"/>
  </linearGradient>
  <linearGradient id="telinkrin" x1="0%" x2="0%" y1="0%" y2="100%">
   <stop offset="0%" style="stop-color:#b2ced6"/>
   <stop offset="100%" style="stop-color:#6da5b7"/>
  </linearGradient>
  <linearGradient id="60spsycho" x1="0%" x2="0%" y1="0%" y2="100%">
   <stop offset="0%" style="stop-color:#df5940"/>
   <stop offset="25%" style="stop-color:#d8d15f"/>
   <stop offset="50%" style="stop-color:#e9882a"/>
   <stop offset="100%" style="stop-color:#279362"/>
  </linearGradient>
  <linearGradient id="90ssummer" x1="0%" x2="0%" y1="0%" y2="100%">
   <stop offset="0%" style="stop-color:#f618c7"/>
   <stop offset="20%" style="stop-color:#94ffab"/>
   <stop offset="50%" style="stop-color:#fbfd54"/>
   <stop offset="100%" style="stop-color:#0f83ae"/>
  </linearGradient>
 </defs>
 <path fill="currentColor" class="ColorScheme-Text" d="M 11,3.0000001 A 8,8 0 0 0 3,11 a 8,8 0 0 0 8,8 8,8 0 0 0 8,-8 8,8 0 0 0 -8,-7.9999999 z m -2,2 1,0 0,2 c 0.30317,-0.011 0.701376,-5e-6 1,0 l 0,-2 1,0 0,2 1,0 c 0.566724,0 1.000203,1 1,1.75 C 13.999662,10 13.566724,10.443175 12.816406,10.5 13.999292,10.500955 15,11 15,12.5 c 0,2.133628 -1.107813,2.361524 -3.015625,2.5 l 0.03125,2 -1,0 -0.03125,-2 L 10,15 l 0,1.982422 -1,0.01758 0,-2 c -0.265759,0 -0.597945,-0.01 -0.873047,0 l -1.126953,0 0,-1 c 0,0 0.690631,0.013 0.675781,0 0.321569,-0.01 0.306584,-0.359224 0.324219,-0.5 L 8,8.5488302 C 7.95236,8.3260692 7.805832,7.9930021 7.345703,8.0000021 7.359423,7.9850071 7,8.0000021 7,8.0000021 l 0,-1 1.066406,0 c 0.235504,0 0.687747,0.01 0.933594,0 l 0,-2 z m 1,3 L 10,10 c 1.269373,0 2.000138,6.6e-5 2,-0.9999999 1.38e-4,-0.9999848 -0.589815,-1 -2,-1 z M 10,11 l 0,3 c 2,0 3.000208,9.9e-5 3,-1.5 2.08e-4,-1.499977 -1,-1.499925 -3,-1.5 z"/>
</svg>
