<svg xmlns="http://www.w3.org/2000/svg" width="22" height="22" version="1.1">
 <defs>
  <style id="current-color-scheme" type="text/css">
   .ColorScheme-Text { color: #e5112a; } .ColorScheme-Highlight { color: #1AD6AB; }
  </style>
  <linearGradient id="arrongin" x1="0%" x2="0%" y1="0%" y2="100%">
   <stop offset="0%" style="stop-color:#dd9b44"/>
   <stop offset="100%" style="stop-color:#ad6c16"/>
  </linearGradient>
  <linearGradient id="aurora" x1="0%" x2="0%" y1="0%" y2="100%">
   <stop offset="0%" style="stop-color:#09D4DF"/>
   <stop offset="100%" style="stop-color:#9269F4"/>
  </linearGradient>
  <linearGradient id="cyberneon" x1="0%" x2="0%" y1="0%" y2="100%">
   <stop offset="0" style="stop-color:#0abdc6"/>
   <stop offset="1" style="stop-color:#ea00d9"/>
  </linearGradient>
  <linearGradient id="fitdance" x1="0%" x2="0%" y1="0%" y2="100%">
   <stop offset="0%" style="stop-color:#1AD6AB"/>
   <stop offset="100%" style="stop-color:#329DB6"/>
  </linearGradient>
  <linearGradient id="oomox" x1="0%" x2="0%" y1="0%" y2="100%">
   <stop offset="0%" style="stop-color:#efefe7"/>
   <stop offset="100%" style="stop-color:#8f8f8b"/>
  </linearGradient>
  <linearGradient id="rainblue" x1="0%" x2="0%" y1="0%" y2="100%">
   <stop offset="0%" style="stop-color:#00F260"/>
   <stop offset="100%" style="stop-color:#0575E6"/>
  </linearGradient>
  <linearGradient id="sunrise" x1="0%" x2="0%" y1="0%" y2="100%">
   <stop offset="0%" style="stop-color:#FF8501"/>
   <stop offset="100%" style="stop-color:#FFCB01"/>
  </linearGradient>
  <linearGradient id="telinkrin" x1="0%" x2="0%" y1="0%" y2="100%">
   <stop offset="0%" style="stop-color:#b2ced6"/>
   <stop offset="100%" style="stop-color:#6da5b7"/>
  </linearGradient>
  <linearGradient id="60spsycho" x1="0%" x2="0%" y1="0%" y2="100%">
   <stop offset="0%" style="stop-color:#df5940"/>
   <stop offset="25%" style="stop-color:#d8d15f"/>
   <stop offset="50%" style="stop-color:#e9882a"/>
   <stop offset="100%" style="stop-color:#279362"/>
  </linearGradient>
  <linearGradient id="90ssummer" x1="0%" x2="0%" y1="0%" y2="100%">
   <stop offset="0%" style="stop-color:#f618c7"/>
   <stop offset="20%" style="stop-color:#94ffab"/>
   <stop offset="50%" style="stop-color:#fbfd54"/>
   <stop offset="100%" style="stop-color:#0f83ae"/>
  </linearGradient>
 </defs>
 <g>
  <path fill="currentColor" class="ColorScheme-Text" d="M 16.687,4.1693 16.265,3.8152 C 15.6378,3.28951 14.8478,3.00004 14.0405,3.00004 c -1.0767,0 -2.0813,0.49536 -2.7561,1.3591 l -6.4951,8.3129 c -0.59506,0.7614 -0.86749,1.7174 -0.7683,2.6917 0.09919,0.97423 0.55813,1.8502 1.29351,2.4666 l 0.42245,0.35412 c 0.6271,0.527 1.417,0.816 2.2242,0.816 0.12463,0 0.2507,-0.0069 0.37471,-0.02052 0.93498,-0.10209 1.7769,-0.57264 2.3681,-1.322 0.002,-0.0024 0.0031,-0.0038 4.3821,-5.6076 0.77987,-0.9983 0.63022,-2.4677 -0.33351,-3.2755 l -0.221,-0.185 c -0.399,-0.3338 -0.9,-0.5176 -1.413,-0.5176 -0.68362,0 -1.3214,0.31457 -1.75,0.86301 l -4.3736,5.5976 c -0.28578,0.36585 -0.23097,0.90435 0.12227,1.2004 0.14618,0.12248 0.33012,0.18995 0.51791,0.18995 0.25017,0 0.48383,-0.11528 0.64114,-0.31655 l 4.3733,-5.598 c 0.11441,-0.14638 0.28483,-0.23035 0.46749,-0.23035 0.13882,0 0.26915,0.047767 0.37695,0.13812 l 0.22146,0.18567 c 0.12442,0.10427 0.20218,0.25276 0.21902,0.4182 0.01679,0.16545 -0.02933,0.32751 -0.13005,0.45629 l -4.3687,5.5915 c -0.36073,0.46139 -0.89771,0.72592 -1.4733,0.72597 -0.4315,0 -0.85374,-0.1547 -1.189,-0.43573 L 6.351,16.50429 c -0.3918,-0.328 -0.6376,-0.796 -0.6905,-1.317 -0.0531,-0.521 0.0929,-1.032 0.411,-1.439 l 6.4959,-8.3131 c 0.36073,-0.46164 0.89788,-0.72644 1.4737,-0.72644 0.43155,0 0.85383,0.1547 1.189,0.43564 l 0.4224,0.35403 c 0.81151,0.68017 0.93746,1.9173 0.28082,2.7577 -0.13848,0.17727 -0.20202,0.3997 -0.17894,0.62645 0.02312,0.22671 0.13009,0.43059 0.30113,0.57393 0.14622,0.12252 0.33016,0.19004 0.51796,0.19004 0.25017,0 0.48379,-0.11537 0.64105,-0.31659 0.59419,-0.76041 0.86673,-1.7164 0.766605,-2.692875 C 17.881,5.6606 17.422,4.7845 16.687,4.1693 Z"/>
 </g>
</svg>
