<svg xmlns="http://www.w3.org/2000/svg" width="22" height="22" version="1.1">
 <defs>
  <style id="current-color-scheme" type="text/css">
   .ColorScheme-Text { color: #e5112a; } .ColorScheme-Highlight { color: #1AD6AB; }
  </style>
  <linearGradient id="arrongin" x1="0%" x2="0%" y1="0%" y2="100%">
   <stop offset="0%" style="stop-color:#dd9b44"/>
   <stop offset="100%" style="stop-color:#ad6c16"/>
  </linearGradient>
  <linearGradient id="aurora" x1="0%" x2="0%" y1="0%" y2="100%">
   <stop offset="0%" style="stop-color:#09D4DF"/>
   <stop offset="100%" style="stop-color:#9269F4"/>
  </linearGradient>
  <linearGradient id="cyberneon" x1="0%" x2="0%" y1="0%" y2="100%">
   <stop offset="0" style="stop-color:#0abdc6"/>
   <stop offset="1" style="stop-color:#ea00d9"/>
  </linearGradient>
  <linearGradient id="fitdance" x1="0%" x2="0%" y1="0%" y2="100%">
   <stop offset="0%" style="stop-color:#1AD6AB"/>
   <stop offset="100%" style="stop-color:#329DB6"/>
  </linearGradient>
  <linearGradient id="oomox" x1="0%" x2="0%" y1="0%" y2="100%">
   <stop offset="0%" style="stop-color:#efefe7"/>
   <stop offset="100%" style="stop-color:#8f8f8b"/>
  </linearGradient>
  <linearGradient id="rainblue" x1="0%" x2="0%" y1="0%" y2="100%">
   <stop offset="0%" style="stop-color:#00F260"/>
   <stop offset="100%" style="stop-color:#0575E6"/>
  </linearGradient>
  <linearGradient id="sunrise" x1="0%" x2="0%" y1="0%" y2="100%">
   <stop offset="0%" style="stop-color:#FF8501"/>
   <stop offset="100%" style="stop-color:#FFCB01"/>
  </linearGradient>
  <linearGradient id="telinkrin" x1="0%" x2="0%" y1="0%" y2="100%">
   <stop offset="0%" style="stop-color:#b2ced6"/>
   <stop offset="100%" style="stop-color:#6da5b7"/>
  </linearGradient>
  <linearGradient id="60spsycho" x1="0%" x2="0%" y1="0%" y2="100%">
   <stop offset="0%" style="stop-color:#df5940"/>
   <stop offset="25%" style="stop-color:#d8d15f"/>
   <stop offset="50%" style="stop-color:#e9882a"/>
   <stop offset="100%" style="stop-color:#279362"/>
  </linearGradient>
  <linearGradient id="90ssummer" x1="0%" x2="0%" y1="0%" y2="100%">
   <stop offset="0%" style="stop-color:#f618c7"/>
   <stop offset="20%" style="stop-color:#94ffab"/>
   <stop offset="50%" style="stop-color:#fbfd54"/>
   <stop offset="100%" style="stop-color:#0f83ae"/>
  </linearGradient>
 </defs>
 <path fill="currentColor" class="ColorScheme-Text" d="M 3 3 C 3.625289 3.9191748 4.0814606 5.6621576 4.3378906 7.6816406 C 3.4662891 8.6649316 3.0008959 9.819243 3 11 C 3.00265 12.214174 3.4964048 13.399175 4.4160156 14.398438 C 4.1963716 16.38357 3.740364 18.093055 3 19 C 5.101032 19 7.0025374 18.106296 8.3808594 16.662109 C 9.2226815 16.883472 10.107941 16.997678 11 17 C 15.418278 17 19 14.313708 19 11 C 19 7.686291 15.418278 5 11 5 C 10.107941 5.0023218 9.2226815 5.1165275 8.3808594 5.3378906 C 7.0025374 3.8937041 5.101032 3 3 3 z M 11 7 A 6 4 0 0 1 11.652344 7.0253906 C 11.656844 7.0257316 11.661546 7.0250426 11.666016 7.0253906 A 6 4 0 0 1 11.722656 7.03125 A 6 4 0 0 1 16.898438 10.279297 C 16.901537 10.290467 16.907136 10.30131 16.910156 10.3125 A 6 4 0 0 1 17 11 A 6 4 0 0 1 16.916016 11.642578 C 16.909216 11.669978 16.904174 11.697299 16.896484 11.724609 A 6 4 0 0 1 16.625 12.375 A 6 4 0 0 1 12.324219 14.896484 C 12.320219 14.89712 12.31652 14.897737 12.3125 14.898438 A 6 4 0 0 1 12.28125 14.902344 A 6 4 0 0 1 11.798828 14.958984 C 11.720998 14.966284 11.643292 14.973316 11.564453 14.978516 A 6 4 0 0 1 11.015625 15 L 11.005859 15 A 6 4 0 0 1 11 15 A 6 4 0 0 1 8.4160156 14.603516 L 7.7480469 14.427734 L 6.9335938 15.28125 C 6.7192646 15.505821 6.4358454 15.623794 6.1933594 15.808594 C 6.2543494 15.405874 6.3577169 15.04013 6.4042969 14.619141 L 6.5039062 13.712891 L 6.2578125 13.445312 A 6 4 0 0 1 5.0605469 11.533203 C 5.0556069 11.509793 5.0530971 11.486271 5.0488281 11.462891 A 6 4 0 0 1 5 11 A 6 4 0 0 1 5.046875 10.523438 C 5.050385 10.504528 5.0565949 10.485727 5.0605469 10.466797 A 6 4 0 0 1 11 7 z M 8 10 C 7.4477153 10 7 10.447715 7 11 C 7 11.552285 7.4477153 12 8 12 C 8.5522847 12 9 11.552285 9 11 C 9 10.447715 8.5522847 10 8 10 z M 11 10 C 10.447715 10 10 10.447715 10 11 C 10 11.552285 10.447715 12 11 12 C 11.552285 12 12 11.552285 12 11 C 12 10.447715 11.552285 10 11 10 z M 14 10 C 13.447715 10 13 10.447715 13 11 C 13 11.552285 13.447715 12 14 12 C 14.552285 12 15 11.552285 15 11 C 15 10.447715 14.552285 10 14 10 z M 19 16 A 2 2 0 0 0 17 18 A 2 2 0 0 0 19 20 A 2 2 0 0 0 21 18 A 2 2 0 0 0 19 16 z"/>
</svg>
