<svg xmlns="http://www.w3.org/2000/svg" width="16" height="16" version="1.1">
 <defs>
   <style id="current-color-scheme" type="text/css">
   .ColorScheme-Text { color: #e5112a; } .ColorScheme-Highlight { color:#5294e2; }
  </style>
  <linearGradient id="arrongin" x1="0%" x2="0%" y1="0%" y2="100%">
   <stop offset="0%" style="stop-color:#dd9b44; stop-opacity:1"/>
   <stop offset="100%" style="stop-color:#ad6c16; stop-opacity:1"/>
  </linearGradient>
  <linearGradient id="aurora" x1="0%" x2="0%" y1="0%" y2="100%">
   <stop offset="0%" style="stop-color:#09D4DF; stop-opacity:1"/>
   <stop offset="100%" style="stop-color:#9269F4; stop-opacity:1"/>
  </linearGradient>
  <linearGradient id="cyberneon" x1="0%" x2="0%" y1="0%" y2="100%">
    <stop offset="0" style="stop-color:#0abdc6; stop-opacity:1"/>
    <stop offset="1" style="stop-color:#ea00d9; stop-opacity:1"/>
  </linearGradient>
  <linearGradient id="fitdance" x1="0%" x2="0%" y1="0%" y2="100%">
   <stop offset="0%" style="stop-color:#1AD6AB; stop-opacity:1"/>
   <stop offset="100%" style="stop-color:#329DB6; stop-opacity:1"/>
  </linearGradient>
  <linearGradient id="oomox" x1="0%" x2="0%" y1="0%" y2="100%">
   <stop offset="0%" style="stop-color:#efefe7; stop-opacity:1"/>
   <stop offset="100%" style="stop-color:#8f8f8b; stop-opacity:1"/>
  </linearGradient>
  <linearGradient id="rainblue" x1="0%" x2="0%" y1="0%" y2="100%">
   <stop offset="0%" style="stop-color:#00F260; stop-opacity:1"/>
   <stop offset="100%" style="stop-color:#0575E6; stop-opacity:1"/>
  </linearGradient>
  <linearGradient id="sunrise" x1="0%" x2="0%" y1="0%" y2="100%">
   <stop offset="0%" style="stop-color: #FF8501; stop-opacity:1"/>
   <stop offset="100%" style="stop-color: #FFCB01; stop-opacity:1"/>
  </linearGradient>
  <linearGradient id="telinkrin" x1="0%" x2="0%" y1="0%" y2="100%">
   <stop offset="0%" style="stop-color: #b2ced6; stop-opacity:1"/>
   <stop offset="100%" style="stop-color: #6da5b7; stop-opacity:1"/>
  </linearGradient>
  <linearGradient id="60spsycho" x1="0%" x2="0%" y1="0%" y2="100%">
   <stop offset="0%" style="stop-color: #df5940; stop-opacity:1"/>
   <stop offset="25%" style="stop-color: #d8d15f; stop-opacity:1"/>
   <stop offset="50%" style="stop-color: #e9882a; stop-opacity:1"/>
   <stop offset="100%" style="stop-color: #279362; stop-opacity:1"/>
  </linearGradient>
  <linearGradient id="90ssummer" x1="0%" x2="0%" y1="0%" y2="100%">
   <stop offset="0%" style="stop-color: #f618c7; stop-opacity:1"/>
   <stop offset="20%" style="stop-color: #94ffab; stop-opacity:1"/>
   <stop offset="50%" style="stop-color: #fbfd54; stop-opacity:1"/>
   <stop offset="100%" style="stop-color: #0f83ae; stop-opacity:1"/>
  </linearGradient>
 </defs>
 <path fill="currentColor" class="ColorScheme-Text" d="M 0.038 0 L 0.661 8.709 L 1.109 14.984 C 1.139 15.402 1.404 15.765 1.793 15.92 C 1.793 15.922 1.793 15.92 1.794 15.92 C 1.857 15.946 1.922 15.966 1.991 15.979 C 1.991 15.98 1.991 15.979 1.991 15.979 C 2.024 15.986 2.06 15.987 2.095 15.99 C 2.129 15.993 2.164 16 2.199 16 L 7.387 16 C 7.457 16 7.527 15.993 7.594 15.979 C 8.079 15.886 8.44 15.478 8.475 14.986 L 8.942 8.449 L 9.547 0 L 0.038 0 Z M 0.82 0.727 L 8.765 0.727 L 8.531 4 L 1.053 4 L 0.82 0.727 Z M 14.957 3.273 C 13.226 3.273 11.708 4.398 11.094 6.04 L 10.865 4.668 C 10.839 4.492 10.69 4.362 10.513 4.358 C 10.404 4.356 10.301 4.403 10.23 4.486 C 10.159 4.569 10.13 4.68 10.149 4.787 L 10.46 6.653 C 10.229 6.704 10.003 6.77 9.786 6.853 L 9.2 15.034 C 9.2 15.041 9.197 15.047 9.196 15.054 C 9.874 15.436 10.639 15.636 11.416 15.636 C 13.924 15.636 15.962 13.598 15.962 11.091 C 15.962 9.209 14.813 7.592 13.179 6.902 C 14.405 6.337 15.334 5.167 15.592 3.716 L 15.636 3.317 L 15.235 3.285 C 15.144 3.28 15.051 3.273 14.957 3.273 Z M 12.325 11.273 C 12.525 11.273 12.689 11.436 12.689 11.636 C 12.689 11.836 12.525 12 12.325 12 C 12.125 12 11.962 11.836 11.962 11.636 C 11.962 11.436 12.125 11.273 12.325 11.273 Z M 13.78 11.273 C 13.98 11.273 14.144 11.436 14.144 11.636 C 14.144 11.836 13.98 12 13.78 12 C 13.58 12 13.416 11.836 13.416 11.636 C 13.416 11.436 13.58 11.273 13.78 11.273 Z M 13.053 12.364 C 13.253 12.364 13.416 12.527 13.416 12.727 C 13.416 12.927 13.253 13.091 13.053 13.091 C 12.853 13.091 12.689 12.927 12.689 12.727 C 12.689 12.527 12.853 12.364 13.053 12.364 Z"/>
</svg>
