<svg xmlns="http://www.w3.org/2000/svg" width="16" height="16" version="1.1">
 <defs>
   <style id="current-color-scheme" type="text/css">
   .ColorScheme-Text { color: #e5112a; } .ColorScheme-Highlight { color:#5294e2; }
  </style>
  <linearGradient id="arrongin" x1="0%" x2="0%" y1="0%" y2="100%">
   <stop offset="0%" style="stop-color:#dd9b44; stop-opacity:1"/>
   <stop offset="100%" style="stop-color:#ad6c16; stop-opacity:1"/>
  </linearGradient>
  <linearGradient id="aurora" x1="0%" x2="0%" y1="0%" y2="100%">
   <stop offset="0%" style="stop-color:#09D4DF; stop-opacity:1"/>
   <stop offset="100%" style="stop-color:#9269F4; stop-opacity:1"/>
  </linearGradient>
  <linearGradient id="cyberneon" x1="0%" x2="0%" y1="0%" y2="100%">
    <stop offset="0" style="stop-color:#0abdc6; stop-opacity:1"/>
    <stop offset="1" style="stop-color:#ea00d9; stop-opacity:1"/>
  </linearGradient>
  <linearGradient id="fitdance" x1="0%" x2="0%" y1="0%" y2="100%">
   <stop offset="0%" style="stop-color:#1AD6AB; stop-opacity:1"/>
   <stop offset="100%" style="stop-color:#329DB6; stop-opacity:1"/>
  </linearGradient>
  <linearGradient id="oomox" x1="0%" x2="0%" y1="0%" y2="100%">
   <stop offset="0%" style="stop-color:#efefe7; stop-opacity:1"/>
   <stop offset="100%" style="stop-color:#8f8f8b; stop-opacity:1"/>
  </linearGradient>
  <linearGradient id="rainblue" x1="0%" x2="0%" y1="0%" y2="100%">
   <stop offset="0%" style="stop-color:#00F260; stop-opacity:1"/>
   <stop offset="100%" style="stop-color:#0575E6; stop-opacity:1"/>
  </linearGradient>
  <linearGradient id="sunrise" x1="0%" x2="0%" y1="0%" y2="100%">
   <stop offset="0%" style="stop-color: #FF8501; stop-opacity:1"/>
   <stop offset="100%" style="stop-color: #FFCB01; stop-opacity:1"/>
  </linearGradient>
  <linearGradient id="telinkrin" x1="0%" x2="0%" y1="0%" y2="100%">
   <stop offset="0%" style="stop-color: #b2ced6; stop-opacity:1"/>
   <stop offset="100%" style="stop-color: #6da5b7; stop-opacity:1"/>
  </linearGradient>
  <linearGradient id="60spsycho" x1="0%" x2="0%" y1="0%" y2="100%">
   <stop offset="0%" style="stop-color: #df5940; stop-opacity:1"/>
   <stop offset="25%" style="stop-color: #d8d15f; stop-opacity:1"/>
   <stop offset="50%" style="stop-color: #e9882a; stop-opacity:1"/>
   <stop offset="100%" style="stop-color: #279362; stop-opacity:1"/>
  </linearGradient>
  <linearGradient id="90ssummer" x1="0%" x2="0%" y1="0%" y2="100%">
   <stop offset="0%" style="stop-color: #f618c7; stop-opacity:1"/>
   <stop offset="20%" style="stop-color: #94ffab; stop-opacity:1"/>
   <stop offset="50%" style="stop-color: #fbfd54; stop-opacity:1"/>
   <stop offset="100%" style="stop-color: #0f83ae; stop-opacity:1"/>
  </linearGradient>
 </defs>
 <path fill="currentColor" class="ColorScheme-Text" d="M 0,1.15e-5 V 16 l 1.06667,-1.1e-5 v -1.230773 l 1.06666,1.3e-5 V 14.769632 16 H 3.2 h 9.6 1.06667 v -1.230379 -4.05e-4 h 1.06666 v 1.230773 H 16 V 0 H 14.93333 V 1.2307719 H 13.86667 V 1.2303565 0 H 3.2 2.13333 v 1.2303565 4.269e-4 L 1.06667,1.2307719 V 0 Z m 3.2,1.2307604 h 9.6 V 7.3846082 H 3.2 Z m -2.13333,1.2307603 1.06666,1.16e-5 v 1.2307719 l -1.06666,-1.16e-5 z m 12.8,1.16e-5 h 1.06666 v 1.2307719 h -1.06666 z m -12.8,2.4615322 1.06666,1.15e-5 v 1.2307604 l -1.06666,-1.16e-5 z m 12.8,1.15e-5 h 1.06666 v 1.2307604 h -1.06666 z m -12.8,2.4615207 1.06666,1.16e-5 v 0.2051306 0.8201069 0.2055345 l -1.06666,-1.16e-5 z m 12.8,1.16e-5 h 1.06666 v 1.230772 H 13.86667 Z M 3.2,8.6153802 h 9.6 V 14.769216 H 3.2 Z m -2.13333,1.2307608 1.06666,1.1e-5 v 1.230771 l -1.06666,-1.1e-5 z m 12.8,1.1e-5 h 1.06666 v 1.230771 h -1.06666 z m -12.8,2.461533 1.06666,1.1e-5 v 1.23076 l -1.06666,-1.1e-5 z m 12.8,1.1e-5 h 1.06666 v 1.23076 h -1.06666 z"/>
</svg>
