<svg xmlns="http://www.w3.org/2000/svg" width="16" height="16" version="1.1">
 <defs>
   <style id="current-color-scheme" type="text/css">
   .ColorScheme-Text { color: #e5112a; } .ColorScheme-Highlight { color:#5294e2; }
  </style>
  <linearGradient id="arrongin" x1="0%" x2="0%" y1="0%" y2="100%">
   <stop offset="0%" style="stop-color:#dd9b44; stop-opacity:1"/>
   <stop offset="100%" style="stop-color:#ad6c16; stop-opacity:1"/>
  </linearGradient>
  <linearGradient id="aurora" x1="0%" x2="0%" y1="0%" y2="100%">
   <stop offset="0%" style="stop-color:#09D4DF; stop-opacity:1"/>
   <stop offset="100%" style="stop-color:#9269F4; stop-opacity:1"/>
  </linearGradient>
  <linearGradient id="cyberneon" x1="0%" x2="0%" y1="0%" y2="100%">
    <stop offset="0" style="stop-color:#0abdc6; stop-opacity:1"/>
    <stop offset="1" style="stop-color:#ea00d9; stop-opacity:1"/>
  </linearGradient>
  <linearGradient id="fitdance" x1="0%" x2="0%" y1="0%" y2="100%">
   <stop offset="0%" style="stop-color:#1AD6AB; stop-opacity:1"/>
   <stop offset="100%" style="stop-color:#329DB6; stop-opacity:1"/>
  </linearGradient>
  <linearGradient id="oomox" x1="0%" x2="0%" y1="0%" y2="100%">
   <stop offset="0%" style="stop-color:#efefe7; stop-opacity:1"/>
   <stop offset="100%" style="stop-color:#8f8f8b; stop-opacity:1"/>
  </linearGradient>
  <linearGradient id="rainblue" x1="0%" x2="0%" y1="0%" y2="100%">
   <stop offset="0%" style="stop-color:#00F260; stop-opacity:1"/>
   <stop offset="100%" style="stop-color:#0575E6; stop-opacity:1"/>
  </linearGradient>
  <linearGradient id="sunrise" x1="0%" x2="0%" y1="0%" y2="100%">
   <stop offset="0%" style="stop-color: #FF8501; stop-opacity:1"/>
   <stop offset="100%" style="stop-color: #FFCB01; stop-opacity:1"/>
  </linearGradient>
  <linearGradient id="telinkrin" x1="0%" x2="0%" y1="0%" y2="100%">
   <stop offset="0%" style="stop-color: #b2ced6; stop-opacity:1"/>
   <stop offset="100%" style="stop-color: #6da5b7; stop-opacity:1"/>
  </linearGradient>
  <linearGradient id="60spsycho" x1="0%" x2="0%" y1="0%" y2="100%">
   <stop offset="0%" style="stop-color: #df5940; stop-opacity:1"/>
   <stop offset="25%" style="stop-color: #d8d15f; stop-opacity:1"/>
   <stop offset="50%" style="stop-color: #e9882a; stop-opacity:1"/>
   <stop offset="100%" style="stop-color: #279362; stop-opacity:1"/>
  </linearGradient>
  <linearGradient id="90ssummer" x1="0%" x2="0%" y1="0%" y2="100%">
   <stop offset="0%" style="stop-color: #f618c7; stop-opacity:1"/>
   <stop offset="20%" style="stop-color: #94ffab; stop-opacity:1"/>
   <stop offset="50%" style="stop-color: #fbfd54; stop-opacity:1"/>
   <stop offset="100%" style="stop-color: #0f83ae; stop-opacity:1"/>
  </linearGradient>
 </defs>
 <path fill="currentColor" class="ColorScheme-Text" d="m 2.481484,-0.08386075 c -0.161438,0.0337 -0.321259,0.0681 -0.465469,0.11095 -0.184038,0.0547 -0.354453,0.11731 -0.5121471,0.18875 -0.157694,0.0714 -0.302677,0.15174 -0.43595,0.24182 -0.1332729,0.0901 -0.2547959,0.18994 -0.3655699,0.30057 -0.110774,0.11063 -0.210808,0.23202 -0.301006,0.36512995 -0.0902,0.13311 -0.17057,0.27786 -0.242114,0.43537 -0.06024,0.13263 -0.110957,0.27954 -0.159228,0.43072 0.02977,-0.0276 0.05318,-0.055 0.08521,-0.0829 0.71557,-0.6199 1.848878,-0.67105 3.2655549,-0.14643 2.5177985,0.93236 5.3296135,2.45764 8.1928961,6.09181 0.27023,0.34299 0.460293,0.7874505 0.690715,1.0747605 -0.733373,0.0131 -1.84655,-0.0583 -2.8054645,-0.23063 C 5.8214695,8.0477992 2.424104,6.5741192 0.831182,4.9123992 c -0.142638,-0.1488 -0.259154,-0.25955 -0.259708,-0.24721 -6.33e-4,0.0127 0.321164,0.66531 0.714272,1.44905 l 0.591106,1.37023 0.878589,0.42548 c 0.955678,0.4694505 2.1729504,1.0176805 4.8168284,2.1701608 2.8964666,1.26256 4.1936776,1.86951 5.5089956,2.57905 1.054108,0.56864 2.125475,1.26234 2.666014,1.72534 0.184185,0.1584 0.226957,0.19882 0.243132,0.2155 6.7e-4,-0.0119 0.01366,-0.0704 0.0083,-0.11749 -0.03501,-0.25708 -0.236799,-1.27345 -0.424171,-2.21422 -0.04053,-0.21309 -0.08488,-0.42546 -0.127092,-0.63822 -0.01942,-0.097 -0.04482,-0.22867 -0.06209,-0.31496 -0.02748,-0.13726 -0.05888,-0.26686 -0.0871,-0.40207 -0.397215,-1.9072703 -0.859725,-3.8008608 -1.447593,-5.6648808 -0.27109,-0.849 -0.441981,-1.26023 -0.721107,-1.76402 -0.103306,-0.18651 -1.244437,-0.95128 -1.440758,-1.0541 -0.0032,-0.002 -0.0158,-0.0161 -0.01803,-0.0166 l -0.0013,0.003 c -0.0072,-0.004 -0.05751,-0.0379 -0.06078,-0.0387 l -0.0015,10e-4 c -0.0025,-8.5e-4 -0.0036,-10e-4 -0.0042,-10e-4 -0.01156,0.0106 0.07771,0.20501 0.17406,0.37444 0.986909,1.73571 1.635058,4.55343 1.305378,6.0116905 -0.0055,0.0227 -0.0095,0.0457 -0.01788,0.0691 -3.72e-4,0.001 -0.0011,0.003 -0.0015,0.004 v 0.001 c -6.7e-4,-2.2e-4 -0.0035,-0.001 -0.0041,-0.001 -0.0077,0.003 -0.02886,0.007 -0.03868,0.01 -0.269198,-0.34537 -0.505414,-0.8544005 -0.834383,-1.2847305 -2.020477,-2.59392 -5.7100354,-6.40353 -9.5203779,-7.60294995 -0.06542,-0.0186 -0.121003,-0.0266 -0.184094,-0.0428 z"/>
</svg>
