<svg xmlns="http://www.w3.org/2000/svg" width="16" height="16" version="1.1">
 <defs>
   <style id="current-color-scheme" type="text/css">
   .ColorScheme-Text { color: #e5112a; } .ColorScheme-Highlight { color:#5294e2; }
  </style>
  <linearGradient id="arrongin" x1="0%" x2="0%" y1="0%" y2="100%">
   <stop offset="0%" style="stop-color:#dd9b44; stop-opacity:1"/>
   <stop offset="100%" style="stop-color:#ad6c16; stop-opacity:1"/>
  </linearGradient>
  <linearGradient id="aurora" x1="0%" x2="0%" y1="0%" y2="100%">
   <stop offset="0%" style="stop-color:#09D4DF; stop-opacity:1"/>
   <stop offset="100%" style="stop-color:#9269F4; stop-opacity:1"/>
  </linearGradient>
  <linearGradient id="cyberneon" x1="0%" x2="0%" y1="0%" y2="100%">
    <stop offset="0" style="stop-color:#0abdc6; stop-opacity:1"/>
    <stop offset="1" style="stop-color:#ea00d9; stop-opacity:1"/>
  </linearGradient>
  <linearGradient id="fitdance" x1="0%" x2="0%" y1="0%" y2="100%">
   <stop offset="0%" style="stop-color:#1AD6AB; stop-opacity:1"/>
   <stop offset="100%" style="stop-color:#329DB6; stop-opacity:1"/>
  </linearGradient>
  <linearGradient id="oomox" x1="0%" x2="0%" y1="0%" y2="100%">
   <stop offset="0%" style="stop-color:#efefe7; stop-opacity:1"/>
   <stop offset="100%" style="stop-color:#8f8f8b; stop-opacity:1"/>
  </linearGradient>
  <linearGradient id="rainblue" x1="0%" x2="0%" y1="0%" y2="100%">
   <stop offset="0%" style="stop-color:#00F260; stop-opacity:1"/>
   <stop offset="100%" style="stop-color:#0575E6; stop-opacity:1"/>
  </linearGradient>
  <linearGradient id="sunrise" x1="0%" x2="0%" y1="0%" y2="100%">
   <stop offset="0%" style="stop-color: #FF8501; stop-opacity:1"/>
   <stop offset="100%" style="stop-color: #FFCB01; stop-opacity:1"/>
  </linearGradient>
  <linearGradient id="telinkrin" x1="0%" x2="0%" y1="0%" y2="100%">
   <stop offset="0%" style="stop-color: #b2ced6; stop-opacity:1"/>
   <stop offset="100%" style="stop-color: #6da5b7; stop-opacity:1"/>
  </linearGradient>
  <linearGradient id="60spsycho" x1="0%" x2="0%" y1="0%" y2="100%">
   <stop offset="0%" style="stop-color: #df5940; stop-opacity:1"/>
   <stop offset="25%" style="stop-color: #d8d15f; stop-opacity:1"/>
   <stop offset="50%" style="stop-color: #e9882a; stop-opacity:1"/>
   <stop offset="100%" style="stop-color: #279362; stop-opacity:1"/>
  </linearGradient>
  <linearGradient id="90ssummer" x1="0%" x2="0%" y1="0%" y2="100%">
   <stop offset="0%" style="stop-color: #f618c7; stop-opacity:1"/>
   <stop offset="20%" style="stop-color: #94ffab; stop-opacity:1"/>
   <stop offset="50%" style="stop-color: #fbfd54; stop-opacity:1"/>
   <stop offset="100%" style="stop-color: #0f83ae; stop-opacity:1"/>
  </linearGradient>
 </defs>
 <path fill="currentColor" class="ColorScheme-Text" d="M 5.727 0.006 C 5.474 0.027 5.379 0.066 5.283 0.188 C 5.181 0.318 5.093 0.348 4.719 0.383 C 4.435 0.41 4.235 0.462 4.158 0.529 C 4.012 0.66 3.873 0.978 3.873 1.185 C 3.873 1.331 3.888 1.338 4.112 1.302 C 4.244 1.281 4.449 1.296 4.573 1.337 C 4.755 1.397 4.782 1.427 4.724 1.497 C 4.683 1.547 4.541 1.533 4.386 1.533 C 4.074 1.533 4.042 1.621 4.258 1.873 L 4.398 2.036 L 4.639 1.907 C 4.913 1.76 5.106 1.795 5.299 1.903 C 5.372 1.945 5.703 1.994 6.035 2.013 C 6.598 2.044 6.448 2.057 6.585 2.216 C 6.673 2.319 6.795 2.463 6.794 2.581 C 6.793 2.981 6.514 3.688 5.686 4.673 C 5.267 5.172 5.184 6.085 5.183 6.326 C 5.183 6.4 5.157 6.475 5.125 6.495 C 5.065 6.532 5.027 6.303 4.97 5.55 C 4.913 4.804 4.774 4.387 4.453 4.056 C 4.264 3.861 4.089 3.745 3.914 3.698 C 3.607 3.616 3.589 3.554 3.838 3.45 C 3.939 3.408 4.022 3.35 4.022 3.321 C 4.022 3.247 3.742 3.186 3.562 3.221 C 3.376 3.256 3.372 3.223 3.538 3.046 C 3.866 2.697 3.308 2.778 2.73 3.163 C 2.211 3.509 1.894 3.865 1.846 4.122 C 1.815 4.284 1.718 4.426 1.5 4.627 C 1.096 4.999 1.005 5.188 1.057 5.535 C 1.133 6.041 1.191 6.082 1.427 5.802 C 1.574 5.626 1.918 5.443 1.981 5.506 C 2.042 5.567 1.883 5.787 1.698 5.896 C 1.464 6.035 1.467 6.132 1.706 6.216 C 1.933 6.295 1.976 6.274 2.104 6.019 C 2.252 5.726 2.426 5.56 2.671 5.481 C 2.792 5.442 3.02 5.29 3.178 5.143 C 3.337 4.997 3.496 4.877 3.533 4.877 C 3.658 4.877 3.89 5.169 3.953 5.405 C 3.987 5.535 4.046 6.052 4.083 6.554 C 4.197 8.103 4.352 8.322 4.916 9.549 C 5.096 9.943 5.244 10.304 5.244 10.352 C 5.244 10.417 4.771 10.45 4.413 10.481 C 3.564 10.555 3.208 10.843 3.146 11.507 C 3.124 11.747 3.145 11.886 3.227 12.042 C 3.396 12.363 3.497 12.357 3.452 12.028 C 3.413 11.746 3.516 11.567 3.592 11.782 C 3.648 11.941 3.864 12.167 3.96 12.167 C 4.056 12.167 4.057 12.159 3.981 11.958 C 3.914 11.781 3.955 11.764 4.125 11.893 C 4.289 12.017 4.344 11.957 4.302 11.699 C 4.236 11.291 4.887 10.936 5.661 11.166 C 6.037 11.277 6.141 11.287 6.307 11.227 C 6.624 11.112 7.074 11.14 7.281 11.314 C 7.489 11.489 7.32 11.947 7.175 12.155 C 7.027 12.366 6.796 12.455 6.217 12.526 C 5.924 12.562 5.619 12.633 5.54 12.686 C 5.381 12.79 5.253 13.023 5.253 13.21 C 5.253 13.371 5.326 13.361 5.486 13.177 C 5.559 13.093 5.674 13.025 5.741 13.025 C 5.895 13.025 5.895 13.058 5.742 13.252 C 5.632 13.392 5.569 13.758 5.655 13.758 C 5.674 13.758 5.78 13.662 5.891 13.544 C 6.002 13.426 6.151 13.33 6.223 13.33 C 6.375 13.33 6.383 13.377 6.26 13.54 C 6.168 13.662 6.134 14.066 6.216 14.062 C 6.241 14.061 6.317 13.972 6.385 13.863 C 6.5 13.68 6.644 13.587 7.128 13.382 C 7.235 13.337 7.643 12.96 8.035 12.546 C 8.734 11.806 8.726 11.789 8.706 11.537 L 8.685 11.281 L 9.394 11.206 C 10.022 10.982 10.356 10.964 10.721 11.154 C 11.206 11.405 11.664 11.841 11.598 12.25 C 11.549 12.552 11.383 13.123 10.965 13.164 C 9.969 13.145 8.581 13.784 8.737 14.712 C 8.867 15.336 9.675 15.749 10.485 15.934 C 10.74 15.992 11.081 16.012 11.509 15.993 C 12.582 15.948 13.269 15.893 13.843 15.302 C 14.054 15.086 14.325 14.57 14.424 14.318 L 14.956 14.609 L 14.956 13.209 L 13.565 13.82 L 14.295 14.24 C 14.209 14.311 14.096 14.485 13.969 14.617 C 13.404 15.201 13.017 15.199 12.311 15.294 C 11.731 15.372 11.096 15.29 10.701 15.115 C 10.377 14.972 10.127 14.662 10.127 14.432 C 10.127 14.215 10.385 14.017 10.697 14.006 C 11.541 13.978 11.699 13.901 11.699 13.901 C 12.307 13.716 12.883 12.659 12.883 11.994 C 12.883 11.825 12.909 11.616 12.942 11.53 C 12.99 11.403 12.962 11.294 12.79 10.935 C 12.647 10.636 12.592 10.586 12.618 10.486 C 12.648 10.364 12.591 10.273 12.296 9.975 C 11.977 9.652 11.946 9.5 12.013 9.392 C 12.054 9.326 12.089 9.257 12.089 9.241 C 12.089 9.224 11.93 9.13 11.736 9.033 C 11.543 8.935 11.317 8.8 11.235 8.733 C 11.104 8.627 11.095 8.597 11.167 8.51 C 11.212 8.455 11.234 8.394 11.214 8.374 C 11.194 8.355 10.965 8.299 10.704 8.249 C 10.115 8.138 10.023 8.09 9.999 7.878 C 9.988 7.786 9.958 7.712 9.932 7.715 C 9.906 7.718 9.613 7.771 9.282 7.832 C 8.63 7.951 8.482 7.935 8.482 7.743 C 8.482 7.584 8.483 7.583 8.075 7.801 C 7.409 8.157 6.869 7.939 7.036 7.379 C 7.078 7.238 7.192 7.007 7.289 6.865 C 7.678 6.299 8.42 6.119 9.783 6.056 C 10.543 6.021 10.885 5.987 11.108 5.886 C 11.46 5.727 12.268 5.168 12.418 4.888 C 12.483 4.768 12.556 4.67 12.582 4.67 C 12.71 4.67 12.875 4.409 12.875 4.206 C 12.875 3.931 13 3.951 13.075 4.238 C 13.148 4.523 13.273 4.383 13.266 4.024 C 13.259 3.721 13.305 3.686 13.441 3.89 C 13.589 4.11 13.637 3.963 13.553 3.552 C 13.472 3.156 12.942 2.187 12.722 1.909 C 12.653 1.821 12.102 1.733 12.008 1.714 C 11.879 1.687 11.709 1.58 11.524 1.272 C 11.385 1.041 11.205 0.826 11.105 0.773 C 10.947 0.691 10.902 0.692 10.661 0.784 C 10.369 0.896 10.343 0.942 10.494 1.067 C 10.616 1.168 10.822 1.634 10.822 1.809 C 10.822 1.933 10.819 1.934 10.694 1.82 C 10.624 1.757 10.428 1.608 10.378 1.489 C 10.291 1.283 10.283 1.279 10.199 1.393 C 10.045 1.602 10.088 1.892 10.296 2.04 C 10.5 2.185 10.684 2.505 10.753 2.834 C 10.777 2.952 10.849 3.134 10.913 3.239 C 11.151 3.633 11.105 4.552 10.738 4.726 C 10.61 4.787 10.198 4.842 9.565 4.882 C 8.108 4.974 7.446 5.162 6.748 5.849 C 6.414 6.177 6.392 6.189 6.431 6.023 C 6.495 5.755 6.522 5.398 7.126 4.608 C 7.901 3.594 8.001 3.35 8 2.623 C 7.998 2.002 7.714 1.294 7.056 0.76 C 6.92 0.666 6.824 0.565 6.842 0.535 C 6.86 0.506 6.986 0.482 7.122 0.482 C 7.408 0.482 7.414 0.387 7.137 0.226 C 6.907 0.091 6.142 -0.028 5.727 0.006 L 5.727 0.006 Z"/>
</svg>
