<svg xmlns="http://www.w3.org/2000/svg" width="16" height="16" version="1.1">
 <defs>
   <style id="current-color-scheme" type="text/css">
   .ColorScheme-Text { color: #00aa00; } .ColorScheme-Highlight { color:#5294e2; }
  </style>
  <linearGradient id="arrongin" x1="0%" x2="0%" y1="0%" y2="100%">
   <stop offset="0%" style="stop-color:#dd9b44; stop-opacity:1"/>
   <stop offset="100%" style="stop-color:#ad6c16; stop-opacity:1"/>
  </linearGradient>
  <linearGradient id="aurora" x1="0%" x2="0%" y1="0%" y2="100%">
   <stop offset="0%" style="stop-color:#09D4DF; stop-opacity:1"/>
   <stop offset="100%" style="stop-color:#9269F4; stop-opacity:1"/>
  </linearGradient>
  <linearGradient id="cyberneon" x1="0%" x2="0%" y1="0%" y2="100%">
    <stop offset="0" style="stop-color:#0abdc6; stop-opacity:1"/>
    <stop offset="1" style="stop-color:#ea00d9; stop-opacity:1"/>
  </linearGradient>
  <linearGradient id="fitdance" x1="0%" x2="0%" y1="0%" y2="100%">
   <stop offset="0%" style="stop-color:#1AD6AB; stop-opacity:1"/>
   <stop offset="100%" style="stop-color:#329DB6; stop-opacity:1"/>
  </linearGradient>
  <linearGradient id="oomox" x1="0%" x2="0%" y1="0%" y2="100%">
   <stop offset="0%" style="stop-color:#00aa00; stop-opacity:1"/>
   <stop offset="100%" style="stop-color:#00cc00; stop-opacity:1"/>
  </linearGradient>
  <linearGradient id="rainblue" x1="0%" x2="0%" y1="0%" y2="100%">
   <stop offset="0%" style="stop-color:#00F260; stop-opacity:1"/>
   <stop offset="100%" style="stop-color:#0575E6; stop-opacity:1"/>
  </linearGradient>
  <linearGradient id="sunrise" x1="0%" x2="0%" y1="0%" y2="100%">
   <stop offset="0%" style="stop-color: #FF8501; stop-opacity:1"/>
   <stop offset="100%" style="stop-color: #FFCB01; stop-opacity:1"/>
  </linearGradient>
  <linearGradient id="telinkrin" x1="0%" x2="0%" y1="0%" y2="100%">
   <stop offset="0%" style="stop-color: #b2ced6; stop-opacity:1"/>
   <stop offset="100%" style="stop-color: #6da5b7; stop-opacity:1"/>
  </linearGradient>
  <linearGradient id="60spsycho" x1="0%" x2="0%" y1="0%" y2="100%">
   <stop offset="0%" style="stop-color: #df5940; stop-opacity:1"/>
   <stop offset="25%" style="stop-color: #d8d15f; stop-opacity:1"/>
   <stop offset="50%" style="stop-color: #e9882a; stop-opacity:1"/>
   <stop offset="100%" style="stop-color: #279362; stop-opacity:1"/>
  </linearGradient>
  <linearGradient id="90ssummer" x1="0%" x2="0%" y1="0%" y2="100%">
   <stop offset="0%" style="stop-color: #f618c7; stop-opacity:1"/>
   <stop offset="20%" style="stop-color: #94ffab; stop-opacity:1"/>
   <stop offset="50%" style="stop-color: #fbfd54; stop-opacity:1"/>
   <stop offset="100%" style="stop-color: #0f83ae; stop-opacity:1"/>
  </linearGradient>
 </defs>
 <rect fill="url(#oomox)" class="ColorScheme-Text" width="4.625" height="3.594" x="16.34" y=".34" transform="matrix(1,0,0,1,0,0)"/>
 <path fill="url(#oomox)" class="ColorScheme-Text" fill-rule="evenodd" d="M 1.897 9.308 C 2.074 8.962 2.291 8.62 2.535 8.281 C 2.27 7.994 2.026 7.693 1.812 7.371 C 1.408 7.679 1.048 8.046 0.722 8.459 C 1.105 8.789 1.495 9.076 1.897 9.308 Z M 0.594 9.133 C 0.682 9.798 0.874 10.428 1.148 11.013 C 1.273 10.611 1.432 10.207 1.645 9.806 C 1.302 9.615 0.95 9.386 0.594 9.133 Z M 0.5 7.726 C 0.523 7.03 0.642 6.358 0.838 5.721 L 0.838 5.721 C 1.03 6.126 1.24 6.514 1.486 6.875 C 1.133 7.134 0.809 7.421 0.5 7.726 Z M 4.787 2.664 C 4.661 3.021 4.576 3.379 4.516 3.738 C 4.126 3.717 3.746 3.723 3.379 3.771 C 3.328 3.313 3.343 2.849 3.411 2.351 C 3.891 2.427 4.353 2.524 4.787 2.664 Z M 4.013 1.657 C 4.478 1.353 4.985 1.11 5.519 0.925 C 5.333 1.264 5.171 1.603 5.044 1.943 C 4.676 1.815 4.336 1.723 4.013 1.657 Z M 2.674 2.72 C 2.25 3.148 1.879 3.628 1.571 4.149 L 1.571 4.149 C 1.93 4.02 2.299 3.92 2.683 3.868 C 2.637 3.474 2.641 3.093 2.674 2.72 Z M 2.139 10.089 C 1.892 10.545 1.684 11.053 1.504 11.595 C 2.062 11.744 2.607 11.853 3.14 11.889 C 3.145 11.455 3.157 11.026 3.182 10.605 C 2.84 10.461 2.493 10.294 2.139 10.089 Z M 6.727 2.577 L 7.444 1.726 C 7.1 1.448 6.722 1.185 6.308 0.934 C 6.079 1.365 5.878 1.785 5.732 2.189 C 6.039 2.285 6.377 2.423 6.727 2.577 Z M 3.698 10.788 C 3.974 11.223 4.318 11.611 4.711 11.942 L 4.711 11.942 C 4.359 11.971 4.007 11.974 3.652 11.947 C 3.64 11.526 3.657 11.143 3.698 10.788 Z M 3.231 13.749 C 2.658 13.305 2.174 12.76 1.776 12.153 C 2.196 12.261 2.649 12.336 3.139 12.356 C 3.165 12.817 3.19 13.278 3.231 13.749 Z M 3.794 14.208 C 4.99 15.027 6.438 15.504 7.996 15.504 C 12.138 15.504 15.5 12.141 15.5 8 C 15.5 3.859 12.138 0.496 7.996 0.496 C 7.719 0.496 7.444 0.512 7.172 0.534 L 7.172 0.534 C 7.753 0.966 8.225 1.37 8.59 1.747 L 7.457 2.901 C 7.634 2.882 7.814 2.873 7.996 2.873 C 10.826 2.873 13.124 5.17 13.124 8 C 13.124 10.83 10.826 13.127 7.996 13.127 C 7.002 13.127 6.073 12.844 5.294 12.343 C 4.727 12.404 4.176 12.426 3.665 12.385 C 3.666 12.936 3.717 13.552 3.794 14.208 Z M 2.754 4.555 C 2.277 4.621 1.742 4.761 1.17 4.946 C 1.385 5.494 1.648 6.011 1.975 6.497 C 2.302 6.249 2.654 6.023 3.025 5.811 C 2.894 5.383 2.798 4.963 2.754 4.555 Z M 3.606 5.37 C 3.818 5.011 4.078 4.684 4.375 4.394 C 4.081 4.382 3.769 4.394 3.432 4.438 C 3.468 4.743 3.528 5.05 3.606 5.37 Z M 3.114 6.434 C 2.977 6.86 2.896 7.311 2.877 7.778 L 2.877 7.778 C 2.662 7.52 2.461 7.257 2.273 6.988 C 2.539 6.783 2.821 6.601 3.114 6.434 Z M 6.258 3.199 C 5.899 3.309 5.568 3.477 5.262 3.679 L 5.262 3.679 C 5.312 3.412 5.381 3.141 5.47 2.866 C 5.741 2.962 6.003 3.072 6.258 3.199 Z M 3.299 10.064 C 3.119 9.641 2.991 9.191 2.927 8.721 C 2.732 8.996 2.548 9.288 2.38 9.603 C 2.68 9.783 2.987 9.932 3.299 10.064 Z"/>
</svg>
