<svg xmlns="http://www.w3.org/2000/svg" width="16" height="16" version="1.1">
 <defs>
   <style id="current-color-scheme" type="text/css">
   .ColorScheme-Text { color: #00aa00; } .ColorScheme-Highlight { color:#5294e2; }
  </style>
  <linearGradient id="arrongin" x1="0%" x2="0%" y1="0%" y2="100%">
   <stop offset="0%" style="stop-color:#dd9b44; stop-opacity:1"/>
   <stop offset="100%" style="stop-color:#ad6c16; stop-opacity:1"/>
  </linearGradient>
  <linearGradient id="aurora" x1="0%" x2="0%" y1="0%" y2="100%">
   <stop offset="0%" style="stop-color:#09D4DF; stop-opacity:1"/>
   <stop offset="100%" style="stop-color:#9269F4; stop-opacity:1"/>
  </linearGradient>
  <linearGradient id="cyberneon" x1="0%" x2="0%" y1="0%" y2="100%">
    <stop offset="0" style="stop-color:#0abdc6; stop-opacity:1"/>
    <stop offset="1" style="stop-color:#ea00d9; stop-opacity:1"/>
  </linearGradient>
  <linearGradient id="fitdance" x1="0%" x2="0%" y1="0%" y2="100%">
   <stop offset="0%" style="stop-color:#1AD6AB; stop-opacity:1"/>
   <stop offset="100%" style="stop-color:#329DB6; stop-opacity:1"/>
  </linearGradient>
  <linearGradient id="oomox" x1="0%" x2="0%" y1="0%" y2="100%">
   <stop offset="0%" style="stop-color:#00aa00; stop-opacity:1"/>
   <stop offset="100%" style="stop-color:#00cc00; stop-opacity:1"/>
  </linearGradient>
  <linearGradient id="rainblue" x1="0%" x2="0%" y1="0%" y2="100%">
   <stop offset="0%" style="stop-color:#00F260; stop-opacity:1"/>
   <stop offset="100%" style="stop-color:#0575E6; stop-opacity:1"/>
  </linearGradient>
  <linearGradient id="sunrise" x1="0%" x2="0%" y1="0%" y2="100%">
   <stop offset="0%" style="stop-color: #FF8501; stop-opacity:1"/>
   <stop offset="100%" style="stop-color: #FFCB01; stop-opacity:1"/>
  </linearGradient>
  <linearGradient id="telinkrin" x1="0%" x2="0%" y1="0%" y2="100%">
   <stop offset="0%" style="stop-color: #b2ced6; stop-opacity:1"/>
   <stop offset="100%" style="stop-color: #6da5b7; stop-opacity:1"/>
  </linearGradient>
  <linearGradient id="60spsycho" x1="0%" x2="0%" y1="0%" y2="100%">
   <stop offset="0%" style="stop-color: #df5940; stop-opacity:1"/>
   <stop offset="25%" style="stop-color: #d8d15f; stop-opacity:1"/>
   <stop offset="50%" style="stop-color: #e9882a; stop-opacity:1"/>
   <stop offset="100%" style="stop-color: #279362; stop-opacity:1"/>
  </linearGradient>
  <linearGradient id="90ssummer" x1="0%" x2="0%" y1="0%" y2="100%">
   <stop offset="0%" style="stop-color: #f618c7; stop-opacity:1"/>
   <stop offset="20%" style="stop-color: #94ffab; stop-opacity:1"/>
   <stop offset="50%" style="stop-color: #fbfd54; stop-opacity:1"/>
   <stop offset="100%" style="stop-color: #0f83ae; stop-opacity:1"/>
  </linearGradient>
 </defs>
 <path fill="url(#oomox)" class="ColorScheme-Text" fill-rule="evenodd" d="M 2.347 7.052 L 2.882 7.052 L 2.882 6.652 C 3.347 6.574 3.701 6.242 3.701 5.712 C 3.701 5.035 3.181 4.814 2.753 4.649 C 2.444 4.533 2.177 4.423 2.177 4.179 C 2.177 3.976 2.329 3.857 2.578 3.857 C 2.84 3.857 3.006 4.009 3.08 4.188 L 3.572 4.022 C 3.48 3.709 3.25 3.456 2.882 3.373 L 2.882 3 L 2.347 3 L 2.347 3.368 C 1.878 3.451 1.62 3.792 1.62 4.179 C 1.62 4.787 2.099 4.985 2.518 5.146 C 2.845 5.275 3.139 5.408 3.139 5.717 C 3.139 6.002 2.946 6.159 2.651 6.159 C 2.361 6.159 2.126 5.956 2.002 5.671 L 1.5 5.855 C 1.634 6.256 1.928 6.546 2.347 6.643 L 2.347 7.052 L 2.347 7.052 L 2.347 7.052 Z M 4.203 7.435 L 6.671 7.435 L 6.671 7.002 L 4.203 7.002 L 4.203 7.435 L 4.203 7.435 L 4.203 7.435 Z M 10.084 5.316 L 10.19 4.626 L 10.77 4.626 L 10.669 5.316 L 10.084 5.316 L 10.084 5.316 L 10.084 5.316 Z M 12.032 7.435 L 14.5 7.435 L 14.5 7.002 L 12.032 7.002 L 12.032 7.435 L 12.032 7.435 L 12.032 7.435 Z M 9.416 6.62 L 9.886 6.62 L 10.015 5.777 L 10.6 5.777 L 10.471 6.62 L 10.94 6.62 L 11.069 5.777 L 11.571 5.777 L 11.64 5.316 L 11.138 5.316 L 11.244 4.626 L 11.755 4.626 L 11.82 4.17 L 11.313 4.17 L 11.428 3.396 L 10.963 3.396 L 10.839 4.17 L 10.259 4.17 L 10.374 3.396 L 9.904 3.396 L 9.789 4.17 L 9.287 4.17 L 9.218 4.626 L 9.715 4.626 L 9.614 5.316 L 9.108 5.316 L 9.038 5.777 L 9.545 5.777 L 9.416 6.62 L 9.416 6.62 L 9.416 6.62 Z M 4 2 L 12 2 C 13.259 2.015 14.087 2.06 14.453 2.262 C 14.637 2.363 14.742 2.475 14.84 2.734 C 14.937 2.994 15 3.408 15 4 L 15 12 C 15 12.592 14.937 13.006 14.84 13.266 C 14.742 13.526 14.637 13.637 14.453 13.738 C 14.087 13.94 13.259 13.985 12 14 L 4.006 14 L 4 14 C 2.741 13.985 1.911 13.94 1.545 13.738 C 1.362 13.637 1.258 13.526 1.16 13.266 C 1.063 13.006 1 12.592 1 12 L 1 4 C 1 3.408 1.063 2.994 1.16 2.734 C 1.258 2.475 1.362 2.363 1.545 2.262 C 1.911 2.06 2.741 2.015 4 2 L 4 2 L 4 2 Z M 3.994 1 C 2.736 1.015 1.815 0.969 1.063 1.385 C 0.686 1.592 0.389 1.944 0.225 2.383 C 0.06 2.822 0 3.342 0 4 L 0 12 C 0 12.658 0.06 13.179 0.225 13.617 C 0.389 14.056 0.686 14.408 1.063 14.615 C 1.815 15.031 2.736 14.986 3.994 15 L 3.998 15 L 12.002 15 L 12.006 15 C 13.264 14.986 14.185 15.031 14.938 14.615 C 15.314 14.408 15.611 14.056 15.776 13.617 C 15.94 13.179 16 12.658 16 12 L 16 4 C 16 3.342 15.94 2.822 15.775 2.383 C 15.611 1.944 15.314 1.592 14.938 1.385 C 14.185 0.969 13.264 1.015 12.006 1 L 12.002 1 L 3.998 1 L 3.994 1 L 3.994 1 Z"/>
</svg>
