<svg xmlns="http://www.w3.org/2000/svg" width="16" height="16" version="1.1">
 <defs>
   <style id="current-color-scheme" type="text/css">
   .ColorScheme-Text { color: #00aa00; } .ColorScheme-Highlight { color:#5294e2; }
  </style>
  <linearGradient id="arrongin" x1="0%" x2="0%" y1="0%" y2="100%">
   <stop offset="0%" style="stop-color:#dd9b44; stop-opacity:1"/>
   <stop offset="100%" style="stop-color:#ad6c16; stop-opacity:1"/>
  </linearGradient>
  <linearGradient id="aurora" x1="0%" x2="0%" y1="0%" y2="100%">
   <stop offset="0%" style="stop-color:#09D4DF; stop-opacity:1"/>
   <stop offset="100%" style="stop-color:#9269F4; stop-opacity:1"/>
  </linearGradient>
  <linearGradient id="cyberneon" x1="0%" x2="0%" y1="0%" y2="100%">
    <stop offset="0" style="stop-color:#0abdc6; stop-opacity:1"/>
    <stop offset="1" style="stop-color:#ea00d9; stop-opacity:1"/>
  </linearGradient>
  <linearGradient id="fitdance" x1="0%" x2="0%" y1="0%" y2="100%">
   <stop offset="0%" style="stop-color:#1AD6AB; stop-opacity:1"/>
   <stop offset="100%" style="stop-color:#329DB6; stop-opacity:1"/>
  </linearGradient>
  <linearGradient id="oomox" x1="0%" x2="0%" y1="0%" y2="100%">
   <stop offset="0%" style="stop-color:#00aa00; stop-opacity:1"/>
   <stop offset="100%" style="stop-color:#00cc00; stop-opacity:1"/>
  </linearGradient>
  <linearGradient id="rainblue" x1="0%" x2="0%" y1="0%" y2="100%">
   <stop offset="0%" style="stop-color:#00F260; stop-opacity:1"/>
   <stop offset="100%" style="stop-color:#0575E6; stop-opacity:1"/>
  </linearGradient>
  <linearGradient id="sunrise" x1="0%" x2="0%" y1="0%" y2="100%">
   <stop offset="0%" style="stop-color: #FF8501; stop-opacity:1"/>
   <stop offset="100%" style="stop-color: #FFCB01; stop-opacity:1"/>
  </linearGradient>
  <linearGradient id="telinkrin" x1="0%" x2="0%" y1="0%" y2="100%">
   <stop offset="0%" style="stop-color: #b2ced6; stop-opacity:1"/>
   <stop offset="100%" style="stop-color: #6da5b7; stop-opacity:1"/>
  </linearGradient>
  <linearGradient id="60spsycho" x1="0%" x2="0%" y1="0%" y2="100%">
   <stop offset="0%" style="stop-color: #df5940; stop-opacity:1"/>
   <stop offset="25%" style="stop-color: #d8d15f; stop-opacity:1"/>
   <stop offset="50%" style="stop-color: #e9882a; stop-opacity:1"/>
   <stop offset="100%" style="stop-color: #279362; stop-opacity:1"/>
  </linearGradient>
  <linearGradient id="90ssummer" x1="0%" x2="0%" y1="0%" y2="100%">
   <stop offset="0%" style="stop-color: #f618c7; stop-opacity:1"/>
   <stop offset="20%" style="stop-color: #94ffab; stop-opacity:1"/>
   <stop offset="50%" style="stop-color: #fbfd54; stop-opacity:1"/>
   <stop offset="100%" style="stop-color: #0f83ae; stop-opacity:1"/>
  </linearGradient>
 </defs>
 <path fill="url(#oomox)" class="ColorScheme-Text" d="m 2.6563571,15.115541 c 0,0 0.948421,0.446162 2.210891,0.603583 0.511264,0.06382 2.456527,0.286594 3.948016,0.280764 0,0 1.8164969,0.0016 2.8191899,-0.140318 1.049186,-0.148995 1.643519,-0.339241 1.974361,-0.718806 0.0087,-0.09054 0.159674,-0.385514 -0.248163,-0.670002 -1.042645,-0.727342 -2.390499,-0.926422 -5.0086029,-1.548227 -2.895116,-0.727879 -3.80469,-1.424942 -4.237004,-1.929284 -0.409794,-0.505569 0.121338,-1.5554823 2.454184,-2.0705283 1.181151,-0.287431 5.3358239,-0.436533 5.3358239,-0.436533 -1.262117,-1.001993 -3.3870969,-2.699656 -3.8713849,-3.081161 -0.424765,-0.334597 -1.10929,-0.848065 -1.18283,-1.306921 -0.09925,-0.446673 0.603825,-0.661734 0.976088,-0.686557 1.199359,-0.08268 2.8372199,0.234545 4.2929989,0.52404 0.731779,0.145493 0.860254,0.124114 0.860254,0.124114 1.042204,0.04958 2.059969,-0.672928 2.018601,-1.822717 -0.0084,-1.16629 -1.381489,-2.10155303 -2.672066,-2.14237503 -1.305584,-0.0049 -4.3993109,-0.0049 -4.3993109,-0.0049 3.4906849,0.719646 4.2503729,1.08261103 4.4324569,1.50279903 0.107841,0.24829 -0.17943,0.494989 -1.14111,0.446813 -1.04742,-0.05244 -3.1935219,-0.306082 -3.1935219,-0.306082 -2.042686,-0.314319 -3.288973,-0.612099 -3.909468,0.19851 -0.405302,0.529582 0.05791,1.174613 0.239882,1.555046 0.810621,1.414501 2.035604,2.384938 2.92507,3.068801 0.334689,0.257325 1.356517,0.827164 1.356517,0.827164 -3.176284,-0.868522 -5.884113,-0.3805 -7.488829,0.463223 -1.84460495,1.09188 -1.52905295,2.9343653 1.397882,4.6569883 1.728816,1.017459 2.766256,1.506152 5.596761,1.853712 1.654479,0.263806 1.9894799,0.371753 1.9769289,0.509459 -0.01774,0.193884 -2.0467559,0.267366 -2.5801019,0.304146 -1.356958,0.09354 -4.866382,-0.05396 -4.883885,-0.05396 z"/>
</svg>
