<svg xmlns="http://www.w3.org/2000/svg" width="16" height="16" version="1.1">
 <defs>
   <style id="current-color-scheme" type="text/css">
   .ColorScheme-Text { color: #00aa00; } .ColorScheme-Highlight { color:#5294e2; }
  </style>
  <linearGradient id="arrongin" x1="0%" x2="0%" y1="0%" y2="100%">
   <stop offset="0%" style="stop-color:#dd9b44; stop-opacity:1"/>
   <stop offset="100%" style="stop-color:#ad6c16; stop-opacity:1"/>
  </linearGradient>
  <linearGradient id="aurora" x1="0%" x2="0%" y1="0%" y2="100%">
   <stop offset="0%" style="stop-color:#09D4DF; stop-opacity:1"/>
   <stop offset="100%" style="stop-color:#9269F4; stop-opacity:1"/>
  </linearGradient>
  <linearGradient id="cyberneon" x1="0%" x2="0%" y1="0%" y2="100%">
    <stop offset="0" style="stop-color:#0abdc6; stop-opacity:1"/>
    <stop offset="1" style="stop-color:#ea00d9; stop-opacity:1"/>
  </linearGradient>
  <linearGradient id="fitdance" x1="0%" x2="0%" y1="0%" y2="100%">
   <stop offset="0%" style="stop-color:#1AD6AB; stop-opacity:1"/>
   <stop offset="100%" style="stop-color:#329DB6; stop-opacity:1"/>
  </linearGradient>
  <linearGradient id="oomox" x1="0%" x2="0%" y1="0%" y2="100%">
   <stop offset="0%" style="stop-color:#00aa00; stop-opacity:1"/>
   <stop offset="100%" style="stop-color:#00cc00; stop-opacity:1"/>
  </linearGradient>
  <linearGradient id="rainblue" x1="0%" x2="0%" y1="0%" y2="100%">
   <stop offset="0%" style="stop-color:#00F260; stop-opacity:1"/>
   <stop offset="100%" style="stop-color:#0575E6; stop-opacity:1"/>
  </linearGradient>
  <linearGradient id="sunrise" x1="0%" x2="0%" y1="0%" y2="100%">
   <stop offset="0%" style="stop-color: #FF8501; stop-opacity:1"/>
   <stop offset="100%" style="stop-color: #FFCB01; stop-opacity:1"/>
  </linearGradient>
  <linearGradient id="telinkrin" x1="0%" x2="0%" y1="0%" y2="100%">
   <stop offset="0%" style="stop-color: #b2ced6; stop-opacity:1"/>
   <stop offset="100%" style="stop-color: #6da5b7; stop-opacity:1"/>
  </linearGradient>
  <linearGradient id="60spsycho" x1="0%" x2="0%" y1="0%" y2="100%">
   <stop offset="0%" style="stop-color: #df5940; stop-opacity:1"/>
   <stop offset="25%" style="stop-color: #d8d15f; stop-opacity:1"/>
   <stop offset="50%" style="stop-color: #e9882a; stop-opacity:1"/>
   <stop offset="100%" style="stop-color: #279362; stop-opacity:1"/>
  </linearGradient>
  <linearGradient id="90ssummer" x1="0%" x2="0%" y1="0%" y2="100%">
   <stop offset="0%" style="stop-color: #f618c7; stop-opacity:1"/>
   <stop offset="20%" style="stop-color: #94ffab; stop-opacity:1"/>
   <stop offset="50%" style="stop-color: #fbfd54; stop-opacity:1"/>
   <stop offset="100%" style="stop-color: #0f83ae; stop-opacity:1"/>
  </linearGradient>
 </defs>
 <path fill="url(#oomox)" class="ColorScheme-Text" d="M 14.815 0.816 C 14.618 0.83 14.424 0.876 14.241 0.953 L 14.239 0.953 C 14.063 1.022 13.229 1.373 11.961 1.905 L 7.417 3.819 C 4.157 5.191 0.952 6.543 0.952 6.543 L 0.99 6.528 C 0.99 6.528 0.769 6.601 0.538 6.759 C 0.396 6.85 0.273 6.969 0.178 7.108 C 0.064 7.274 -0.027 7.529 0.007 7.791 C 0.063 8.236 0.351 8.502 0.557 8.649 C 0.767 8.798 0.966 8.868 0.966 8.868 L 0.971 8.868 L 3.977 9.88 C 4.111 10.313 4.893 12.881 5.08 13.473 C 5.191 13.826 5.299 14.047 5.434 14.216 C 5.499 14.302 5.575 14.374 5.667 14.432 C 5.715 14.459 5.765 14.481 5.818 14.497 L 5.788 14.489 C 5.797 14.492 5.804 14.499 5.811 14.502 C 5.836 14.509 5.852 14.511 5.884 14.516 C 6.359 14.66 6.742 14.365 6.742 14.365 L 6.763 14.347 L 8.538 12.732 L 11.512 15.013 L 11.58 15.042 C 12.199 15.314 12.827 15.163 13.159 14.896 C 13.493 14.627 13.623 14.283 13.623 14.283 L 13.645 14.227 L 15.943 2.453 C 16.008 2.162 16.025 1.89 15.953 1.626 C 15.879 1.359 15.707 1.129 15.472 0.982 C 15.275 0.862 15.046 0.804 14.815 0.816 Z M 14.753 2.077 C 14.751 2.116 14.758 2.112 14.741 2.186 L 14.741 2.193 L 12.464 13.845 C 12.454 13.862 12.438 13.898 12.392 13.934 C 12.344 13.972 12.306 13.996 12.106 13.917 L 8.468 11.128 L 6.271 13.131 L 6.732 10.183 L 12.676 4.643 C 12.921 4.415 12.839 4.367 12.839 4.367 C 12.856 4.088 12.469 4.285 12.469 4.285 L 4.974 8.928 L 4.972 8.916 L 1.38 7.706 L 1.38 7.704 L 1.371 7.702 C 1.377 7.7 1.383 7.698 1.389 7.695 L 1.409 7.685 L 1.428 7.678 C 1.428 7.678 4.635 6.326 7.896 4.954 C 9.528 4.266 11.173 3.574 12.438 3.039 C 13.188 2.724 13.939 2.41 14.691 2.098 C 14.741 2.078 14.717 2.078 14.753 2.078 L 14.753 2.077 Z"/>
</svg>
