<svg xmlns="http://www.w3.org/2000/svg" width="16" height="16" version="1.1">
 <defs>
   <style id="current-color-scheme" type="text/css">
   .ColorScheme-Text { color: #00aa00; } .ColorScheme-Highlight { color: #5294e2; }
  </style>
  <linearGradient id="arrongin" x1="0%" x2="0%" y1="0%" y2="100%">
   <stop offset="0%" style="stop-color: #dd9b44; stop-opacity: 1"/>
   <stop offset="100%" style="stop-color: #ad6c16; stop-opacity: 1"/>
  </linearGradient>
  <linearGradient id="aurora" x1="0%" x2="0%" y1="0%" y2="100%">
   <stop offset="0%" style="stop-color: #09D4DF; stop-opacity: 1"/>
   <stop offset="100%" style="stop-color: #9269F4; stop-opacity: 1"/>
  </linearGradient>
  <linearGradient id="cyberneon" x1="0%" x2="0%" y1="0%" y2="100%">
    <stop offset="0" style="stop-color: #0abdc6; stop-opacity: 1"/>
    <stop offset="1" style="stop-color: #ea00d9; stop-opacity: 1"/>
  </linearGradient>
  <linearGradient id="fitdance" x1="0%" x2="0%" y1="0%" y2="100%">
   <stop offset="0%" style="stop-color: #1AD6AB; stop-opacity: 1"/>
   <stop offset="100%" style="stop-color: #329DB6; stop-opacity: 1"/>
  </linearGradient>
  <linearGradient id="oomox" x1="0%" x2="0%" y1="0%" y2="100%">
   <stop offset="0%" style="stop-color: #00aa00; stop-opacity: 1"/>
   <stop offset="100%" style="stop-color: #00cc00; stop-opacity: 1"/>
  </linearGradient>
  <linearGradient id="rainblue" x1="0%" x2="0%" y1="0%" y2="100%">
   <stop offset="0%" style="stop-color: #00F260; stop-opacity: 1"/>
   <stop offset="100%" style="stop-color: #0575E6; stop-opacity: 1"/>
  </linearGradient>
  <linearGradient id="sunrise" x1="0%" x2="0%" y1="0%" y2="100%">
   <stop offset="0%" style="stop-color: #FF8501; stop-opacity: 1"/>
   <stop offset="100%" style="stop-color: #FFCB01; stop-opacity: 1"/>
  </linearGradient>
  <linearGradient id="telinkrin" x1="0%" x2="0%" y1="0%" y2="100%">
   <stop offset="0%" style="stop-color: #b2ced6; stop-opacity: 1"/>
   <stop offset="100%" style="stop-color: #6da5b7; stop-opacity: 1"/>
  </linearGradient>
  <linearGradient id="60spsycho" x1="0%" x2="0%" y1="0%" y2="100%">
   <stop offset="0%" style="stop-color: #df5940; stop-opacity: 1"/>
   <stop offset="25%" style="stop-color: #d8d15f; stop-opacity: 1"/>
   <stop offset="50%" style="stop-color: #e9882a; stop-opacity: 1"/>
   <stop offset="100%" style="stop-color: #279362; stop-opacity: 1"/>
  </linearGradient>
  <linearGradient id="90ssummer" x1="0%" x2="0%" y1="0%" y2="100%">
   <stop offset="0%" style="stop-color: #f618c7; stop-opacity: 1"/>
   <stop offset="20%" style="stop-color: #94ffab; stop-opacity: 1"/>
   <stop offset="50%" style="stop-color: #fbfd54; stop-opacity: 1"/>
   <stop offset="100%" style="stop-color: #0f83ae; stop-opacity: 1"/>
  </linearGradient>
 </defs>
 <path fill="url(#oomox)" class="ColorScheme-Text" d="M 7.9999985,-1.25e-7 C 6.0224146,-1.25e-7 4.230313,0.30260508 2.8903842,0.81804163 2.2204198,1.0757598 1.6618305,1.3838578 1.2438131,1.7640334 0.8614071,2.1118211 0.599782,2.5479517 0.5558191,3.0330468 H 0.5369411 V 3.1672895 12.83067 c -1.1e-6,0.702979 0.4730387,1.294546 1.1494536,1.745155 0.6764146,0.45061 1.5976688,0.802 2.7184155,1.050869 2.2414918,0.497742 4.9467874,0.497742 7.1882788,0 1.120749,-0.248869 2.041999,-0.600259 2.718416,-1.050869 0.676417,-0.450609 1.149453,-1.042176 1.149454,-1.745155 V 3.1840699 c 6.4e-5,-0.00573 0.0021,-0.011037 0.0021,-0.01678 0,-0.00574 -0.002,-0.01105 -0.0021,-0.01678 V 3.0330468 h -0.01678 C 15.400216,2.5479517 15.138589,2.1118211 14.756184,1.7640334 14.338167,1.3838578 13.779578,1.0757598 13.109612,0.81804163 11.769685,0.30260508 9.9775829,-1.15e-7 7.9999985,-1.25e-7 Z m 0,0.964869755 c 1.8771144,0 3.5752515,0.29882547 4.7614225,0.75511537 0.593086,0.2281448 1.056174,0.4970628 1.344525,0.7593105 0.288351,0.2622477 0.390143,0.4870341 0.390143,0.687994 0,0.2009599 -0.101792,0.4257464 -0.390143,0.6879941 C 13.817595,4.1175313 13.354507,4.3864491 12.761421,4.614594 11.57525,5.0708839 9.8771129,5.3697094 7.9999985,5.3697094 6.1228841,5.3697094 4.4247475,5.0708839 3.2385763,4.614594 2.6454908,4.3864491 2.1824027,4.1175313 1.8940513,3.8552836 1.6057001,3.5930359 1.5039084,3.3682494 1.5039084,3.1672895 c 0,-0.2009599 0.1017917,-0.4257463 0.3901429,-0.687994 C 2.1824027,2.2170478 2.6454908,1.9481299 3.2385763,1.719985 4.4247474,1.263695 6.1228841,0.96486953 7.9999985,0.96486963 Z M 1.5018109,4.7551294 C 1.8859097,5.0473228 2.3393636,5.3045739 2.8903842,5.5165375 4.230313,6.031974 6.0224146,6.3345791 7.9999985,6.3345792 9.9775829,6.3345791 11.769685,6.031974 13.109612,5.5165375 13.659993,5.3048203 14.112223,5.0468759 14.496089,4.7551294 v 1.6339859 c 0,0.2560844 -0.19085,0.5875551 -0.719458,0.9396992 -0.528608,0.352144 -1.354552,0.6817706 -2.393295,0.9124311 -2.0774832,0.4613205 -4.6912899,0.4613205 -6.7687717,0 C 3.5758229,8.0105847 2.7519718,7.6809583 2.2233656,7.3288145 1.6947593,6.9766706 1.5018104,6.6451995 1.5018109,6.3891153 Z m 0,3.2323135 c 0.062911,0.047474 0.1173953,0.099971 0.1845838,0.1447305 0.6764146,0.4506101 1.5976688,0.8040957 2.7184155,1.0529664 2.2414918,0.4977398 4.9467874,0.4977398 7.1882788,0 1.120749,-0.2488702 2.041999,-0.6023565 2.718416,-1.0529664 0.06719,-0.044759 0.121673,-0.097256 0.184584,-0.1447305 v 1.6214007 c 0,0.256084 -0.19085,0.5875554 -0.719458,0.9396994 -0.528608,0.352144 -1.354552,0.683868 -2.393295,0.914528 -2.0774832,0.461321 -4.6912899,0.461321 -6.7687717,0 C 3.5758229,11.232411 2.7519718,10.900687 2.2233656,10.548543 1.6947593,10.196399 1.5018104,9.8649276 1.5018109,9.6088436 Z m 0,3.2218261 c 0.062784,0.0474 0.1175417,0.100069 0.1845838,0.144731 0.6764146,0.45061 1.5976688,0.804095 2.7184155,1.052966 2.2414918,0.49774 4.9467874,0.49774 7.1882788,0 1.120749,-0.248871 2.041999,-0.602356 2.718416,-1.052966 0.06704,-0.04466 0.1218,-0.09733 0.184584,-0.144731 v 1.621401 c 0,0.256085 -0.19085,0.587555 -0.719458,0.939699 -0.528608,0.352143 -1.354552,0.683868 -2.393295,0.914528 -2.0774832,0.46132 -4.6912899,0.46132 -6.7687717,0 C 3.5758229,14.454237 2.7519718,14.122512 2.2233656,13.770369 1.6947593,13.418225 1.5018104,13.086753 1.5018109,12.83067 Z"/>
</svg>
