<svg xmlns="http://www.w3.org/2000/svg" width="22" height="22" version="1.1">
 <defs>
  <style id="current-color-scheme" type="text/css">
   .ColorScheme-Text { color: #E7E7E7; } .ColorScheme-Highlight { color: #1AD6AB; }
  </style>
  <linearGradient id="arrongin" x1="0%" x2="0%" y1="0%" y2="100%">
   <stop offset="0%" style="stop-color:#dd9b44"/>
   <stop offset="100%" style="stop-color:#ad6c16"/>
  </linearGradient>
  <linearGradient id="aurora" x1="0%" x2="0%" y1="0%" y2="100%">
   <stop offset="0%" style="stop-color:#09D4DF"/>
   <stop offset="100%" style="stop-color:#9269F4"/>
  </linearGradient>
  <linearGradient id="cyberneon" x1="0%" x2="0%" y1="0%" y2="100%">
   <stop offset="0" style="stop-color:#0abdc6"/>
   <stop offset="1" style="stop-color:#ea00d9"/>
  </linearGradient>
  <linearGradient id="fitdance" x1="0%" x2="0%" y1="0%" y2="100%">
   <stop offset="0%" style="stop-color:#1AD6AB"/>
   <stop offset="100%" style="stop-color:#329DB6"/>
  </linearGradient>
  <linearGradient id="oomox" x1="0%" x2="0%" y1="0%" y2="100%">
   <stop offset="0%" style="stop-color:#efefe7"/>
   <stop offset="100%" style="stop-color:#8f8f8b"/>
  </linearGradient>
  <linearGradient id="rainblue" x1="0%" x2="0%" y1="0%" y2="100%">
   <stop offset="0%" style="stop-color:#00F260"/>
   <stop offset="100%" style="stop-color:#0575E6"/>
  </linearGradient>
  <linearGradient id="sunrise" x1="0%" x2="0%" y1="0%" y2="100%">
   <stop offset="0%" style="stop-color:#FF8501"/>
   <stop offset="100%" style="stop-color:#FFCB01"/>
  </linearGradient>
  <linearGradient id="telinkrin" x1="0%" x2="0%" y1="0%" y2="100%">
   <stop offset="0%" style="stop-color:#b2ced6"/>
   <stop offset="100%" style="stop-color:#6da5b7"/>
  </linearGradient>
  <linearGradient id="60spsycho" x1="0%" x2="0%" y1="0%" y2="100%">
   <stop offset="0%" style="stop-color:#df5940"/>
   <stop offset="25%" style="stop-color:#d8d15f"/>
   <stop offset="50%" style="stop-color:#e9882a"/>
   <stop offset="100%" style="stop-color:#279362"/>
  </linearGradient>
  <linearGradient id="90ssummer" x1="0%" x2="0%" y1="0%" y2="100%">
   <stop offset="0%" style="stop-color:#f618c7"/>
   <stop offset="20%" style="stop-color:#94ffab"/>
   <stop offset="50%" style="stop-color:#fbfd54"/>
   <stop offset="100%" style="stop-color:#0f83ae"/>
  </linearGradient>
 </defs>
 <path fill="currentColor" class="ColorScheme-Text" opacity="0.3" d="m 11,2.999966 c -4.4183,0 -8,3.5817003 -8,8 0,2.607097 1.2531965,4.916373 3.1835938,6.376953 0.03539,-0.01963 0.072592,-0.03605 0.1074218,-0.05664 C 6.8640203,16.980863 7.4135433,16.581944 7.9433594,16.156216 6.1832049,15.110447 5,13.195734 5,10.999966 c 0,-3.3137247 2.686275,-6.0000001 6,-6 0.725915,0 1.418426,0.1348852 2.0625,0.3710938 0.0026,-0.5442422 -0.02297,-1.0879949 -0.117188,-1.6230469 0.05353,-0.1862907 0.07509,-0.2805062 0.115235,-0.4667969 3.09e-4,-0.00153 -3.05e-4,-0.0024 0,-0.00391 C 12.401947,3.1018812 11.713831,2.999966 11,2.999966 Z m 2.177734,0.3066406 c 0.158054,0.7229626 0.213691,1.4560413 0.212891,2.1914063 C 15.51401,6.4220231 17,8.5364374 17,10.999966 c 0,3.3135 -2.6865,6 -6,6 -0.968367,0 -1.879631,-0.235131 -2.6894531,-0.642578 -0.00877,0.0072 -0.01662,0.01629 -0.025391,0.02344 C 7.7061853,16.851913 7.0814138,17.237679 6.4199219,17.5527 7.7180365,18.46179 9.294935,18.999966 11,18.999966 c 4.418,0 8,-3.582 8,-8 0,-3.6623318 -2.463947,-6.7440277 -5.822266,-7.6933594 z"/>
 <path fill="currentColor" class="ColorScheme-Text" d="m 13.115234,3.0019191 c -0.01912,0.1098135 -0.03175,0.1655615 -0.05469,0.2792969 -0.04015,0.1862907 -0.0617,0.2805062 -0.115235,0.4667969 0.156771,0.8902736 0.160249,1.8069685 0.07422,2.703125 -0.01964,0.2041821 -0.04801,0.4079682 -0.08398,0.6113281 -0.01873,0.046093 0.373047,0.037109 0.373047,0.037109 0.02959,-0.2111748 0.05105,-0.4222258 0.06055,-0.6308594 0.05162,-1.1608854 0.04625,-2.329443 -0.253907,-3.4667969 z M 12.916016,7.109341 C 12.534593,7.4478395 12.149281,7.8066615 11.863281,8.2148098 11.173678,9.200798 10.734487,10.447004 9.84375,11.298794 9.48171,11.64361 9.05987,11.944281 8.6269531,12.20895 8.854905,12.24249 9.107984,12.2653 9.335938,12.21875 8.8762021,12.509514 8.3617782,12.786143 7.9863281,13.173828 7.8005187,13.363943 7.6077972,13.558289 7.4277344,13.755859 7.5733172,13.666389 7.7436902,13.564401 7.9199219,13.5625 c 0.2911653,-0.0037 0.8496094,-0.326172 0.8496093,-0.326172 0,0 -1.0514205,0.676332 -1.4824218,1.095703 -0.2451918,0.238576 -0.5217103,0.466157 -0.7324219,0.738281 -0.1896425,0.246011 -0.1933594,0.240235 -0.1933594,0.240235 0.3543788,-0.130472 0.7143186,-0.265557 1.0859375,-0.345703 -0.1494138,0.05405 -0.2217177,0.08053 -0.3730468,0.130859 -0.3294767,0.130472 -0.7066937,0.228557 -0.9882813,0.392578 -0.5076238,0.296356 -1.0108179,1.057212 -1.3632813,1.558594 -0.187725,0.26467 -0.4971456,0.489594 -0.6503906,0.761719 -0.088116,0.156566 -0.079665,0.320323 -0.058594,0.361328 0.1551604,0.285172 0.9302142,0.526483 1.3554687,0.630859 C 5.8805953,18.923797 6.4185328,18.979498 6.9453122,19 7.2575486,18.93477 7.5806792,18.805872 7.8105466,18.585938 8.1227831,18.287716 8.5738433,17.999103 8.7539059,17.613281 8.8573465,17.395207 9.015772,17.26738 9.021484,17.263672 c -0.2356138,0.389551 -0.4937655,0.767137 -0.7734374,1.125 -0.1340893,0.169613 -0.3183594,0.384766 -0.3183594,0.384766 0.3122364,-0.111832 0.6388226,-0.295376 0.9453125,-0.345704 0.1896413,-0.03169 0.3993403,-0.119707 0.5449223,-0.253906 0.15516,-0.143518 0.389423,-0.200411 0.527344,-0.347656 0.381196,-0.408188 0.637996,-1.030293 1.001953,-1.458984 0.04597,-0.05405 0.155949,-0.194987 0.240234,-0.310547 0.06705,-0.09319 0.121094,-0.171875 0.121094,-0.171875 -0.193471,0.43801 -0.387021,0.883629 -0.601563,1.308593 -0.0019,0.0038 -0.002,0.008 -0.0039,0.01172 -0.06513,0.117425 -0.162114,0.23165 -0.261719,0.337891 -0.01342,0.0149 -0.02565,0.02805 -0.03906,0.04297 -0.01723,0.01862 -0.0072,0.01884 0.01953,0.0039 0.388859,-0.205026 0.731897,-0.517641 1.103516,-0.763672 0.01149,-0.0074 0.02364,-0.01393 0.03125,-0.01953 0.277757,-0.160293 0.52355,-0.444483 0.728515,-0.671875 0.193472,-0.214346 0.292029,-0.344715 0.34375,-0.650391 0.0019,-0.0093 0.002,-0.01802 0.0039,-0.02734 0.06321,-0.441738 0.130745,-0.882302 0.224609,-1.320312 0.01915,-0.09133 0.03343,-0.168962 0.04492,-0.230469 0,-0.0074 0.002,-0.01798 0.0039,-0.02539 0.0019,-0.0149 0.0059,-0.02992 0.0078,-0.04297 0.0019,-0.0074 0.002,-0.01406 0.0039,-0.02149 0.0019,-0.01305 0.004,-0.02388 0.0059,-0.0332 v -0.002 c 0,-0.0056 0.004,-0.02578 0.0059,-0.0332 0.0038,-0.0205 0.0293,-0.09375 0.0293,-0.09375 v 0.0293 0.01758 c -0.01537,0.773508 -0.140246,1.606728 -0.02149,2.367187 0.08812,0.56289 0.138672,0.447266 0.138672,0.447266 0.05172,-0.663539 -0.01721,-1.470324 0.201172,-2.074219 0.147498,-0.408189 0.384317,-0.851142 0.460937,-1.291015 0.07853,-0.451058 0.07594,-0.932291 0.06445,-1.394532 -0.01532,-0.598303 -0.05248,-1.200436 -0.138672,-1.796875 0.08045,0.283309 0.19756,0.580329 0.21289,0.871094 0.01532,0.275852 0.02364,0.560353 0.03125,0.841797 0.06513,-0.346679 0.114488,-0.716086 0.07617,-1.068359 -0.03644,-0.324313 0.02664,-0.655888 -0.0098,-0.97461 C 13.928704,9.211407 13.915204,8.7602453 13.77345,8.3632402 13.637444,7.9755547 13.460875,7.5887271 13.357434,7.1991778 c -0.0097,-0.035937 -0.03412,-0.065095 -0.0625,-0.089844 -0.150269,1.0644461 -0.515311,2.1478742 -0.84961,3.1406252 -0.422507,1.256972 -1.099697,2.319669 -1.736328,3.458984 -0.585013,1.045189 -1.511896,1.928673 -2.4238281,2.671875 -0.7953115,0.647116 -1.6747492,1.141153 -2.6210937,1.498047 -0.2944183,0.109814 -0.6239224,0.148399 -0.9355469,0.158203 -0.2294169,0.0059 -0.3927434,-0.0078 -0.4003906,-0.0078 0.6767797,-0.145111 1.3625832,-0.354052 1.9628906,-0.708985 1.6651839,-0.98636 3.2340037,-2.336875 4.2109377,-4.058593 0.621337,-1.092252 1.208062,-2.16513 1.617188,-3.365235 0.305941,-0.9015956 0.623828,-1.8387632 0.796875,-2.7871092 z"/>
</svg>
