<svg xmlns="http://www.w3.org/2000/svg" width="22" height="22" version="1.1">
 <defs>
  <style id="current-color-scheme" type="text/css">
   .ColorScheme-Text { color: #E7E7E7; } .ColorScheme-Highlight { color: #1AD6AB; }
  </style>
  <linearGradient id="arrongin" x1="0%" x2="0%" y1="0%" y2="100%">
   <stop offset="0%" style="stop-color:#dd9b44"/>
   <stop offset="100%" style="stop-color:#ad6c16"/>
  </linearGradient>
  <linearGradient id="aurora" x1="0%" x2="0%" y1="0%" y2="100%">
   <stop offset="0%" style="stop-color:#09D4DF"/>
   <stop offset="100%" style="stop-color:#9269F4"/>
  </linearGradient>
  <linearGradient id="cyberneon" x1="0%" x2="0%" y1="0%" y2="100%">
   <stop offset="0" style="stop-color:#0abdc6"/>
   <stop offset="1" style="stop-color:#ea00d9"/>
  </linearGradient>
  <linearGradient id="fitdance" x1="0%" x2="0%" y1="0%" y2="100%">
   <stop offset="0%" style="stop-color:#1AD6AB"/>
   <stop offset="100%" style="stop-color:#329DB6"/>
  </linearGradient>
  <linearGradient id="oomox" x1="0%" x2="0%" y1="0%" y2="100%">
   <stop offset="0%" style="stop-color:#efefe7"/>
   <stop offset="100%" style="stop-color:#8f8f8b"/>
  </linearGradient>
  <linearGradient id="rainblue" x1="0%" x2="0%" y1="0%" y2="100%">
   <stop offset="0%" style="stop-color:#00F260"/>
   <stop offset="100%" style="stop-color:#0575E6"/>
  </linearGradient>
  <linearGradient id="sunrise" x1="0%" x2="0%" y1="0%" y2="100%">
   <stop offset="0%" style="stop-color:#FF8501"/>
   <stop offset="100%" style="stop-color:#FFCB01"/>
  </linearGradient>
  <linearGradient id="telinkrin" x1="0%" x2="0%" y1="0%" y2="100%">
   <stop offset="0%" style="stop-color:#b2ced6"/>
   <stop offset="100%" style="stop-color:#6da5b7"/>
  </linearGradient>
  <linearGradient id="60spsycho" x1="0%" x2="0%" y1="0%" y2="100%">
   <stop offset="0%" style="stop-color:#df5940"/>
   <stop offset="25%" style="stop-color:#d8d15f"/>
   <stop offset="50%" style="stop-color:#e9882a"/>
   <stop offset="100%" style="stop-color:#279362"/>
  </linearGradient>
  <linearGradient id="90ssummer" x1="0%" x2="0%" y1="0%" y2="100%">
   <stop offset="0%" style="stop-color:#f618c7"/>
   <stop offset="20%" style="stop-color:#94ffab"/>
   <stop offset="50%" style="stop-color:#fbfd54"/>
   <stop offset="100%" style="stop-color:#0f83ae"/>
  </linearGradient>
 </defs>
 <path fill="currentColor" class="ColorScheme-Text" d="M 3.8007813,8 C 3.3575812,8 3,8.3770191 3,8.8457031 V 18.154297 C 3,18.622981 3.3575812,19 3.8007813,19 H 18.199219 C 18.642419,19 19,18.622981 19,18.154297 V 8.8457031 C 19,8.3770191 18.642419,8 18.199219,8 Z M 7.5,10 A 3.5,3.5 0 0 1 11,13.5 3.5,3.5 0 0 1 14.5,10 3.5,3.5 0 0 1 18,13.5 3.5,3.5 0 0 1 14.5,17 3.5,3.5 0 0 1 11,13.5 3.5,3.5 0 0 1 7.5,17 3.5,3.5 0 0 1 4,13.5 3.5,3.5 0 0 1 7.5,10 Z m 0,2 A 1.5,1.5 0 0 0 6,13.5 1.5,1.5 0 0 0 7.5,15 1.5,1.5 0 0 0 9,13.5 1.5,1.5 0 0 0 7.5,12 Z m 7,0 A 1.5,1.5 0 0 0 13,13.5 1.5,1.5 0 0 0 14.5,15 1.5,1.5 0 0 0 16,13.5 1.5,1.5 0 0 0 14.5,12 Z"/>
 <path fill="currentColor" class="ColorScheme-Text" d="M 3.8007813,3 C 3.3575812,3 3,3.3192878 3,3.7148438 V 7.2851562 C 3,7.6807123 3.3575812,8 3.8007813,8 H 18.199219 C 18.642419,8 19,7.6807122 19,7.2851562 V 3.7148438 C 19,3.3192878 18.642419,3 18.199219,3 Z M 4.8710938,4 H 17.128906 C 17.61144,4 18,4.3018313 18,4.6757812 V 6.3242188 C 18,6.6981687 17.61144,7 17.128906,7 H 4.8710938 C 4.3885597,7 4,6.6981687 4,6.3242188 V 4.6757812 C 4,4.3018312 4.3885597,4 4.8710938,4 Z M 5.5,5 A 0.5,0.5 0 0 0 5,5.5 0.5,0.5 0 0 0 5.5,6 0.5,0.5 0 0 0 6,5.5 0.5,0.5 0 0 0 5.5,5 Z m 2,0 A 0.5,0.5 0 0 0 7,5.5 0.5,0.5 0 0 0 7.5,6 0.5,0.5 0 0 0 8,5.5 0.5,0.5 0 0 0 7.5,5 Z m 2,0 A 0.5,0.5 0 0 0 9,5.5 0.5,0.5 0 0 0 9.5,6 0.5,0.5 0 0 0 10,5.5 0.5,0.5 0 0 0 9.5,5 Z M 16,5 v 1 h 1 V 5 Z"/>
</svg>
