<svg xmlns="http://www.w3.org/2000/svg" width="16" height="16" version="1.1">
 <defs>
   <style id="current-color-scheme" type="text/css">
   .ColorScheme-Text { color: #00aa00; } .ColorScheme-Highlight { color:#5294e2; }
  </style>
  <linearGradient id="arrongin" x1="0%" x2="0%" y1="0%" y2="100%">
   <stop offset="0%" style="stop-color:#dd9b44; stop-opacity:1"/>
   <stop offset="100%" style="stop-color:#ad6c16; stop-opacity:1"/>
  </linearGradient>
  <linearGradient id="aurora" x1="0%" x2="0%" y1="0%" y2="100%">
   <stop offset="0%" style="stop-color:#09D4DF; stop-opacity:1"/>
   <stop offset="100%" style="stop-color:#9269F4; stop-opacity:1"/>
  </linearGradient>
  <linearGradient id="cyberneon" x1="0%" x2="0%" y1="0%" y2="100%">
    <stop offset="0" style="stop-color:#0abdc6; stop-opacity:1"/>
    <stop offset="1" style="stop-color:#ea00d9; stop-opacity:1"/>
  </linearGradient>
  <linearGradient id="fitdance" x1="0%" x2="0%" y1="0%" y2="100%">
   <stop offset="0%" style="stop-color:#1AD6AB; stop-opacity:1"/>
   <stop offset="100%" style="stop-color:#329DB6; stop-opacity:1"/>
  </linearGradient>
  <linearGradient id="oomox" x1="0%" x2="0%" y1="0%" y2="100%">
   <stop offset="0%" style="stop-color:#00aa00; stop-opacity:1"/>
   <stop offset="100%" style="stop-color:#00cc00; stop-opacity:1"/>
  </linearGradient>
  <linearGradient id="rainblue" x1="0%" x2="0%" y1="0%" y2="100%">
   <stop offset="0%" style="stop-color:#00F260; stop-opacity:1"/>
   <stop offset="100%" style="stop-color:#0575E6; stop-opacity:1"/>
  </linearGradient>
  <linearGradient id="sunrise" x1="0%" x2="0%" y1="0%" y2="100%">
   <stop offset="0%" style="stop-color: #FF8501; stop-opacity:1"/>
   <stop offset="100%" style="stop-color: #FFCB01; stop-opacity:1"/>
  </linearGradient>
  <linearGradient id="telinkrin" x1="0%" x2="0%" y1="0%" y2="100%">
   <stop offset="0%" style="stop-color: #b2ced6; stop-opacity:1"/>
   <stop offset="100%" style="stop-color: #6da5b7; stop-opacity:1"/>
  </linearGradient>
  <linearGradient id="60spsycho" x1="0%" x2="0%" y1="0%" y2="100%">
   <stop offset="0%" style="stop-color: #df5940; stop-opacity:1"/>
   <stop offset="25%" style="stop-color: #d8d15f; stop-opacity:1"/>
   <stop offset="50%" style="stop-color: #e9882a; stop-opacity:1"/>
   <stop offset="100%" style="stop-color: #279362; stop-opacity:1"/>
  </linearGradient>
  <linearGradient id="90ssummer" x1="0%" x2="0%" y1="0%" y2="100%">
   <stop offset="0%" style="stop-color: #f618c7; stop-opacity:1"/>
   <stop offset="20%" style="stop-color: #94ffab; stop-opacity:1"/>
   <stop offset="50%" style="stop-color: #fbfd54; stop-opacity:1"/>
   <stop offset="100%" style="stop-color: #0f83ae; stop-opacity:1"/>
  </linearGradient>
 </defs>
 <path fill="url(#oomox)" class="ColorScheme-Text" fill-rule="evenodd" d="M 2.482 1.371 L 2.482 2.8 L 4.8 2.8 L 4.8 4.114 L 2.482 4.114 L 2.482 7.314 L 0.686 7.314 L 0.686 0 L 5.257 0 L 5.257 1.371 L 2.482 1.371 L 2.482 1.371 L 2.482 1.371 L 2.482 1.371 Z M 9.407 0.987 C 9.4 1.023 9.386 1.086 9.364 1.177 C 9.346 1.267 9.322 1.37 9.293 1.486 C 9.264 1.601 9.232 1.728 9.196 1.865 C 9.163 1.999 9.129 2.131 9.093 2.261 L 8.416 4.571 L 10.398 4.571 L 9.722 2.261 C 9.686 2.131 9.649 1.999 9.613 1.865 C 9.581 1.728 9.55 1.601 9.521 1.486 C 9.492 1.37 9.467 1.267 9.445 1.177 L 9.407 0.987 L 9.407 0.987 L 9.407 0.987 L 9.407 0.987 L 9.407 0.987 L 9.407 0.987 Z M 4.565 12.286 C 4.565 11.863 4.525 11.503 4.446 11.207 C 4.366 10.907 4.245 10.663 4.083 10.475 C 3.924 10.283 3.723 10.144 3.477 10.057 C 3.232 9.967 2.944 9.922 2.612 9.922 L 2.546 9.922 L 2.546 14.764 L 2.833 14.764 C 3.418 14.764 3.852 14.558 4.137 14.146 C 4.422 13.73 4.565 13.11 4.565 12.286 L 4.565 12.286 L 4.565 12.286 L 4.565 12.286 Z M 12.571 14.921 C 12.439 15.033 12.284 15.153 12.106 15.279 C 11.931 15.405 11.734 15.523 11.514 15.632 C 11.298 15.737 11.062 15.825 10.807 15.895 C 10.553 15.965 10.281 16 9.991 16 C 9.499 16 9.07 15.909 8.703 15.726 C 8.34 15.54 8.038 15.284 7.798 14.958 C 7.557 14.632 7.377 14.244 7.258 13.795 C 7.143 13.343 7.086 12.848 7.086 12.311 C 7.086 11.725 7.143 11.208 7.258 10.759 C 7.374 10.306 7.55 9.928 7.787 9.622 C 8.028 9.314 8.332 9.08 8.698 8.922 C 9.064 8.765 9.501 8.686 10.007 8.686 C 10.355 8.686 10.661 8.733 10.923 8.828 C 11.188 8.922 11.416 9.058 11.608 9.233 C 11.804 9.405 11.968 9.612 12.1 9.854 C 12.233 10.096 12.341 10.364 12.425 10.659 L 10.991 10.943 C 10.896 10.592 10.767 10.333 10.603 10.164 C 10.439 9.992 10.246 9.907 10.022 9.907 C 9.771 9.907 9.558 9.959 9.384 10.064 C 9.209 10.166 9.068 10.319 8.96 10.522 C 8.851 10.722 8.773 10.973 8.724 11.275 C 8.675 11.573 8.651 11.918 8.651 12.311 C 8.651 13.094 8.768 13.697 9.002 14.121 C 9.235 14.546 9.591 14.758 10.069 14.758 C 10.202 14.758 10.326 14.744 10.441 14.716 C 10.56 14.684 10.664 14.649 10.755 14.611 C 10.849 14.569 10.93 14.527 10.996 14.485 C 11.066 14.439 11.12 14.4 11.158 14.369 L 11.158 13.257 L 9.829 13.257 L 9.829 11.924 L 12.571 11.924 L 12.571 14.921 L 12.571 14.921 Z M 12.736 7.314 L 11.142 7.314 L 10.735 5.943 L 8.08 5.943 L 7.672 7.314 L 6.073 7.314 L 8.475 0 L 10.34 0 L 12.736 7.314 L 12.736 7.314 L 12.736 7.314 L 12.736 7.314 L 12.736 7.314 Z M 6.171 12.286 C 6.171 12.893 6.099 13.428 5.955 13.891 C 5.811 14.354 5.602 14.742 5.328 15.057 C 5.053 15.367 4.716 15.602 4.316 15.761 C 3.919 15.92 3.468 16 2.963 16 L 0.686 16 L 0.686 8.686 L 2.639 8.686 C 3.209 8.686 3.713 8.756 4.154 8.897 C 4.593 9.038 4.963 9.255 5.263 9.548 C 5.562 9.841 5.787 10.215 5.939 10.67 C 6.094 11.122 6.171 11.661 6.171 12.286 L 6.171 12.286 L 6.171 12.286 L 6.171 12.286 Z M 13.486 8.685 L 15.314 8.685 L 15.314 16 L 13.486 16 L 13.486 8.685 Z"/>
</svg>
