<svg xmlns="http://www.w3.org/2000/svg" width="16" height="16" version="1.1">
 <defs>
   <style id="current-color-scheme" type="text/css">
   .ColorScheme-Text { color: #E7E7E7; } .ColorScheme-Highlight { color:#5294e2; }
  </style>
  <linearGradient id="arrongin" x1="0%" x2="0%" y1="0%" y2="100%">
   <stop offset="0%" style="stop-color:#dd9b44; stop-opacity:1"/>
   <stop offset="100%" style="stop-color:#ad6c16; stop-opacity:1"/>
  </linearGradient>
  <linearGradient id="aurora" x1="0%" x2="0%" y1="0%" y2="100%">
   <stop offset="0%" style="stop-color:#09D4DF; stop-opacity:1"/>
   <stop offset="100%" style="stop-color:#9269F4; stop-opacity:1"/>
  </linearGradient>
  <linearGradient id="cyberneon" x1="0%" x2="0%" y1="0%" y2="100%">
    <stop offset="0" style="stop-color:#0abdc6; stop-opacity:1"/>
    <stop offset="1" style="stop-color:#ea00d9; stop-opacity:1"/>
  </linearGradient>
  <linearGradient id="fitdance" x1="0%" x2="0%" y1="0%" y2="100%">
   <stop offset="0%" style="stop-color:#1AD6AB; stop-opacity:1"/>
   <stop offset="100%" style="stop-color:#329DB6; stop-opacity:1"/>
  </linearGradient>
  <linearGradient id="oomox" x1="0%" x2="0%" y1="0%" y2="100%">
   <stop offset="0%" style="stop-color:#efefe7; stop-opacity:1"/>
   <stop offset="100%" style="stop-color:#8f8f8b; stop-opacity:1"/>
  </linearGradient>
  <linearGradient id="rainblue" x1="0%" x2="0%" y1="0%" y2="100%">
   <stop offset="0%" style="stop-color:#00F260; stop-opacity:1"/>
   <stop offset="100%" style="stop-color:#0575E6; stop-opacity:1"/>
  </linearGradient>
  <linearGradient id="sunrise" x1="0%" x2="0%" y1="0%" y2="100%">
   <stop offset="0%" style="stop-color: #FF8501; stop-opacity:1"/>
   <stop offset="100%" style="stop-color: #FFCB01; stop-opacity:1"/>
  </linearGradient>
  <linearGradient id="telinkrin" x1="0%" x2="0%" y1="0%" y2="100%">
   <stop offset="0%" style="stop-color: #b2ced6; stop-opacity:1"/>
   <stop offset="100%" style="stop-color: #6da5b7; stop-opacity:1"/>
  </linearGradient>
  <linearGradient id="60spsycho" x1="0%" x2="0%" y1="0%" y2="100%">
   <stop offset="0%" style="stop-color: #df5940; stop-opacity:1"/>
   <stop offset="25%" style="stop-color: #d8d15f; stop-opacity:1"/>
   <stop offset="50%" style="stop-color: #e9882a; stop-opacity:1"/>
   <stop offset="100%" style="stop-color: #279362; stop-opacity:1"/>
  </linearGradient>
  <linearGradient id="90ssummer" x1="0%" x2="0%" y1="0%" y2="100%">
   <stop offset="0%" style="stop-color: #f618c7; stop-opacity:1"/>
   <stop offset="20%" style="stop-color: #94ffab; stop-opacity:1"/>
   <stop offset="50%" style="stop-color: #fbfd54; stop-opacity:1"/>
   <stop offset="100%" style="stop-color: #0f83ae; stop-opacity:1"/>
  </linearGradient>
 </defs>
 <path fill="currentColor" class="ColorScheme-Text" d="M 12.66 11.723 C 11.464 11.211 10.592 10.442 9.745 10.109 C 10.193 9.904 10.617 9.622 10.866 9.365 C 11.14 9.084 11.24 8.75 11.215 8.417 C 12.112 9.032 13.159 9.084 13.707 9.109 C 14.255 9.135 14.804 9.263 14.903 9.519 C 14.903 9.519 15.078 6.393 8.822 4.317 C 8.822 4.317 10.692 5.188 11.265 5.88 C 11.265 5.88 10.592 5.829 10.318 6.29 C 10.168 6.521 10.143 6.854 10.268 7.238 C 10.168 7.213 10.044 7.213 9.919 7.187 L 0 1.524 L 1.047 3.83 L 0.075 3.471 L 0.374 4.035 C 0.374 4.035 0.797 4.855 1.745 6.572 C 2.492 7.93 3.838 8.597 5.632 8.52 L 5.857 8.52 C 6.305 8.494 7.003 8.417 7.676 8.366 C 7.626 8.622 7.626 8.93 7.701 9.289 C 7.776 9.699 7.95 9.98 8.15 10.134 C 7.626 10.39 7.204 10.903 7.005 11.492 L 7.005 11.492 C 6.855 11.877 6.805 12.312 7.005 12.851 L 7.005 12.851 C 7.03 12.953 7.079 13.056 7.154 13.184 C 7.204 13.286 7.279 13.389 7.378 13.491 C 8.475 14.85 11.09 14.619 12.785 13.901 C 12.81 13.901 12.835 13.876 12.86 13.876 C 12.984 13.824 13.134 13.747 13.259 13.696 C 13.284 13.671 13.308 13.671 13.333 13.645 C 13.483 13.568 13.608 13.491 13.757 13.414 C 15.427 12.415 16 11.236 16 11.236 C 16 11.236 14.28 12.415 12.66 11.723 L 12.66 11.723 Z M 12.932 6.932 C 13.405 7.137 14.128 8.367 14.128 8.367 C 13.53 8.265 12.308 7.855 12.184 7.393 C 12.059 6.932 12.458 6.727 12.932 6.932 Z M 11.514 13.133 C 11.514 13.133 11.639 13.543 11.489 14.081 C 11.315 14.132 11.14 14.158 10.966 14.209 C 11.265 13.978 11.514 13.619 11.514 13.133 L 11.514 13.133 Z M 3.315 5.316 L 7.626 7.828 C 6.829 7.905 6.006 7.982 5.583 8.007 C 4.935 8.033 4.361 7.956 3.863 7.777 C 3.115 7.52 2.567 7.008 2.168 6.316 C 1.67 5.445 1.346 4.804 1.122 4.394 L 2.019 4.701 L 1.122 2.728 L 8.972 7.187 C 8.748 7.213 8.548 7.29 8.349 7.367 L 3.315 5.316 Z M 7.9 8.468 C 8.199 6.982 10.069 7.443 10.069 7.443 C 9.396 7.443 8.997 7.623 8.797 7.905 C 8.498 8.315 8.872 8.648 8.872 8.648 C 8.773 8.622 8.673 8.597 8.623 8.545 L 8.623 8.571 C 8.773 9.16 9.246 9.314 9.246 9.314 C 9.072 9.34 8.922 9.314 8.797 9.289 C 8.897 9.519 9.047 9.699 9.122 9.75 C 8.698 9.75 8.498 9.852 8.349 9.904 C 8.025 9.673 7.751 9.109 7.9 8.468 Z M 9.248 11.749 C 9.248 11.749 8.575 12.62 7.104 12.62 C 7.03 12.287 7.054 11.954 7.129 11.646 C 7.603 11.954 8.301 12.107 9.248 11.749 L 9.248 11.749 Z M 8.026 13.773 C 8.649 13.619 9.447 13.261 10.195 12.389 C 10.195 12.389 10.095 13.363 9.397 14.26 C 9.073 14.209 8.749 14.132 8.45 14.004 C 8.301 13.927 8.151 13.85 8.026 13.773 Z M 13.832 12.979 C 13.757 12.748 13.707 12.261 13.707 12.261 C 14.231 12.312 14.854 12.082 14.854 12.082 C 14.43 12.646 13.832 12.979 13.832 12.979 Z"/>
</svg>
