<svg xmlns="http://www.w3.org/2000/svg" width="16" height="16" version="1.1">
 <defs>
   <style id="current-color-scheme" type="text/css">
   .ColorScheme-Text { color: #E7E7E7; } .ColorScheme-Highlight { color:#5294e2; }
  </style>
  <linearGradient id="arrongin" x1="0%" x2="0%" y1="0%" y2="100%">
   <stop offset="0%" style="stop-color:#dd9b44; stop-opacity:1"/>
   <stop offset="100%" style="stop-color:#ad6c16; stop-opacity:1"/>
  </linearGradient>
  <linearGradient id="aurora" x1="0%" x2="0%" y1="0%" y2="100%">
   <stop offset="0%" style="stop-color:#09D4DF; stop-opacity:1"/>
   <stop offset="100%" style="stop-color:#9269F4; stop-opacity:1"/>
  </linearGradient>
  <linearGradient id="cyberneon" x1="0%" x2="0%" y1="0%" y2="100%">
    <stop offset="0" style="stop-color:#0abdc6; stop-opacity:1"/>
    <stop offset="1" style="stop-color:#ea00d9; stop-opacity:1"/>
  </linearGradient>
  <linearGradient id="fitdance" x1="0%" x2="0%" y1="0%" y2="100%">
   <stop offset="0%" style="stop-color:#1AD6AB; stop-opacity:1"/>
   <stop offset="100%" style="stop-color:#329DB6; stop-opacity:1"/>
  </linearGradient>
  <linearGradient id="oomox" x1="0%" x2="0%" y1="0%" y2="100%">
   <stop offset="0%" style="stop-color:#efefe7; stop-opacity:1"/>
   <stop offset="100%" style="stop-color:#8f8f8b; stop-opacity:1"/>
  </linearGradient>
  <linearGradient id="rainblue" x1="0%" x2="0%" y1="0%" y2="100%">
   <stop offset="0%" style="stop-color:#00F260; stop-opacity:1"/>
   <stop offset="100%" style="stop-color:#0575E6; stop-opacity:1"/>
  </linearGradient>
  <linearGradient id="sunrise" x1="0%" x2="0%" y1="0%" y2="100%">
   <stop offset="0%" style="stop-color: #FF8501; stop-opacity:1"/>
   <stop offset="100%" style="stop-color: #FFCB01; stop-opacity:1"/>
  </linearGradient>
  <linearGradient id="telinkrin" x1="0%" x2="0%" y1="0%" y2="100%">
   <stop offset="0%" style="stop-color: #b2ced6; stop-opacity:1"/>
   <stop offset="100%" style="stop-color: #6da5b7; stop-opacity:1"/>
  </linearGradient>
  <linearGradient id="60spsycho" x1="0%" x2="0%" y1="0%" y2="100%">
   <stop offset="0%" style="stop-color: #df5940; stop-opacity:1"/>
   <stop offset="25%" style="stop-color: #d8d15f; stop-opacity:1"/>
   <stop offset="50%" style="stop-color: #e9882a; stop-opacity:1"/>
   <stop offset="100%" style="stop-color: #279362; stop-opacity:1"/>
  </linearGradient>
  <linearGradient id="90ssummer" x1="0%" x2="0%" y1="0%" y2="100%">
   <stop offset="0%" style="stop-color: #f618c7; stop-opacity:1"/>
   <stop offset="20%" style="stop-color: #94ffab; stop-opacity:1"/>
   <stop offset="50%" style="stop-color: #fbfd54; stop-opacity:1"/>
   <stop offset="100%" style="stop-color: #0f83ae; stop-opacity:1"/>
  </linearGradient>
 </defs>
 <path fill="currentColor" class="ColorScheme-Text" fill-rule="evenodd" d="M 12.36 0 C 12.26 0.299 11.831 1.565 11.23 3.025 C 10.892 3.845 10.518 4.674 10.166 5.301 C 9.99 5.614 9.818 5.877 9.672 6.054 C 9.526 6.232 9.395 6.305 9.405 6.302 C 9.27 6.34 9.085 6.302 8.809 6.135 C 8.532 5.968 8.205 5.689 7.859 5.385 C 7.168 4.778 6.41 4.019 5.427 4 C 4.535 3.983 3.827 4.502 3.408 5.221 C 2.99 5.94 2.796 6.861 2.757 7.832 C 2.718 8.796 2.808 9.836 3.165 10.697 C 3.522 11.558 4.237 12.266 5.271 12.286 C 6.372 12.307 7.181 11.457 7.873 10.727 C 8.219 10.361 8.54 10.009 8.824 9.768 C 9.108 9.528 9.337 9.426 9.476 9.429 C 9.426 9.428 9.512 9.437 9.644 9.591 C 9.775 9.745 9.938 10.001 10.101 10.318 C 10.427 10.951 10.768 11.827 11.069 12.704 C 11.611 14.283 11.985 15.7 12.064 16 L 12.951 16 C 12.949 15.991 12.494 14.217 11.879 12.426 C 11.571 11.528 11.225 10.627 10.863 9.925 C 10.682 9.574 10.499 9.272 10.295 9.034 C 10.091 8.795 9.85 8.578 9.492 8.571 C 9.014 8.562 8.623 8.816 8.271 9.114 C 7.919 9.412 7.587 9.781 7.25 10.137 C 6.576 10.849 5.899 11.44 5.287 11.429 C 4.606 11.416 4.237 11.043 3.957 10.368 C 3.677 9.694 3.578 8.747 3.613 7.866 C 3.648 6.992 3.836 6.189 4.149 5.652 C 4.462 5.115 4.833 4.846 5.41 4.857 C 5.895 4.866 6.597 5.417 7.293 6.029 C 7.642 6.335 7.991 6.642 8.365 6.868 C 8.74 7.094 9.179 7.256 9.637 7.127 C 9.942 7.041 10.137 6.839 10.334 6.599 C 10.532 6.359 10.722 6.061 10.913 5.72 C 11.295 5.04 11.678 4.189 12.023 3.351 C 12.713 1.674 13.252 0.059 13.252 0.059 L 12.36 0 Z"/>
</svg>
