<svg xmlns="http://www.w3.org/2000/svg" width="16" height="16" version="1.1">
 <defs>
   <style id="current-color-scheme" type="text/css">
   .ColorScheme-Text { color: #E7E7E7; } .ColorScheme-Highlight { color:#5294e2; }
  </style>
  <linearGradient id="arrongin" x1="0%" x2="0%" y1="0%" y2="100%">
   <stop offset="0%" style="stop-color:#dd9b44; stop-opacity:1"/>
   <stop offset="100%" style="stop-color:#ad6c16; stop-opacity:1"/>
  </linearGradient>
  <linearGradient id="aurora" x1="0%" x2="0%" y1="0%" y2="100%">
   <stop offset="0%" style="stop-color:#09D4DF; stop-opacity:1"/>
   <stop offset="100%" style="stop-color:#9269F4; stop-opacity:1"/>
  </linearGradient>
  <linearGradient id="cyberneon" x1="0%" x2="0%" y1="0%" y2="100%">
    <stop offset="0" style="stop-color:#0abdc6; stop-opacity:1"/>
    <stop offset="1" style="stop-color:#ea00d9; stop-opacity:1"/>
  </linearGradient>
  <linearGradient id="fitdance" x1="0%" x2="0%" y1="0%" y2="100%">
   <stop offset="0%" style="stop-color:#1AD6AB; stop-opacity:1"/>
   <stop offset="100%" style="stop-color:#329DB6; stop-opacity:1"/>
  </linearGradient>
  <linearGradient id="oomox" x1="0%" x2="0%" y1="0%" y2="100%">
   <stop offset="0%" style="stop-color:#efefe7; stop-opacity:1"/>
   <stop offset="100%" style="stop-color:#8f8f8b; stop-opacity:1"/>
  </linearGradient>
  <linearGradient id="rainblue" x1="0%" x2="0%" y1="0%" y2="100%">
   <stop offset="0%" style="stop-color:#00F260; stop-opacity:1"/>
   <stop offset="100%" style="stop-color:#0575E6; stop-opacity:1"/>
  </linearGradient>
  <linearGradient id="sunrise" x1="0%" x2="0%" y1="0%" y2="100%">
   <stop offset="0%" style="stop-color: #FF8501; stop-opacity:1"/>
   <stop offset="100%" style="stop-color: #FFCB01; stop-opacity:1"/>
  </linearGradient>
  <linearGradient id="telinkrin" x1="0%" x2="0%" y1="0%" y2="100%">
   <stop offset="0%" style="stop-color: #b2ced6; stop-opacity:1"/>
   <stop offset="100%" style="stop-color: #6da5b7; stop-opacity:1"/>
  </linearGradient>
  <linearGradient id="60spsycho" x1="0%" x2="0%" y1="0%" y2="100%">
   <stop offset="0%" style="stop-color: #df5940; stop-opacity:1"/>
   <stop offset="25%" style="stop-color: #d8d15f; stop-opacity:1"/>
   <stop offset="50%" style="stop-color: #e9882a; stop-opacity:1"/>
   <stop offset="100%" style="stop-color: #279362; stop-opacity:1"/>
  </linearGradient>
  <linearGradient id="90ssummer" x1="0%" x2="0%" y1="0%" y2="100%">
   <stop offset="0%" style="stop-color: #f618c7; stop-opacity:1"/>
   <stop offset="20%" style="stop-color: #94ffab; stop-opacity:1"/>
   <stop offset="50%" style="stop-color: #fbfd54; stop-opacity:1"/>
   <stop offset="100%" style="stop-color: #0f83ae; stop-opacity:1"/>
  </linearGradient>
 </defs>
 <path fill="currentColor" class="ColorScheme-Text" fill-rule="evenodd" d="M 6.823 11.863 C 6.825 11.968 6.82 12.121 6.797 12.23 C 6.519 12.252 6.278 12.277 6.176 12.304 C 5.875 12.385 5.493 12.324 5.493 12.968 C 5.493 13.612 5.452 14.738 5.452 14.979 C 5.452 15.221 5.332 15.442 5.653 15.603 C 5.975 15.764 6.914 16 8 16 C 9.086 16 10.025 15.764 10.347 15.603 C 10.668 15.442 10.548 15.221 10.548 14.979 L 10.548 14.979 C 10.548 14.738 10.507 13.612 10.507 12.968 C 10.507 12.324 10.125 12.385 9.824 12.304 C 9.721 12.277 9.478 12.251 9.197 12.23 C 9.175 12.12 9.17 11.968 9.172 11.863 C 9.387 11.861 9.596 11.856 9.77 11.848 C 10.414 11.822 10.253 11.5 10.333 11.151 C 10.414 10.802 10.521 10.641 10.789 10.534 C 11.057 10.427 12.345 9.783 12.934 9.086 C 13.525 8.389 14.007 5.385 14.115 3.991 C 14.222 2.596 13.659 1.255 13.096 0.611 L 13.096 0.611 L 13.096 0.611 C 12.532 -0.032 11.406 -0.032 10.87 0.021 C 10.333 0.075 8.429 0.343 8 0.343 C 7.571 0.343 5.667 0.075 5.13 0.021 C 4.594 -0.032 3.468 -0.032 2.905 0.611 C 2.341 1.255 1.778 2.596 1.885 3.991 C 1.993 5.385 2.475 8.388 3.066 9.086 C 3.655 9.783 4.943 10.427 5.211 10.534 C 5.479 10.641 5.586 10.802 5.667 11.151 C 5.747 11.5 5.586 11.822 6.23 11.848 C 6.402 11.856 6.61 11.86 6.823 11.863 Z M 6.465 7.387 C 5.555 8.377 4.85 8.502 4.368 8.319 C 3.119 7.903 3.036 6.887 2.62 4.623 C 2.203 2.359 4.684 3.863 5.316 4.107 C 8.08 5.173 6.698 7.12 6.465 7.387 L 6.465 7.387 L 6.465 7.387 Z M 13.293 4.623 C 12.877 6.887 12.793 7.903 11.545 8.319 C 11.062 8.502 10.357 8.377 9.447 7.387 C 9.214 7.12 7.833 5.173 10.596 4.107 C 11.228 3.863 13.709 2.359 13.293 4.623 L 13.293 4.623 Z"/>
</svg>
