<svg xmlns="http://www.w3.org/2000/svg" width="16" height="16" version="1.1">
 <defs>
   <style id="current-color-scheme" type="text/css">
   .ColorScheme-Text { color: #E7E7E7; } .ColorScheme-Highlight { color:#5294e2; }
  </style>
  <linearGradient id="arrongin" x1="0%" x2="0%" y1="0%" y2="100%">
   <stop offset="0%" style="stop-color:#dd9b44; stop-opacity:1"/>
   <stop offset="100%" style="stop-color:#ad6c16; stop-opacity:1"/>
  </linearGradient>
  <linearGradient id="aurora" x1="0%" x2="0%" y1="0%" y2="100%">
   <stop offset="0%" style="stop-color:#09D4DF; stop-opacity:1"/>
   <stop offset="100%" style="stop-color:#9269F4; stop-opacity:1"/>
  </linearGradient>
  <linearGradient id="cyberneon" x1="0%" x2="0%" y1="0%" y2="100%">
    <stop offset="0" style="stop-color:#0abdc6; stop-opacity:1"/>
    <stop offset="1" style="stop-color:#ea00d9; stop-opacity:1"/>
  </linearGradient>
  <linearGradient id="fitdance" x1="0%" x2="0%" y1="0%" y2="100%">
   <stop offset="0%" style="stop-color:#1AD6AB; stop-opacity:1"/>
   <stop offset="100%" style="stop-color:#329DB6; stop-opacity:1"/>
  </linearGradient>
  <linearGradient id="oomox" x1="0%" x2="0%" y1="0%" y2="100%">
   <stop offset="0%" style="stop-color:#efefe7; stop-opacity:1"/>
   <stop offset="100%" style="stop-color:#8f8f8b; stop-opacity:1"/>
  </linearGradient>
  <linearGradient id="rainblue" x1="0%" x2="0%" y1="0%" y2="100%">
   <stop offset="0%" style="stop-color:#00F260; stop-opacity:1"/>
   <stop offset="100%" style="stop-color:#0575E6; stop-opacity:1"/>
  </linearGradient>
  <linearGradient id="sunrise" x1="0%" x2="0%" y1="0%" y2="100%">
   <stop offset="0%" style="stop-color: #FF8501; stop-opacity:1"/>
   <stop offset="100%" style="stop-color: #FFCB01; stop-opacity:1"/>
  </linearGradient>
  <linearGradient id="telinkrin" x1="0%" x2="0%" y1="0%" y2="100%">
   <stop offset="0%" style="stop-color: #b2ced6; stop-opacity:1"/>
   <stop offset="100%" style="stop-color: #6da5b7; stop-opacity:1"/>
  </linearGradient>
  <linearGradient id="60spsycho" x1="0%" x2="0%" y1="0%" y2="100%">
   <stop offset="0%" style="stop-color: #df5940; stop-opacity:1"/>
   <stop offset="25%" style="stop-color: #d8d15f; stop-opacity:1"/>
   <stop offset="50%" style="stop-color: #e9882a; stop-opacity:1"/>
   <stop offset="100%" style="stop-color: #279362; stop-opacity:1"/>
  </linearGradient>
  <linearGradient id="90ssummer" x1="0%" x2="0%" y1="0%" y2="100%">
   <stop offset="0%" style="stop-color: #f618c7; stop-opacity:1"/>
   <stop offset="20%" style="stop-color: #94ffab; stop-opacity:1"/>
   <stop offset="50%" style="stop-color: #fbfd54; stop-opacity:1"/>
   <stop offset="100%" style="stop-color: #0f83ae; stop-opacity:1"/>
  </linearGradient>
 </defs>
 <path fill="currentColor" class="ColorScheme-Text" fill-rule="evenodd" d="M -0.031 12.5 L 15.969 12.5 L 15.969 14.5 L -0.031 14.5 L -0.031 12.5 Z"/>
 <path fill="currentColor" class="ColorScheme-Text" fill-rule="evenodd" d="M 0.91 9.63 L 0.91 2.2 L 3.203 2.2 L 3.203 2.2 Q 3.956 2.2 4.572 2.412 L 4.572 2.412 L 4.572 2.412 Q 5.188 2.625 5.591 2.975 L 5.591 2.975 L 5.591 2.975 Q 5.994 3.325 6.265 3.808 L 6.265 3.808 L 6.265 3.808 Q 6.536 4.291 6.658 4.816 L 6.658 4.816 L 6.658 4.816 Q 6.78 5.342 6.78 5.915 L 6.78 5.915 L 6.78 5.915 Q 6.78 6.446 6.668 6.955 L 6.668 6.955 L 6.668 6.955 Q 6.557 7.465 6.286 7.958 L 6.286 7.958 L 6.286 7.958 Q 6.015 8.452 5.612 8.818 L 5.612 8.818 L 5.612 8.818 Q 5.209 9.184 4.577 9.407 L 4.577 9.407 L 4.577 9.407 Q 3.946 9.63 3.16 9.63 L 3.16 9.63 L 0.91 9.63 Z M 2.184 8.431 L 3.341 8.431 L 3.341 8.431 Q 3.903 8.431 4.333 8.208 L 4.333 8.208 L 4.333 8.208 Q 4.763 7.985 5.002 7.608 L 5.002 7.608 L 5.002 7.608 Q 5.241 7.231 5.352 6.807 L 5.352 6.807 L 5.352 6.807 Q 5.464 6.382 5.464 5.915 L 5.464 5.915 L 5.464 5.915 Q 5.464 4.875 4.954 4.137 L 4.954 4.137 L 4.954 4.137 Q 4.445 3.399 3.457 3.399 L 3.457 3.399 L 2.184 3.399 L 2.184 8.431 Z M 15.08 2.2 L 15.08 9.63 L 13.806 9.63 L 13.806 5.681 L 13.806 5.681 Q 13.806 5.193 13.849 4.79 L 13.849 4.79 L 13.849 4.79 Q 13.721 5.172 13.509 5.703 L 13.509 5.703 L 11.705 9.757 L 9.9 5.681 L 9.9 5.681 Q 9.709 5.257 9.55 4.79 L 9.55 4.79 L 9.55 4.79 Q 9.592 5.193 9.592 5.681 L 9.592 5.681 L 9.592 9.63 L 8.319 9.63 L 8.319 2.2 L 9.603 2.2 L 11.514 6.562 L 11.514 6.562 Q 11.63 6.86 11.715 7.114 L 11.715 7.114 L 11.715 7.114 Q 11.8 6.86 11.917 6.562 L 11.917 6.562 L 13.838 2.2 L 15.08 2.2 Z"/>
</svg>
