<svg xmlns="http://www.w3.org/2000/svg" width="16" height="16" version="1.1">
 <defs>
   <style id="current-color-scheme" type="text/css">
   .ColorScheme-Text { color: #E7E7E7; } .ColorScheme-Highlight { color:#5294e2; }
  </style>
  <linearGradient id="arrongin" x1="0%" x2="0%" y1="0%" y2="100%">
   <stop offset="0%" style="stop-color:#dd9b44; stop-opacity:1"/>
   <stop offset="100%" style="stop-color:#ad6c16; stop-opacity:1"/>
  </linearGradient>
  <linearGradient id="aurora" x1="0%" x2="0%" y1="0%" y2="100%">
   <stop offset="0%" style="stop-color:#09D4DF; stop-opacity:1"/>
   <stop offset="100%" style="stop-color:#9269F4; stop-opacity:1"/>
  </linearGradient>
  <linearGradient id="cyberneon" x1="0%" x2="0%" y1="0%" y2="100%">
    <stop offset="0" style="stop-color:#0abdc6; stop-opacity:1"/>
    <stop offset="1" style="stop-color:#ea00d9; stop-opacity:1"/>
  </linearGradient>
  <linearGradient id="fitdance" x1="0%" x2="0%" y1="0%" y2="100%">
   <stop offset="0%" style="stop-color:#1AD6AB; stop-opacity:1"/>
   <stop offset="100%" style="stop-color:#329DB6; stop-opacity:1"/>
  </linearGradient>
  <linearGradient id="oomox" x1="0%" x2="0%" y1="0%" y2="100%">
   <stop offset="0%" style="stop-color:#efefe7; stop-opacity:1"/>
   <stop offset="100%" style="stop-color:#8f8f8b; stop-opacity:1"/>
  </linearGradient>
  <linearGradient id="rainblue" x1="0%" x2="0%" y1="0%" y2="100%">
   <stop offset="0%" style="stop-color:#00F260; stop-opacity:1"/>
   <stop offset="100%" style="stop-color:#0575E6; stop-opacity:1"/>
  </linearGradient>
  <linearGradient id="sunrise" x1="0%" x2="0%" y1="0%" y2="100%">
   <stop offset="0%" style="stop-color: #FF8501; stop-opacity:1"/>
   <stop offset="100%" style="stop-color: #FFCB01; stop-opacity:1"/>
  </linearGradient>
  <linearGradient id="telinkrin" x1="0%" x2="0%" y1="0%" y2="100%">
   <stop offset="0%" style="stop-color: #b2ced6; stop-opacity:1"/>
   <stop offset="100%" style="stop-color: #6da5b7; stop-opacity:1"/>
  </linearGradient>
  <linearGradient id="60spsycho" x1="0%" x2="0%" y1="0%" y2="100%">
   <stop offset="0%" style="stop-color: #df5940; stop-opacity:1"/>
   <stop offset="25%" style="stop-color: #d8d15f; stop-opacity:1"/>
   <stop offset="50%" style="stop-color: #e9882a; stop-opacity:1"/>
   <stop offset="100%" style="stop-color: #279362; stop-opacity:1"/>
  </linearGradient>
  <linearGradient id="90ssummer" x1="0%" x2="0%" y1="0%" y2="100%">
   <stop offset="0%" style="stop-color: #f618c7; stop-opacity:1"/>
   <stop offset="20%" style="stop-color: #94ffab; stop-opacity:1"/>
   <stop offset="50%" style="stop-color: #fbfd54; stop-opacity:1"/>
   <stop offset="100%" style="stop-color: #0f83ae; stop-opacity:1"/>
  </linearGradient>
 </defs>
 <path fill="currentColor" class="ColorScheme-Text" d="M 6.896 15.001 Q 7.138 15.001 7.351 14.934 Q 7.565 14.866 7.767 14.718 Q 7.969 14.569 8.087 14.282 Q 8.205 13.996 8.205 13.597 L 8.205 11.001 L 7.542 11.001 L 7.542 13.563 Q 7.542 14.366 6.902 14.366 Q 6.453 14.366 6.217 13.911 L 5.644 14.187 Q 5.818 14.574 6.144 14.788 Q 6.469 15.001 6.896 15.001 L 6.896 15.001 Z M 10.852 14.934 C 9.97 15.299 9.002 15.5 7.988 15.5 C 4.948 15.493 2.213 13.652 1.063 10.838 L 6.029 9.986 L 5.861 9 L 0.74 9.877 C 0.622 9.426 0.546 8.965 0.514 8.5 L 5.988 8.5 L 5.988 7.5 L 0.512 7.5 C 0.544 7.034 0.62 6.573 0.738 6.121 L 5.861 7 L 6.029 6.014 L 1.051 5.16 C 2.203 2.343 4.944 0.502 7.988 0.5 C 12.13 0.5 15.488 3.858 15.488 8 C 15.488 9.067 15.266 10.081 14.864 11 L 15.052 11 L 15.052 11.635 L 14.552 11.635 L 14.552 11.635 C 14.666 11.429 14.771 11.218 14.866 11.001 L 12.531 11.001 L 12.531 13.97 C 12.765 13.792 12.988 13.601 13.198 13.397 L 13.198 14.298 L 15.17 14.298 L 15.17 14.933 L 12.53 14.933 L 12.53 13.969 C 12.27 14.167 11.996 14.349 11.711 14.512 L 11.711 14.299 L 9.739 14.299 L 9.739 13.22 L 10.947 13.22 L 10.947 12.586 L 9.739 12.586 L 9.739 11.636 L 11.593 11.636 L 11.593 11.001 L 9.071 11.001 L 9.071 14.934 L 10.852 14.934 Z M 10.86 14.933 L 11.71 14.933 L 11.71 14.515 C 11.437 14.671 11.153 14.811 10.86 14.933 Z M 14.549 11.636 C 14.365 11.968 14.156 12.285 13.925 12.584 L 14.406 12.584 L 14.406 13.219 L 13.377 13.219 C 13.571 13.018 13.755 12.807 13.926 12.586 L 13.2 12.586 L 13.2 11.636 L 14.549 11.636 L 14.549 11.636 Z M 13.373 13.22 C 13.316 13.279 13.259 13.337 13.2 13.394 L 13.2 13.22 L 13.373 13.22 L 13.373 13.22 Z"/>
</svg>
