<svg xmlns="http://www.w3.org/2000/svg" width="16" height="16" version="1.1">
 <defs>
   <style id="current-color-scheme" type="text/css">
   .ColorScheme-Text { color: #E7E7E7; } .ColorScheme-Highlight { color:#5294e2; }
  </style>
  <linearGradient id="arrongin" x1="0%" x2="0%" y1="0%" y2="100%">
   <stop offset="0%" style="stop-color:#dd9b44; stop-opacity:1"/>
   <stop offset="100%" style="stop-color:#ad6c16; stop-opacity:1"/>
  </linearGradient>
  <linearGradient id="aurora" x1="0%" x2="0%" y1="0%" y2="100%">
   <stop offset="0%" style="stop-color:#09D4DF; stop-opacity:1"/>
   <stop offset="100%" style="stop-color:#9269F4; stop-opacity:1"/>
  </linearGradient>
  <linearGradient id="cyberneon" x1="0%" x2="0%" y1="0%" y2="100%">
    <stop offset="0" style="stop-color:#0abdc6; stop-opacity:1"/>
    <stop offset="1" style="stop-color:#ea00d9; stop-opacity:1"/>
  </linearGradient>
  <linearGradient id="fitdance" x1="0%" x2="0%" y1="0%" y2="100%">
   <stop offset="0%" style="stop-color:#1AD6AB; stop-opacity:1"/>
   <stop offset="100%" style="stop-color:#329DB6; stop-opacity:1"/>
  </linearGradient>
  <linearGradient id="oomox" x1="0%" x2="0%" y1="0%" y2="100%">
   <stop offset="0%" style="stop-color:#efefe7; stop-opacity:1"/>
   <stop offset="100%" style="stop-color:#8f8f8b; stop-opacity:1"/>
  </linearGradient>
  <linearGradient id="rainblue" x1="0%" x2="0%" y1="0%" y2="100%">
   <stop offset="0%" style="stop-color:#00F260; stop-opacity:1"/>
   <stop offset="100%" style="stop-color:#0575E6; stop-opacity:1"/>
  </linearGradient>
  <linearGradient id="sunrise" x1="0%" x2="0%" y1="0%" y2="100%">
   <stop offset="0%" style="stop-color: #FF8501; stop-opacity:1"/>
   <stop offset="100%" style="stop-color: #FFCB01; stop-opacity:1"/>
  </linearGradient>
  <linearGradient id="telinkrin" x1="0%" x2="0%" y1="0%" y2="100%">
   <stop offset="0%" style="stop-color: #b2ced6; stop-opacity:1"/>
   <stop offset="100%" style="stop-color: #6da5b7; stop-opacity:1"/>
  </linearGradient>
  <linearGradient id="60spsycho" x1="0%" x2="0%" y1="0%" y2="100%">
   <stop offset="0%" style="stop-color: #df5940; stop-opacity:1"/>
   <stop offset="25%" style="stop-color: #d8d15f; stop-opacity:1"/>
   <stop offset="50%" style="stop-color: #e9882a; stop-opacity:1"/>
   <stop offset="100%" style="stop-color: #279362; stop-opacity:1"/>
  </linearGradient>
  <linearGradient id="90ssummer" x1="0%" x2="0%" y1="0%" y2="100%">
   <stop offset="0%" style="stop-color: #f618c7; stop-opacity:1"/>
   <stop offset="20%" style="stop-color: #94ffab; stop-opacity:1"/>
   <stop offset="50%" style="stop-color: #fbfd54; stop-opacity:1"/>
   <stop offset="100%" style="stop-color: #0f83ae; stop-opacity:1"/>
  </linearGradient>
 </defs>
 <path fill="currentColor" class="ColorScheme-Text" fill-rule="evenodd" d="M -0.031 12.5 L 15.969 12.5 L 15.969 14.5 L -0.031 14.5 L -0.031 12.5 Z"/>
 <path fill="currentColor" class="ColorScheme-Text" fill-rule="evenodd" d="M 3.794 10.33 L 3.794 10.33 L 3.794 10.33 Q 2.832 10.33 2.086 9.954 L 2.086 9.954 L 2.086 9.954 Q 1.34 9.578 0.895 8.936 L 0.895 8.936 L 0.895 8.936 Q 0.451 8.295 0.229 7.518 L 0.229 7.518 L 0.229 7.518 Q 0.007 6.741 0.007 5.865 L 0.007 5.865 L 0.007 5.865 Q 0.007 5.224 0.149 4.595 L 0.149 4.595 L 0.149 4.595 Q 0.291 3.966 0.599 3.386 L 0.599 3.386 L 0.599 3.386 Q 0.908 2.806 1.34 2.368 L 1.34 2.368 L 1.34 2.368 Q 1.771 1.93 2.406 1.665 L 2.406 1.665 L 2.406 1.665 Q 3.042 1.4 3.794 1.4 L 3.794 1.4 L 3.794 1.4 Q 4.929 1.4 5.619 1.863 L 5.619 1.863 L 5.619 1.863 Q 6.31 2.325 6.816 3.139 L 6.816 3.139 L 5.496 3.892 L 5.496 3.892 Q 4.781 2.831 3.794 2.831 L 3.794 2.831 L 3.794 2.831 Q 3.177 2.831 2.715 3.108 L 2.715 3.108 L 2.715 3.108 Q 2.252 3.386 2.006 3.848 L 2.006 3.848 L 2.006 3.848 Q 1.759 4.311 1.648 4.817 L 1.648 4.817 L 1.648 4.817 Q 1.537 5.322 1.537 5.865 L 1.537 5.865 L 1.537 5.865 Q 1.537 7.148 2.104 8.023 L 2.104 8.023 L 2.104 8.023 Q 2.672 8.899 3.794 8.899 L 3.794 8.899 L 3.794 8.899 Q 4.509 8.899 4.984 8.431 L 4.984 8.431 L 4.984 8.431 Q 5.459 7.962 5.459 7.283 L 5.459 7.283 L 5.459 7.148 L 3.942 7.148 L 3.942 5.754 L 6.964 5.754 L 6.964 6.95 L 6.964 6.95 Q 6.964 8.542 6.076 9.436 L 6.076 9.436 L 6.076 9.436 Q 5.188 10.33 3.794 10.33 Z M 12.206 10.33 L 12.206 10.33 L 12.206 10.33 Q 11.404 10.33 10.751 10.071 L 10.751 10.071 L 10.751 10.071 Q 10.097 9.812 9.671 9.374 L 9.671 9.374 L 9.671 9.374 Q 9.246 8.936 8.956 8.357 L 8.956 8.357 L 8.956 8.357 Q 8.666 7.777 8.543 7.154 L 8.543 7.154 L 8.543 7.154 Q 8.419 6.531 8.419 5.865 L 8.419 5.865 L 8.419 5.865 Q 8.419 5.199 8.543 4.576 L 8.543 4.576 L 8.543 4.576 Q 8.666 3.953 8.956 3.373 L 8.956 3.373 L 8.956 3.373 Q 9.246 2.794 9.671 2.356 L 9.671 2.356 L 9.671 2.356 Q 10.097 1.918 10.751 1.659 L 10.751 1.659 L 10.751 1.659 Q 11.404 1.4 12.206 1.4 L 12.206 1.4 L 12.206 1.4 Q 13.205 1.4 13.964 1.789 L 13.964 1.789 L 13.964 1.789 Q 14.722 2.177 15.148 2.837 L 15.148 2.837 L 15.148 2.837 Q 15.573 3.497 15.783 4.262 L 15.783 4.262 L 15.783 4.262 Q 15.993 5.026 15.993 5.865 L 15.993 5.865 L 15.993 5.865 Q 15.993 6.704 15.783 7.468 L 15.783 7.468 L 15.783 7.468 Q 15.573 8.233 15.148 8.893 L 15.148 8.893 L 15.148 8.893 Q 14.722 9.553 13.964 9.941 L 13.964 9.941 L 13.964 9.941 Q 13.205 10.33 12.206 10.33 Z M 12.206 8.912 L 12.206 8.912 L 12.206 8.912 Q 12.798 8.912 13.254 8.628 L 13.254 8.628 L 13.254 8.628 Q 13.711 8.344 13.964 7.882 L 13.964 7.882 L 13.964 7.882 Q 14.216 7.419 14.34 6.907 L 14.34 6.907 L 14.34 6.907 Q 14.463 6.395 14.463 5.865 L 14.463 5.865 L 14.463 5.865 Q 14.463 5.298 14.34 4.786 L 14.34 4.786 L 14.34 4.786 Q 14.216 4.274 13.964 3.818 L 13.964 3.818 L 13.964 3.818 Q 13.711 3.361 13.261 3.09 L 13.261 3.09 L 13.261 3.09 Q 12.81 2.818 12.206 2.818 L 12.206 2.818 L 12.206 2.818 Q 11.417 2.818 10.886 3.318 L 10.886 3.318 L 10.886 3.318 Q 10.356 3.818 10.152 4.471 L 10.152 4.471 L 10.152 4.471 Q 9.949 5.125 9.949 5.865 L 9.949 5.865 L 9.949 5.865 Q 9.949 6.42 10.072 6.938 L 10.072 6.938 L 10.072 6.938 Q 10.195 7.456 10.448 7.912 L 10.448 7.912 L 10.448 7.912 Q 10.701 8.369 11.151 8.64 L 11.151 8.64 L 11.151 8.64 Q 11.602 8.912 12.206 8.912 Z"/>
</svg>
