<svg xmlns="http://www.w3.org/2000/svg" width="16" height="16" version="1.1">
 <defs>
   <style id="current-color-scheme" type="text/css">
   .ColorScheme-Text { color: #E7E7E7; } .ColorScheme-Highlight { color:#5294e2; }
  </style>
  <linearGradient id="arrongin" x1="0%" x2="0%" y1="0%" y2="100%">
   <stop offset="0%" style="stop-color:#dd9b44; stop-opacity:1"/>
   <stop offset="100%" style="stop-color:#ad6c16; stop-opacity:1"/>
  </linearGradient>
  <linearGradient id="aurora" x1="0%" x2="0%" y1="0%" y2="100%">
   <stop offset="0%" style="stop-color:#09D4DF; stop-opacity:1"/>
   <stop offset="100%" style="stop-color:#9269F4; stop-opacity:1"/>
  </linearGradient>
  <linearGradient id="cyberneon" x1="0%" x2="0%" y1="0%" y2="100%">
    <stop offset="0" style="stop-color:#0abdc6; stop-opacity:1"/>
    <stop offset="1" style="stop-color:#ea00d9; stop-opacity:1"/>
  </linearGradient>
  <linearGradient id="fitdance" x1="0%" x2="0%" y1="0%" y2="100%">
   <stop offset="0%" style="stop-color:#1AD6AB; stop-opacity:1"/>
   <stop offset="100%" style="stop-color:#329DB6; stop-opacity:1"/>
  </linearGradient>
  <linearGradient id="oomox" x1="0%" x2="0%" y1="0%" y2="100%">
   <stop offset="0%" style="stop-color:#efefe7; stop-opacity:1"/>
   <stop offset="100%" style="stop-color:#8f8f8b; stop-opacity:1"/>
  </linearGradient>
  <linearGradient id="rainblue" x1="0%" x2="0%" y1="0%" y2="100%">
   <stop offset="0%" style="stop-color:#00F260; stop-opacity:1"/>
   <stop offset="100%" style="stop-color:#0575E6; stop-opacity:1"/>
  </linearGradient>
  <linearGradient id="sunrise" x1="0%" x2="0%" y1="0%" y2="100%">
   <stop offset="0%" style="stop-color: #FF8501; stop-opacity:1"/>
   <stop offset="100%" style="stop-color: #FFCB01; stop-opacity:1"/>
  </linearGradient>
  <linearGradient id="telinkrin" x1="0%" x2="0%" y1="0%" y2="100%">
   <stop offset="0%" style="stop-color: #b2ced6; stop-opacity:1"/>
   <stop offset="100%" style="stop-color: #6da5b7; stop-opacity:1"/>
  </linearGradient>
  <linearGradient id="60spsycho" x1="0%" x2="0%" y1="0%" y2="100%">
   <stop offset="0%" style="stop-color: #df5940; stop-opacity:1"/>
   <stop offset="25%" style="stop-color: #d8d15f; stop-opacity:1"/>
   <stop offset="50%" style="stop-color: #e9882a; stop-opacity:1"/>
   <stop offset="100%" style="stop-color: #279362; stop-opacity:1"/>
  </linearGradient>
  <linearGradient id="90ssummer" x1="0%" x2="0%" y1="0%" y2="100%">
   <stop offset="0%" style="stop-color: #f618c7; stop-opacity:1"/>
   <stop offset="20%" style="stop-color: #94ffab; stop-opacity:1"/>
   <stop offset="50%" style="stop-color: #fbfd54; stop-opacity:1"/>
   <stop offset="100%" style="stop-color: #0f83ae; stop-opacity:1"/>
  </linearGradient>
 </defs>
 <path fill="currentColor" class="ColorScheme-Text" fill-rule="evenodd" d="M 13.063 11.165 C 13.2 11.162 13.371 11.177 13.51 11.21 L 13.68 11.25 L 13.462 11.344 C 13.341 11.396 13.203 11.437 13.154 11.436 C 13.031 11.434 12.825 11.3 12.825 11.222 C 12.825 11.187 12.927 11.167 13.063 11.165 L 13.063 11.165 L 13.063 11.165 L 13.063 11.165 L 13.063 11.165 Z M 3.381 11.118 C 3.527 11.134 3.508 11.219 3.296 11.325 C 3.171 11.387 3.039 11.436 3.001 11.434 C 2.855 11.425 2.557 11.314 2.557 11.27 C 2.557 11.224 2.664 11.2 3.181 11.127 C 3.266 11.115 3.333 11.113 3.381 11.118 L 3.381 11.118 L 3.381 11.118 L 3.381 11.118 L 3.381 11.118 Z M 5.59 10.975 C 5.684 11.019 5.429 11.207 5.224 11.243 C 5.118 11.263 4.992 11.316 4.945 11.362 C 4.898 11.408 4.781 11.479 4.684 11.519 C 4.409 11.632 4.185 11.654 3.943 11.592 C 3.747 11.542 3.623 11.383 3.779 11.383 C 3.812 11.383 3.958 11.315 4.104 11.233 C 4.3 11.123 4.525 11.065 4.953 11.016 C 5.273 10.979 5.56 10.961 5.59 10.975 L 5.59 10.975 L 5.59 10.975 L 5.59 10.975 L 5.59 10.975 Z M 10.75 10.999 C 10.823 10.996 10.929 11 11.059 11.011 C 11.371 11.038 11.53 11.083 11.658 11.181 C 11.754 11.254 11.939 11.358 12.068 11.411 C 12.291 11.503 12.297 11.513 12.175 11.586 C 12.023 11.677 12.057 11.68 11.632 11.542 C 11.229 11.412 10.634 11.106 10.634 11.029 C 10.634 11.012 10.676 11.002 10.75 10.999 L 10.75 10.999 L 10.75 10.999 L 10.75 10.999 L 10.75 10.999 Z M 8.113 11.019 L 8.28 11.187 C 8.371 11.279 8.498 11.449 8.561 11.565 C 8.624 11.68 8.696 11.775 8.721 11.775 C 8.829 11.775 9.539 12.198 9.539 12.262 C 9.539 12.341 9.194 12.504 9.026 12.504 C 8.966 12.504 8.758 12.592 8.562 12.7 C 8.139 12.932 8.019 12.938 7.656 12.739 C 7.506 12.656 7.228 12.525 7.04 12.448 C 6.852 12.371 6.699 12.27 6.699 12.225 C 6.699 12.179 6.875 12.047 7.091 11.93 C 7.334 11.798 7.534 11.636 7.615 11.507 C 7.687 11.392 7.829 11.236 7.93 11.159 L 8.113 11.019 L 8.113 11.019 L 8.113 11.019 L 8.113 11.019 L 8.113 11.019 Z M 8.955 10.935 C 9.204 10.936 9.935 11.185 10.211 11.379 C 10.35 11.477 10.364 11.523 10.324 11.745 C 10.298 11.885 10.241 11.998 10.199 11.997 C 10.09 11.993 9.552 11.725 9.246 11.523 C 9.01 11.367 8.79 11.024 8.88 10.951 C 8.893 10.94 8.919 10.935 8.955 10.935 L 8.955 10.935 L 8.955 10.935 L 8.955 10.935 L 8.955 10.935 Z M 7.149 10.931 C 7.298 10.927 7.417 10.959 7.417 11.031 C 7.417 11.191 6.601 11.765 6.199 11.888 C 5.752 12.025 5.737 12.025 5.569 11.887 C 5.301 11.668 5.44 11.516 6.105 11.303 C 6.337 11.228 6.608 11.115 6.707 11.051 C 6.823 10.976 7.001 10.935 7.149 10.931 L 7.149 10.931 L 7.149 10.931 L 7.149 10.931 L 7.149 10.931 Z M 10.775 11.67 C 10.886 11.672 10.983 11.72 10.943 11.774 C 10.888 11.847 10.655 11.847 10.6 11.774 C 10.576 11.743 10.605 11.703 10.664 11.684 C 10.699 11.673 10.738 11.669 10.775 11.67 L 10.775 11.67 L 10.775 11.67 L 10.775 11.67 L 10.775 11.67 Z M 5.158 11.691 C 5.208 11.691 5.261 11.722 5.277 11.76 C 5.294 11.802 5.246 11.831 5.158 11.831 C 5.069 11.831 5.021 11.802 5.038 11.76 C 5.054 11.722 5.107 11.691 5.158 11.691 L 5.158 11.691 L 5.158 11.691 L 5.158 11.691 Z M 14.839 10.367 C 13.743 10.134 13.73 10.12 13.896 9.442 C 14.026 8.91 14.286 8.363 14.409 8.363 C 14.608 8.363 14.861 8.538 14.977 8.756 C 15.05 8.892 15.173 9.053 15.251 9.113 C 15.352 9.191 15.392 9.311 15.392 9.537 C 15.392 9.904 15.532 10.17 15.806 10.322 C 15.913 10.381 16 10.458 16 10.493 C 16 10.587 15.742 10.559 14.839 10.367 L 14.839 10.367 L 14.839 10.367 L 14.839 10.367 Z M 3.537 5.455 L 3.189 5.618 C 2.738 5.829 2.529 6.098 2.409 6.625 C 2.355 6.86 2.253 7.112 2.181 7.187 C 2.109 7.262 1.961 7.609 1.851 7.958 C 1.741 8.306 1.613 8.642 1.565 8.702 C 1.486 8.801 1.464 8.791 1.359 8.604 C 1.295 8.489 1.212 8.396 1.175 8.396 C 1.046 8.396 0.725 8.949 0.593 9.397 C 0.444 9.904 0.303 10.186 0.092 10.398 C -0.016 10.505 -0.027 10.544 0.048 10.545 C 0.134 10.546 2.248 10.252 3.221 10.103 C 3.523 10.057 3.535 10.047 3.652 9.696 C 3.718 9.498 3.879 9.152 4.01 8.926 L 4.248 8.516 L 4.239 7.376 C 4.229 6.142 4.244 6.198 3.776 5.705 L 3.538 5.454 L 3.537 5.455 L 3.537 5.455 L 3.537 5.455 Z M 4.183 9.208 C 4.153 9.213 4.123 9.238 4.095 9.287 C 3.967 9.516 3.859 9.891 3.903 9.957 C 3.96 10.041 4.054 10.041 4.227 9.956 C 4.331 9.905 4.364 9.818 4.364 9.605 C 4.364 9.36 4.275 9.194 4.184 9.208 L 4.183 9.208 L 4.183 9.208 L 4.183 9.208 Z M 8.26 10.548 C 6.695 10.533 5.25 10.597 3.994 10.739 C 1.746 10.994 0.823 11.107 0.763 11.137 C 0.655 11.192 0.781 11.249 1.289 11.373 C 1.597 11.449 1.801 11.533 1.858 11.609 C 1.929 11.703 1.968 11.714 2.044 11.662 C 2.192 11.562 2.546 11.684 2.859 11.945 C 3.14 12.178 3.205 12.204 3.275 12.112 C 3.299 12.081 3.431 12.055 3.57 12.054 C 3.709 12.054 3.868 12.03 3.924 12.001 C 3.995 11.965 4.096 11.982 4.253 12.058 C 4.378 12.118 4.583 12.167 4.707 12.167 C 4.831 12.167 5.114 12.244 5.336 12.336 C 5.558 12.429 6.014 12.609 6.349 12.737 C 6.685 12.865 7.193 13.077 7.479 13.211 C 7.765 13.344 8.03 13.454 8.067 13.455 C 8.105 13.455 8.243 13.402 8.375 13.335 C 8.926 13.056 10.77 12.335 10.931 12.335 C 11.027 12.335 11.126 12.308 11.151 12.275 C 11.176 12.241 11.272 12.23 11.366 12.249 C 11.493 12.276 11.592 12.242 11.771 12.113 C 12.062 11.904 12.468 11.876 12.604 12.055 C 12.723 12.21 12.799 12.197 13.052 11.977 C 13.348 11.719 13.676 11.591 13.924 11.635 C 14.072 11.662 14.179 11.637 14.347 11.537 C 14.47 11.463 14.709 11.368 14.879 11.326 C 15.276 11.229 15.314 11.211 15.245 11.155 C 15.169 11.094 13.968 10.896 13.236 10.825 C 11.507 10.655 9.824 10.562 8.26 10.548 L 8.26 10.548 L 8.26 10.548 L 8.26 10.548 L 8.26 10.548 Z M 12.137 9.716 C 10.23 9.402 8.055 9.313 6.323 9.479 C 5.734 9.536 5.357 9.546 5.321 9.506 C 5.289 9.471 5.217 9.162 5.162 8.82 C 5.066 8.233 5.066 8.16 5.172 7.534 C 5.331 6.59 5.407 6.343 5.637 6.027 C 5.844 5.743 6.056 5.666 6.171 5.833 C 6.307 6.032 6.559 7.07 6.559 7.431 C 6.559 8.025 6.678 7.777 6.75 7.033 C 6.821 6.303 6.841 6.206 7.133 5.127 C 7.25 4.691 7.367 4.118 7.391 3.853 C 7.417 3.569 7.478 3.309 7.54 3.218 C 7.599 3.134 7.682 2.966 7.726 2.846 C 7.863 2.469 7.913 2.462 8.463 2.738 L 8.966 2.99 L 9.113 3.503 C 9.194 3.785 9.318 4.176 9.388 4.372 C 9.458 4.568 9.625 5.193 9.757 5.761 C 9.906 6.394 10.038 6.826 10.101 6.876 C 10.216 6.968 10.468 7.689 10.532 8.108 C 10.555 8.261 10.616 8.442 10.666 8.511 C 10.749 8.624 10.754 8.596 10.719 8.228 C 10.698 8.004 10.654 7.705 10.62 7.564 C 10.546 7.247 10.631 6.681 10.803 6.354 C 10.87 6.227 10.985 5.877 11.059 5.579 C 11.231 4.881 11.286 4.816 11.56 4.97 C 12.088 5.268 12.195 5.423 12.41 6.194 C 12.521 6.593 12.665 7.018 12.73 7.139 C 12.867 7.395 13.09 8.444 13.091 8.84 C 13.093 9.315 12.897 9.85 12.734 9.816 C 12.711 9.812 12.443 9.767 12.137 9.716 L 12.137 9.716 Z"/>
</svg>
