<svg xmlns="http://www.w3.org/2000/svg" width="16" height="16" version="1.1">
 <defs>
   <style id="current-color-scheme" type="text/css">
   .ColorScheme-Text { color: #E7E7E7; } .ColorScheme-Highlight { color:#5294e2; }
  </style>
  <linearGradient id="arrongin" x1="0%" x2="0%" y1="0%" y2="100%">
   <stop offset="0%" style="stop-color:#dd9b44; stop-opacity:1"/>
   <stop offset="100%" style="stop-color:#ad6c16; stop-opacity:1"/>
  </linearGradient>
  <linearGradient id="aurora" x1="0%" x2="0%" y1="0%" y2="100%">
   <stop offset="0%" style="stop-color:#09D4DF; stop-opacity:1"/>
   <stop offset="100%" style="stop-color:#9269F4; stop-opacity:1"/>
  </linearGradient>
  <linearGradient id="cyberneon" x1="0%" x2="0%" y1="0%" y2="100%">
    <stop offset="0" style="stop-color:#0abdc6; stop-opacity:1"/>
    <stop offset="1" style="stop-color:#ea00d9; stop-opacity:1"/>
  </linearGradient>
  <linearGradient id="fitdance" x1="0%" x2="0%" y1="0%" y2="100%">
   <stop offset="0%" style="stop-color:#1AD6AB; stop-opacity:1"/>
   <stop offset="100%" style="stop-color:#329DB6; stop-opacity:1"/>
  </linearGradient>
  <linearGradient id="oomox" x1="0%" x2="0%" y1="0%" y2="100%">
   <stop offset="0%" style="stop-color:#efefe7; stop-opacity:1"/>
   <stop offset="100%" style="stop-color:#8f8f8b; stop-opacity:1"/>
  </linearGradient>
  <linearGradient id="rainblue" x1="0%" x2="0%" y1="0%" y2="100%">
   <stop offset="0%" style="stop-color:#00F260; stop-opacity:1"/>
   <stop offset="100%" style="stop-color:#0575E6; stop-opacity:1"/>
  </linearGradient>
  <linearGradient id="sunrise" x1="0%" x2="0%" y1="0%" y2="100%">
   <stop offset="0%" style="stop-color: #FF8501; stop-opacity:1"/>
   <stop offset="100%" style="stop-color: #FFCB01; stop-opacity:1"/>
  </linearGradient>
  <linearGradient id="telinkrin" x1="0%" x2="0%" y1="0%" y2="100%">
   <stop offset="0%" style="stop-color: #b2ced6; stop-opacity:1"/>
   <stop offset="100%" style="stop-color: #6da5b7; stop-opacity:1"/>
  </linearGradient>
  <linearGradient id="60spsycho" x1="0%" x2="0%" y1="0%" y2="100%">
   <stop offset="0%" style="stop-color: #df5940; stop-opacity:1"/>
   <stop offset="25%" style="stop-color: #d8d15f; stop-opacity:1"/>
   <stop offset="50%" style="stop-color: #e9882a; stop-opacity:1"/>
   <stop offset="100%" style="stop-color: #279362; stop-opacity:1"/>
  </linearGradient>
  <linearGradient id="90ssummer" x1="0%" x2="0%" y1="0%" y2="100%">
   <stop offset="0%" style="stop-color: #f618c7; stop-opacity:1"/>
   <stop offset="20%" style="stop-color: #94ffab; stop-opacity:1"/>
   <stop offset="50%" style="stop-color: #fbfd54; stop-opacity:1"/>
   <stop offset="100%" style="stop-color: #0f83ae; stop-opacity:1"/>
  </linearGradient>
 </defs>
 <path fill="currentColor" class="ColorScheme-Text" d="M 6.0546875 2.6992188 C 5.4009033 2.7005625 4.757733 2.7306707 4.1367188 2.7851562 C 3.5157042 2.8396318 2.9161414 2.9193108 2.3476562 3.0234375 C 1.7791706 3.1275609 1.2422906 3.25562 0.74609375 3.40625 C 0.60716984 3.4484463 0.48378454 3.5180357 0.37890625 3.6054688 C 0.2740273 3.6929052 0.18836466 3.7993421 0.125 3.9179688 C 0.06163535 4.0365955 0.020241055 4.1669638 0.005859375 4.3027344 C -0.008522975 4.4385117 0.002860295 4.5798617 0.044921875 4.71875 C 0.086993195 4.8575779 0.15479346 4.9810918 0.2421875 5.0859375 C 0.3295805 5.1907832 0.43801395 5.276482 0.55664062 5.3398438 C 0.67526765 5.4032088 0.80563631 5.4426455 0.94140625 5.4570312 C 1.0771762 5.4714102 1.2166456 5.4598828 1.3554688 5.4179688 C 1.7877224 5.2867773 2.2603045 5.1748207 2.7617188 5.0839844 C 3.2631329 4.9931549 3.7941576 4.9246659 4.3457031 4.8769531 C 4.8972497 4.8292236 5.4681311 4.8026224 6.0507812 4.8007812 C 6.6334298 4.7987613 7.2275425 4.8204025 7.8222656 4.8671875 C 8.4169888 4.9139995 9.013793 4.9858008 9.6015625 5.0839844 C 10.189333 5.1821684 10.768291 5.306651 11.330078 5.4589844 C 11.891865 5.611311 12.436349 5.7927119 12.953125 6.0019531 C 13.469899 6.2111943 13.959375 6.4498461 14.412109 6.71875 C 14.536574 6.792892 14.671378 6.8370045 14.806641 6.8554688 C 14.941904 6.8739127 15.078565 6.8653243 15.208984 6.8320312 C 15.339405 6.7987712 15.462332 6.7411957 15.572266 6.6601562 C 15.6822 6.5791163 15.777756 6.4744815 15.851562 6.3496094 C 15.925702 6.224912 15.971697 6.0922845 15.990234 5.9570312 C 16.008764 5.8217881 16.000017 5.6850223 15.966797 5.5546875 C 15.933584 5.4243528 15.876026 5.2994087 15.794922 5.1894531 C 15.71382 5.0795008 15.60951 4.9842685 15.484375 4.9101562 C 15.223755 4.7554377 14.954141 4.6100494 14.675781 4.4726562 C 14.397418 4.3352629 14.110039 4.2063985 13.816406 4.0859375 C 13.229138 3.8450188 12.614005 3.6364889 11.980469 3.4609375 C 11.346933 3.2853794 10.695201 3.1426289 10.035156 3.0292969 C 9.3751116 2.9159649 8.7078104 2.8315941 8.0410156 2.7773438 C 7.3742228 2.7230899 6.7084707 2.6975355 6.0546875 2.6992188 z M 6.2539062 6.5722656 C 5.6963639 6.5601039 5.1397835 6.5747057 4.5878906 6.6171875 C 4.035999 6.659488 3.4892205 6.7301799 2.953125 6.828125 C 2.4170298 6.9260735 1.8910123 7.0522388 1.3808594 7.2070312 C 1.2652181 7.2422295 1.1615808 7.298248 1.0742188 7.3710938 C 0.98685692 7.4439496 0.91612841 7.5339839 0.86328125 7.6328125 C 0.81043405 7.7316345 0.77576808 7.8399644 0.76367188 7.953125 C 0.75157407 8.066279 0.761992 8.1829865 0.796875 8.2988281 C 0.8320336 8.4144748 0.88999219 8.5181265 0.96289062 8.6054688 C 1.0357888 8.6928108 1.123731 8.763597 1.2226562 8.8164062 C 1.3215823 8.8692093 1.4297284 8.9039876 1.5429688 8.9160156 C 1.6562089 8.9280426 1.7747828 8.9178575 1.890625 8.8828125 C 2.3372372 8.7472467 2.7996934 8.6362523 3.2734375 8.5507812 C 3.747181 8.4653237 4.2319984 8.4056828 4.7226562 8.3691406 C 5.2133138 8.3326216 5.7096763 8.3208232 6.2070312 8.3320312 C 6.7043871 8.3432523 7.2034302 8.3778188 7.6972656 8.4355469 C 8.191101 8.4933049 8.6800568 8.5746122 9.1601562 8.6777344 C 9.6402546 8.7808567 10.110262 8.9054304 10.566406 9.0527344 C 11.022552 9.2000519 11.464744 9.3682805 11.886719 9.5585938 C 12.308693 9.7489105 12.710305 9.9612157 13.087891 10.193359 C 13.190885 10.256759 13.30159 10.295484 13.414062 10.3125 C 13.526533 10.32947 13.640968 10.325028 13.75 10.298828 C 13.859032 10.272588 13.963962 10.226422 14.056641 10.160156 C 14.149271 10.093926 14.229577 10.007385 14.292969 9.9042969 C 14.356299 9.8014972 14.397049 9.6904424 14.414062 9.578125 C 14.431093 9.4657337 14.424607 9.3511823 14.398438 9.2421875 C 14.372274 9.1331849 14.325941 9.0301706 14.259766 8.9375 C 14.193593 8.8448294 14.108853 8.7626307 14.005859 8.6992188 C 13.572247 8.4327674 13.113456 8.1906492 12.634766 7.9726562 C 12.156075 7.7546701 11.6562 7.560903 11.142578 7.3925781 C 10.628956 7.2242498 10.100908 7.0823047 9.5625 6.9648438 C 9.0240925 6.8473761 8.4749246 6.7548573 7.921875 6.6894531 C 7.3688264 6.6240454 6.8114503 6.5844206 6.2539062 6.5722656 z M 6.3242188 10.236328 C 5.8479744 10.227528 5.3614894 10.240681 4.8652344 10.275391 C 4.3689778 10.310291 3.8635288 10.366733 3.3476562 10.445312 C 2.8317834 10.523882 2.3065794 10.625745 1.7714844 10.748047 C 1.6770124 10.769517 1.591425 10.808132 1.5175781 10.861328 C 1.4437321 10.914518 1.3816145 10.982685 1.3339844 11.058594 C 1.2863544 11.134494 1.2521521 11.219004 1.2363281 11.308594 C 1.2205011 11.398184 1.2225676 11.491672 1.2441406 11.585938 C 1.2656086 11.680207 1.306182 11.766014 1.359375 11.839844 C 1.412568 11.913674 1.4787926 11.975715 1.5546875 12.023438 C 1.6305825 12.071157 1.715111 12.105134 1.8046875 12.121094 C 1.8942635 12.137054 1.9877945 12.134761 2.0820312 12.113281 C 2.5709986 12.001564 3.0511422 11.910293 3.5214844 11.837891 C 3.9918272 11.765491 4.4529417 11.712829 4.9042969 11.679688 C 5.3556528 11.646558 5.7984628 11.632582 6.2304688 11.638672 C 6.6624738 11.644772 7.083801 11.669604 7.4960938 11.714844 C 7.9083869 11.760084 8.3109081 11.825787 8.703125 11.910156 C 9.0953416 11.994526 9.4778308 12.099205 9.8496094 12.222656 C 10.221387 12.346097 10.582617 12.487915 10.933594 12.650391 C 11.284572 12.812863 11.625263 12.995802 11.955078 13.197266 C 12.037608 13.247936 12.12672 13.279449 12.216797 13.292969 C 12.306877 13.306509 12.39715 13.300397 12.484375 13.279297 C 12.571605 13.258267 12.654541 13.221041 12.728516 13.167969 C 12.802486 13.114889 12.867647 13.047369 12.917969 12.964844 C 12.968629 12.882314 13.000152 12.793101 13.013672 12.703125 C 13.027192 12.613155 13.023053 12.522691 13.001953 12.435547 C 12.980903 12.348407 12.9437 12.263492 12.890625 12.189453 C 12.837555 12.115423 12.768075 12.050655 12.685547 12 C 12.315273 11.773719 11.935224 11.569581 11.542969 11.386719 C 11.150714 11.203858 10.745875 11.043692 10.332031 10.904297 C 9.9181858 10.764883 9.4936311 10.646677 9.0585938 10.550781 C 8.6235547 10.454892 8.1784951 10.380461 7.7226562 10.328125 C 7.266819 10.275783 6.8004627 10.245073 6.3242188 10.236328 z"/>
</svg>
