<svg xmlns="http://www.w3.org/2000/svg" width="16" height="16" version="1.1">
 <defs>
   <style id="current-color-scheme" type="text/css">
   .ColorScheme-Text { color: #E7E7E7; } .ColorScheme-Highlight { color:#5294e2; }
  </style>
  <linearGradient id="arrongin" x1="0%" x2="0%" y1="0%" y2="100%">
   <stop offset="0%" style="stop-color:#dd9b44; stop-opacity:1"/>
   <stop offset="100%" style="stop-color:#ad6c16; stop-opacity:1"/>
  </linearGradient>
  <linearGradient id="aurora" x1="0%" x2="0%" y1="0%" y2="100%">
   <stop offset="0%" style="stop-color:#09D4DF; stop-opacity:1"/>
   <stop offset="100%" style="stop-color:#9269F4; stop-opacity:1"/>
  </linearGradient>
  <linearGradient id="cyberneon" x1="0%" x2="0%" y1="0%" y2="100%">
    <stop offset="0" style="stop-color:#0abdc6; stop-opacity:1"/>
    <stop offset="1" style="stop-color:#ea00d9; stop-opacity:1"/>
  </linearGradient>
  <linearGradient id="fitdance" x1="0%" x2="0%" y1="0%" y2="100%">
   <stop offset="0%" style="stop-color:#1AD6AB; stop-opacity:1"/>
   <stop offset="100%" style="stop-color:#329DB6; stop-opacity:1"/>
  </linearGradient>
  <linearGradient id="oomox" x1="0%" x2="0%" y1="0%" y2="100%">
   <stop offset="0%" style="stop-color:#efefe7; stop-opacity:1"/>
   <stop offset="100%" style="stop-color:#8f8f8b; stop-opacity:1"/>
  </linearGradient>
  <linearGradient id="rainblue" x1="0%" x2="0%" y1="0%" y2="100%">
   <stop offset="0%" style="stop-color:#00F260; stop-opacity:1"/>
   <stop offset="100%" style="stop-color:#0575E6; stop-opacity:1"/>
  </linearGradient>
  <linearGradient id="sunrise" x1="0%" x2="0%" y1="0%" y2="100%">
   <stop offset="0%" style="stop-color: #FF8501; stop-opacity:1"/>
   <stop offset="100%" style="stop-color: #FFCB01; stop-opacity:1"/>
  </linearGradient>
  <linearGradient id="telinkrin" x1="0%" x2="0%" y1="0%" y2="100%">
   <stop offset="0%" style="stop-color: #b2ced6; stop-opacity:1"/>
   <stop offset="100%" style="stop-color: #6da5b7; stop-opacity:1"/>
  </linearGradient>
  <linearGradient id="60spsycho" x1="0%" x2="0%" y1="0%" y2="100%">
   <stop offset="0%" style="stop-color: #df5940; stop-opacity:1"/>
   <stop offset="25%" style="stop-color: #d8d15f; stop-opacity:1"/>
   <stop offset="50%" style="stop-color: #e9882a; stop-opacity:1"/>
   <stop offset="100%" style="stop-color: #279362; stop-opacity:1"/>
  </linearGradient>
  <linearGradient id="90ssummer" x1="0%" x2="0%" y1="0%" y2="100%">
   <stop offset="0%" style="stop-color: #f618c7; stop-opacity:1"/>
   <stop offset="20%" style="stop-color: #94ffab; stop-opacity:1"/>
   <stop offset="50%" style="stop-color: #fbfd54; stop-opacity:1"/>
   <stop offset="100%" style="stop-color: #0f83ae; stop-opacity:1"/>
  </linearGradient>
 </defs>
 <path fill="currentColor" class="ColorScheme-Text" fill-rule="evenodd" d="M 8.166 16 L 8.166 16 L 8.166 16 Q 4.497 16 2.287 13.956 L 2.287 13.956 L 2.287 13.956 Q 0.077 11.912 0.077 8.265 L 0.077 8.265 L 0.077 8.265 Q 0.077 4.685 2.464 2.343 L 2.464 2.343 L 2.464 2.343 Q 4.851 0 8.365 0 L 8.365 0 L 8.365 0 Q 11.746 0 13.834 1.912 L 13.834 1.912 L 13.834 1.912 Q 15.923 3.823 15.923 6.63 L 15.923 6.63 L 15.923 6.63 Q 15.923 9.061 14.575 10.652 L 14.575 10.652 L 14.575 10.652 Q 13.227 12.243 11.215 12.243 L 11.215 12.243 L 11.215 12.243 Q 10.663 12.243 10.133 11.956 L 10.133 11.956 L 10.133 11.956 Q 9.602 11.669 9.425 11.094 L 9.425 11.094 L 9.425 11.094 Q 8.74 12.243 7.238 12.243 L 7.238 12.243 L 7.238 12.243 Q 5.823 12.243 4.939 11.204 L 4.939 11.204 L 4.939 11.204 Q 4.055 10.166 4.055 8.464 L 4.055 8.464 L 4.055 8.464 Q 4.055 6.696 5.215 5.293 L 5.215 5.293 L 5.215 5.293 Q 6.376 3.89 8.166 3.89 L 8.166 3.89 L 8.166 3.89 Q 9.47 3.89 9.978 4.796 L 9.978 4.796 L 10.088 4.177 L 12.276 4.177 L 11.547 8.11 L 11.547 8.11 Q 11.26 9.547 11.26 9.878 L 11.26 9.878 L 11.26 9.878 Q 11.26 10.254 11.635 10.254 L 11.635 10.254 L 11.635 10.254 Q 12.475 10.254 13.116 9.271 L 13.116 9.271 L 13.116 9.271 Q 13.757 8.287 13.757 6.674 L 13.757 6.674 L 13.757 6.674 Q 13.757 4.707 12.409 3.436 L 12.409 3.436 L 12.409 3.436 Q 11.061 2.166 8.475 2.166 L 8.475 2.166 L 8.475 2.166 Q 5.779 2.166 4.077 3.89 L 4.077 3.89 L 4.077 3.89 Q 2.376 5.613 2.376 8.287 L 2.376 8.287 L 2.376 8.287 Q 2.376 10.939 3.956 12.387 L 3.956 12.387 L 3.956 12.387 Q 5.536 13.834 8.254 13.834 L 8.254 13.834 L 8.254 13.834 Q 9.558 13.834 11.282 13.414 L 11.282 13.414 L 10.641 15.823 L 10.641 15.823 Q 9.271 16 8.166 16 Z M 7.503 10.077 L 7.503 10.077 L 7.503 10.077 Q 8.343 10.077 8.873 9.304 L 8.873 9.304 L 8.873 9.304 Q 9.403 8.53 9.403 7.602 L 9.403 7.602 L 9.403 7.602 Q 9.403 6.873 9.094 6.464 L 9.094 6.464 L 9.094 6.464 Q 8.785 6.055 8.21 6.055 L 8.21 6.055 L 8.21 6.055 Q 7.37 6.055 6.84 6.773 L 6.84 6.773 L 6.84 6.773 Q 6.309 7.492 6.309 8.508 L 6.309 8.508 L 6.309 8.508 Q 6.309 9.215 6.63 9.646 L 6.63 9.646 L 6.63 9.646 Q 6.95 10.077 7.503 10.077 Z"/>
</svg>
