<svg xmlns="http://www.w3.org/2000/svg" width="16" height="16" version="1.1">
 <defs>
   <style id="current-color-scheme" type="text/css">
   .ColorScheme-Text { color: #cc00cc; } .ColorScheme-Highlight { color:#5294e2; }
  </style>
  <linearGradient id="arrongin" x1="0%" x2="0%" y1="0%" y2="100%">
   <stop offset="0%" style="stop-color:#dd9b44; stop-opacity:1"/>
   <stop offset="100%" style="stop-color:#ad6c16; stop-opacity:1"/>
  </linearGradient>
  <linearGradient id="aurora" x1="0%" x2="0%" y1="0%" y2="100%">
   <stop offset="0%" style="stop-color:#09D4DF; stop-opacity:1"/>
   <stop offset="100%" style="stop-color:#9269F4; stop-opacity:1"/>
  </linearGradient>
  <linearGradient id="cyberneon" x1="0%" x2="0%" y1="0%" y2="100%">
    <stop offset="0" style="stop-color:#0abdc6; stop-opacity:1"/>
    <stop offset="1" style="stop-color:#ea00d9; stop-opacity:1"/>
  </linearGradient>
  <linearGradient id="fitdance" x1="0%" x2="0%" y1="0%" y2="100%">
   <stop offset="0%" style="stop-color:#1AD6AB; stop-opacity:1"/>
   <stop offset="100%" style="stop-color:#329DB6; stop-opacity:1"/>
  </linearGradient>
  <linearGradient id="oomox" x1="0%" x2="0%" y1="0%" y2="100%">
   <stop offset="0%" style="stop-color:#efefe7; stop-opacity:1"/>
   <stop offset="100%" style="stop-color:#8f8f8b; stop-opacity:1"/>
  </linearGradient>
  <linearGradient id="rainblue" x1="0%" x2="0%" y1="0%" y2="100%">
   <stop offset="0%" style="stop-color:#00F260; stop-opacity:1"/>
   <stop offset="100%" style="stop-color:#0575E6; stop-opacity:1"/>
  </linearGradient>
  <linearGradient id="sunrise" x1="0%" x2="0%" y1="0%" y2="100%">
   <stop offset="0%" style="stop-color: #FF8501; stop-opacity:1"/>
   <stop offset="100%" style="stop-color: #FFCB01; stop-opacity:1"/>
  </linearGradient>
  <linearGradient id="telinkrin" x1="0%" x2="0%" y1="0%" y2="100%">
   <stop offset="0%" style="stop-color: #b2ced6; stop-opacity:1"/>
   <stop offset="100%" style="stop-color: #6da5b7; stop-opacity:1"/>
  </linearGradient>
  <linearGradient id="60spsycho" x1="0%" x2="0%" y1="0%" y2="100%">
   <stop offset="0%" style="stop-color: #df5940; stop-opacity:1"/>
   <stop offset="25%" style="stop-color: #d8d15f; stop-opacity:1"/>
   <stop offset="50%" style="stop-color: #e9882a; stop-opacity:1"/>
   <stop offset="100%" style="stop-color: #279362; stop-opacity:1"/>
  </linearGradient>
  <linearGradient id="90ssummer" x1="0%" x2="0%" y1="0%" y2="100%">
   <stop offset="0%" style="stop-color: #f618c7; stop-opacity:1"/>
   <stop offset="20%" style="stop-color: #94ffab; stop-opacity:1"/>
   <stop offset="50%" style="stop-color: #fbfd54; stop-opacity:1"/>
   <stop offset="100%" style="stop-color: #0f83ae; stop-opacity:1"/>
  </linearGradient>
 </defs>
 <path fill="currentColor" class="ColorScheme-Text" d="M 6.272 10.662 L 4.916 12.137 L 4.732 13.463 L 3.935 14.38 L 3.935 14.38 C 3.977 14.467 4 14.564 4 14.667 C 4 15.035 3.701 15.333 3.333 15.333 C 2.965 15.333 2.667 15.035 2.667 14.667 C 2.667 14.299 2.965 14 3.333 14 C 3.403 14 3.47 14.011 3.534 14.031 L 4.226 13.233 L 4.412 11.897 L 5.918 10.26 C 5.911 10.253 5.905 10.245 5.898 10.238 C 5.835 10.171 5.772 10.104 5.707 10.038 L 1.304 13.805 L 1.304 13.805 L 1.304 13.805 L 1.304 13.805 L 1.304 13.805 C 1.323 13.867 1.333 13.932 1.333 14 C 1.333 14.368 1.035 14.667 0.667 14.667 C 0.299 14.667 0 14.368 0 14 C 0 13.632 0.299 13.333 0.667 13.333 C 0.77 13.333 0.869 13.357 0.956 13.4 L 5.322 9.665 C 5.234 9.583 5.145 9.504 5.055 9.426 L 3.389 10.633 L 1.942 10.633 L 1.308 11.153 L 1.308 11.153 L 1.308 11.153 C 1.325 11.21 1.333 11.271 1.333 11.333 C 1.333 11.701 1.035 12 0.667 12 C 0.299 12 0 11.701 0 11.333 C 0 10.965 0.299 10.667 0.667 10.667 C 0.776 10.667 0.879 10.693 0.97 10.74 L 1.749 10.1 L 3.216 10.1 L 4.627 9.076 C 3.569 8.256 2.412 7.692 1.408 7.588 C 1.029 7.548 0.725 7.259 0.674 6.887 C 0.623 6.515 0.836 6.157 1.191 6.019 L 14.868 0.723 C 14.967 0.685 15.072 0.666 15.178 0.667 C 15.461 0.669 15.722 0.813 15.873 1.047 C 16.023 1.282 16.041 1.576 15.922 1.828 L 9.705 14.865 C 9.542 15.207 9.16 15.394 8.784 15.316 C 8.407 15.238 8.135 14.916 8.126 14.537 C 8.101 13.53 7.385 11.997 6.272 10.662 Z"/>
</svg>
