<svg xmlns="http://www.w3.org/2000/svg" width="16" height="16" version="1.1">
 <defs>
   <style id="current-color-scheme" type="text/css">
   .ColorScheme-Text { color: #cc00cc; } .ColorScheme-Highlight { color:#5294e2; }
  </style>
  <linearGradient id="arrongin" x1="0%" x2="0%" y1="0%" y2="100%">
   <stop offset="0%" style="stop-color:#dd9b44; stop-opacity:1"/>
   <stop offset="100%" style="stop-color:#ad6c16; stop-opacity:1"/>
  </linearGradient>
  <linearGradient id="aurora" x1="0%" x2="0%" y1="0%" y2="100%">
   <stop offset="0%" style="stop-color:#09D4DF; stop-opacity:1"/>
   <stop offset="100%" style="stop-color:#9269F4; stop-opacity:1"/>
  </linearGradient>
  <linearGradient id="cyberneon" x1="0%" x2="0%" y1="0%" y2="100%">
    <stop offset="0" style="stop-color:#0abdc6; stop-opacity:1"/>
    <stop offset="1" style="stop-color:#ea00d9; stop-opacity:1"/>
  </linearGradient>
  <linearGradient id="fitdance" x1="0%" x2="0%" y1="0%" y2="100%">
   <stop offset="0%" style="stop-color:#1AD6AB; stop-opacity:1"/>
   <stop offset="100%" style="stop-color:#329DB6; stop-opacity:1"/>
  </linearGradient>
  <linearGradient id="oomox" x1="0%" x2="0%" y1="0%" y2="100%">
   <stop offset="0%" style="stop-color:#efefe7; stop-opacity:1"/>
   <stop offset="100%" style="stop-color:#8f8f8b; stop-opacity:1"/>
  </linearGradient>
  <linearGradient id="rainblue" x1="0%" x2="0%" y1="0%" y2="100%">
   <stop offset="0%" style="stop-color:#00F260; stop-opacity:1"/>
   <stop offset="100%" style="stop-color:#0575E6; stop-opacity:1"/>
  </linearGradient>
  <linearGradient id="sunrise" x1="0%" x2="0%" y1="0%" y2="100%">
   <stop offset="0%" style="stop-color: #FF8501; stop-opacity:1"/>
   <stop offset="100%" style="stop-color: #FFCB01; stop-opacity:1"/>
  </linearGradient>
  <linearGradient id="telinkrin" x1="0%" x2="0%" y1="0%" y2="100%">
   <stop offset="0%" style="stop-color: #b2ced6; stop-opacity:1"/>
   <stop offset="100%" style="stop-color: #6da5b7; stop-opacity:1"/>
  </linearGradient>
  <linearGradient id="60spsycho" x1="0%" x2="0%" y1="0%" y2="100%">
   <stop offset="0%" style="stop-color: #df5940; stop-opacity:1"/>
   <stop offset="25%" style="stop-color: #d8d15f; stop-opacity:1"/>
   <stop offset="50%" style="stop-color: #e9882a; stop-opacity:1"/>
   <stop offset="100%" style="stop-color: #279362; stop-opacity:1"/>
  </linearGradient>
  <linearGradient id="90ssummer" x1="0%" x2="0%" y1="0%" y2="100%">
   <stop offset="0%" style="stop-color: #f618c7; stop-opacity:1"/>
   <stop offset="20%" style="stop-color: #94ffab; stop-opacity:1"/>
   <stop offset="50%" style="stop-color: #fbfd54; stop-opacity:1"/>
   <stop offset="100%" style="stop-color: #0f83ae; stop-opacity:1"/>
  </linearGradient>
 </defs>
 <path fill="currentColor" class="ColorScheme-Text" d="m 8.1768138,15.214267 c -0.742303,-0.12579 -1.382073,-0.60956 -1.771028,-1.33931 -0.178796,-0.33541 -0.345701,-0.88063 -0.30337,-0.99098 0.02257,-0.0589 0.2202,-0.0782 1.026004,-0.10119 1.432124,-0.0407 2.054567,-0.16045 2.9101752,-0.56122 1.300076,-0.60888 2.286281,-1.44429 2.882068,-2.4414799 0.295952,-0.49535 0.447601,-0.98126 0.544235,-1.74402 0.06579,-0.51934 0.125339,-0.75934 0.299258,-1.20659 0.288494,-0.74184 0.388959,-1.10012 0.355094,-1.26662 -0.01532,-0.0758 -0.05079,-0.36968 -0.07873,-0.65302 -0.0416,-0.4229 -0.07797,-0.56376 -0.202261,-0.784 -0.170815,-0.30277 -0.185207,-0.3963 -0.07494,-0.48773 0.06298,-0.0524 0.135055,-0.0403 0.405351,0.0762 0.523473,0.22254 0.891033,0.49015 1.25517,0.91398 0.496203,0.57756 0.576668,0.77671 0.57616,1.42611 -7.18e-4,0.99009 -0.09438,2.48396 -0.171863,2.74234 -0.09941,0.33139 -0.305104,0.57131 -0.735797,0.85766 l -0.353441,0.23504 0.08631,0.1330399 c 0.04749,0.073 0.171581,0.23503 0.275794,0.35961 0.318287,0.38057 0.371381,0.66052 0.197665,1.04319 -0.113043,0.24914 -0.49265,0.66991 -0.786876,0.87241 -0.335663,0.23101 -1.050716,0.57139 -2.005592,0.95458 -1.258323,0.50499 -1.324379,0.54482 -2.165703,1.30608 -0.5486152,0.4964 -0.8904532,0.65464 -1.4681662,0.67959 -0.244188,0.0121 -0.557165,-4e-5 -0.695542,-0.0242 z m -3.773915,-3.17356 c -0.249066,-0.0524 -0.554762,-0.13303 -0.679303,-0.17899 -0.40198,-0.14877 -1.26343,-0.66516 -2.073003,-1.24311 C 0.68360981,9.9282471 0.33236181,9.6281471 0.14444681,9.3318271 0.01491381,9.1274371 -2.1900223e-6,9.0605071 -2.1900223e-6,8.6812271 c 0,-0.37332 0.020960000022,-0.47112 0.1778290000223,-0.83299 0.11772,-0.27132 0.213025,-0.61432 0.281842,-1.01396 0.109254,-0.63444 0.288857,-1.15659 0.57107299,-1.66053 0.373962,-0.66774 0.795157,-0.97974 1.323924,-0.9807 0.344249,-7.6e-4 0.491217,0.13142 0.538002,0.48378 0.01774,0.13505 0.09934,0.50575 0.180934,0.82399 0.383274,1.495 0.38275,1.47045 0.04886,2.15319 -0.278133,0.56876 -0.334776,0.78013 -0.261039,0.97404 0.02782,0.0726 0.224272,0.3318 0.436961,0.57574 0.212702,0.24391 0.58822,0.74462 0.834536,1.1126599 0.532903,0.79621 0.972481,1.27552 1.421316,1.5497 0.181215,0.11087 0.33026,0.2181 0.331268,0.23907 0.0036,0.075 -1.033434,0.0282 -1.482619,-0.0645 z m 3.01913,-0.0201 c -0.39299,-0.0899 -0.883574,-0.29107 -1.189928,-0.48781 -0.358117,-0.22979 -0.638963,-0.56932 -0.946978,-1.14482 -0.429056,-0.8017099 -0.564353,-0.9553499 -1.054816,-1.1979999 -0.587079,-0.29027 -0.672345,-0.47035 -0.414898,-0.87556 0.394119,-0.62029 1.071257,-0.91801 1.816991,-0.79888 0.179603,0.0282 0.859551,0.2302 1.510973,0.44806 1.385955,0.4633 1.656041,0.53558 2.172105,0.58162 0.292444,0.0242 0.454256,0.0121 0.679303,-0.0512 0.4884522,-0.1411 0.9717322,-0.4254 1.3269582,-0.7807 0.496391,-0.49648 0.689015,-0.87366 0.982931,-1.92475 0.04451,-0.15925 0.100864,-0.28947 0.125299,-0.28947 0.170411,0 0.256363,1.4813 0.128484,2.21402 -0.223788,1.28242 -0.900221,2.4180499 -2.000198,3.3581999 -0.9117552,0.77928 -2.1898722,1.16607 -3.1362212,0.94909 z m 2.092621,-4.3438899 c -0.20355,-0.16489 -0.113164,-0.31768 0.6470222,-1.09451 0.893162,-0.91269 0.971917,-1.05569 0.999279,-1.81462 l 0.02016,-0.55562 -0.199801,-0.18061 c -0.310549,-0.28059 -0.697314,-0.40674 -1.3264122,-0.43278 -0.397466,-0.0161 -0.606575,-10e-4 -0.814339,0.0593 -0.655561,0.19069 -1.216467,0.89866 -1.119852,1.41368 0.04592,0.24472 0.344854,0.55486 0.706459,0.73289 0.281801,0.13868 0.352756,0.15401 0.574665,0.12336 0.447464,-0.0617 0.955521,-0.48567 1.0639042,-0.88818 0.168315,-0.62508 -0.5518112,-1.13716 -1.2332222,-0.87693 -0.24447,0.0935 -0.529783,0.37897 -0.529783,0.53035 0,0.0528 -0.025,0.11127 -0.05572,0.13022 -0.07051,0.0435 -0.01572,-0.23665 0.09123,-0.46742 0.310949,-0.67003 1.8569512,-0.6581 2.0794452,0.0161 0.162066,0.49108 -0.09236,1.10375 -0.7937822,1.9115 -0.242333,0.27898 -0.547432,0.6333 -0.677972,0.78719 -0.315223,0.3717 -0.569223,0.49168 -1.040227,0.49168 -0.623285,0 -1.4254,-0.32615 -1.705786,-0.6939 -0.11139,-0.14594 -0.136426,-0.23141 -0.136426,-0.46495 0,-0.2548 0.03991,-0.36526 0.365738,-1.01368 0.302361,-0.60146 0.439086,-0.81082 0.788858,-1.2078 0.851755,-0.96679 1.292486,-1.15821 2.356381,-1.02359 0.9220072,0.1165 1.4995232,0.34388 1.9047042,0.74892 0.245881,0.24592 0.361907,0.46407 0.471322,0.88633 0.09152,0.35316 0.07184,0.65 -0.07184,1.08552 -0.193431,0.5863 -0.950305,1.49766 -1.441099,1.73524 -0.337073,0.16327 -0.7627432,0.1919 -0.9228582,0.0621 z m 3.5874302,-1.31149 c -0.158398,-0.102 -0.258822,-0.47273 -0.445162,-1.64412 -0.09212,-0.57917 -0.23814,-0.93261 -0.509153,-1.23259 -0.407968,-0.45157 -1.199959,-0.9056 -1.882721,-1.07931 -1.3098732,-0.33341 -2.4933832,0.0536 -3.3941322,1.10914 -0.400852,0.46979 -0.676155,0.99397 -0.910622,1.73383 -0.214436,0.6766 -0.315545,0.80065 -0.652687,0.80065 -0.314941,0 -0.342476,-0.0742 -0.315021,-0.8502 0.01855,-0.5191 0.04717,-0.70632 0.15876,-1.0315 0.313086,-0.91233 0.836733,-1.54136 1.666862,-2.0024 0.50582,-0.281 1.465485,-0.80662 1.886958,-1.03368 0.356303,-0.19190002 0.888186,-0.14433002 2.0630732,0.18384 0.511992,0.14311 1.044113,0.31244 1.18249,0.37614 0.352877,0.16206 0.734502,0.52498 0.92154,0.87588 0.287566,0.53953 0.464219,1.58115 0.460037,2.71263 -0.003,0.8169 -0.07995,1.17832 -0.230239,1.08173 z m -9.3051192,-0.27777 c -0.06829,-0.14916 -0.214112,-0.72176 -0.329978,-1.29568 -0.176902,-0.87621 -0.20863,-1.12906 -0.214516,-1.70778 -0.0065,-0.65117 -8.31e-4,-0.69249 0.139571,-0.99655 0.169161,-0.36646 0.281479,-0.46858 0.675392,-0.61472 0.156825,-0.0581 0.49073,-0.2298 0.741989,-0.38098 0.315182,-0.18988002 0.539761,-0.28825002 0.724302,-0.31768002 0.244914,-0.0403 0.806578,-0.004 1.110258,0.0677 0.06813,0.0161 0.337235,0.0508 0.59798,0.077 0.318125,0.0322 0.500199,0.0742 0.553508,0.12820002 0.07249,0.0738 0.06757,0.0911 -0.05648,0.19876 -0.168759,0.14674 -0.588155,0.30679 -1.147227,0.43862 -1.280753,0.30156 -1.670623,0.5859 -2.164486,1.57874 -0.291315,0.58569 -0.35719,0.94224 -0.387466,2.09758 -0.01492,0.56712 -0.04632,0.99381 -0.07329,0.99381 -0.0258,0 -0.10228,-0.12014 -0.169565,-0.26729 z m 5.123406,-0.8887 c -0.200446,-0.12216 -0.249429,-0.29229 -0.14332,-0.49765 0.110141,-0.21286 0.267047,-0.29349 0.370616,-0.18988 0.0643,0.0641 0.06781,0.102 0.01935,0.20842 -0.139328,0.30599 0.01734,0.4475 0.3738,0.33825 0.218386,-0.0669 0.222297,0.008 0.0073,0.13989 -0.20746,0.12659 -0.421057,0.12699 -0.627635,7.6e-4 z"/>
</svg>