<svg xmlns="http://www.w3.org/2000/svg" width="16" height="16" version="1.1">
 <defs>
   <style id="current-color-scheme" type="text/css">
   .ColorScheme-Text { color: #cc00cc; } .ColorScheme-Highlight { color:#5294e2; }
  </style>
  <linearGradient id="arrongin" x1="0%" x2="0%" y1="0%" y2="100%">
   <stop offset="0%" style="stop-color:#dd9b44; stop-opacity:1"/>
   <stop offset="100%" style="stop-color:#ad6c16; stop-opacity:1"/>
  </linearGradient>
  <linearGradient id="aurora" x1="0%" x2="0%" y1="0%" y2="100%">
   <stop offset="0%" style="stop-color:#09D4DF; stop-opacity:1"/>
   <stop offset="100%" style="stop-color:#9269F4; stop-opacity:1"/>
  </linearGradient>
  <linearGradient id="cyberneon" x1="0%" x2="0%" y1="0%" y2="100%">
    <stop offset="0" style="stop-color:#0abdc6; stop-opacity:1"/>
    <stop offset="1" style="stop-color:#ea00d9; stop-opacity:1"/>
  </linearGradient>
  <linearGradient id="fitdance" x1="0%" x2="0%" y1="0%" y2="100%">
   <stop offset="0%" style="stop-color:#1AD6AB; stop-opacity:1"/>
   <stop offset="100%" style="stop-color:#329DB6; stop-opacity:1"/>
  </linearGradient>
  <linearGradient id="oomox" x1="0%" x2="0%" y1="0%" y2="100%">
   <stop offset="0%" style="stop-color:#efefe7; stop-opacity:1"/>
   <stop offset="100%" style="stop-color:#8f8f8b; stop-opacity:1"/>
  </linearGradient>
  <linearGradient id="rainblue" x1="0%" x2="0%" y1="0%" y2="100%">
   <stop offset="0%" style="stop-color:#00F260; stop-opacity:1"/>
   <stop offset="100%" style="stop-color:#0575E6; stop-opacity:1"/>
  </linearGradient>
  <linearGradient id="sunrise" x1="0%" x2="0%" y1="0%" y2="100%">
   <stop offset="0%" style="stop-color: #FF8501; stop-opacity:1"/>
   <stop offset="100%" style="stop-color: #FFCB01; stop-opacity:1"/>
  </linearGradient>
  <linearGradient id="telinkrin" x1="0%" x2="0%" y1="0%" y2="100%">
   <stop offset="0%" style="stop-color: #b2ced6; stop-opacity:1"/>
   <stop offset="100%" style="stop-color: #6da5b7; stop-opacity:1"/>
  </linearGradient>
  <linearGradient id="60spsycho" x1="0%" x2="0%" y1="0%" y2="100%">
   <stop offset="0%" style="stop-color: #df5940; stop-opacity:1"/>
   <stop offset="25%" style="stop-color: #d8d15f; stop-opacity:1"/>
   <stop offset="50%" style="stop-color: #e9882a; stop-opacity:1"/>
   <stop offset="100%" style="stop-color: #279362; stop-opacity:1"/>
  </linearGradient>
  <linearGradient id="90ssummer" x1="0%" x2="0%" y1="0%" y2="100%">
   <stop offset="0%" style="stop-color: #f618c7; stop-opacity:1"/>
   <stop offset="20%" style="stop-color: #94ffab; stop-opacity:1"/>
   <stop offset="50%" style="stop-color: #fbfd54; stop-opacity:1"/>
   <stop offset="100%" style="stop-color: #0f83ae; stop-opacity:1"/>
  </linearGradient>
 </defs>
 <path fill="currentColor" class="ColorScheme-Text" fill-rule="evenodd" d="M 3.792 15.003 C 1.72 13.769 1.633 13.693 1.746 13.223 C 1.858 12.756 3.552 11.098 4.381 10.641 L 5.028 10.286 L 5.617 10.772 C 6.359 11.385 7.041 11.641 7.953 11.649 C 8.869 11.657 9.454 11.447 10.307 10.803 L 10.992 10.286 L 11.64 10.639 C 11.996 10.833 12.751 11.462 13.318 12.036 C 14.739 13.477 14.736 13.486 12.359 14.909 C 11.698 15.305 11.083 15.655 10.7 15.858 C 10.277 16.133 10.227 15.939 9.987 15.649 C 9.633 15.288 8.98 14.857 8 14.857 C 6.932 14.857 6.287 15.378 5.984 15.743 C 5.767 16.136 5.636 15.995 5.34 15.862 C 4.962 15.675 4.391 15.359 3.792 15.003 L 3.792 15.003 Z M 0.104 10.757 C 0.047 10.698 0 9.628 0 8.379 L 0 6.109 L 0.732 5.784 C 1.981 5.23 2.529 4.334 2.348 3.008 C 2.304 2.687 2.314 2.351 2.369 2.261 C 2.499 2.05 6.053 0 6.292 0 C 6.392 0 6.533 0.078 6.607 0.174 C 7.078 0.786 7.559 3.099 7.396 3.969 C 7.323 4.36 7.21 4.465 6.584 4.72 C 5.702 5.079 4.961 5.811 4.562 6.718 C 4.323 7.262 4.275 7.6 4.313 8.449 L 4.361 9.503 L 3.898 9.817 C 2.901 10.493 0.438 11.103 0.104 10.757 L 0.104 10.757 L 0.104 10.757 Z M 15.896 10.757 C 15.953 10.698 16 9.628 16 8.379 L 16 6.109 L 15.268 5.784 C 14.019 5.23 13.51 4.334 13.691 3.008 C 13.735 2.687 13.726 2.351 13.67 2.261 C 13.54 2.05 9.947 0 9.708 0 C 9.608 0 9.467 0.078 9.393 0.174 C 8.922 0.786 8.441 3.099 8.604 3.969 C 8.677 4.36 8.79 4.465 9.416 4.72 C 10.298 5.079 11.039 5.811 11.438 6.718 C 11.677 7.262 11.725 7.6 11.687 8.449 L 11.639 9.503 L 12.102 9.817 C 13.099 10.493 15.562 11.103 15.896 10.757 L 15.896 10.757 Z"/>
</svg>
