<svg xmlns="http://www.w3.org/2000/svg" width="16" height="16" version="1.1">
 <defs>
   <style id="current-color-scheme" type="text/css">
   .ColorScheme-Text { color: #cc00cc; } .ColorScheme-Highlight { color:#5294e2; }
  </style>
  <linearGradient id="arrongin" x1="0%" x2="0%" y1="0%" y2="100%">
   <stop offset="0%" style="stop-color:#dd9b44; stop-opacity:1"/>
   <stop offset="100%" style="stop-color:#ad6c16; stop-opacity:1"/>
  </linearGradient>
  <linearGradient id="aurora" x1="0%" x2="0%" y1="0%" y2="100%">
   <stop offset="0%" style="stop-color:#09D4DF; stop-opacity:1"/>
   <stop offset="100%" style="stop-color:#9269F4; stop-opacity:1"/>
  </linearGradient>
  <linearGradient id="cyberneon" x1="0%" x2="0%" y1="0%" y2="100%">
    <stop offset="0" style="stop-color:#0abdc6; stop-opacity:1"/>
    <stop offset="1" style="stop-color:#ea00d9; stop-opacity:1"/>
  </linearGradient>
  <linearGradient id="fitdance" x1="0%" x2="0%" y1="0%" y2="100%">
   <stop offset="0%" style="stop-color:#1AD6AB; stop-opacity:1"/>
   <stop offset="100%" style="stop-color:#329DB6; stop-opacity:1"/>
  </linearGradient>
  <linearGradient id="oomox" x1="0%" x2="0%" y1="0%" y2="100%">
   <stop offset="0%" style="stop-color:#efefe7; stop-opacity:1"/>
   <stop offset="100%" style="stop-color:#8f8f8b; stop-opacity:1"/>
  </linearGradient>
  <linearGradient id="rainblue" x1="0%" x2="0%" y1="0%" y2="100%">
   <stop offset="0%" style="stop-color:#00F260; stop-opacity:1"/>
   <stop offset="100%" style="stop-color:#0575E6; stop-opacity:1"/>
  </linearGradient>
  <linearGradient id="sunrise" x1="0%" x2="0%" y1="0%" y2="100%">
   <stop offset="0%" style="stop-color: #FF8501; stop-opacity:1"/>
   <stop offset="100%" style="stop-color: #FFCB01; stop-opacity:1"/>
  </linearGradient>
  <linearGradient id="telinkrin" x1="0%" x2="0%" y1="0%" y2="100%">
   <stop offset="0%" style="stop-color: #b2ced6; stop-opacity:1"/>
   <stop offset="100%" style="stop-color: #6da5b7; stop-opacity:1"/>
  </linearGradient>
  <linearGradient id="60spsycho" x1="0%" x2="0%" y1="0%" y2="100%">
   <stop offset="0%" style="stop-color: #df5940; stop-opacity:1"/>
   <stop offset="25%" style="stop-color: #d8d15f; stop-opacity:1"/>
   <stop offset="50%" style="stop-color: #e9882a; stop-opacity:1"/>
   <stop offset="100%" style="stop-color: #279362; stop-opacity:1"/>
  </linearGradient>
  <linearGradient id="90ssummer" x1="0%" x2="0%" y1="0%" y2="100%">
   <stop offset="0%" style="stop-color: #f618c7; stop-opacity:1"/>
   <stop offset="20%" style="stop-color: #94ffab; stop-opacity:1"/>
   <stop offset="50%" style="stop-color: #fbfd54; stop-opacity:1"/>
   <stop offset="100%" style="stop-color: #0f83ae; stop-opacity:1"/>
  </linearGradient>
 </defs>
 <path fill="currentColor" class="ColorScheme-Text" fill-rule="evenodd" d="m 5.9353523,1.8121065 c -0.911029,0 -1.666689,0.6715086 -1.790566,1.5484724 h -3.11246 V 7.4899017 H 1.2711864e-6 v 0.516132 H 2.5808133 V 7.4899017 H 1.5484883 V 3.876749 h 2.596298 c 0.123892,0.8769638 0.879023,1.5484724 1.790566,1.5484724 0.9110247,0 1.6666883,-0.6715086 1.7905661,-1.5484724 H 9.8060531 V 4.9090891 H 14.451512 V 3.876749 h 1.032329 v 8.258608 h -1.563976 c -0.123893,-0.876964 -0.879024,-1.548472 -1.790563,-1.548472 -0.911028,0 -1.666692,0.671508 -1.79057,1.548472 H 8.7257243 c -0.1052976,-0.302362 -0.3871181,-0.51617 -0.7257222,-0.51617 -0.4273852,0 -0.7742437,0.346961 -0.7742437,0.774236 0,0.427389 0.3468472,0.774237 0.7742437,0.774237 0.3386079,0 0.6204246,-0.213544 0.7257222,-0.516133 H 10.338732 C 10.462625,13.528491 11.217756,14.2 12.129302,14.2 c 0.911025,0 1.666685,-0.671509 1.790563,-1.548473 h 2.080134 V 3.3605789 H 14.451512 V 2.3282388 H 9.8060531 V 3.3605789 H 7.7259184 C 7.6020254,2.4836151 6.8468948,1.8121065 5.9353523,1.8121065 m 0,0.5161323 c 0.259616,0 0.507386,0.07748 0.7097232,0.2097637 L 5.9353523,3.24776 5.2256283,2.5380025 C 5.4279843,2.406097 5.6757213,2.3282388 5.9353523,2.3282388 m -1.080847,0.5807244 0.709724,0.7097196 -0.709724,0.7096819 C 4.7223733,4.12616 4.6449303,3.8782986 4.6449303,3.6186828 c 0,-0.2596535 0.07744,-0.5074015 0.209575,-0.7097196 m 2.1616896,0 c 0.1321323,0.2022047 0.2095748,0.4500661 0.2095748,0.7097196 0,0.2596536 -0.077443,0.5073638 -0.2095748,0.7096819 L 6.3064713,3.6186828 Z M 5.9353523,3.9897947 6.6450755,4.6995143 C 6.4427193,4.8314198 6.1949833,4.9092781 5.9353523,4.9092781 c -0.259616,0 -0.507387,-0.07748 -0.709724,-0.2097638 z m -5.41970703,4.532409 v 0.51617 H 1.0318083 v 3.6131533 h 2.113168 c 0.105297,0.302363 0.387125,0.516133 0.725726,0.516133 0.427381,0 0.774244,-0.346961 0.774244,-0.774237 0,-0.05367 -0.0057,-0.111118 -0.01587,-0.161385 l 2.742368,-1.580977 -0.2580662,-0.451654 -2.7583748,1.59704 c -0.133153,-0.108095 -0.298847,-0.177638 -0.484161,-0.177638 -0.338608,0 -0.620425,0.213544 -0.725722,0.51617 H 1.5481073 V 9.0379957 h 0.516162 V 8.5218637 Z M 12.129302,11.103017 c 0.712819,0 1.290403,0.577587 1.290403,1.290406 0,0.712819 -0.577584,1.290407 -1.290403,1.290407 -0.712822,0 -1.29041,-0.577588 -1.29041,-1.290407 0,-0.712819 0.577588,-1.290406 1.29041,-1.290406 m -8.2585997,1.03234 c 0.14245,0 0.258066,0.115654 0.258066,0.258142 0,0.142488 -0.115616,0.258142 -0.258066,0.258142 -0.142451,0 -0.258066,-0.115654 -0.258066,-0.258142 0,-0.142488 0.115615,-0.258142 0.258066,-0.258142 m 4.1292998,0 c 0.1424504,0 0.2580662,0.115654 0.2580662,0.258142 0,0.142488 -0.1156158,0.258142 -0.2580662,0.258142 -0.1424504,0 -0.2580661,-0.115654 -0.2580661,-0.258142 0,-0.142488 0.1156157,-0.258142 0.2580661,-0.258142"/>
</svg>