<svg xmlns="http://www.w3.org/2000/svg" width="16" height="16" version="1.1">
 <defs>
   <style id="current-color-scheme" type="text/css">
   .ColorScheme-Text { color: #cc00cc; } .ColorScheme-Highlight { color:#5294e2; }
  </style>
  <linearGradient id="arrongin" x1="0%" x2="0%" y1="0%" y2="100%">
   <stop offset="0%" style="stop-color:#dd9b44; stop-opacity:1"/>
   <stop offset="100%" style="stop-color:#ad6c16; stop-opacity:1"/>
  </linearGradient>
  <linearGradient id="aurora" x1="0%" x2="0%" y1="0%" y2="100%">
   <stop offset="0%" style="stop-color:#09D4DF; stop-opacity:1"/>
   <stop offset="100%" style="stop-color:#9269F4; stop-opacity:1"/>
  </linearGradient>
  <linearGradient id="cyberneon" x1="0%" x2="0%" y1="0%" y2="100%">
    <stop offset="0" style="stop-color:#0abdc6; stop-opacity:1"/>
    <stop offset="1" style="stop-color:#ea00d9; stop-opacity:1"/>
  </linearGradient>
  <linearGradient id="fitdance" x1="0%" x2="0%" y1="0%" y2="100%">
   <stop offset="0%" style="stop-color:#1AD6AB; stop-opacity:1"/>
   <stop offset="100%" style="stop-color:#329DB6; stop-opacity:1"/>
  </linearGradient>
  <linearGradient id="oomox" x1="0%" x2="0%" y1="0%" y2="100%">
   <stop offset="0%" style="stop-color:#efefe7; stop-opacity:1"/>
   <stop offset="100%" style="stop-color:#8f8f8b; stop-opacity:1"/>
  </linearGradient>
  <linearGradient id="rainblue" x1="0%" x2="0%" y1="0%" y2="100%">
   <stop offset="0%" style="stop-color:#00F260; stop-opacity:1"/>
   <stop offset="100%" style="stop-color:#0575E6; stop-opacity:1"/>
  </linearGradient>
  <linearGradient id="sunrise" x1="0%" x2="0%" y1="0%" y2="100%">
   <stop offset="0%" style="stop-color: #FF8501; stop-opacity:1"/>
   <stop offset="100%" style="stop-color: #FFCB01; stop-opacity:1"/>
  </linearGradient>
  <linearGradient id="telinkrin" x1="0%" x2="0%" y1="0%" y2="100%">
   <stop offset="0%" style="stop-color: #b2ced6; stop-opacity:1"/>
   <stop offset="100%" style="stop-color: #6da5b7; stop-opacity:1"/>
  </linearGradient>
  <linearGradient id="60spsycho" x1="0%" x2="0%" y1="0%" y2="100%">
   <stop offset="0%" style="stop-color: #df5940; stop-opacity:1"/>
   <stop offset="25%" style="stop-color: #d8d15f; stop-opacity:1"/>
   <stop offset="50%" style="stop-color: #e9882a; stop-opacity:1"/>
   <stop offset="100%" style="stop-color: #279362; stop-opacity:1"/>
  </linearGradient>
  <linearGradient id="90ssummer" x1="0%" x2="0%" y1="0%" y2="100%">
   <stop offset="0%" style="stop-color: #f618c7; stop-opacity:1"/>
   <stop offset="20%" style="stop-color: #94ffab; stop-opacity:1"/>
   <stop offset="50%" style="stop-color: #fbfd54; stop-opacity:1"/>
   <stop offset="100%" style="stop-color: #0f83ae; stop-opacity:1"/>
  </linearGradient>
 </defs>
 <path fill="currentColor" class="ColorScheme-Text" d="M 7.984375 0.27148438 A 0.5333933 0.5333933 0 0 0 7.9335938 0.27539062 A 0.5333933 0.5333933 0 0 0 7.9238281 0.27734375 A 0.5333933 0.5333933 0 0 0 7.875 0.28710938 A 0.5333933 0.5333933 0 0 0 7.8300781 0.30078125 A 0.5333933 0.5333933 0 0 0 7.8046875 0.30859375 A 0.5333933 0.5333933 0 0 0 7.7910156 0.31445312 A 0.5333933 0.5333933 0 0 0 7.7539062 0.33007812 A 0.5333933 0.5333933 0 0 0 7.7382812 0.33984375 A 0.5333933 0.5333933 0 0 0 7.6484375 0.40429688 A 0.5333933 0.5333933 0 0 0 7.609375 0.44140625 A 0.5333933 0.5333933 0 0 0 7.578125 0.47851562 A 0.5333933 0.5333933 0 0 0 7.5703125 0.48828125 A 0.5333933 0.5333933 0 0 0 7.546875 0.52539062 A 0.5333933 0.5333933 0 0 0 7.5371094 0.5390625 A 0.5333933 0.5333933 0 0 0 7.5273438 0.55859375 L 0.060546875 14.949219 A 0.5333933 0.5333933 0 0 0 0.54492188 15.728516 L 15.451172 15.728516 A 0.5333933 0.5333933 0 0 0 15.466797 15.728516 A 0.5333933 0.5333933 0 0 0 15.482422 15.728516 A 0.5333933 0.5333933 0 0 0 15.525391 15.724609 A 0.5333933 0.5333933 0 0 0 15.527344 15.724609 A 0.5333933 0.5333933 0 0 0 15.574219 15.716797 A 0.5333933 0.5333933 0 0 0 15.632812 15.701172 A 0.5333933 0.5333933 0 0 0 15.646484 15.697266 A 0.5333933 0.5333933 0 0 0 15.660156 15.691406 A 0.5333933 0.5333933 0 0 0 15.703125 15.671875 A 0.5333933 0.5333933 0 0 0 15.744141 15.650391 A 0.5333933 0.5333933 0 0 0 15.757812 15.642578 A 0.5333933 0.5333933 0 0 0 15.794922 15.615234 A 0.5333933 0.5333933 0 0 0 15.806641 15.605469 A 0.5333933 0.5333933 0 0 0 15.841797 15.574219 A 0.5333933 0.5333933 0 0 0 15.851562 15.564453 A 0.5333933 0.5333933 0 0 0 15.861328 15.554688 A 0.5333933 0.5333933 0 0 0 15.890625 15.517578 A 0.5333933 0.5333933 0 0 0 15.917969 15.478516 A 0.5333933 0.5333933 0 0 0 15.925781 15.466797 A 0.5333933 0.5333933 0 0 0 15.947266 15.425781 A 0.5333933 0.5333933 0 0 0 15.953125 15.412109 A 0.5333933 0.5333933 0 0 0 15.970703 15.369141 A 0.5333933 0.5333933 0 0 0 15.974609 15.355469 A 0.5333933 0.5333933 0 0 0 15.990234 15.294922 A 0.5333933 0.5333933 0 0 0 15.998047 15.234375 A 0.5333933 0.5333933 0 0 0 16 15.1875 A 0.5333933 0.5333933 0 0 0 16 15.173828 A 0.5333933 0.5333933 0 0 0 15.996094 15.126953 A 0.5333933 0.5333933 0 0 0 15.994141 15.111328 A 0.5333933 0.5333933 0 0 0 15.984375 15.066406 A 0.5333933 0.5333933 0 0 0 15.980469 15.052734 A 0.5333933 0.5333933 0 0 0 15.966797 15.007812 A 0.5333933 0.5333933 0 0 0 15.960938 14.994141 A 0.5333933 0.5333933 0 0 0 15.941406 14.951172 A 0.5333933 0.5333933 0 0 0 15.939453 14.949219 L 15.933594 14.9375 A 0.5333933 0.5333933 0 0 0 15.931641 14.935547 L 8.4824219 0.57617188 L 8.4785156 0.56835938 A 0.5333933 0.5333933 0 0 0 8.4414062 0.50585938 A 0.5333933 0.5333933 0 0 0 8.4101562 0.46484375 A 0.5333933 0.5333933 0 0 0 8.4042969 0.45703125 A 0.5333933 0.5333933 0 0 0 8.3691406 0.41992188 A 0.5333933 0.5333933 0 0 0 8.3613281 0.4140625 A 0.5333933 0.5333933 0 0 0 8.3222656 0.38085938 A 0.5333933 0.5333933 0 0 0 8.3144531 0.375 A 0.5333933 0.5333933 0 0 0 8.2714844 0.34570312 A 0.5333933 0.5333933 0 0 0 8.2636719 0.34179688 A 0.5333933 0.5333933 0 0 0 8.2167969 0.31835938 A 0.5333933 0.5333933 0 0 0 8.2089844 0.31445312 A 0.5333933 0.5333933 0 0 0 8.1601562 0.296875 A 0.5333933 0.5333933 0 0 0 8.1074219 0.28320312 A 0.5333933 0.5333933 0 0 0 8.0996094 0.28125 A 0.5333933 0.5333933 0 0 0 8.0898438 0.27929688 A 0.5333933 0.5333933 0 0 0 8.0390625 0.2734375 A 0.5333933 0.5333933 0 0 0 7.9960938 0.27148438 A 0.5333933 0.5333933 0 0 0 7.984375 0.27148438 z M 7.4667969 2.9902344 L 7.4667969 12.300781 L 1.6152344 14.267578 L 7.4667969 2.9902344 z M 8.5332031 2.9902344 L 14.384766 14.269531 L 8.5332031 12.300781 L 8.5332031 2.9902344 z M 8 13.777344 L 11.351562 14.662109 L 4.6484375 14.662109 L 8 13.777344 z"/>
</svg>
