<svg xmlns="http://www.w3.org/2000/svg" width="16" height="16" version="1.1">
 <defs>
   <style id="current-color-scheme" type="text/css">
   .ColorScheme-Text { color: #cc00cc; } .ColorScheme-Highlight { color:#5294e2; }
  </style>
  <linearGradient id="arrongin" x1="0%" x2="0%" y1="0%" y2="100%">
   <stop offset="0%" style="stop-color:#dd9b44; stop-opacity:1"/>
   <stop offset="100%" style="stop-color:#ad6c16; stop-opacity:1"/>
  </linearGradient>
  <linearGradient id="aurora" x1="0%" x2="0%" y1="0%" y2="100%">
   <stop offset="0%" style="stop-color:#09D4DF; stop-opacity:1"/>
   <stop offset="100%" style="stop-color:#9269F4; stop-opacity:1"/>
  </linearGradient>
  <linearGradient id="cyberneon" x1="0%" x2="0%" y1="0%" y2="100%">
    <stop offset="0" style="stop-color:#0abdc6; stop-opacity:1"/>
    <stop offset="1" style="stop-color:#ea00d9; stop-opacity:1"/>
  </linearGradient>
  <linearGradient id="fitdance" x1="0%" x2="0%" y1="0%" y2="100%">
   <stop offset="0%" style="stop-color:#1AD6AB; stop-opacity:1"/>
   <stop offset="100%" style="stop-color:#329DB6; stop-opacity:1"/>
  </linearGradient>
  <linearGradient id="oomox" x1="0%" x2="0%" y1="0%" y2="100%">
   <stop offset="0%" style="stop-color:#efefe7; stop-opacity:1"/>
   <stop offset="100%" style="stop-color:#8f8f8b; stop-opacity:1"/>
  </linearGradient>
  <linearGradient id="rainblue" x1="0%" x2="0%" y1="0%" y2="100%">
   <stop offset="0%" style="stop-color:#00F260; stop-opacity:1"/>
   <stop offset="100%" style="stop-color:#0575E6; stop-opacity:1"/>
  </linearGradient>
  <linearGradient id="sunrise" x1="0%" x2="0%" y1="0%" y2="100%">
   <stop offset="0%" style="stop-color: #FF8501; stop-opacity:1"/>
   <stop offset="100%" style="stop-color: #FFCB01; stop-opacity:1"/>
  </linearGradient>
  <linearGradient id="telinkrin" x1="0%" x2="0%" y1="0%" y2="100%">
   <stop offset="0%" style="stop-color: #b2ced6; stop-opacity:1"/>
   <stop offset="100%" style="stop-color: #6da5b7; stop-opacity:1"/>
  </linearGradient>
  <linearGradient id="60spsycho" x1="0%" x2="0%" y1="0%" y2="100%">
   <stop offset="0%" style="stop-color: #df5940; stop-opacity:1"/>
   <stop offset="25%" style="stop-color: #d8d15f; stop-opacity:1"/>
   <stop offset="50%" style="stop-color: #e9882a; stop-opacity:1"/>
   <stop offset="100%" style="stop-color: #279362; stop-opacity:1"/>
  </linearGradient>
  <linearGradient id="90ssummer" x1="0%" x2="0%" y1="0%" y2="100%">
   <stop offset="0%" style="stop-color: #f618c7; stop-opacity:1"/>
   <stop offset="20%" style="stop-color: #94ffab; stop-opacity:1"/>
   <stop offset="50%" style="stop-color: #fbfd54; stop-opacity:1"/>
   <stop offset="100%" style="stop-color: #0f83ae; stop-opacity:1"/>
  </linearGradient>
 </defs>
 <path fill="currentColor" class="ColorScheme-Text" fill-rule="evenodd" d="M 13.096 4.612 L 15.627 7.15 C 16.095 7.619 16.095 8.381 15.627 8.85 L 8.848 15.648 C 8.38 16.117 7.62 16.117 7.152 15.648 L 0.373 8.85 C -0.095 8.381 -0.095 7.619 0.373 7.15 L 3.971 3.542 C 3.973 3.539 3.976 3.536 3.978 3.533 L 4.467 3.042 C 4.472 3.039 4.476 3.035 4.48 3.031 L 4.48 3.031 L 7.152 0.352 C 7.62 -0.117 8.38 -0.117 8.848 0.352 L 11.103 2.614 L 11.104 2.614 C 11.105 2.615 11.106 2.615 11.107 2.615 L 13.097 4.611 C 13.097 4.611 13.097 4.612 13.096 4.612 Z M 13.096 4.612 L 11.104 2.614 L 11.104 2.614 C 10.276 2.301 9.177 1.997 11.103 2.614 L 8 1.997 C 6.538 1.997 5.364 2.337 4.519 2.997 C 4.505 3.008 4.493 3.02 4.48 3.031 L 3.971 3.542 L 3.971 3.542 C 3.484 4.155 3.238 4.917 3.294 5.656 C 3.443 7.613 5.386 9.141 8 9.141 C 9.775 9.141 10.416 10.052 10.455 10.521 C 10.474 10.756 10.429 10.943 10.107 11.193 C 9.786 11.444 9.119 11.713 8 11.713 C 6.44 11.713 4.576 10.721 4.576 10.721 C 4.273 10.542 3.905 10.513 3.578 10.643 C 3.251 10.773 3.002 11.047 2.903 11.385 L 4.893 13.381 C 5.721 13.694 6.822 13.999 8 13.999 C 9.443 13.999 10.601 13.673 11.447 13.04 L 12.116 12.369 C 12.561 11.769 12.785 11.041 12.727 10.334 C 12.566 8.374 10.614 6.855 8 6.855 C 6.225 6.855 5.603 5.954 5.567 5.482 C 5.549 5.246 5.599 5.052 5.92 4.802 C 6.241 4.551 6.897 4.283 8 4.283 C 9.561 4.283 11.424 5.276 11.424 5.276 C 11.727 5.454 12.096 5.483 12.423 5.353 C 12.749 5.223 12.998 4.95 13.096 4.612 Z"/>
</svg>
