<svg xmlns="http://www.w3.org/2000/svg" width="16" height="16" version="1.1">
 <defs>
   <style id="current-color-scheme" type="text/css">
   .ColorScheme-Text { color: #cc00cc; } .ColorScheme-Highlight { color:#5294e2; }
  </style>
  <linearGradient id="arrongin" x1="0%" x2="0%" y1="0%" y2="100%">
   <stop offset="0%" style="stop-color:#dd9b44; stop-opacity:1"/>
   <stop offset="100%" style="stop-color:#ad6c16; stop-opacity:1"/>
  </linearGradient>
  <linearGradient id="aurora" x1="0%" x2="0%" y1="0%" y2="100%">
   <stop offset="0%" style="stop-color:#09D4DF; stop-opacity:1"/>
   <stop offset="100%" style="stop-color:#9269F4; stop-opacity:1"/>
  </linearGradient>
  <linearGradient id="cyberneon" x1="0%" x2="0%" y1="0%" y2="100%">
    <stop offset="0" style="stop-color:#0abdc6; stop-opacity:1"/>
    <stop offset="1" style="stop-color:#ea00d9; stop-opacity:1"/>
  </linearGradient>
  <linearGradient id="fitdance" x1="0%" x2="0%" y1="0%" y2="100%">
   <stop offset="0%" style="stop-color:#1AD6AB; stop-opacity:1"/>
   <stop offset="100%" style="stop-color:#329DB6; stop-opacity:1"/>
  </linearGradient>
  <linearGradient id="oomox" x1="0%" x2="0%" y1="0%" y2="100%">
   <stop offset="0%" style="stop-color:#efefe7; stop-opacity:1"/>
   <stop offset="100%" style="stop-color:#8f8f8b; stop-opacity:1"/>
  </linearGradient>
  <linearGradient id="rainblue" x1="0%" x2="0%" y1="0%" y2="100%">
   <stop offset="0%" style="stop-color:#00F260; stop-opacity:1"/>
   <stop offset="100%" style="stop-color:#0575E6; stop-opacity:1"/>
  </linearGradient>
  <linearGradient id="sunrise" x1="0%" x2="0%" y1="0%" y2="100%">
   <stop offset="0%" style="stop-color: #FF8501; stop-opacity:1"/>
   <stop offset="100%" style="stop-color: #FFCB01; stop-opacity:1"/>
  </linearGradient>
  <linearGradient id="telinkrin" x1="0%" x2="0%" y1="0%" y2="100%">
   <stop offset="0%" style="stop-color: #b2ced6; stop-opacity:1"/>
   <stop offset="100%" style="stop-color: #6da5b7; stop-opacity:1"/>
  </linearGradient>
  <linearGradient id="60spsycho" x1="0%" x2="0%" y1="0%" y2="100%">
   <stop offset="0%" style="stop-color: #df5940; stop-opacity:1"/>
   <stop offset="25%" style="stop-color: #d8d15f; stop-opacity:1"/>
   <stop offset="50%" style="stop-color: #e9882a; stop-opacity:1"/>
   <stop offset="100%" style="stop-color: #279362; stop-opacity:1"/>
  </linearGradient>
  <linearGradient id="90ssummer" x1="0%" x2="0%" y1="0%" y2="100%">
   <stop offset="0%" style="stop-color: #f618c7; stop-opacity:1"/>
   <stop offset="20%" style="stop-color: #94ffab; stop-opacity:1"/>
   <stop offset="50%" style="stop-color: #fbfd54; stop-opacity:1"/>
   <stop offset="100%" style="stop-color: #0f83ae; stop-opacity:1"/>
  </linearGradient>
 </defs>
 <path fill="currentColor" class="ColorScheme-Text" fill-rule="evenodd" d="M 1.651 0 C 1.186 0.104 0.821 0.393 0.86 0.922 L 1.481 10.87 C 1.505 11.187 1.656 11.474 1.893 11.651 L 7.483 15.825 C 7.796 16.058 8.204 16.058 8.517 15.825 L 14.107 11.651 C 14.344 11.474 14.495 11.187 14.519 10.87 L 15.14 0.922 C 15.179 0.393 14.814 0.104 14.349 0 L 1.651 0 Z M 8.397 4.286 L 7.206 5.6 L 8.397 5.6 L 8.793 6 L 9.587 4.8 L 9.19 4.286 L 8.397 4.286 L 8.397 4.286 Z M 9.984 4.857 L 9.19 6 L 9.587 7.2 L 10.778 6 L 10.778 6.4 L 9.587 7.6 L 9.984 8.4 L 11.571 6.8 L 11.571 7.2 L 9.984 8.8 L 11.571 8.8 L 12.286 8 L 12.286 7.2 L 12 6.8 L 12 6 L 11.174 5.6 L 10.778 4.857 L 9.984 4.857 L 9.984 4.857 Z M 5.619 6.8 L 6.016 8.8 L 6.016 9.2 L 2.672 12.233 L 2.89 12.395 C 3.372 11.955 5.232 10.258 6.412 9.2 L 5.619 6.8 L 5.619 6.8 L 5.619 6.8 Z M 8.397 10.4 L 8.793 10.4 L 6.809 12.8 L 8.397 10.4 L 8.397 10.4 L 8.397 10.4 Z M 6.412 6 L 6.016 6.4 L 6.809 9.2 L 3.53 12.873 L 5.986 14.707 L 9.19 10.4 L 9.984 10.4 L 10.381 10 L 11.174 9.6 L 11.571 9.143 L 9.587 9.143 L 9.19 8 L 8.793 8 L 8.397 9.143 L 7.603 9.143 L 8 8 L 7.206 7.2 L 7.603 6.8 L 8.397 7.6 L 9.19 7.6 L 9.19 7.2 L 8.397 6 L 6.412 6 L 6.412 6 Z"/>
</svg>
