<svg xmlns="http://www.w3.org/2000/svg" width="24" height="24" version="1.1">
 <defs>
  <style id="current-color-scheme" type="text/css">
   .ColorScheme-Text { color: #00aa00; } .ColorScheme-Highlight { color: #1AD6AB; }
  </style>
  <linearGradient id="arrongin" x1="0%" x2="0%" y1="0%" y2="100%">
   <stop offset="0%" style="stop-color:#dd9b44"/>
   <stop offset="100%" style="stop-color:#ad6c16"/>
  </linearGradient>
  <linearGradient id="aurora" x1="0%" x2="0%" y1="0%" y2="100%">
   <stop offset="0%" style="stop-color:#09D4DF"/>
   <stop offset="100%" style="stop-color:#9269F4"/>
  </linearGradient>
  <linearGradient id="cyberneon" x1="0%" x2="0%" y1="0%" y2="100%">
   <stop offset="0" style="stop-color:#0abdc6"/>
   <stop offset="1" style="stop-color:#ea00d9"/>
  </linearGradient>
  <linearGradient id="fitdance" x1="0%" x2="0%" y1="0%" y2="100%">
   <stop offset="0%" style="stop-color:#1AD6AB"/>
   <stop offset="100%" style="stop-color:#329DB6"/>
  </linearGradient>
  <linearGradient id="oomox" x1="0%" x2="0%" y1="0%" y2="100%">
   <stop offset="0%" style="stop-color:#00aa00"/>
   <stop offset="100%" style="stop-color:#00cc00"/>
  </linearGradient>
  <linearGradient id="rainblue" x1="0%" x2="0%" y1="0%" y2="100%">
   <stop offset="0%" style="stop-color:#00F260"/>
   <stop offset="100%" style="stop-color:#0575E6"/>
  </linearGradient>
  <linearGradient id="sunrise" x1="0%" x2="0%" y1="0%" y2="100%">
   <stop offset="0%" style="stop-color:#FF8501"/>
   <stop offset="100%" style="stop-color:#FFCB01"/>
  </linearGradient>
  <linearGradient id="telinkrin" x1="0%" x2="0%" y1="0%" y2="100%">
   <stop offset="0%" style="stop-color:#b2ced6"/>
   <stop offset="100%" style="stop-color:#6da5b7"/>
  </linearGradient>
  <linearGradient id="60spsycho" x1="0%" x2="0%" y1="0%" y2="100%">
   <stop offset="0%" style="stop-color:#df5940"/>
   <stop offset="25%" style="stop-color:#d8d15f"/>
   <stop offset="50%" style="stop-color:#e9882a"/>
   <stop offset="100%" style="stop-color:#279362"/>
  </linearGradient>
  <linearGradient id="90ssummer" x1="0%" x2="0%" y1="0%" y2="100%">
   <stop offset="0%" style="stop-color:#f618c7"/>
   <stop offset="20%" style="stop-color:#94ffab"/>
   <stop offset="50%" style="stop-color:#fbfd54"/>
   <stop offset="100%" style="stop-color:#0f83ae"/>
  </linearGradient>
 </defs>
 <path fill="url(#oomox)" class="ColorScheme-Text" d="M 12,3.999953 C 5.6597699,4.0001605 5.4972206,4.003373 5.3320313,4.099562 4.9813624,4.3038397 5.0000001,4.051692 5.0000001,8.8144057 c 0,4.8330943 -0.00567,4.7365493 0.3769531,5.6738283 0.4402003,1.07819 1.1485707,1.988275 2.3125,2.978516 0.9766088,0.830875 2.1342964,1.583963 3.4257808,2.222656 0.436925,0.216078 0.662887,0.314118 0.884766,0.310547 0.221879,0.0035 0.447839,-0.09446 0.884766,-0.310547 1.291484,-0.638693 2.449171,-1.391781 3.425781,-2.222656 1.163929,-0.990241 1.8723,-1.900326 2.3125,-2.978516 C 19.005727,13.550954 19,13.6475 19,8.8144061 19,4.0516884 19.018633,4.3038401 18.667969,4.0995624 18.50278,4.0033564 18.340231,4.00016 12,3.999953 Z m 0,2 c 2.808426,9.17e-5 4.08168,0.00301 4.978516,0.011719 C 16.989059,6.626717 17,7.1124814 17,8.8144061 c 0,2.4174729 -0.0049,3.6212849 -0.04102,4.1660159 -0.03608,0.544731 0.01146,0.264652 -0.1875,0.751953 -0.305374,0.74796 -0.748108,1.353569 -1.755859,2.210937 C 14.181146,16.653269 13.157854,17.321634 12,17.894484 Z"/>
</svg>
