<svg xmlns="http://www.w3.org/2000/svg" width="24" height="24" version="1.1">
 <defs>
  <style id="current-color-scheme" type="text/css">
   .ColorScheme-Text { color: #00aa00; } .ColorScheme-Highlight { color: #1AD6AB; }
  </style>
  <linearGradient id="arrongin" x1="0%" x2="0%" y1="0%" y2="100%">
   <stop offset="0%" style="stop-color:#dd9b44"/>
   <stop offset="100%" style="stop-color:#ad6c16"/>
  </linearGradient>
  <linearGradient id="aurora" x1="0%" x2="0%" y1="0%" y2="100%">
   <stop offset="0%" style="stop-color:#09D4DF"/>
   <stop offset="100%" style="stop-color:#9269F4"/>
  </linearGradient>
  <linearGradient id="cyberneon" x1="0%" x2="0%" y1="0%" y2="100%">
   <stop offset="0" style="stop-color:#0abdc6"/>
   <stop offset="1" style="stop-color:#ea00d9"/>
  </linearGradient>
  <linearGradient id="fitdance" x1="0%" x2="0%" y1="0%" y2="100%">
   <stop offset="0%" style="stop-color:#1AD6AB"/>
   <stop offset="100%" style="stop-color:#329DB6"/>
  </linearGradient>
  <linearGradient id="oomox" x1="0%" x2="0%" y1="0%" y2="100%">
   <stop offset="0%" style="stop-color:#00aa00"/>
   <stop offset="100%" style="stop-color:#00cc00"/>
  </linearGradient>
  <linearGradient id="rainblue" x1="0%" x2="0%" y1="0%" y2="100%">
   <stop offset="0%" style="stop-color:#00F260"/>
   <stop offset="100%" style="stop-color:#0575E6"/>
  </linearGradient>
  <linearGradient id="sunrise" x1="0%" x2="0%" y1="0%" y2="100%">
   <stop offset="0%" style="stop-color:#FF8501"/>
   <stop offset="100%" style="stop-color:#FFCB01"/>
  </linearGradient>
  <linearGradient id="telinkrin" x1="0%" x2="0%" y1="0%" y2="100%">
   <stop offset="0%" style="stop-color:#b2ced6"/>
   <stop offset="100%" style="stop-color:#6da5b7"/>
  </linearGradient>
  <linearGradient id="60spsycho" x1="0%" x2="0%" y1="0%" y2="100%">
   <stop offset="0%" style="stop-color:#df5940"/>
   <stop offset="25%" style="stop-color:#d8d15f"/>
   <stop offset="50%" style="stop-color:#e9882a"/>
   <stop offset="100%" style="stop-color:#279362"/>
  </linearGradient>
  <linearGradient id="90ssummer" x1="0%" x2="0%" y1="0%" y2="100%">
   <stop offset="0%" style="stop-color:#f618c7"/>
   <stop offset="20%" style="stop-color:#94ffab"/>
   <stop offset="50%" style="stop-color:#fbfd54"/>
   <stop offset="100%" style="stop-color:#0f83ae"/>
  </linearGradient>
 </defs>
 <g transform="matrix(1.2838 0 0 -1.2418 .66407 22.928)">
  <g>
   <path fill="url(#oomox)" class="ColorScheme-Text" d="m13.953 13.002c-0.094 0.512-0.406 0.766-0.683 0.868-1.1693 0.48405-2.1827 0.53002-3.465 0.56753-0.055 0.359-0.309 0.475-0.59 0.588-0.754 0.301-1.922 0.226-2.219 0.144-0.238-0.066-0.504-0.199-0.648-0.406-0.098-0.141-0.164-0.316-0.164-0.566 0-0.141 0.004-0.473 0.007-0.766 0.004-0.293 0.008-0.39812 0.008-0.39812 0-0.261-0.215-0.20696-0.48-0.20696h-1.223c-1.1632 0-1.1688-1.338-1.09-2.227 0.043-0.332 0.41-2.668 0.758-3.379 0.137-0.273 0.227-0.391 0.492-0.512 0.59-0.25 1.942-0.527 2.574-0.609 0.629-0.078 1.028-0.246 1.262 0.242 0 0 0.047 0.121 0.113 0.301 0.204 0.613 0.231 1.156 0.231 1.551 0 0.043 0.062 0.043 0.062 0 0-0.278-0.054-1.262 0.7-1.528 0.297-0.105 0.914-0.195 1.539-0.269 0.566-0.063 0.976-0.285 0.976-1.723 0-0.875-0.183-0.992-1.156-0.992-0.785 0-1.086-0.019-1.086 0.598 0 0.5 0.5 0.445 0.871 0.445 0.164 0 0.043 0.121 0.043 0.43 0 0.308 0.195 0.484 0.012 0.488-1.281 0.035-2.035 0.004-2.035-1.582 0-1.438 0.558-1.703 2.375-1.703 1.425 0 1.929 0.047 2.515 1.851 0.118 0.356 0.399 1.446 0.571 3.27 0.109 1.156-0.102 4.641-0.27 5.523zm-2.484-3.855c-0.176 0.008-0.344-0.004-0.504-0.027 0.047 0.351 0.195 0.789 0.719 0.769 0.582-0.019 0.664-0.562 0.664-0.93-0.246 0.11-0.547 0.176-0.879 0.188z"/>
  </g>
 </g>
</svg>
