<svg xmlns="http://www.w3.org/2000/svg" width="24" height="24" version="1.1">
 <defs>
  <style id="current-color-scheme" type="text/css">
   .ColorScheme-Text { color: #00aa00; } .ColorScheme-Highlight { color: #1AD6AB; }
  </style>
  <linearGradient id="arrongin" x1="0%" x2="0%" y1="0%" y2="100%">
   <stop offset="0%" style="stop-color:#dd9b44"/>
   <stop offset="100%" style="stop-color:#ad6c16"/>
  </linearGradient>
  <linearGradient id="aurora" x1="0%" x2="0%" y1="0%" y2="100%">
   <stop offset="0%" style="stop-color:#09D4DF"/>
   <stop offset="100%" style="stop-color:#9269F4"/>
  </linearGradient>
  <linearGradient id="cyberneon" x1="0%" x2="0%" y1="0%" y2="100%">
   <stop offset="0" style="stop-color:#0abdc6"/>
   <stop offset="1" style="stop-color:#ea00d9"/>
  </linearGradient>
  <linearGradient id="fitdance" x1="0%" x2="0%" y1="0%" y2="100%">
   <stop offset="0%" style="stop-color:#1AD6AB"/>
   <stop offset="100%" style="stop-color:#329DB6"/>
  </linearGradient>
  <linearGradient id="oomox" x1="0%" x2="0%" y1="0%" y2="100%">
   <stop offset="0%" style="stop-color:#00aa00"/>
   <stop offset="100%" style="stop-color:#00cc00"/>
  </linearGradient>
  <linearGradient id="rainblue" x1="0%" x2="0%" y1="0%" y2="100%">
   <stop offset="0%" style="stop-color:#00F260"/>
   <stop offset="100%" style="stop-color:#0575E6"/>
  </linearGradient>
  <linearGradient id="sunrise" x1="0%" x2="0%" y1="0%" y2="100%">
   <stop offset="0%" style="stop-color:#FF8501"/>
   <stop offset="100%" style="stop-color:#FFCB01"/>
  </linearGradient>
  <linearGradient id="telinkrin" x1="0%" x2="0%" y1="0%" y2="100%">
   <stop offset="0%" style="stop-color:#b2ced6"/>
   <stop offset="100%" style="stop-color:#6da5b7"/>
  </linearGradient>
  <linearGradient id="60spsycho" x1="0%" x2="0%" y1="0%" y2="100%">
   <stop offset="0%" style="stop-color:#df5940"/>
   <stop offset="25%" style="stop-color:#d8d15f"/>
   <stop offset="50%" style="stop-color:#e9882a"/>
   <stop offset="100%" style="stop-color:#279362"/>
  </linearGradient>
  <linearGradient id="90ssummer" x1="0%" x2="0%" y1="0%" y2="100%">
   <stop offset="0%" style="stop-color:#f618c7"/>
   <stop offset="20%" style="stop-color:#94ffab"/>
   <stop offset="50%" style="stop-color:#fbfd54"/>
   <stop offset="100%" style="stop-color:#0f83ae"/>
  </linearGradient>
 </defs>
 <path fill="url(#oomox)" class="ColorScheme-Text" d="m12 3.9461c-4.3678 0-8 3.3281-8 7.5s3.6322 7.5 8 7.5a1.0001 1.0001 0 0 0 0.002 0c0.61236-0.0013 1.2131-0.11847 1.8086-0.25 1.2282 0.80849 2.6642 1.5391 4.3672 1.2324a1.0001 1.0001 0 0 0 0.54883 -1.6699c-0.583-0.616-0.891-0.999-0.909-1.82 1.331-1.367 2.18-3.109 2.182-4.992 0-4.1718-3.632-7.4999-8-7.4999zm0 2c3.3634 0 5.9988 2.4911 6 5.498-0.0015 1.4994-0.66704 2.9383-1.873 3.9863a1.0001 1.0001 0 0 0 -0.3418 0.70312c-0.03233 0.62878 0.16167 1.1069 0.34375 1.5859-0.4995-0.20339-1.0063-0.49427-1.5527-0.87305a1.0001 1.0001 0 0 0 -0.84 -0.14c-0.562 0.157-1.147 0.239-1.736 0.24-3.3642 0-6-2.4922-6-5.5-2e-7 -3.0078 2.6358-5.5 6-5.5zm3.0156 6.8418a0.75008 0.75008 0 0 0 -0.4668 0.1582c-0.90503 0.68212-1.7402 0.98475-2.5508 0.98633-0.8106 0.0016-1.6398-0.29663-2.543-0.98438a0.75042 0.75042 0 1 0 -0.91016 1.1934c1.0968 0.83525 2.2676 1.2933 3.457 1.291s2.3543-0.46379 3.4492-1.2891a0.75008 0.75008 0 0 0 -0.43555 -1.3555z"/>
</svg>
