<svg xmlns="http://www.w3.org/2000/svg" width="24" height="24" version="1.1">
 <defs>
  <style id="current-color-scheme" type="text/css">
   .ColorScheme-Text { color: #00aa00; } .ColorScheme-Highlight { color: #1AD6AB; }
  </style>
  <linearGradient id="arrongin" x1="0%" x2="0%" y1="0%" y2="100%">
   <stop offset="0%" style="stop-color:#dd9b44"/>
   <stop offset="100%" style="stop-color:#ad6c16"/>
  </linearGradient>
  <linearGradient id="aurora" x1="0%" x2="0%" y1="0%" y2="100%">
   <stop offset="0%" style="stop-color:#09D4DF"/>
   <stop offset="100%" style="stop-color:#9269F4"/>
  </linearGradient>
  <linearGradient id="cyberneon" x1="0%" x2="0%" y1="0%" y2="100%">
   <stop offset="0" style="stop-color:#0abdc6"/>
   <stop offset="1" style="stop-color:#ea00d9"/>
  </linearGradient>
  <linearGradient id="fitdance" x1="0%" x2="0%" y1="0%" y2="100%">
   <stop offset="0%" style="stop-color:#1AD6AB"/>
   <stop offset="100%" style="stop-color:#329DB6"/>
  </linearGradient>
  <linearGradient id="oomox" x1="0%" x2="0%" y1="0%" y2="100%">
   <stop offset="0%" style="stop-color:#00aa00"/>
   <stop offset="100%" style="stop-color:#00cc00"/>
  </linearGradient>
  <linearGradient id="rainblue" x1="0%" x2="0%" y1="0%" y2="100%">
   <stop offset="0%" style="stop-color:#00F260"/>
   <stop offset="100%" style="stop-color:#0575E6"/>
  </linearGradient>
  <linearGradient id="sunrise" x1="0%" x2="0%" y1="0%" y2="100%">
   <stop offset="0%" style="stop-color:#FF8501"/>
   <stop offset="100%" style="stop-color:#FFCB01"/>
  </linearGradient>
  <linearGradient id="telinkrin" x1="0%" x2="0%" y1="0%" y2="100%">
   <stop offset="0%" style="stop-color:#b2ced6"/>
   <stop offset="100%" style="stop-color:#6da5b7"/>
  </linearGradient>
  <linearGradient id="60spsycho" x1="0%" x2="0%" y1="0%" y2="100%">
   <stop offset="0%" style="stop-color:#df5940"/>
   <stop offset="25%" style="stop-color:#d8d15f"/>
   <stop offset="50%" style="stop-color:#e9882a"/>
   <stop offset="100%" style="stop-color:#279362"/>
  </linearGradient>
  <linearGradient id="90ssummer" x1="0%" x2="0%" y1="0%" y2="100%">
   <stop offset="0%" style="stop-color:#f618c7"/>
   <stop offset="20%" style="stop-color:#94ffab"/>
   <stop offset="50%" style="stop-color:#fbfd54"/>
   <stop offset="100%" style="stop-color:#0f83ae"/>
  </linearGradient>
 </defs>
 <path fill="url(#oomox)" class="ColorScheme-Text" d="m 9.5,4.9999998 c -0.825582,0 -1.5,0.674419 -1.5,1.5 0,0.8255815 0.674418,1.5 1.5,1.5 h 1.500001 v -1.5 c 0,-0.825581 -0.67442,-1.5 -1.500001,-1.5 z m 4.001953,0 c -0.825581,0 -1.5,0.6732269 -1.5,1.4980469 v 4.0039063 c 0,0.82482 0.674419,1.498047 1.5,1.498047 0.825583,0 1.5,-0.673227 1.5,-1.498047 V 6.4980467 c 0,-0.82482 -0.674417,-1.4980469 -1.5,-1.4980469 z m -8.003906,4 C 4.673227,8.9999998 4,9.674418 4,10.5 4,11.325581 4.673227,12 5.498047,12 H 9.501954 C 10.326774,12 11,11.325581 11,10.5 11,9.674418 10.326774,8.9999998 9.501954,8.9999998 Z m 12.003906,0 c -0.825581,0 -1.499999,0.6744182 -1.499999,1.5000002 V 12 h 1.499999 c 0.82558,0 1.5,-0.674419 1.5,-1.5 0,-0.825582 -0.67442,-1.5000002 -1.5,-1.5000002 z M 5.5,13 C 4.674419,13 4,13.674419 4,14.5 4,15.325582 4.674419,16 5.5,16 6.325582,16 7,15.325582 7,14.5 V 13 Z m 4,0 C 8.674419,13 8,13.673227 8,14.498047 v 4.003906 C 8,19.326773 8.674419,20 9.5,20 c 0.825581,0 1.500001,-0.673227 1.500001,-1.498047 V 14.498047 C 11.000001,13.673227 10.325581,13 9.5,13 Z m 3.998048,0 c -0.824821,0 -1.498047,0.674419 -1.498047,1.5 0,0.825581 0.673227,1.5 1.498047,1.5 h 4.003905 C 18.326772,16 19,15.325581 19,14.5 19,13.674419 18.326772,13 17.501953,13 Z m -1.498047,4 v 1.5 c 0,0.825581 0.674419,1.5 1.5,1.5 0.825582,0 1.5,-0.674419 1.5,-1.5 0,-0.825581 -0.674418,-1.5 -1.5,-1.5 z"/>
</svg>
