<svg xmlns="http://www.w3.org/2000/svg" width="16" height="16" version="1.1">
 <defs>
  <style id="current-color-scheme" type="text/css">
   .ColorScheme-Text { color: #00aa00; } .ColorScheme-Highlight { color: #5294e2; }
  </style>
  <linearGradient id="arrongin" x1="0%" x2="0%" y1="0%" y2="100%">
   <stop id="stop3" offset="0%" style="stop-color: #dd9b44"/>
   <stop id="stop5" offset="100%" style="stop-color: #ad6c16"/>
  </linearGradient>
  <linearGradient id="aurora" x1="0%" x2="0%" y1="0%" y2="100%">
   <stop id="stop8" offset="0%" style="stop-color: #09D4DF"/>
   <stop id="stop10" offset="100%" style="stop-color: #9269F4"/>
  </linearGradient>
  <linearGradient id="cyberneon" x1="0%" x2="0%" y1="0%" y2="100%">
   <stop id="stop56" offset="0" style="stop-color: #0abdc6"/>
   <stop id="stop58" offset="1" style="stop-color: #ea00d9"/>
  </linearGradient>
  <linearGradient id="fitdance" x1="0%" x2="0%" y1="0%" y2="100%">
   <stop id="stop13" offset="0%" style="stop-color: #1AD6AB"/>
   <stop id="stop15" offset="100%" style="stop-color: #329DB6"/>
  </linearGradient>
  <linearGradient id="oomox" x1="0%" x2="0%" y1="0%" y2="100%">
   <stop id="stop18" offset="0%" style="stop-color: #00aa00"/>
   <stop id="stop20" offset="100%" style="stop-color: #00cc00"/>
  </linearGradient>
  <linearGradient id="rainblue" x1="0%" x2="0%" y1="0%" y2="100%">
   <stop id="stop23" offset="0%" style="stop-color: #00F260"/>
   <stop id="stop25" offset="100%" style="stop-color: #0575E6"/>
  </linearGradient>
  <linearGradient id="sunrise" x1="0%" x2="0%" y1="0%" y2="100%">
   <stop id="stop28" offset="0%" style="stop-color: #FF8501"/>
   <stop id="stop30" offset="100%" style="stop-color: #FFCB01"/>
  </linearGradient>
  <linearGradient id="telinkrin" x1="0%" x2="0%" y1="0%" y2="100%">
   <stop id="stop33" offset="0%" style="stop-color: #b2ced6"/>
   <stop id="stop35" offset="100%" style="stop-color: #6da5b7"/>
  </linearGradient>
  <linearGradient id="60spsycho" x1="0%" x2="0%" y1="0%" y2="100%">
   <stop id="stop38" offset="0%" style="stop-color: #df5940"/>
   <stop id="stop40" offset="25%" style="stop-color: #d8d15f"/>
   <stop id="stop42" offset="50%" style="stop-color: #e9882a"/>
   <stop id="stop44" offset="100%" style="stop-color: #279362"/>
  </linearGradient>
  <linearGradient id="90ssummer" x1="0%" x2="0%" y1="0%" y2="100%">
   <stop id="stop47" offset="0%" style="stop-color: #f618c7"/>
   <stop id="stop49" offset="20%" style="stop-color: #94ffab"/>
   <stop id="stop51" offset="50%" style="stop-color: #fbfd54"/>
   <stop id="stop53" offset="100%" style="stop-color: #0f83ae"/>
  </linearGradient>
 </defs>
 <g fill="url(#oomox)" class="ColorScheme-Text" transform="matrix(0.11428564,0,0,0.11428564,7.0857149,7.0857149)">
  <path d="M 41.301976,-21.9733 13.472981,21.3109 c -0.032,0.05 -0.032,0.114 10e-4,0.164 l 2.402,3.707 c 0.059,0.092 0.193,0.092 0.252,0.001 l 27.487995,-41.668 c 0.027,-0.042 0.075,-0.067 0.125,-0.067 h 30.421 c 0.048,0 0.094,-0.024 0.122,-0.064 l 3.688,-5.1885 c 0.071,-0.1002 -0.001,-0.2378 -0.123,-0.2378 h -36.421 c -0.051,0 -0.098,0.0261 -0.126,0.0691 z"/>
  <path d="m 44.159976,-15.5321 -20.305995,30.775 c -0.038,0.058 -0.032,0.135 0.015,0.185 l 2.374,2.541 c 0.067,0.071 0.183,0.06 0.236,-0.022 l 21.567995,-33.315 c 0.065,-0.099 -0.007,-0.232 -0.127,-0.232 h -3.635 c -0.05,0 -0.097,0.025 -0.125,0.068 z"/>
  <path d="m 46.494976,-9.7021 h 22.799 c 0.049,0 0.095,-0.023 0.124,-0.063 l 3.837,-5.597 c 0.071,-0.1 0,-0.238 -0.123,-0.238 l -23.075,-0.031 c -0.048,0 -0.122,0.063 -0.122,0.063 l -3.563,5.628 c -0.071,0.1 0,0.238 0.123,0.238 z"/>
  <path d="m 26.334981,20.2369 -3.096,-3.347 c -0.067,-0.072 -0.183,-0.062 -0.236,0.02 l -6.26,9.61 -0.077,0.119 7.496,11.334 c 0.06,0.09 0.192,0.09 0.251,10e-4 l 27.051995,-40.667 c 0.027,-0.042 0.075,-0.067 0.125,-0.067 h 12.772 c 0.049,0 0.094,-0.024 0.122,-0.064 l 3.848,-5.416 c 0.072,-0.099 0,-0.237 -0.122,-0.237 h -22.722 c -0.05,0 -0.098,0.026 -0.125,0.068 l -18.791995,28.626 c -0.054,0.081 -0.17,0.092 -0.236,0.02 z"/>
  <path d="m 35.717981,-15.1921 h -2.864 c -0.051,0 -0.099,0.026 -0.127,0.069 l -8.43,13.05 c -0.033,0.05 -0.032,0.117 0.003,0.167 l 1.538,2.226 c 0.061,0.089 0.192,0.086 0.25,-0.005 l 9.757,-15.275 c 0.064,-0.1 -0.008,-0.232 -0.127,-0.232 z"/>
  <path d="m 13.020981,20.3859 6.176,-9.542 c 0.033,-0.051 0.032,-0.117 -0.003,-0.167 L 7.9999808,-5.4371 v 0.002 0 l -11.194,16.113 c -0.035,0.051 -0.036,0.116 -0.003,0.168 l 6.176,9.541 c 0.06,0.092 0.194,0.092 0.253,0 l 4.763,-7.35 0.011,-10e-4 4.7620002,7.35 c 0.059,0.091 0.193,0.091 0.253,0 z"/>
  <path d="m -61.97192,-21.8031 3.688,5.189 c 0.0283,0.04 0.0741,0.062 0.1225,0.062 h 30.420401 c 0.0501,0 0.0976,0.026 0.1253,0.069 l 27.4876998,41.668 c 0.059,0.091 0.193,0.09 0.251,-10e-4 l 2.404,-3.708 c 0.032,-0.05 0.032,-0.114 0,-0.163 L -25.302119,-21.9719 c -0.0274,-0.043 -0.0756,-0.0691 -0.1261,-0.0691 H -61.84902 c -0.1225,0 -0.1938,0.1383 -0.1229,0.2379 z"/>
  <path d="m -7.8540192,15.2439 -20.3058998,-30.774 c -0.0279,-0.043 -0.0752,-0.068 -0.1257,-0.068 h -3.6348 c -0.1191,0 -0.191,0.132 -0.1269,0.232 l 21.5683,33.315 c 0.053,0.082 0.169,0.093 0.235,0.021 l 2.3739998,-2.54 c 0.048,-0.051 0.054,-0.128 0.016,-0.186 z"/>
  <path d="M -34.581619,-15.6281 H -57.53542 c -0.122,0 -0.1933,0.137 -0.1227,0.238 l 4.2413,5.626 c 0.0281,0.04 0.0739,0.063 0.1231,0.063 h 22.799501 c 0.1225,0 0.1932,-0.138 0.1221,-0.238 l -4.087,-5.627 c -0.029,-0.039 -0.0741,-0.062 -0.1225,-0.062 z"/>
  <path d="m -7.2390192,16.8919 -3.0959998,3.346 c -0.066,0.072 -0.182,0.062 -0.236,-0.02 l -18.7911,-28.625 c -0.0283,-0.043 -0.0751,-0.068 -0.1263,-0.068 H -52.21012 c -0.1221,0 -0.1934,0.138 -0.1228,0.237 l 3.849001,5.416 c 0.0276,0.039 0.0732,0.063 0.1222,0.063 h 12.7716 c 0.051,0 0.0976,0.026 0.1253,0.067 l 27.0517998,40.667 c 0.059,0.09 0.191,0.09 0.251,0 l 7.496,-11.335 -0.077,-0.119 -6.259,-9.609 c -0.054,-0.083 -0.17,-0.092 -0.237,-0.02 z"/>
  <path d="m -8.2970192,-2.0721 -8.4299998,-13.049 c -0.028,-0.043 -0.075,-0.069 -0.126,-0.069 h -2.865 c -0.119,0 -0.191,0.131 -0.127,0.232 l 9.756,15.275 c 0.059,0.09 0.1909998,0.093 0.2519998,0.004 l 1.538,-2.226 c 0.034,-0.05 0.035,-0.116 0.002,-0.167 z"/>
  <path d="m -9.2760192,1.5449 5.176,7.851 c 0.059,0.089 0.189,0.091 0.249,0.004 l 11.728,-16.742 c 0.06,-0.085 0.187,-0.085 0.247,0 l 11.7270002,16.74 c 0.061,0.088 0.19,0.086 0.248,-0.003 l 5.177,-7.852 c 0.033,-0.051 0.033,-0.117 -0.001,-0.168 L 9.8599808,-21.2508 c -0.028,-0.0411 -0.075,-0.0659 -0.125,-0.0659 h -2.597 -3.756 c -0.039,0 -0.076,0.0155 -0.104,0.0421 l -3.04,2.9085 c -0.03,0.028 -0.047,0.067 -0.047,0.108 v 0.784 c 0,0.035 0.012,0.068 0.034,0.096 l 1.716,2.102 c 0.042,0.051 0.045,0.125 0.007,0.18 l -11.223,16.473 c -0.034,0.051 -0.034,0.116 -0.001,0.168 z"/>
 </g>
</svg>
