<svg xmlns="http://www.w3.org/2000/svg" width="16" height="16" version="1.1">
 <defs>
   <style id="current-color-scheme" type="text/css">
   .ColorScheme-Text { color: #00aa00; } .ColorScheme-Highlight { color: #5294e2; }
  </style>
  <linearGradient id="arrongin" x1="0%" x2="0%" y1="0%" y2="100%">
   <stop offset="0%" style="stop-color: #dd9b44; stop-opacity: 1"/>
   <stop offset="100%" style="stop-color: #ad6c16; stop-opacity: 1"/>
  </linearGradient>
  <linearGradient id="aurora" x1="0%" x2="0%" y1="0%" y2="100%">
   <stop offset="0%" style="stop-color: #09D4DF; stop-opacity: 1"/>
   <stop offset="100%" style="stop-color: #9269F4; stop-opacity: 1"/>
  </linearGradient>
  <linearGradient id="cyberneon" x1="0%" x2="0%" y1="0%" y2="100%">
    <stop offset="0" style="stop-color: #0abdc6; stop-opacity: 1"/>
    <stop offset="1" style="stop-color: #ea00d9; stop-opacity: 1"/>
  </linearGradient>
  <linearGradient id="fitdance" x1="0%" x2="0%" y1="0%" y2="100%">
   <stop offset="0%" style="stop-color: #1AD6AB; stop-opacity: 1"/>
   <stop offset="100%" style="stop-color: #329DB6; stop-opacity: 1"/>
  </linearGradient>
  <linearGradient id="oomox" x1="0%" x2="0%" y1="0%" y2="100%">
   <stop offset="0%" style="stop-color: #00aa00; stop-opacity: 1"/>
   <stop offset="100%" style="stop-color: #00cc00; stop-opacity: 1"/>
  </linearGradient>
  <linearGradient id="rainblue" x1="0%" x2="0%" y1="0%" y2="100%">
   <stop offset="0%" style="stop-color: #00F260; stop-opacity: 1"/>
   <stop offset="100%" style="stop-color: #0575E6; stop-opacity: 1"/>
  </linearGradient>
  <linearGradient id="sunrise" x1="0%" x2="0%" y1="0%" y2="100%">
   <stop offset="0%" style="stop-color: #FF8501; stop-opacity: 1"/>
   <stop offset="100%" style="stop-color: #FFCB01; stop-opacity: 1"/>
  </linearGradient>
  <linearGradient id="telinkrin" x1="0%" x2="0%" y1="0%" y2="100%">
   <stop offset="0%" style="stop-color: #b2ced6; stop-opacity: 1"/>
   <stop offset="100%" style="stop-color: #6da5b7; stop-opacity: 1"/>
  </linearGradient>
  <linearGradient id="60spsycho" x1="0%" x2="0%" y1="0%" y2="100%">
   <stop offset="0%" style="stop-color: #df5940; stop-opacity: 1"/>
   <stop offset="25%" style="stop-color: #d8d15f; stop-opacity: 1"/>
   <stop offset="50%" style="stop-color: #e9882a; stop-opacity: 1"/>
   <stop offset="100%" style="stop-color: #279362; stop-opacity: 1"/>
  </linearGradient>
  <linearGradient id="90ssummer" x1="0%" x2="0%" y1="0%" y2="100%">
   <stop offset="0%" style="stop-color: #f618c7; stop-opacity: 1"/>
   <stop offset="20%" style="stop-color: #94ffab; stop-opacity: 1"/>
   <stop offset="50%" style="stop-color: #fbfd54; stop-opacity: 1"/>
   <stop offset="100%" style="stop-color: #0f83ae; stop-opacity: 1"/>
  </linearGradient>
 </defs>
 <path fill="currentColor" fill-rule="evenodd" class="ColorScheme-Text" d="M 1.8869761,3.3375858 C 3.0957018,2.0975219 4.7370127,1.393666 6.4534236,1.3793215 l 0.00703,0.8827243 C 4.9729017,2.2744844 3.5504489,2.8844996 2.5029144,3.959212 1.4553468,5.033936 0.86755134,6.4863143 0.86755134,8 c 0,1.513708 0.58779546,2.966064 1.63536306,4.040822 1.0472035,1.074315 2.4689942,1.684189 3.9558885,1.6971 h 9.5411701 v 0.882757 H 6.4533963 C 4.7369854,14.606336 3.0956745,13.902445 1.8869488,12.662392 0.67822228,11.422339 -1.5e-8,9.7465349 -1.5e-8,8 -1.5e-8,6.2534426 0.67822228,4.5776389 1.8869488,3.3375858 Z M 6.2144171,3.1514123 C 6.9185262,3.114891 7.6219733,3.2376135 8.2738892,3.5107496 L 7.9436274,4.3270354 C 7.4102217,4.1035544 6.8346638,4.0031402 6.2585547,4.0330326 5.6824456,4.0629167 5.119908,4.2223509 4.6116609,4.499879 4.1033029,4.7773955 3.6617036,5.1661071 3.3186424,5.6380291 2.975625,6.1099618 2.739631,6.6533871 2.6276645,7.2292429 c -0.1119672,0.5757781 -0.097125,1.169763 0.043465,1.7390313 0.1405901,0.5692683 0.403431,1.0998048 0.7695545,1.5534318 0.3662336,0.453517 0.8267018,0.818867 1.3481903,1.069791 0.5214893,0.250814 1.0911987,0.38102 1.66808,0.38102 H 16 v 0.882757 H 6.4569541 c -0.7051023,0 -1.4013767,-0.159117 -2.038838,-0.465765 C 3.7806557,12.082973 3.2179311,11.636407 2.7703733,11.082036 2.3228154,10.527665 2.0015685,9.8791695 1.8297403,9.1834462 1.6579114,8.4876129 1.63976,7.7616555 1.7766094,7.0578882 1.9134588,6.3540885 2.2018887,5.6899021 2.6211762,5.113097 3.0404522,4.5362927 3.5801592,4.0612036 4.2015099,3.7220047 4.8227505,3.3828158 5.510197,3.1879477 6.2144171,3.1514123 Z M 7.3383873,5.0431611 C 6.8604844,4.8956524 6.3543335,4.870339 5.8645142,4.9694647 5.3748042,5.0685878 4.9165431,5.2890779 4.5305576,5.611428 4.144572,5.9337665 3.8426691,6.3480008 3.6515525,6.8174284 3.460435,7.2868461 3.3860632,7.7969694 3.4350563,8.3026784 c 0.048885,0.5057097 0.2196956,0.9912264 0.497102,1.4137358 0.2775173,0.4223988 0.6530199,0.7687708 1.0934051,1.0083288 0.440386,0.239448 0.9320814,0.3648 1.4313907,0.36469 H 16 V 10.206675 H 6.4569541 c -0.3566336,0 -0.7078606,-0.08949 -1.0224529,-0.2605233 C 5.119908,9.7751172 4.8516605,9.5277248 4.6534812,9.225932 4.4553028,8.9241399 4.3333714,8.5773264 4.2983927,8.2161684 4.2634107,7.8549004 4.3165996,7.4905421 4.4530956,7.1552047 4.5895917,6.8199335 4.8052057,6.5240554 5.0809569,6.2938106 5.3567082,6.0635649 5.6838798,5.906059 6.0337826,5.8352624 6.3835754,5.7644625 6.7451745,5.782537 7.0864705,5.8879051 7.4278766,5.9932624 7.7383864,6.1826577 7.9905242,6.4392975 L 8.6040401,5.8151107 C 8.2509378,5.4558172 7.8161793,5.1906706 7.3383873,5.0431611 Z" clip-rule="evenodd"/>
</svg>
