<svg xmlns="http://www.w3.org/2000/svg" width="16" height="16" version="1.1">
 <defs>
   <style id="current-color-scheme" type="text/css">
   .ColorScheme-Text { color: #c8dff1; } .ColorScheme-Highlight { color: #5294e2; }
  </style>
  <linearGradient id="arrongin" x1="0%" x2="0%" y1="0%" y2="100%">
   <stop offset="0%" style="stop-color: #dd9b44; stop-opacity: 1"/>
   <stop offset="100%" style="stop-color: #ad6c16; stop-opacity: 1"/>
  </linearGradient>
  <linearGradient id="aurora" x1="0%" x2="0%" y1="0%" y2="100%">
   <stop offset="0%" style="stop-color: #09D4DF; stop-opacity: 1"/>
   <stop offset="100%" style="stop-color: #9269F4; stop-opacity: 1"/>
  </linearGradient>
  <linearGradient id="cyberneon" x1="0%" x2="0%" y1="0%" y2="100%">
    <stop offset="0" style="stop-color: #0abdc6; stop-opacity: 1"/>
    <stop offset="1" style="stop-color: #ea00d9; stop-opacity: 1"/>
  </linearGradient>
  <linearGradient id="fitdance" x1="0%" x2="0%" y1="0%" y2="100%">
   <stop offset="0%" style="stop-color: #1AD6AB; stop-opacity: 1"/>
   <stop offset="100%" style="stop-color: #329DB6; stop-opacity: 1"/>
  </linearGradient>
  <linearGradient id="oomox" x1="0%" x2="0%" y1="0%" y2="100%">
   <stop offset="0%" style="stop-color: #efefe7; stop-opacity: 1"/>
   <stop offset="100%" style="stop-color: #8f8f8b; stop-opacity: 1"/>
  </linearGradient>
  <linearGradient id="rainblue" x1="0%" x2="0%" y1="0%" y2="100%">
   <stop offset="0%" style="stop-color: #00F260; stop-opacity: 1"/>
   <stop offset="100%" style="stop-color: #0575E6; stop-opacity: 1"/>
  </linearGradient>
  <linearGradient id="sunrise" x1="0%" x2="0%" y1="0%" y2="100%">
   <stop offset="0%" style="stop-color: #FF8501; stop-opacity: 1"/>
   <stop offset="100%" style="stop-color: #FFCB01; stop-opacity: 1"/>
  </linearGradient>
  <linearGradient id="telinkrin" x1="0%" x2="0%" y1="0%" y2="100%">
   <stop offset="0%" style="stop-color: #b2ced6; stop-opacity: 1"/>
   <stop offset="100%" style="stop-color: #6da5b7; stop-opacity: 1"/>
  </linearGradient>
  <linearGradient id="60spsycho" x1="0%" x2="0%" y1="0%" y2="100%">
   <stop offset="0%" style="stop-color: #df5940; stop-opacity: 1"/>
   <stop offset="25%" style="stop-color: #d8d15f; stop-opacity: 1"/>
   <stop offset="50%" style="stop-color: #e9882a; stop-opacity: 1"/>
   <stop offset="100%" style="stop-color: #279362; stop-opacity: 1"/>
  </linearGradient>
  <linearGradient id="90ssummer" x1="0%" x2="0%" y1="0%" y2="100%">
   <stop offset="0%" style="stop-color: #f618c7; stop-opacity: 1"/>
   <stop offset="20%" style="stop-color: #94ffab; stop-opacity: 1"/>
   <stop offset="50%" style="stop-color: #fbfd54; stop-opacity: 1"/>
   <stop offset="100%" style="stop-color: #0f83ae; stop-opacity: 1"/>
  </linearGradient>
 </defs>
   <path fill="currentColor" class="ColorScheme-Text" d="M 9.818266 3.753384 L 9.818266 4.031011 L 10.003346 4.031011 C 10.496146 4.031011 10.665975 4.09477 10.836216 4.345648 L 12.483443 6.844251 L 11.002788 9.009716 C 10.877348 9.188908 10.612173 9.601973 9.707212 9.601973 L 9.707212 9.8796 L 10.706655 9.842583 C 11.038174 9.842583 11.531603 9.852709 11.854165 9.8796 L 11.854165 9.601973 C 11.442004 9.593018 11.28041 9.337561 11.28041 9.176278 C 11.28041 9.095644 11.310243 9.071256 11.372951 8.972699 L 12.650017 7.084861 L 14.056637 9.231804 C 14.074564 9.267623 14.112165 9.297468 14.112165 9.324346 C 14.112165 9.431872 13.905181 9.593018 13.519902 9.601973 L 13.519902 9.8796 C 13.833503 9.852709 14.493502 9.842583 14.833983 9.842583 L 16 9.8796 L 16 9.601973 L 15.833427 9.601973 C 15.367507 9.601973 15.170211 9.546584 14.982051 9.268821 L 13.094215 6.41857 L 14.315756 4.623275 C 14.512876 4.33655 14.832394 4.039966 15.629836 4.031011 L 15.629836 3.753384 L 14.630395 3.790401 C 14.271992 3.790401 13.841284 3.780275 13.482887 3.753384 L 13.482887 4.031011 C 13.841284 4.039972 14.038131 4.232113 14.038131 4.438184 C 14.038131 4.527786 14.026816 4.561728 13.964102 4.660285 L 12.927639 6.159451 L 11.780131 4.438184 C 11.762204 4.411299 11.724609 4.344471 11.724609 4.308631 C 11.724609 4.201112 11.91308 4.039966 12.298363 4.031011 L 12.298363 3.753384 C 11.984762 3.780275 11.324759 3.790401 10.984282 3.790401 L 9.818266 3.753384 Z M 0.166572 3.753384 L 0 5.770773 L 0.222099 5.770773 C 0.347535 4.328221 0.47935 4.031011 1.832312 4.031011 C 1.99359 4.031011 2.223925 4.031453 2.313526 4.049512 C 2.501681 4.085325 2.517113 4.176581 2.517113 4.382658 L 2.517113 9.205483 C 2.517113 9.510125 2.513991 9.668427 1.573198 9.649687 L 1.203029 9.649687 L 1.203029 9.927314 C 1.570392 9.900422 2.493627 9.890256 2.905786 9.890256 C 3.317946 9.890256 4.241177 9.900381 4.608538 9.927314 L 4.608538 9.649687 L 4.238376 9.649687 C 3.297574 9.649687 3.312966 9.510125 3.312966 9.205483 L 3.312966 4.382665 C 3.312966 4.203466 3.299754 4.085359 3.461033 4.049519 C 3.559593 4.031589 3.80902 4.031011 3.97926 4.031011 C 5.33222 4.031011 5.464032 4.328228 5.589473 5.770787 L 5.811574 5.770787 L 5.644998 3.75339 L 0.166572 3.753384 Z M 4.972938 6.11318 L 4.972938 6.390794 L 5.195037 6.390794 C 5.884954 6.390794 5.89835 6.475415 5.89835 6.79798 L 5.89835 11.543308 C 5.89835 11.865873 5.884967 11.969003 5.195037 11.969003 L 4.972938 11.969003 L 4.972938 12.246616 L 10.136721 12.246616 L 10.525397 9.933098 L 10.284791 9.933098 C 10.06079 11.312932 9.864041 11.969003 8.32292 11.969003 L 7.138394 11.969003 C 6.717278 11.969003 6.6942 11.89452 6.6942 11.598833 L 6.6942 9.189152 L 7.490052 9.189152 C 8.359171 9.189152 8.470986 9.482525 8.470986 10.244122 L 8.693086 10.244122 L 8.693086 7.85657 L 8.470986 7.85657 C 8.470986 8.627121 8.359171 8.911525 7.490052 8.911525 L 6.6942 8.911525 L 6.6942 6.742455 C 6.6942 6.446782 6.717304 6.390794 7.138394 6.390794 L 8.285904 6.390794 C 9.656783 6.390794 9.900823 6.866625 10.044184 8.112068 L 10.266284 8.112068 L 10.007163 6.11318 L 4.972938 6.11318 Z"/>
</svg>
