<svg xmlns="http://www.w3.org/2000/svg" width="16" height="16" version="1.1">
 <defs>
  <style id="current-color-scheme" type="text/css">
   .ColorScheme-Text { color: #c8dff1; } .ColorScheme-Highlight { color: #5294e2; }
  </style>
  <linearGradient id="arrongin" x1="0%" x2="0%" y1="0%" y2="100%">
   <stop id="stop3" offset="0%" style="stop-color: #dd9b44"/>
   <stop id="stop5" offset="100%" style="stop-color: #ad6c16"/>
  </linearGradient>
  <linearGradient id="aurora" x1="0%" x2="0%" y1="0%" y2="100%">
   <stop id="stop8" offset="0%" style="stop-color: #09D4DF"/>
   <stop id="stop10" offset="100%" style="stop-color: #9269F4"/>
  </linearGradient>
  <linearGradient id="cyberneon" x1="0%" x2="0%" y1="0%" y2="100%">
   <stop id="stop56" offset="0" style="stop-color: #0abdc6"/>
   <stop id="stop58" offset="1" style="stop-color: #ea00d9"/>
  </linearGradient>
  <linearGradient id="fitdance" x1="0%" x2="0%" y1="0%" y2="100%">
   <stop id="stop13" offset="0%" style="stop-color: #1AD6AB"/>
   <stop id="stop15" offset="100%" style="stop-color: #329DB6"/>
  </linearGradient>
  <linearGradient id="oomox" x1="0%" x2="0%" y1="0%" y2="100%">
   <stop id="stop18" offset="0%" style="stop-color: #efefe7"/>
   <stop id="stop20" offset="100%" style="stop-color: #8f8f8b"/>
  </linearGradient>
  <linearGradient id="rainblue" x1="0%" x2="0%" y1="0%" y2="100%">
   <stop id="stop23" offset="0%" style="stop-color: #00F260"/>
   <stop id="stop25" offset="100%" style="stop-color: #0575E6"/>
  </linearGradient>
  <linearGradient id="sunrise" x1="0%" x2="0%" y1="0%" y2="100%">
   <stop id="stop28" offset="0%" style="stop-color: #FF8501"/>
   <stop id="stop30" offset="100%" style="stop-color: #FFCB01"/>
  </linearGradient>
  <linearGradient id="telinkrin" x1="0%" x2="0%" y1="0%" y2="100%">
   <stop id="stop33" offset="0%" style="stop-color: #b2ced6"/>
   <stop id="stop35" offset="100%" style="stop-color: #6da5b7"/>
  </linearGradient>
  <linearGradient id="60spsycho" x1="0%" x2="0%" y1="0%" y2="100%">
   <stop id="stop38" offset="0%" style="stop-color: #df5940"/>
   <stop id="stop40" offset="25%" style="stop-color: #d8d15f"/>
   <stop id="stop42" offset="50%" style="stop-color: #e9882a"/>
   <stop id="stop44" offset="100%" style="stop-color: #279362"/>
  </linearGradient>
  <linearGradient id="90ssummer" x1="0%" x2="0%" y1="0%" y2="100%">
   <stop id="stop47" offset="0%" style="stop-color: #f618c7"/>
   <stop id="stop49" offset="20%" style="stop-color: #94ffab"/>
   <stop id="stop51" offset="50%" style="stop-color: #fbfd54"/>
   <stop id="stop53" offset="100%" style="stop-color: #0f83ae"/>
  </linearGradient>
 </defs>
 <path fill="currentColor" class="ColorScheme-Text" fill-rule="evenodd" d="m 3.054166,0.8 c 0,0 0.919803,2.96352 0.358339,4.863508 C 2.851028,7.563569 0,9.703138 0,9.703138 c 0,0 3.727532,0.202831 5.142769,1.107324 C 6.557908,11.714831 7.996923,15.2 7.996923,15.2 c 0,0 1.910892,-3.84 2.7104,-4.389538 C 11.506831,10.2608 16,9.697969 16,9.697969 c 0,0 -3.285292,-3.091692 -3.564554,-3.954215 -0.279261,-0.862523 0.511385,-4.941674 0.511385,-4.941674 0,0 -2.9568,1.99792 -5.033231,1.99792 -2.076554,0 -4.859434,-2 -4.859434,-2 z m 7.210449,3.731249 C 10.218585,5.082954 10.107077,5.476062 10.406277,6.4 c 0.332308,1.026585 0.671754,1.225969 1.073969,1.702031 0.04899,0.05809 0.109662,0.115569 0.160369,0.174031 -0.08948,0.02043 -0.186461,0.03385 -0.273969,0.05514 -0.614892,0.149908 -1.039138,0.151262 -1.867692,0.720862 -0.828554,0.5696 -0.984739,0.978338 -1.327139,1.491692 -0.04394,0.06597 -0.08234,0.1408 -0.12603,0.208369 C 7.619938,10.129479 7.092185,9.524064 6.291692,9.012556 5.674092,8.617725 5.060677,8.399756 4.457292,8.230156 4.858585,7.669664 5.228677,7.044925 5.458338,6.267694 5.636923,5.66351 5.660923,5.100187 5.682338,4.543756 6.3552,4.766033 7.089969,4.933294 7.9136,4.933294 c 0.863138,0 1.644062,-0.165784 2.351015,-0.402043 z" clip-rule="evenodd"/>
</svg>
