<svg xmlns="http://www.w3.org/2000/svg" width="16" height="16" version="1.1">
 <defs>
   <style id="current-color-scheme" type="text/css">
   .ColorScheme-Text { color: #c8dff1; } .ColorScheme-Highlight { color: #5294e2; }
  </style>
  <linearGradient id="arrongin" x1="0%" x2="0%" y1="0%" y2="100%">
   <stop offset="0%" style="stop-color: #dd9b44; stop-opacity: 1"/>
   <stop offset="100%" style="stop-color: #ad6c16; stop-opacity: 1"/>
  </linearGradient>
  <linearGradient id="aurora" x1="0%" x2="0%" y1="0%" y2="100%">
   <stop offset="0%" style="stop-color: #09D4DF; stop-opacity: 1"/>
   <stop offset="100%" style="stop-color: #9269F4; stop-opacity: 1"/>
  </linearGradient>
  <linearGradient id="cyberneon" x1="0%" x2="0%" y1="0%" y2="100%">
    <stop offset="0" style="stop-color: #0abdc6; stop-opacity: 1"/>
    <stop offset="1" style="stop-color: #ea00d9; stop-opacity: 1"/>
  </linearGradient>
  <linearGradient id="fitdance" x1="0%" x2="0%" y1="0%" y2="100%">
   <stop offset="0%" style="stop-color: #1AD6AB; stop-opacity: 1"/>
   <stop offset="100%" style="stop-color: #329DB6; stop-opacity: 1"/>
  </linearGradient>
  <linearGradient id="oomox" x1="0%" x2="0%" y1="0%" y2="100%">
   <stop offset="0%" style="stop-color: #efefe7; stop-opacity: 1"/>
   <stop offset="100%" style="stop-color: #8f8f8b; stop-opacity: 1"/>
  </linearGradient>
  <linearGradient id="rainblue" x1="0%" x2="0%" y1="0%" y2="100%">
   <stop offset="0%" style="stop-color: #00F260; stop-opacity: 1"/>
   <stop offset="100%" style="stop-color: #0575E6; stop-opacity: 1"/>
  </linearGradient>
  <linearGradient id="sunrise" x1="0%" x2="0%" y1="0%" y2="100%">
   <stop offset="0%" style="stop-color: #FF8501; stop-opacity: 1"/>
   <stop offset="100%" style="stop-color: #FFCB01; stop-opacity: 1"/>
  </linearGradient>
  <linearGradient id="telinkrin" x1="0%" x2="0%" y1="0%" y2="100%">
   <stop offset="0%" style="stop-color: #b2ced6; stop-opacity: 1"/>
   <stop offset="100%" style="stop-color: #6da5b7; stop-opacity: 1"/>
  </linearGradient>
  <linearGradient id="60spsycho" x1="0%" x2="0%" y1="0%" y2="100%">
   <stop offset="0%" style="stop-color: #df5940; stop-opacity: 1"/>
   <stop offset="25%" style="stop-color: #d8d15f; stop-opacity: 1"/>
   <stop offset="50%" style="stop-color: #e9882a; stop-opacity: 1"/>
   <stop offset="100%" style="stop-color: #279362; stop-opacity: 1"/>
  </linearGradient>
  <linearGradient id="90ssummer" x1="0%" x2="0%" y1="0%" y2="100%">
   <stop offset="0%" style="stop-color: #f618c7; stop-opacity: 1"/>
   <stop offset="20%" style="stop-color: #94ffab; stop-opacity: 1"/>
   <stop offset="50%" style="stop-color: #fbfd54; stop-opacity: 1"/>
   <stop offset="100%" style="stop-color: #0f83ae; stop-opacity: 1"/>
  </linearGradient>
 </defs>
 <path fill="currentColor" class="ColorScheme-Text" d="m 13.116572,6.8491429 c 0.01829,0.4331428 -0.131428,0.6434285 -0.262857,1.0125714 l -0.237714,0.1154286 c -0.197715,0.368 0.01714,0.2342857 -0.124572,0.5245714 -0.304001,0.2628571 -0.925714,0.8217147 -1.124571,0.8708567 -0.14743,-0.0023 0.09714,-0.164571 0.128,-0.228571 -0.409143,0.270857 -0.328,0.406857 -0.954286,0.572571 l -0.01829,-0.04 C 8.9794288,10.377143 6.8342859,8.9897143 6.8640002,7.096 6.8457142,7.2171429 6.8171432,7.185143 6.7828572,7.2354286 6.7017142,6.2594286 7.2491429,5.2811429 8.1691429,4.8822857 9.072,4.4525714 10.129144,4.6274286 10.773715,5.2068571 10.420572,4.7611429 9.7142853,4.2868571 8.8777143,4.3314286 8.0571429,4.3417146 7.2914286,4.8457143 7.0342857,5.3874286 6.6148572,5.6422857 6.568,6.3714286 6.384,6.5028571 6.1371429,8.2468571 6.8457143,9.002286 8.0468572,9.885714 8.2354286,10.006857 8.0994282,10.025143 8.1257142,10.12 7.7268571,9.938286 7.3588571,9.668571 7.0605713,9.336 c 0.16,0.225143 0.3302858,0.443429 0.5531429,0.616 C 7.2388571,9.828571 6.7348571,9.073143 6.5885713,9.042286 c 0.648,1.12 2.6274289,1.962285 3.6662867,1.541714 -0.4800008,0.01829 -1.0914295,0.01143 -1.6285724,-0.180571 -0.2285714,-0.113143 -0.5348571,-0.346286 -0.48,-0.388572 1.4125716,0.509714 2.8765714,0.386286 4.1017154,-0.561143 0.308571,-0.233143 0.650285,-0.6319997 0.749714,-0.6365711 -0.154286,0.2148571 0.02286,0.1017142 -0.08914,0.2937141 0.309714,-0.4822856 -0.133714,-0.1965713 0.32,-0.8342856 l 0.170286,0.2228572 c -0.06286,-0.4011429 0.514286,-0.8857143 0.457143,-1.5211429 0.133714,-0.1942857 0.146285,0.2102857 0.008,0.656 0.193143,-0.4948571 0.04914,-0.5737143 0.09943,-0.984 0.05486,0.1394286 0.125715,0.2834286 0.162286,0.4285714 C 13.998858,6.6011429 14.256001,6.2731429 14.320001,5.9977143 14.256001,5.9691429 14.122286,6.208 14.093715,5.6445714 14.097144,5.3977143 14.164572,5.5177143 14.188572,5.456 14.139429,5.4274286 14.006858,5.2457143 13.929144,4.8834286 13.986286,4.8 14.083429,5.104 14.162286,5.1177143 14.113144,4.8308571 14.022858,4.6114286 14.020572,4.3908571 13.789715,3.9291429 13.939429,4.4617143 13.753144,4.1942857 13.509715,3.4571429 13.955429,4.024 13.987429,3.688 14.356572,4.2068571 14.569144,5.0068571 14.666286,5.3405714 14.593144,4.936 14.473144,4.5428571 14.325715,4.1622857 c 0.113143,0.046857 -0.181714,-0.824 0.147429,-0.2491428 -0.349715,-1.2434286 -1.498286,-2.4022858 -2.552,-2.9451429 0.128,0.1131429 0.290285,0.2571429 0.233142,0.2777143 -0.524571,-0.2982857 -0.433142,-0.3222857 -0.508571,-0.4502857 -0.428571,-0.168 -0.457143,0.012571 -0.740571,0 -0.804572,-0.4125715 -0.9600005,-0.368 -1.7017155,-0.632 l 0.034286,0.1542857 c -0.5348571,-0.1702857 -0.6217143,0.065143 -1.2011429,0 C 8.0022859,0.2914286 8.2228574,0.2205714 8.4034288,0.1942857 7.8868574,0.2628571 7.9108574,0.0971429 7.4080002,0.2125714 7.5314288,0.128 7.6617145,0.0731429 7.7954288,0 7.3737145,0.026286 6.7908574,0.2388571 6.9714288,0.044571 6.2845716,0.340571 5.0651431,0.7554282 4.3805716,1.3737139 L 4.3577145,1.2342857 c -0.312,0.3622857 -1.3668571,1.0834286 -1.4502857,1.5554286 L 2.8228574,2.808 C 2.6605716,3.0731429 2.5531431,3.3748571 2.4240002,3.6491429 c -0.2114286,0.352 -0.312,0.1337142 -0.2834286,0.1897142 -0.4194285,0.8205715 -0.6262857,1.5097143 -0.8068571,2.0765715 0.128,0.184 0.00229,1.1142857 0.052571,1.8571428 -0.212571,3.6719996 2.6720004,7.2331426 5.8217147,8.0571426 0.464,0.16 1.1485714,0.154286 1.7337143,0.170286 C 8.2548574,15.809143 8.1622859,15.898286 7.4914288,15.672 7.0091431,15.452571 6.9017145,15.203429 6.5577145,14.914286 l 0.136,0.230857 C 6.0228574,14.916571 6.3028574,14.861714 5.7554288,14.693714 l 0.1462857,-0.180571 c -0.2171429,-0.016 -0.5794286,-0.354286 -0.6777143,-0.544 l -0.2377143,0.01143 C 4.6994288,13.636571 4.5451431,13.393143 4.5577145,13.201143 l -0.077714,0.133714 C 4.3931431,13.188571 3.4251431,12.056 3.9291431,12.32 3.8342859,12.236571 3.7120002,12.186286 3.5748574,11.949714 l 0.1028571,-0.112 C 3.4365716,11.538286 3.2342859,11.152 3.2491431,11.027429 3.3782859,11.194286 3.4674288,11.224 3.5565716,11.252571 2.9451431,9.794286 2.9108574,11.173714 2.4502859,9.768 L 2.5474288,9.76 C 2.4742859,9.652571 2.4285716,9.534857 2.3657145,9.419429 L 2.4102855,9.010286 C 1.9702859,8.52 2.2868574,6.928 2.3497145,6.0571429 2.3942859,5.7005714 2.7165716,5.3222857 2.9611431,4.7302857 l -0.1497143,-0.024 c 0.2857143,-0.48 1.6308571,-1.9302857 2.2502857,-1.8571428 0.3017143,-0.3645715 -0.060571,0 -0.1177143,-0.091429 C 5.6045716,2.0937143 5.8137145,2.288 6.2628574,2.1702857 6.7508574,1.8948571 5.8480002,2.2777143 6.0811431,2.0651429 6.9051431,1.8605714 6.6720002,1.5988571 7.7600002,1.4937143 7.8754288,1.5565714 7.4925716,1.5908571 7.3977145,1.672 8.0925716,1.344 9.5931435,1.4194286 10.571429,1.8548571 c 1.136,0.512 2.408,2.0205715 2.457143,3.4411429 l 0.05829,0.013714 c -0.02857,0.5691428 0.08914,1.2194286 -0.115429,1.8171428 l 0.139429,-0.2834285"/>
</svg>
