<svg xmlns="http://www.w3.org/2000/svg" width="16" height="16" version="1.1">
 <defs>
   <style id="current-color-scheme" type="text/css">
   .ColorScheme-Text { color: #cc00cc; } .ColorScheme-Highlight { color:#5294e2; }
  </style>
  <linearGradient id="arrongin" x1="0%" x2="0%" y1="0%" y2="100%">
   <stop offset="0%" style="stop-color:#dd9b44; stop-opacity:1"/>
   <stop offset="100%" style="stop-color:#ad6c16; stop-opacity:1"/>
  </linearGradient>
  <linearGradient id="aurora" x1="0%" x2="0%" y1="0%" y2="100%">
   <stop offset="0%" style="stop-color:#09D4DF; stop-opacity:1"/>
   <stop offset="100%" style="stop-color:#9269F4; stop-opacity:1"/>
  </linearGradient>
  <linearGradient id="cyberneon" x1="0%" x2="0%" y1="0%" y2="100%">
    <stop offset="0" style="stop-color:#0abdc6; stop-opacity:1"/>
    <stop offset="1" style="stop-color:#ea00d9; stop-opacity:1"/>
  </linearGradient>
  <linearGradient id="fitdance" x1="0%" x2="0%" y1="0%" y2="100%">
   <stop offset="0%" style="stop-color:#1AD6AB; stop-opacity:1"/>
   <stop offset="100%" style="stop-color:#329DB6; stop-opacity:1"/>
  </linearGradient>
  <linearGradient id="oomox" x1="0%" x2="0%" y1="0%" y2="100%">
   <stop offset="0%" style="stop-color:#efefe7; stop-opacity:1"/>
   <stop offset="100%" style="stop-color:#8f8f8b; stop-opacity:1"/>
  </linearGradient>
  <linearGradient id="rainblue" x1="0%" x2="0%" y1="0%" y2="100%">
   <stop offset="0%" style="stop-color:#00F260; stop-opacity:1"/>
   <stop offset="100%" style="stop-color:#0575E6; stop-opacity:1"/>
  </linearGradient>
  <linearGradient id="sunrise" x1="0%" x2="0%" y1="0%" y2="100%">
   <stop offset="0%" style="stop-color: #FF8501; stop-opacity:1"/>
   <stop offset="100%" style="stop-color: #FFCB01; stop-opacity:1"/>
  </linearGradient>
  <linearGradient id="telinkrin" x1="0%" x2="0%" y1="0%" y2="100%">
   <stop offset="0%" style="stop-color: #b2ced6; stop-opacity:1"/>
   <stop offset="100%" style="stop-color: #6da5b7; stop-opacity:1"/>
  </linearGradient>
  <linearGradient id="60spsycho" x1="0%" x2="0%" y1="0%" y2="100%">
   <stop offset="0%" style="stop-color: #df5940; stop-opacity:1"/>
   <stop offset="25%" style="stop-color: #d8d15f; stop-opacity:1"/>
   <stop offset="50%" style="stop-color: #e9882a; stop-opacity:1"/>
   <stop offset="100%" style="stop-color: #279362; stop-opacity:1"/>
  </linearGradient>
  <linearGradient id="90ssummer" x1="0%" x2="0%" y1="0%" y2="100%">
   <stop offset="0%" style="stop-color: #f618c7; stop-opacity:1"/>
   <stop offset="20%" style="stop-color: #94ffab; stop-opacity:1"/>
   <stop offset="50%" style="stop-color: #fbfd54; stop-opacity:1"/>
   <stop offset="100%" style="stop-color: #0f83ae; stop-opacity:1"/>
  </linearGradient>
 </defs>
 <path fill="currentColor" class="ColorScheme-Text" d="M 6.7 0.001 C 6.224 -0.006 6.123 0.013 5.987 0.13 C 5.885 0.217 5.802 0.39 5.771 0.58 C 5.757 0.666 5.75 1.265 5.75 2.211 C 5.75 3.405 5.744 3.705 5.723 3.705 C 5.709 3.705 4.947 2.955 4.03 2.037 C 3.113 1.119 2.323 0.341 2.275 0.307 C 2.142 0.214 1.905 0.107 1.718 0.056 C 1.563 0.013 1.495 0.01 0.796 0.002 C 0.38 -0.002 0.04 0.001 0.04 0.011 C 0.04 0.021 1.627 1.615 3.567 3.555 C 5.369 5.356 6.645 6.626 6.857 6.83 L 6.857 0.003 L 6.7 0.001 Z M 9.3 0.001 L 9.143 0.003 L 9.143 6.83 C 9.355 6.626 10.631 5.356 12.433 3.555 C 14.373 1.615 15.96 0.021 15.96 0.011 C 15.96 0.002 15.62 -0.002 15.204 0.002 C 14.505 0.01 14.437 0.013 14.282 0.056 C 14.095 0.107 13.858 0.214 13.726 0.307 C 13.677 0.341 12.887 1.119 11.97 2.037 C 11.053 2.955 10.291 3.705 10.277 3.705 C 10.256 3.705 10.25 3.405 10.25 2.211 C 10.25 1.266 10.243 0.666 10.229 0.58 C 10.198 0.39 10.115 0.217 10.013 0.13 C 9.877 0.014 9.776 -0.006 9.3 0.001 L 9.3 0.001 Z M 0.022 2.914 C -0.001 2.914 -0.004 3.043 0.003 3.627 C 0.011 4.316 0.013 4.348 0.065 4.539 C 0.13 4.78 0.218 4.977 0.346 5.173 C 0.417 5.282 0.794 5.673 1.778 6.66 L 3.113 7.999 L 1.778 9.337 C 0.794 10.324 0.417 10.715 0.346 10.824 C 0.218 11.02 0.13 11.217 0.065 11.458 C 0.013 11.649 0.011 11.68 0.003 12.369 C -0.004 12.954 0 13.083 0.022 13.083 C 0.061 13.083 5.104 8.037 5.104 7.999 C 5.104 7.96 0.061 2.914 0.022 2.914 Z M 15.978 2.914 C 15.939 2.914 10.896 7.96 10.896 7.999 C 10.896 8.037 15.939 13.083 15.978 13.083 C 16.001 13.083 16.004 12.954 15.997 12.369 C 15.989 11.68 15.987 11.649 15.935 11.458 C 15.87 11.217 15.782 11.02 15.654 10.824 C 15.583 10.715 15.206 10.324 14.222 9.337 L 12.887 7.999 L 14.222 6.66 C 15.206 5.673 15.583 5.282 15.654 5.173 C 15.782 4.977 15.87 4.78 15.935 4.539 C 15.987 4.348 15.989 4.316 15.997 3.627 C 16.004 3.043 16.001 2.914 15.978 2.914 Z M 6.857 9.167 C 6.37 9.635 0.04 15.965 0.04 15.986 C 0.04 15.995 0.38 16 0.796 15.996 C 1.495 15.988 1.563 15.983 1.718 15.941 C 1.905 15.889 2.142 15.783 2.274 15.691 C 2.323 15.657 3.113 14.878 4.03 13.96 C 4.947 13.042 5.709 12.291 5.723 12.291 C 5.744 12.291 5.75 12.591 5.75 13.786 C 5.75 14.731 5.757 15.331 5.771 15.416 C 5.819 15.71 5.962 15.906 6.174 15.969 C 6.25 15.991 6.387 16 6.688 16 C 6.778 16 6.788 15.996 6.857 15.995 L 6.857 9.167 Z M 9.143 9.167 L 9.143 15.995 C 9.212 15.996 9.222 16 9.312 16 C 9.613 16 9.75 15.991 9.826 15.969 C 10.038 15.906 10.181 15.71 10.229 15.416 C 10.243 15.331 10.25 14.731 10.25 13.786 C 10.25 12.591 10.256 12.291 10.277 12.291 C 10.291 12.291 11.053 13.042 11.97 13.96 C 12.887 14.878 13.677 15.657 13.726 15.691 C 13.858 15.783 14.095 15.889 14.282 15.941 C 14.437 15.983 14.505 15.988 15.204 15.996 C 15.62 16 15.96 15.995 15.96 15.986 C 15.96 15.965 9.63 9.635 9.143 9.167 L 9.143 9.167 Z"/>
</svg>
