<svg xmlns="http://www.w3.org/2000/svg" width="16" height="16" version="1.1">
 <defs>
   <style id="current-color-scheme" type="text/css">
   .ColorScheme-Text { color: #cc00cc; } .ColorScheme-Highlight { color:#5294e2; }
  </style>
  <linearGradient id="arrongin" x1="0%" x2="0%" y1="0%" y2="100%">
   <stop offset="0%" style="stop-color:#dd9b44; stop-opacity:1"/>
   <stop offset="100%" style="stop-color:#ad6c16; stop-opacity:1"/>
  </linearGradient>
  <linearGradient id="aurora" x1="0%" x2="0%" y1="0%" y2="100%">
   <stop offset="0%" style="stop-color:#09D4DF; stop-opacity:1"/>
   <stop offset="100%" style="stop-color:#9269F4; stop-opacity:1"/>
  </linearGradient>
  <linearGradient id="cyberneon" x1="0%" x2="0%" y1="0%" y2="100%">
    <stop offset="0" style="stop-color:#0abdc6; stop-opacity:1"/>
    <stop offset="1" style="stop-color:#ea00d9; stop-opacity:1"/>
  </linearGradient>
  <linearGradient id="fitdance" x1="0%" x2="0%" y1="0%" y2="100%">
   <stop offset="0%" style="stop-color:#1AD6AB; stop-opacity:1"/>
   <stop offset="100%" style="stop-color:#329DB6; stop-opacity:1"/>
  </linearGradient>
  <linearGradient id="oomox" x1="0%" x2="0%" y1="0%" y2="100%">
   <stop offset="0%" style="stop-color:#efefe7; stop-opacity:1"/>
   <stop offset="100%" style="stop-color:#8f8f8b; stop-opacity:1"/>
  </linearGradient>
  <linearGradient id="rainblue" x1="0%" x2="0%" y1="0%" y2="100%">
   <stop offset="0%" style="stop-color:#00F260; stop-opacity:1"/>
   <stop offset="100%" style="stop-color:#0575E6; stop-opacity:1"/>
  </linearGradient>
  <linearGradient id="sunrise" x1="0%" x2="0%" y1="0%" y2="100%">
   <stop offset="0%" style="stop-color: #FF8501; stop-opacity:1"/>
   <stop offset="100%" style="stop-color: #FFCB01; stop-opacity:1"/>
  </linearGradient>
  <linearGradient id="telinkrin" x1="0%" x2="0%" y1="0%" y2="100%">
   <stop offset="0%" style="stop-color: #b2ced6; stop-opacity:1"/>
   <stop offset="100%" style="stop-color: #6da5b7; stop-opacity:1"/>
  </linearGradient>
  <linearGradient id="60spsycho" x1="0%" x2="0%" y1="0%" y2="100%">
   <stop offset="0%" style="stop-color: #df5940; stop-opacity:1"/>
   <stop offset="25%" style="stop-color: #d8d15f; stop-opacity:1"/>
   <stop offset="50%" style="stop-color: #e9882a; stop-opacity:1"/>
   <stop offset="100%" style="stop-color: #279362; stop-opacity:1"/>
  </linearGradient>
  <linearGradient id="90ssummer" x1="0%" x2="0%" y1="0%" y2="100%">
   <stop offset="0%" style="stop-color: #f618c7; stop-opacity:1"/>
   <stop offset="20%" style="stop-color: #94ffab; stop-opacity:1"/>
   <stop offset="50%" style="stop-color: #fbfd54; stop-opacity:1"/>
   <stop offset="100%" style="stop-color: #0f83ae; stop-opacity:1"/>
  </linearGradient>
 </defs>
 <path fill="currentColor" class="ColorScheme-Text" d="M 3.8730469 0 C 1.7378653 5e-07 0 1.7382294 0 3.8730469 C 0 6.0078643 1.7378653 7.7441406 3.8730469 7.7441406 C 3.8761069 7.7441406 3.8777994 7.7441406 3.8808594 7.7441406 C 3.8973844 7.4801406 3.9380457 7.2228528 4.0019531 6.9746094 C 4.137735 6.4471659 4.3744426 5.9608312 4.6914062 5.5371094 C 4.7310311 5.4841355 4.7723931 5.431816 4.8144531 5.3808594 C 4.8985732 5.2789116 4.9886921 5.1812471 5.0820312 5.0878906 C 5.2220574 4.9478906 5.3723333 4.8180361 5.53125 4.6992188 C 5.7431505 4.5407491 5.9703708 4.401052 6.2109375 4.2851562 C 6.6797207 4.0593476 7.1973949 3.9201796 7.7441406 3.8867188 C 7.7441406 3.8817788 7.7441406 3.8779909 7.7441406 3.8730469 C 7.7441406 1.7382642 6.0082285 2.9605947e-16 3.8730469 0 z M 12.126953 0 C 9.9917718 0 8.2558594 1.736311 8.2558594 3.8710938 C 8.2558594 3.8763138 8.2558594 3.8814668 8.2558594 3.8867188 C 10.32936 4.0135014 11.98889 5.6700135 12.119141 7.7421875 C 12.122241 7.7421875 12.123953 7.7421875 12.126953 7.7421875 C 14.262135 7.7421875 16 6.0058764 16 3.8710938 C 16 1.736311 14.262135 8.8817842e-16 12.126953 0 z M 7.7832031 4.140625 C 7.7667481 4.141635 7.750795 4.1434112 7.734375 4.1445312 C 5.8127637 4.275627 4.2724708 5.8138532 4.1386719 7.734375 C 4.1375619 7.750827 4.1357756 7.7667511 4.1347656 7.7832031 L 7.7832031 7.7832031 L 7.7832031 4.140625 z M 8.2167969 4.140625 L 8.2167969 7.7832031 L 11.865234 7.7832031 C 11.864234 7.7663681 11.862528 7.7491879 11.861328 7.7324219 C 11.727089 5.8124222 10.186854 4.275627 8.265625 4.1445312 C 8.24917 4.1434213 8.2332519 4.141635 8.2167969 4.140625 z M 4.1347656 8.2167969 C 4.1357756 8.2336319 4.1356087 8.2508131 4.1367188 8.2675781 C 4.2659255 10.193004 5.8090761 11.73623 7.734375 11.867188 C 7.750517 11.868287 7.7669911 11.868141 7.7832031 11.869141 L 7.7832031 8.2167969 L 4.1347656 8.2167969 z M 8.2167969 8.2167969 L 8.2167969 11.869141 C 8.2330089 11.868202 8.249483 11.868288 8.265625 11.867188 C 10.191307 11.736195 11.734596 10.191504 11.863281 8.265625 C 11.864381 8.249173 11.864234 8.2332489 11.865234 8.2167969 L 8.2167969 8.2167969 z M 12.119141 8.2558594 C 11.994492 10.333772 10.333395 11.996056 8.2558594 12.123047 C 8.2558594 12.124347 8.2558594 12.125653 8.2558594 12.126953 C 8.2558594 14.261736 9.9917714 15.998047 12.126953 15.998047 C 14.262135 15.998047 16 14.261736 16 12.126953 C 16 9.9921707 14.262135 8.2558594 12.126953 8.2558594 C 12.124153 8.2558594 12.121941 8.2558594 12.119141 8.2558594 z M 3.8730469 8.2578125 C 1.7378653 8.2578125 0 9.9941238 0 12.128906 C 6e-07 14.263689 1.7378653 16 3.8730469 16 C 6.0082285 16 7.7441406 14.263689 7.7441406 12.128906 C 7.7441406 12.127306 7.7441406 12.124647 7.7441406 12.123047 C 7.1972558 12.089695 6.6797903 11.950417 6.2109375 11.724609 C 5.970336 11.608539 5.7431505 11.4709 5.53125 11.3125 C 5.3723333 11.193683 5.2220574 11.063828 5.0820312 10.923828 C 4.9886573 10.830471 4.8985732 10.732737 4.8144531 10.630859 C 4.7723931 10.579903 4.7309963 10.527582 4.6914062 10.474609 C 4.3744427 10.050887 4.1376654 9.5645877 4.0019531 9.0371094 C 3.9372801 8.7857355 3.8969319 8.5253255 3.8808594 8.2578125 C 3.8780394 8.2578125 3.8758669 8.2578125 3.8730469 8.2578125 z"/>
</svg>
