<svg xmlns="http://www.w3.org/2000/svg" width="16" height="16" version="1.1">
 <defs>
   <style id="current-color-scheme" type="text/css">
   .ColorScheme-Text { color: #cc00cc; } .ColorScheme-Highlight { color:#5294e2; }
  </style>
  <linearGradient id="arrongin" x1="0%" x2="0%" y1="0%" y2="100%">
   <stop offset="0%" style="stop-color:#dd9b44; stop-opacity:1"/>
   <stop offset="100%" style="stop-color:#ad6c16; stop-opacity:1"/>
  </linearGradient>
  <linearGradient id="aurora" x1="0%" x2="0%" y1="0%" y2="100%">
   <stop offset="0%" style="stop-color:#09D4DF; stop-opacity:1"/>
   <stop offset="100%" style="stop-color:#9269F4; stop-opacity:1"/>
  </linearGradient>
  <linearGradient id="cyberneon" x1="0%" x2="0%" y1="0%" y2="100%">
    <stop offset="0" style="stop-color:#0abdc6; stop-opacity:1"/>
    <stop offset="1" style="stop-color:#ea00d9; stop-opacity:1"/>
  </linearGradient>
  <linearGradient id="fitdance" x1="0%" x2="0%" y1="0%" y2="100%">
   <stop offset="0%" style="stop-color:#1AD6AB; stop-opacity:1"/>
   <stop offset="100%" style="stop-color:#329DB6; stop-opacity:1"/>
  </linearGradient>
  <linearGradient id="oomox" x1="0%" x2="0%" y1="0%" y2="100%">
   <stop offset="0%" style="stop-color:#efefe7; stop-opacity:1"/>
   <stop offset="100%" style="stop-color:#8f8f8b; stop-opacity:1"/>
  </linearGradient>
  <linearGradient id="rainblue" x1="0%" x2="0%" y1="0%" y2="100%">
   <stop offset="0%" style="stop-color:#00F260; stop-opacity:1"/>
   <stop offset="100%" style="stop-color:#0575E6; stop-opacity:1"/>
  </linearGradient>
  <linearGradient id="sunrise" x1="0%" x2="0%" y1="0%" y2="100%">
   <stop offset="0%" style="stop-color: #FF8501; stop-opacity:1"/>
   <stop offset="100%" style="stop-color: #FFCB01; stop-opacity:1"/>
  </linearGradient>
  <linearGradient id="telinkrin" x1="0%" x2="0%" y1="0%" y2="100%">
   <stop offset="0%" style="stop-color: #b2ced6; stop-opacity:1"/>
   <stop offset="100%" style="stop-color: #6da5b7; stop-opacity:1"/>
  </linearGradient>
  <linearGradient id="60spsycho" x1="0%" x2="0%" y1="0%" y2="100%">
   <stop offset="0%" style="stop-color: #df5940; stop-opacity:1"/>
   <stop offset="25%" style="stop-color: #d8d15f; stop-opacity:1"/>
   <stop offset="50%" style="stop-color: #e9882a; stop-opacity:1"/>
   <stop offset="100%" style="stop-color: #279362; stop-opacity:1"/>
  </linearGradient>
  <linearGradient id="90ssummer" x1="0%" x2="0%" y1="0%" y2="100%">
   <stop offset="0%" style="stop-color: #f618c7; stop-opacity:1"/>
   <stop offset="20%" style="stop-color: #94ffab; stop-opacity:1"/>
   <stop offset="50%" style="stop-color: #fbfd54; stop-opacity:1"/>
   <stop offset="100%" style="stop-color: #0f83ae; stop-opacity:1"/>
  </linearGradient>
 </defs>
 <path fill="currentColor" class="ColorScheme-Text" d="M 7.339 13.572 C 6.895 13.53 6.009 13.368 5.627 13.257 C 4.81 13.021 4.086 12.636 3.493 12.124 C 3.375 12.022 3.232 11.94 3.171 11.94 C 3.111 11.94 2.542 12.117 1.907 12.333 C 1.271 12.549 0.72 12.726 0.682 12.726 C 0.561 12.726 0.473 12.575 0.326 12.113 C 0.164 11.607 0.153 11.513 0.247 11.435 C 0.283 11.405 0.735 11.24 1.252 11.068 C 1.769 10.896 2.198 10.733 2.207 10.707 C 2.226 10.652 1.498 10.599 0.728 10.599 C 0.247 10.599 0.218 10.594 0.104 10.48 C -0.007 10.369 -0.014 10.339 0.013 10.08 C 0.03 9.926 0.043 9.69 0.043 9.555 C 0.043 9.158 0.046 9.157 1.077 9.174 L 1.959 9.189 L 2.017 8.794 C 2.084 8.337 2.234 7.914 2.466 7.533 C 2.589 7.331 2.625 7.227 2.61 7.117 C 2.391 5.547 2.359 4.743 2.472 3.583 C 2.564 2.644 2.708 2.404 3.179 2.404 C 3.672 2.404 4.543 3.029 5.885 4.347 L 6.562 5.011 L 7.007 4.961 C 7.566 4.899 8.293 4.899 9 4.961 L 9.548 5.009 L 10.32 4.275 C 11.345 3.302 11.767 2.946 12.226 2.671 C 12.553 2.475 12.651 2.439 12.896 2.423 C 13.165 2.406 13.192 2.414 13.323 2.545 C 13.591 2.813 13.706 3.431 13.707 4.611 C 13.708 5.321 13.696 5.498 13.565 6.652 L 13.507 7.167 L 13.707 7.474 C 13.959 7.861 14.118 8.293 14.191 8.796 L 14.248 9.189 L 15.009 9.173 C 15.622 9.16 15.789 9.17 15.86 9.224 C 15.934 9.28 15.955 9.38 15.985 9.836 C 16.007 10.157 16.004 10.414 15.979 10.461 C 15.93 10.553 15.706 10.598 15.285 10.599 C 15.119 10.599 14.748 10.613 14.46 10.629 C 13.71 10.673 13.758 10.73 14.843 11.092 C 15.326 11.253 15.753 11.416 15.791 11.455 C 15.854 11.518 15.854 11.556 15.783 11.824 C 15.67 12.255 15.506 12.64 15.411 12.698 C 15.345 12.739 15.1 12.671 14.206 12.367 C 13.589 12.157 13.044 11.985 12.995 11.985 C 12.946 11.986 12.717 12.13 12.485 12.306 C 11.594 12.983 10.469 13.41 9.191 13.556 C 8.8 13.601 7.748 13.61 7.339 13.572 L 7.339 13.572 Z M 5.713 9.544 C 5.917 9.426 6.03 9.243 6.054 8.991 C 6.093 8.587 5.89 8.31 5.474 8.198 C 5.305 8.152 5.248 8.157 5.079 8.232 C 4.559 8.462 4.431 9.054 4.819 9.44 C 5.058 9.679 5.408 9.72 5.713 9.544 L 5.713 9.544 Z M 11.035 9.625 C 11.364 9.534 11.625 9.197 11.625 8.863 C 11.625 8.686 11.439 8.397 11.266 8.302 C 10.985 8.149 10.835 8.141 10.568 8.264 C 10.271 8.402 10.143 8.594 10.142 8.902 C 10.142 9.231 10.321 9.509 10.606 9.622 C 10.758 9.683 10.826 9.684 11.035 9.626 L 11.035 9.625 Z"/>
</svg>
