<svg xmlns="http://www.w3.org/2000/svg" width="16" height="16" version="1.1">
 <defs>
   <style id="current-color-scheme" type="text/css">
   .ColorScheme-Text { color: #cc00cc; } .ColorScheme-Highlight { color:#5294e2; }
  </style>
  <linearGradient id="arrongin" x1="0%" x2="0%" y1="0%" y2="100%">
   <stop offset="0%" style="stop-color:#dd9b44; stop-opacity:1"/>
   <stop offset="100%" style="stop-color:#ad6c16; stop-opacity:1"/>
  </linearGradient>
  <linearGradient id="aurora" x1="0%" x2="0%" y1="0%" y2="100%">
   <stop offset="0%" style="stop-color:#09D4DF; stop-opacity:1"/>
   <stop offset="100%" style="stop-color:#9269F4; stop-opacity:1"/>
  </linearGradient>
  <linearGradient id="cyberneon" x1="0%" x2="0%" y1="0%" y2="100%">
    <stop offset="0" style="stop-color:#0abdc6; stop-opacity:1"/>
    <stop offset="1" style="stop-color:#ea00d9; stop-opacity:1"/>
  </linearGradient>
  <linearGradient id="fitdance" x1="0%" x2="0%" y1="0%" y2="100%">
   <stop offset="0%" style="stop-color:#1AD6AB; stop-opacity:1"/>
   <stop offset="100%" style="stop-color:#329DB6; stop-opacity:1"/>
  </linearGradient>
  <linearGradient id="oomox" x1="0%" x2="0%" y1="0%" y2="100%">
   <stop offset="0%" style="stop-color:#efefe7; stop-opacity:1"/>
   <stop offset="100%" style="stop-color:#8f8f8b; stop-opacity:1"/>
  </linearGradient>
  <linearGradient id="rainblue" x1="0%" x2="0%" y1="0%" y2="100%">
   <stop offset="0%" style="stop-color:#00F260; stop-opacity:1"/>
   <stop offset="100%" style="stop-color:#0575E6; stop-opacity:1"/>
  </linearGradient>
  <linearGradient id="sunrise" x1="0%" x2="0%" y1="0%" y2="100%">
   <stop offset="0%" style="stop-color: #FF8501; stop-opacity:1"/>
   <stop offset="100%" style="stop-color: #FFCB01; stop-opacity:1"/>
  </linearGradient>
  <linearGradient id="telinkrin" x1="0%" x2="0%" y1="0%" y2="100%">
   <stop offset="0%" style="stop-color: #b2ced6; stop-opacity:1"/>
   <stop offset="100%" style="stop-color: #6da5b7; stop-opacity:1"/>
  </linearGradient>
  <linearGradient id="60spsycho" x1="0%" x2="0%" y1="0%" y2="100%">
   <stop offset="0%" style="stop-color: #df5940; stop-opacity:1"/>
   <stop offset="25%" style="stop-color: #d8d15f; stop-opacity:1"/>
   <stop offset="50%" style="stop-color: #e9882a; stop-opacity:1"/>
   <stop offset="100%" style="stop-color: #279362; stop-opacity:1"/>
  </linearGradient>
  <linearGradient id="90ssummer" x1="0%" x2="0%" y1="0%" y2="100%">
   <stop offset="0%" style="stop-color: #f618c7; stop-opacity:1"/>
   <stop offset="20%" style="stop-color: #94ffab; stop-opacity:1"/>
   <stop offset="50%" style="stop-color: #fbfd54; stop-opacity:1"/>
   <stop offset="100%" style="stop-color: #0f83ae; stop-opacity:1"/>
  </linearGradient>
 </defs>
 <path fill="currentColor" class="ColorScheme-Text" d="M 4.87 0 C 3.896 0 3.13 0.765 3.13 1.739 L 3.13 14.261 C 3.13 15.235 3.896 16 4.87 16 L 11.13 16 C 12.104 16 12.87 15.235 12.87 14.261 L 12.87 1.739 C 12.87 0.765 12.104 0 11.13 0 L 4.87 0 Z M 4.87 0.696 L 11.13 0.696 C 11.722 0.696 12.174 1.148 12.174 1.739 L 12.174 12.522 L 3.826 12.522 L 3.826 1.739 C 3.826 1.148 4.278 0.696 4.87 0.696 Z M 5.5 3.13 C 5.309 3.148 5.167 3.319 5.185 3.511 C 5.202 3.702 5.374 3.844 5.565 3.826 L 10.435 3.826 C 10.56 3.827 10.677 3.762 10.741 3.654 C 10.803 3.545 10.803 3.411 10.741 3.303 C 10.677 3.194 10.56 3.129 10.435 3.13 L 5.5 3.13 Z M 5.5 4.87 C 5.309 4.887 5.167 5.058 5.185 5.25 C 5.202 5.441 5.374 5.583 5.565 5.565 L 9.391 5.565 C 9.517 5.567 9.633 5.501 9.697 5.393 C 9.76 5.284 9.76 5.151 9.697 5.042 C 9.633 4.934 9.516 4.868 9.391 4.87 L 5.5 4.87 Z M 5.5 6.609 C 5.309 6.626 5.167 6.798 5.185 6.989 C 5.202 7.181 5.374 7.322 5.565 7.304 L 10.435 7.304 C 10.56 7.306 10.677 7.24 10.741 7.132 C 10.803 7.023 10.803 6.89 10.741 6.781 C 10.677 6.673 10.56 6.607 10.435 6.609 L 5.5 6.609 Z M 5.5 8.348 C 5.309 8.365 5.167 8.537 5.185 8.728 C 5.202 8.92 5.374 9.061 5.565 9.043 L 9.391 9.043 C 9.517 9.045 9.633 8.979 9.697 8.871 C 9.76 8.762 9.76 8.629 9.697 8.52 C 9.633 8.412 9.516 8.346 9.391 8.348 L 5.5 8.348 Z M 5.5 10.087 C 5.309 10.104 5.167 10.276 5.185 10.467 C 5.202 10.659 5.374 10.8 5.565 10.783 L 10.435 10.783 C 10.56 10.784 10.677 10.719 10.741 10.61 C 10.803 10.502 10.803 10.368 10.741 10.259 C 10.677 10.151 10.56 10.086 10.435 10.087 L 5.5 10.087 Z M 8 13.565 C 8.383 13.565 8.696 13.878 8.696 14.261 C 8.696 14.644 8.383 14.957 8 14.957 C 7.617 14.957 7.304 14.644 7.304 14.261 C 7.304 13.878 7.617 13.565 8 13.565 Z"/>
</svg>
