<svg xmlns="http://www.w3.org/2000/svg" width="16" height="16" version="1.1">
 <defs>
   <style id="current-color-scheme" type="text/css">
   .ColorScheme-Text { color: #cc00cc; } .ColorScheme-Highlight { color:#5294e2; }
  </style>
  <linearGradient id="arrongin" x1="0%" x2="0%" y1="0%" y2="100%">
   <stop offset="0%" style="stop-color:#dd9b44; stop-opacity:1"/>
   <stop offset="100%" style="stop-color:#ad6c16; stop-opacity:1"/>
  </linearGradient>
  <linearGradient id="aurora" x1="0%" x2="0%" y1="0%" y2="100%">
   <stop offset="0%" style="stop-color:#09D4DF; stop-opacity:1"/>
   <stop offset="100%" style="stop-color:#9269F4; stop-opacity:1"/>
  </linearGradient>
  <linearGradient id="cyberneon" x1="0%" x2="0%" y1="0%" y2="100%">
    <stop offset="0" style="stop-color:#0abdc6; stop-opacity:1"/>
    <stop offset="1" style="stop-color:#ea00d9; stop-opacity:1"/>
  </linearGradient>
  <linearGradient id="fitdance" x1="0%" x2="0%" y1="0%" y2="100%">
   <stop offset="0%" style="stop-color:#1AD6AB; stop-opacity:1"/>
   <stop offset="100%" style="stop-color:#329DB6; stop-opacity:1"/>
  </linearGradient>
  <linearGradient id="oomox" x1="0%" x2="0%" y1="0%" y2="100%">
   <stop offset="0%" style="stop-color:#efefe7; stop-opacity:1"/>
   <stop offset="100%" style="stop-color:#8f8f8b; stop-opacity:1"/>
  </linearGradient>
  <linearGradient id="rainblue" x1="0%" x2="0%" y1="0%" y2="100%">
   <stop offset="0%" style="stop-color:#00F260; stop-opacity:1"/>
   <stop offset="100%" style="stop-color:#0575E6; stop-opacity:1"/>
  </linearGradient>
  <linearGradient id="sunrise" x1="0%" x2="0%" y1="0%" y2="100%">
   <stop offset="0%" style="stop-color: #FF8501; stop-opacity:1"/>
   <stop offset="100%" style="stop-color: #FFCB01; stop-opacity:1"/>
  </linearGradient>
  <linearGradient id="telinkrin" x1="0%" x2="0%" y1="0%" y2="100%">
   <stop offset="0%" style="stop-color: #b2ced6; stop-opacity:1"/>
   <stop offset="100%" style="stop-color: #6da5b7; stop-opacity:1"/>
  </linearGradient>
  <linearGradient id="60spsycho" x1="0%" x2="0%" y1="0%" y2="100%">
   <stop offset="0%" style="stop-color: #df5940; stop-opacity:1"/>
   <stop offset="25%" style="stop-color: #d8d15f; stop-opacity:1"/>
   <stop offset="50%" style="stop-color: #e9882a; stop-opacity:1"/>
   <stop offset="100%" style="stop-color: #279362; stop-opacity:1"/>
  </linearGradient>
  <linearGradient id="90ssummer" x1="0%" x2="0%" y1="0%" y2="100%">
   <stop offset="0%" style="stop-color: #f618c7; stop-opacity:1"/>
   <stop offset="20%" style="stop-color: #94ffab; stop-opacity:1"/>
   <stop offset="50%" style="stop-color: #fbfd54; stop-opacity:1"/>
   <stop offset="100%" style="stop-color: #0f83ae; stop-opacity:1"/>
  </linearGradient>
 </defs>
 <path fill="currentColor" class="ColorScheme-Text" d="M 4.154 0.298 C 3.993 0.298 3.846 0.418 3.812 0.576 C 3.779 0.735 3.867 0.895 4.015 0.96 C 4.029 0.966 5.335 1.554 6.857 3.15 C 7.539 3.866 8.258 4.814 7.776 5.286 C 7.765 5.298 7.707 5.364 7.498 5.575 C 7.478 5.595 7.471 5.61 7.455 5.628 L 7.444 5.639 L 10.061 8.256 L 10.307 8.021 C 10.312 8.016 10.314 8.005 10.318 8 L 10.702 7.615 L 11.183 8.096 C 11.322 8.235 11.289 8.578 11.247 8.662 C 11.119 8.918 11.143 9.188 11.311 9.357 L 12.497 10.542 C 12.682 10.727 12.927 10.82 13.17 10.82 C 13.413 10.82 13.648 10.726 13.832 10.542 L 15.723 8.662 C 16.093 8.293 16.092 7.686 15.723 7.316 L 14.537 6.13 C 14.365 5.958 14.106 5.922 13.885 6.034 C 13.782 6.086 13.417 6.121 13.287 5.992 L 12.796 5.5 C 12.909 5.341 12.969 5.15 12.967 4.955 C 12.969 4.703 12.869 4.46 12.689 4.282 L 11.407 3 C 11.401 2.994 11.378 2.979 11.365 2.968 L 11.097 2.701 C 10.539 2.143 10.023 1.616 9.89 1.484 C 8.758 0.35 4.622 0.299 4.154 0.298 Z M 6.964 6.119 L 0.277 12.807 C -0.092 13.176 -0.092 13.774 0.277 14.142 L 1.558 15.424 C 1.743 15.609 1.988 15.702 2.231 15.702 C 2.474 15.702 2.709 15.609 2.894 15.424 L 9.581 8.748 L 6.964 6.119 Z"/>
</svg>
