<svg xmlns="http://www.w3.org/2000/svg" width="16" height="16" version="1.1">
 <defs>
   <style id="current-color-scheme" type="text/css">
   .ColorScheme-Text { color: #cc00cc; } .ColorScheme-Highlight { color:#5294e2; }
  </style>
  <linearGradient id="arrongin" x1="0%" x2="0%" y1="0%" y2="100%">
   <stop offset="0%" style="stop-color:#dd9b44; stop-opacity:1"/>
   <stop offset="100%" style="stop-color:#ad6c16; stop-opacity:1"/>
  </linearGradient>
  <linearGradient id="aurora" x1="0%" x2="0%" y1="0%" y2="100%">
   <stop offset="0%" style="stop-color:#09D4DF; stop-opacity:1"/>
   <stop offset="100%" style="stop-color:#9269F4; stop-opacity:1"/>
  </linearGradient>
  <linearGradient id="cyberneon" x1="0%" x2="0%" y1="0%" y2="100%">
    <stop offset="0" style="stop-color:#0abdc6; stop-opacity:1"/>
    <stop offset="1" style="stop-color:#ea00d9; stop-opacity:1"/>
  </linearGradient>
  <linearGradient id="fitdance" x1="0%" x2="0%" y1="0%" y2="100%">
   <stop offset="0%" style="stop-color:#1AD6AB; stop-opacity:1"/>
   <stop offset="100%" style="stop-color:#329DB6; stop-opacity:1"/>
  </linearGradient>
  <linearGradient id="oomox" x1="0%" x2="0%" y1="0%" y2="100%">
   <stop offset="0%" style="stop-color:#efefe7; stop-opacity:1"/>
   <stop offset="100%" style="stop-color:#8f8f8b; stop-opacity:1"/>
  </linearGradient>
  <linearGradient id="rainblue" x1="0%" x2="0%" y1="0%" y2="100%">
   <stop offset="0%" style="stop-color:#00F260; stop-opacity:1"/>
   <stop offset="100%" style="stop-color:#0575E6; stop-opacity:1"/>
  </linearGradient>
  <linearGradient id="sunrise" x1="0%" x2="0%" y1="0%" y2="100%">
   <stop offset="0%" style="stop-color: #FF8501; stop-opacity:1"/>
   <stop offset="100%" style="stop-color: #FFCB01; stop-opacity:1"/>
  </linearGradient>
  <linearGradient id="telinkrin" x1="0%" x2="0%" y1="0%" y2="100%">
   <stop offset="0%" style="stop-color: #b2ced6; stop-opacity:1"/>
   <stop offset="100%" style="stop-color: #6da5b7; stop-opacity:1"/>
  </linearGradient>
  <linearGradient id="60spsycho" x1="0%" x2="0%" y1="0%" y2="100%">
   <stop offset="0%" style="stop-color: #df5940; stop-opacity:1"/>
   <stop offset="25%" style="stop-color: #d8d15f; stop-opacity:1"/>
   <stop offset="50%" style="stop-color: #e9882a; stop-opacity:1"/>
   <stop offset="100%" style="stop-color: #279362; stop-opacity:1"/>
  </linearGradient>
  <linearGradient id="90ssummer" x1="0%" x2="0%" y1="0%" y2="100%">
   <stop offset="0%" style="stop-color: #f618c7; stop-opacity:1"/>
   <stop offset="20%" style="stop-color: #94ffab; stop-opacity:1"/>
   <stop offset="50%" style="stop-color: #fbfd54; stop-opacity:1"/>
   <stop offset="100%" style="stop-color: #0f83ae; stop-opacity:1"/>
  </linearGradient>
 </defs>
 <path fill="currentColor" class="ColorScheme-Text" fill-rule="evenodd" d="M 14.159 5.544 L 13.203 5.978 L 13.203 5.978 L 13.203 5.978 L 13.203 5.978 L 13.203 5.978 L 13.373 6.274 C 13.469 6.439 13.412 6.65 13.247 6.746 L 12.049 7.437 C 11.884 7.533 11.673 7.476 11.577 7.311 L 10.886 6.113 C 10.79 5.948 10.847 5.736 11.012 5.641 L 12.21 4.95 C 12.375 4.854 12.587 4.911 12.682 5.076 L 12.955 5.548 L 13.953 5.093 C 13.941 5.032 13.935 4.968 13.935 4.903 C 13.935 4.334 14.398 3.871 14.968 3.871 C 15.537 3.871 16 4.334 16 4.903 C 16 5.473 15.537 5.935 14.968 5.935 C 14.64 5.935 14.348 5.782 14.159 5.544 L 14.159 5.544 L 14.159 5.544 L 14.159 5.544 Z M 2.047 5.093 L 3.046 5.549 L 3.046 5.549 L 3.046 5.549 L 3.319 5.077 C 3.414 4.911 3.626 4.855 3.791 4.95 L 4.989 5.642 C 5.154 5.737 5.211 5.949 5.115 6.114 L 4.424 7.311 C 4.328 7.477 4.117 7.533 3.952 7.438 L 2.754 6.746 C 2.589 6.651 2.532 6.44 2.627 6.274 L 2.798 5.979 L 1.841 5.544 C 1.652 5.782 1.36 5.935 1.032 5.935 C 0.463 5.935 0 5.473 0 4.903 C 0 4.334 0.463 3.871 1.032 3.871 C 1.602 3.871 2.065 4.334 2.065 4.903 C 2.065 4.968 2.059 5.032 2.047 5.093 L 2.047 5.093 L 2.047 5.093 L 2.047 5.093 L 2.047 5.093 Z M 7.312 2.839 L 8.688 2.839 C 8.878 2.839 9.032 2.993 9.032 3.183 L 9.032 4.559 C 9.032 4.749 8.878 4.903 8.688 4.903 L 7.312 4.903 C 7.122 4.903 6.968 4.749 6.968 4.559 L 6.968 3.183 C 6.968 2.993 7.122 2.839 7.312 2.839 L 7.312 2.839 L 7.312 2.839 L 7.312 2.839 L 7.312 2.839 L 7.312 2.839 L 7.312 2.839 Z M 7.983 11.549 C 7.918 11.551 7.855 11.566 7.797 11.592 L 5.671 12.565 C 5.517 12.635 5.419 12.78 5.419 12.938 L 5.419 13.633 C 5.419 13.782 5.507 13.92 5.649 13.995 L 7.774 15.106 C 7.914 15.18 8.086 15.18 8.226 15.106 L 10.351 13.995 C 10.493 13.92 10.581 13.782 10.581 13.633 L 10.581 12.938 C 10.581 12.78 10.483 12.635 10.329 12.565 L 8.203 11.592 C 8.135 11.561 8.06 11.546 7.983 11.549 L 7.983 11.549 L 7.983 11.549 Z M 4.645 9.742 C 4.645 9.457 4.876 9.226 5.161 9.226 C 5.446 9.226 5.677 9.457 5.677 9.742 C 5.677 10.027 5.446 10.258 5.161 10.258 C 4.876 10.258 4.645 10.027 4.645 9.742 L 4.645 9.742 L 4.645 9.742 Z M 5.419 8.71 L 5.419 8.71 C 5.989 8.71 6.452 9.172 6.452 9.742 L 6.452 10.516 C 6.452 11.086 5.989 11.548 5.419 11.548 L 5.419 11.548 C 4.85 11.548 4.387 11.086 4.387 10.516 L 4.387 9.742 C 4.387 9.172 4.85 8.71 5.419 8.71 L 5.419 8.71 L 5.419 8.71 Z M 9.806 9.742 C 9.806 9.457 10.038 9.226 10.323 9.226 C 10.607 9.226 10.839 9.457 10.839 9.742 C 10.839 10.027 10.607 10.258 10.323 10.258 C 10.038 10.258 9.806 10.027 9.806 9.742 L 9.806 9.742 Z M 10.581 8.71 L 10.581 8.71 C 11.15 8.71 11.613 9.172 11.613 9.742 L 11.613 10.516 C 11.613 11.086 11.15 11.548 10.581 11.548 L 10.581 11.548 C 10.011 11.548 9.548 11.086 9.548 10.516 L 9.548 9.742 C 9.548 9.172 10.011 8.71 10.581 8.71 L 10.581 8.71 Z"/>
</svg>
