<svg xmlns="http://www.w3.org/2000/svg" width="16" height="16" version="1.1">
 <defs>
   <style id="current-color-scheme" type="text/css">
   .ColorScheme-Text { color: #c8dff1; } .ColorScheme-Highlight { color:#5294e2; }
  </style>
  <linearGradient id="arrongin" x1="0%" x2="0%" y1="0%" y2="100%">
   <stop offset="0%" style="stop-color:#dd9b44; stop-opacity:1"/>
   <stop offset="100%" style="stop-color:#ad6c16; stop-opacity:1"/>
  </linearGradient>
  <linearGradient id="aurora" x1="0%" x2="0%" y1="0%" y2="100%">
   <stop offset="0%" style="stop-color:#09D4DF; stop-opacity:1"/>
   <stop offset="100%" style="stop-color:#9269F4; stop-opacity:1"/>
  </linearGradient>
  <linearGradient id="cyberneon" x1="0%" x2="0%" y1="0%" y2="100%">
    <stop offset="0" style="stop-color:#0abdc6; stop-opacity:1"/>
    <stop offset="1" style="stop-color:#ea00d9; stop-opacity:1"/>
  </linearGradient>
  <linearGradient id="fitdance" x1="0%" x2="0%" y1="0%" y2="100%">
   <stop offset="0%" style="stop-color:#1AD6AB; stop-opacity:1"/>
   <stop offset="100%" style="stop-color:#329DB6; stop-opacity:1"/>
  </linearGradient>
  <linearGradient id="oomox" x1="0%" x2="0%" y1="0%" y2="100%">
   <stop offset="0%" style="stop-color:#efefe7; stop-opacity:1"/>
   <stop offset="100%" style="stop-color:#8f8f8b; stop-opacity:1"/>
  </linearGradient>
  <linearGradient id="rainblue" x1="0%" x2="0%" y1="0%" y2="100%">
   <stop offset="0%" style="stop-color:#00F260; stop-opacity:1"/>
   <stop offset="100%" style="stop-color:#0575E6; stop-opacity:1"/>
  </linearGradient>
  <linearGradient id="sunrise" x1="0%" x2="0%" y1="0%" y2="100%">
   <stop offset="0%" style="stop-color: #FF8501; stop-opacity:1"/>
   <stop offset="100%" style="stop-color: #FFCB01; stop-opacity:1"/>
  </linearGradient>
  <linearGradient id="telinkrin" x1="0%" x2="0%" y1="0%" y2="100%">
   <stop offset="0%" style="stop-color: #b2ced6; stop-opacity:1"/>
   <stop offset="100%" style="stop-color: #6da5b7; stop-opacity:1"/>
  </linearGradient>
  <linearGradient id="60spsycho" x1="0%" x2="0%" y1="0%" y2="100%">
   <stop offset="0%" style="stop-color: #df5940; stop-opacity:1"/>
   <stop offset="25%" style="stop-color: #d8d15f; stop-opacity:1"/>
   <stop offset="50%" style="stop-color: #e9882a; stop-opacity:1"/>
   <stop offset="100%" style="stop-color: #279362; stop-opacity:1"/>
  </linearGradient>
  <linearGradient id="90ssummer" x1="0%" x2="0%" y1="0%" y2="100%">
   <stop offset="0%" style="stop-color: #f618c7; stop-opacity:1"/>
   <stop offset="20%" style="stop-color: #94ffab; stop-opacity:1"/>
   <stop offset="50%" style="stop-color: #fbfd54; stop-opacity:1"/>
   <stop offset="100%" style="stop-color: #0f83ae; stop-opacity:1"/>
  </linearGradient>
 </defs>
 <path fill="currentColor" class="ColorScheme-Text" d="m 7.9736736,14.947425 c -0.03987,-0.0286 -0.1214167,-0.0855 -0.1812186,-0.12655 l -0.108732,-0.0746 v -0.33534 -0.33534 l 0.151807,-0.201831 0.1518057,-0.20184 -0.0071,-0.6503 c -0.0039,-0.35766 -0.01306,-1.29972 -0.02034,-2.09346 -0.0073,-0.79374 -0.0158,-1.6388798 -0.01895,-1.8780798 -0.0031,-0.23921 -0.0097,-0.87812 -0.01468,-1.4198 l -0.009,-0.98486 -0.1782147,-0.1354 c -0.209653,-0.15929 -0.37099,-0.28244 -0.5485819,-0.41876 -0.07083,-0.0544 -0.148886,-0.11367 -0.173465,-0.1318 -0.02458,-0.0181 -0.1724541,-0.13081 -0.328608,-0.25041 -0.4478481,-0.34302 -0.3941231,-0.31262 -0.607137,-0.34357 -0.100871,-0.0147 -0.20416,-0.032 -0.229531,-0.0385 -0.02537,-0.006 -0.111367,-0.0212 -0.191104,-0.0325 -0.07974,-0.0114 -0.207249,-0.0321 -0.283361,-0.046 -0.07611,-0.0139 -0.185833,-0.0319 -0.243823,-0.04 -0.05799,-0.008 -0.1499171,-0.0232 -0.204282,-0.0337 -0.05437,-0.0105 -0.1729831,-0.0308 -0.263592,-0.045 -0.2530271,-0.0397 -0.852391,-0.13873 -1.120263,-0.18509 -0.08336,-0.0144 -0.193081,-0.0323 -0.243822,-0.0397 -0.10766,-0.0157 -0.438406,-0.071 -0.59967,-0.10035 -0.06162,-0.0112 -0.200989,-0.0344 -0.30972,-0.0517 -0.108732,-0.0172 -0.304448,-0.0491 -0.4349271,-0.0709 -0.130477,-0.0217 -0.34978,-0.0576 -0.487339,-0.0797 -0.137559,-0.0221 -0.259141,-0.0428 -0.2701819,-0.0461 -0.01104,-0.003 -0.117932,-0.0216 -0.237536,-0.0408 -0.119605,-0.0192 -0.300495,-0.0482 -0.401977,-0.0644 -0.101483,-0.0163 -0.269028,-0.0437 -0.372323,-0.061 L 0,4.3586442 v -0.17455 -0.17455 l 0.09555,-0.14009 c 0.05255,-0.0771 0.127137,-0.18544 0.16574,-0.24086 0.0386,-0.0554 0.09033,-0.13042 0.114957,-0.16667 0.02462,-0.0362 0.06359,-0.0926 0.08661,-0.12521 0.02301,-0.0326 0.07185,-0.10378 0.10853,-0.15815 0.03668,-0.0544 0.08938,-0.12998 0.117098,-0.16803 l 0.0504,-0.0692 h 7.2602347 7.2602333 l 0.05731,0.0783 c 0.03152,0.0431 0.08889,0.12461 0.127489,0.18122 0.0386,0.0566 0.133724,0.19485 0.211389,0.30721 0.07766,0.11235 0.186939,0.27062 0.242833,0.3517 l 0.101627,0.14743 v 0.17571 0.17571 l -0.161451,0.0286 c -0.174169,0.0309 -0.498753,0.089 -0.794068,0.14208 -0.101484,0.0182 -0.285338,0.0509 -0.408566,0.0725 -0.12323,0.0217 -0.321912,0.0574 -0.441517,0.0795 -0.119604,0.0221 -0.300494,0.0546 -0.401977,0.0722 -0.101482,0.0177 -0.285337,0.0504 -0.408566,0.0727 -0.123229,0.0224 -0.318946,0.0577 -0.434926,0.0785 -0.11598,0.0208 -0.314662,0.0565 -0.441516,0.0794 -0.397876,0.0716 -0.658939,0.11793 -0.856672,0.15202 -0.105107,0.0181 -0.201638,0.0363 -0.214512,0.0403 -0.01288,0.004 -0.107768,0.0215 -0.210873,0.0389 -0.103106,0.0173 -0.285323,0.0491 -0.404927,0.0705 -0.370724,0.0665 -0.661041,0.1189 -0.771006,0.13918 -0.05799,0.0107 -0.1209903,0.0197 -0.1400003,0.0199 -0.02087,0 -0.0659,0.0253 -0.11362,0.0631 -0.08565,0.0678 -0.62081,0.4767 -0.694304,0.53047 -0.04451,0.0326 -0.175352,0.13255 -0.440455,0.33659 -0.07498,0.0577 -0.152921,0.11679 -0.173211,0.13128 -0.02029,0.0145 -0.06364,0.0462 -0.09634,0.0705 l -0.05945,0.0442 -0.0078,0.17332 c -0.0043,0.0953 -0.01376,1.01548 -0.02102,2.04481 -0.0073,1.02932 -0.01994,2.5372198 -0.02817,3.3508898 l -0.01497,1.4794 0.03476,0.0494 c 0.01912,0.0272 0.05401,0.0746 0.07754,0.10547 0.02353,0.0308 0.07741,0.10338 0.119736,0.16126 l 0.07696,0.105231 -0.0096,0.3225 c -0.0111,0.3736 0.01515,0.31451 -0.213223,0.48003 -0.145212,0.10524 -0.149384,0.10723 -0.224053,0.10659 -0.06703,-8.8e-4 -0.08471,-0.007 -0.148572,-0.0526 z M 1.159836,2.7305342 c 0.01087,-0.007 0.332447,-0.17001 0.714609,-0.36223 l 0.694842,-0.3495 h 0.334648 0.334648 l 0.04692,-0.0373 c 0.06629,-0.0527 0.295462,-0.16381 0.450943,-0.21866 0.441953,-0.15591 1.102765,-0.28946 1.84514,-0.3729 l 0.09226,-0.0104 0.0036,-0.22076 0.0036,-0.22075 h 0.1710149 0.171016 v 0.19769 0.1977 h 0.03295 0.03295 v -0.33608 -0.33608 h 0.08489 c 0.04669,0 0.08859,0.006 0.09312,0.0133 0.0045,0.007 0.01159,0.15114 0.0157,0.3196 0.0041,0.16846 0.0097,0.30877 0.01232,0.31179 0.0027,0.003 0.0049,-0.10819 0.0049,-0.24712 v -0.25261 h 0.08538 0.08538 l 0.0036,0.24711 c 0.0034,0.23714 0.0046,0.24712 0.02994,0.24712 0.02529,0 0.0265,-0.01 0.02994,-0.24712 l 0.0036,-0.24711 h 0.171043 0.171044 v 0.23503 c 0,0.12928 0.0027,0.2377 0.0059,0.24096 0.0033,0.003 0.03736,0.003 0.07578,-0.001 l 0.06986,-0.007 0.0037,-0.14828 c 0.0031,-0.12398 0.0071,-0.14827 0.0243,-0.14827 0.01131,0 0.02367,-0.0119 0.02746,-0.0264 0.0065,-0.0247 0.01798,-0.0264 0.184012,-0.0264 h 0.177118 l -0.004,0.16804 c -0.0034,0.14237 -0.001,0.16804 0.01574,0.16804 0.01704,0 0.02025,-0.0532 0.02326,-0.3855 l 0.0035,-0.3855 h 0.125007 c 0.109858,0 0.125137,0.003 0.126082,0.0231 6.22e-4,0.0127 1.78e-4,0.18467 -9.51e-4,0.3822 l -0.002,0.35915 h 0.04708 0.04708 v -0.24242 c 0,-0.18232 0.0041,-0.24373 0.01647,-0.24771 0.01449,-0.005 0.05494,-0.004 0.1314977,8.9e-4 0.02054,0.001 0.02312,0.0251 0.02636,0.2421 l 0.0036,0.24052 h 0.04613 0.04613 l -0.0039,-0.22405 c -0.0022,-0.12323 -2.66e-4,-0.25519 0.0042,-0.29324 0.0078,-0.0659 0.01005,-0.0692 0.04678,-0.0692 h 0.03859 v 0.29655 c 0,0.28775 8e-4,0.29654 0.02636,0.29654 0.025,0 0.02636,-0.009 0.02636,-0.17021 v -0.17022 l 0.08682,-0.004 c 0.04775,-0.002 0.08926,-0.002 0.09226,0.001 0.003,0.003 0.0054,0.0849 0.0054,0.18206 v 0.17656 l 0.04283,-0.004 0.04283,-0.004 0.0036,-0.22735 0.0036,-0.22734 h 0.124895 0.124895 v 0.0917 0.0917 l 0.102141,0.004 0.102141,0.004 0.0037,0.14168 0.0037,0.14168 h 0.03909 0.03909 v -0.19111 -0.1911 h 0.125206 0.125205 v 0.19866 c 0,0.1821 0.0019,0.19829 0.02307,0.19424 0.02006,-0.004 0.02355,-0.0237 0.02679,-0.15198 l 0.0037,-0.14758 0.101714,-0.004 0.101716,-0.004 0.0036,-0.22205 c 0.0032,-0.19465 0.0062,-0.22106 0.02414,-0.21416 0.01129,0.004 0.05553,0.008 0.09832,0.008 h 0.0778 l 0.0035,0.3855 0.0035,0.3855 0.02965,0.004 0.02965,0.004 v -0.21079 -0.21079 l 0.105468,-0.004 0.1054674,-0.004 v 0.21922 0.21922 l 0.03295,0.006 0.03295,0.006 v -0.16951 -0.16951 h 0.105064 0.105066 l 0.0037,0.18122 0.0037,0.18122 0.09226,0.0104 c 0.605605,0.0681 1.220532,0.1819 1.615344,0.29902 0.294925,0.0875 0.572209,0.20629 0.678302,0.2906 l 0.04935,0.0392 h 0.334065 0.334065 l 0.707308,0.35565 c 0.389021,0.19561 0.710365,0.35871 0.714096,0.36244 0.0037,0.004 -3.079704,0.007 -6.8520814,0.007 -4.4191217,0 -6.8518467,-0.005 -6.8391087,-0.0129 z"/>
</svg>
