<svg xmlns="http://www.w3.org/2000/svg" width="16" height="16" version="1.1">
 <defs>
   <style id="current-color-scheme" type="text/css">
   .ColorScheme-Text { color: #c8dff1; } .ColorScheme-Highlight { color:#5294e2; }
  </style>
  <linearGradient id="arrongin" x1="0%" x2="0%" y1="0%" y2="100%">
   <stop offset="0%" style="stop-color:#dd9b44; stop-opacity:1"/>
   <stop offset="100%" style="stop-color:#ad6c16; stop-opacity:1"/>
  </linearGradient>
  <linearGradient id="aurora" x1="0%" x2="0%" y1="0%" y2="100%">
   <stop offset="0%" style="stop-color:#09D4DF; stop-opacity:1"/>
   <stop offset="100%" style="stop-color:#9269F4; stop-opacity:1"/>
  </linearGradient>
  <linearGradient id="cyberneon" x1="0%" x2="0%" y1="0%" y2="100%">
    <stop offset="0" style="stop-color:#0abdc6; stop-opacity:1"/>
    <stop offset="1" style="stop-color:#ea00d9; stop-opacity:1"/>
  </linearGradient>
  <linearGradient id="fitdance" x1="0%" x2="0%" y1="0%" y2="100%">
   <stop offset="0%" style="stop-color:#1AD6AB; stop-opacity:1"/>
   <stop offset="100%" style="stop-color:#329DB6; stop-opacity:1"/>
  </linearGradient>
  <linearGradient id="oomox" x1="0%" x2="0%" y1="0%" y2="100%">
   <stop offset="0%" style="stop-color:#efefe7; stop-opacity:1"/>
   <stop offset="100%" style="stop-color:#8f8f8b; stop-opacity:1"/>
  </linearGradient>
  <linearGradient id="rainblue" x1="0%" x2="0%" y1="0%" y2="100%">
   <stop offset="0%" style="stop-color:#00F260; stop-opacity:1"/>
   <stop offset="100%" style="stop-color:#0575E6; stop-opacity:1"/>
  </linearGradient>
  <linearGradient id="sunrise" x1="0%" x2="0%" y1="0%" y2="100%">
   <stop offset="0%" style="stop-color: #FF8501; stop-opacity:1"/>
   <stop offset="100%" style="stop-color: #FFCB01; stop-opacity:1"/>
  </linearGradient>
  <linearGradient id="telinkrin" x1="0%" x2="0%" y1="0%" y2="100%">
   <stop offset="0%" style="stop-color: #b2ced6; stop-opacity:1"/>
   <stop offset="100%" style="stop-color: #6da5b7; stop-opacity:1"/>
  </linearGradient>
  <linearGradient id="60spsycho" x1="0%" x2="0%" y1="0%" y2="100%">
   <stop offset="0%" style="stop-color: #df5940; stop-opacity:1"/>
   <stop offset="25%" style="stop-color: #d8d15f; stop-opacity:1"/>
   <stop offset="50%" style="stop-color: #e9882a; stop-opacity:1"/>
   <stop offset="100%" style="stop-color: #279362; stop-opacity:1"/>
  </linearGradient>
  <linearGradient id="90ssummer" x1="0%" x2="0%" y1="0%" y2="100%">
   <stop offset="0%" style="stop-color: #f618c7; stop-opacity:1"/>
   <stop offset="20%" style="stop-color: #94ffab; stop-opacity:1"/>
   <stop offset="50%" style="stop-color: #fbfd54; stop-opacity:1"/>
   <stop offset="100%" style="stop-color: #0f83ae; stop-opacity:1"/>
  </linearGradient>
 </defs>
 <rect fill="currentColor" class="ColorScheme-Text" width="4.625" height="3.594" x="17.09" y="-.09" transform="matrix(1,0,0,1,0,0)"/>
 <path fill="currentColor" class="ColorScheme-Text" d="M 12.247 1.004 C 12.005 0.985 11.755 1.015 11.509 1.099 C 11.215 1.197 11.012 1.325 10.785 1.548 C 10.491 1.842 10.336 2.154 10.265 2.573 C 10.227 2.805 10.197 2.896 10.129 3.041 C 9.867 3.595 9.293 3.981 8.721 3.981 C 8.673 3.981 8.523 3.971 8.379 3.953 C 7.806 3.878 7.543 3.869 6.945 3.926 C 6.783 3.942 6.587 3.953 6.521 3.953 C 6.236 3.953 6.063 3.846 5.947 3.612 C 5.874 3.466 5.849 3.393 5.851 3.133 C 5.854 2.919 5.858 2.894 5.824 2.792 C 5.767 2.634 5.716 2.562 5.593 2.44 C 5.413 2.259 5.223 2.18 4.977 2.18 C 4.815 2.18 4.701 2.205 4.567 2.276 C 4.282 2.424 4.106 2.7 4.09 3.014 C 4.078 3.233 4.122 3.365 4.24 3.547 C 4.327 3.679 4.432 3.774 4.623 3.875 C 4.83 3.982 4.938 4.084 5.032 4.272 C 5.091 4.39 5.088 4.402 5.088 4.531 C 5.088 4.654 5.088 4.667 5.047 4.75 C 5.022 4.8 4.951 4.893 4.896 4.955 C 4.384 5.525 4.071 6.139 3.938 6.8 C 3.875 7.112 3.857 7.28 3.871 7.619 C 3.878 7.781 3.916 7.961 3.916 8.016 C 3.911 8.325 3.659 8.538 3.188 8.699 C 3.074 8.738 3.022 8.748 2.874 8.755 C 2.758 8.76 2.666 8.755 2.599 8.742 C 2.54 8.73 2.419 8.73 2.298 8.73 C 2.068 8.73 1.959 8.755 1.779 8.84 C 1.109 9.149 0.813 9.928 1.123 10.589 C 1.519 11.431 2.64 11.614 3.282 10.944 C 3.378 10.844 3.425 10.768 3.528 10.589 C 3.56 10.529 3.628 10.45 3.678 10.398 C 3.906 10.159 4.218 10.045 4.58 10.045 C 4.84 10.045 4.993 10.1 5.195 10.264 C 5.532 10.535 5.999 10.771 6.412 10.892 C 6.867 11.024 7.125 11.045 7.887 11.026 C 8.111 11.019 8.181 11.033 8.284 11.051 C 8.571 11.111 8.85 11.22 9.091 11.381 C 9.269 11.5 9.561 11.791 9.681 11.97 C 9.841 12.209 9.957 12.51 9.996 12.749 C 10.059 13.15 10.137 13.389 10.269 13.651 C 10.629 14.359 11.276 14.833 12.073 14.976 C 12.292 15.015 12.768 15.008 12.988 14.963 C 13.747 14.808 14.378 14.33 14.724 13.651 C 14.911 13.282 15 12.945 15 12.517 C 15.002 11.517 14.419 10.631 13.497 10.235 C 13.285 10.146 13.13 10.107 12.841 10.057 C 12.554 10.009 12.363 9.946 12.158 9.838 C 11.677 9.59 11.207 9.13 11.036 8.625 C 10.943 8.342 10.913 7.996 10.913 7.737 L 10.913 6.343 C 10.913 6.031 10.945 5.842 11.077 5.577 C 11.228 5.274 11.562 5.024 11.871 4.866 C 12.031 4.784 12.149 4.754 12.377 4.715 C 12.618 4.674 12.791 4.62 12.976 4.525 C 13.408 4.301 13.739 3.923 13.891 3.459 C 13.957 3.261 13.973 3.098 13.973 2.868 C 13.973 2.64 13.944 2.48 13.88 2.278 C 13.632 1.544 12.978 1.061 12.254 1.006 L 12.247 1.004 Z M 7.414 5.079 C 8.702 5.079 9.746 6.123 9.746 7.411 C 9.746 8.699 8.702 9.743 7.414 9.743 C 6.126 9.743 5.082 8.699 5.082 7.411 C 5.082 6.123 6.126 5.079 7.414 5.079 Z M 7.483 5.939 C 6.776 5.886 6.13 6.349 5.941 7.06 C 5.906 7.185 5.9 7.215 5.9 7.429 C 5.9 7.64 5.907 7.684 5.941 7.811 C 6.018 8.1 6.202 8.391 6.419 8.577 C 7.047 9.092 7.504 8.643 7.813 8.235 L 7.813 8.18 L 7.553 8.18 C 7.367 8.18 7.269 8.178 7.212 8.167 C 6.879 8.078 6.651 7.777 6.651 7.443 C 6.651 7.236 6.722 7.058 6.87 6.91 C 7.011 6.769 7.2 6.691 7.389 6.691 C 7.726 6.691 8.127 6.939 8.13 7.281 L 8.142 8.716 L 8.227 8.716 C 8.398 8.698 8.579 8.614 8.691 8.497 C 8.755 8.432 8.824 8.286 8.855 8.186 C 8.88 8.103 8.883 8.054 8.883 7.681 C 8.883 7.144 8.865 7.018 8.719 6.738 C 8.535 6.386 8.17 6.097 7.789 5.999 C 7.686 5.971 7.571 5.947 7.485 5.94 L 7.483 5.939 Z"/>
</svg>
