<svg xmlns="http://www.w3.org/2000/svg" width="16" height="16" version="1.1">
 <defs>
   <style id="current-color-scheme" type="text/css">
   .ColorScheme-Text { color: #c8dff1; } .ColorScheme-Highlight { color:#5294e2; }
  </style>
  <linearGradient id="arrongin" x1="0%" x2="0%" y1="0%" y2="100%">
   <stop offset="0%" style="stop-color:#dd9b44; stop-opacity:1"/>
   <stop offset="100%" style="stop-color:#ad6c16; stop-opacity:1"/>
  </linearGradient>
  <linearGradient id="aurora" x1="0%" x2="0%" y1="0%" y2="100%">
   <stop offset="0%" style="stop-color:#09D4DF; stop-opacity:1"/>
   <stop offset="100%" style="stop-color:#9269F4; stop-opacity:1"/>
  </linearGradient>
  <linearGradient id="cyberneon" x1="0%" x2="0%" y1="0%" y2="100%">
    <stop offset="0" style="stop-color:#0abdc6; stop-opacity:1"/>
    <stop offset="1" style="stop-color:#ea00d9; stop-opacity:1"/>
  </linearGradient>
  <linearGradient id="fitdance" x1="0%" x2="0%" y1="0%" y2="100%">
   <stop offset="0%" style="stop-color:#1AD6AB; stop-opacity:1"/>
   <stop offset="100%" style="stop-color:#329DB6; stop-opacity:1"/>
  </linearGradient>
  <linearGradient id="oomox" x1="0%" x2="0%" y1="0%" y2="100%">
   <stop offset="0%" style="stop-color:#efefe7; stop-opacity:1"/>
   <stop offset="100%" style="stop-color:#8f8f8b; stop-opacity:1"/>
  </linearGradient>
  <linearGradient id="rainblue" x1="0%" x2="0%" y1="0%" y2="100%">
   <stop offset="0%" style="stop-color:#00F260; stop-opacity:1"/>
   <stop offset="100%" style="stop-color:#0575E6; stop-opacity:1"/>
  </linearGradient>
  <linearGradient id="sunrise" x1="0%" x2="0%" y1="0%" y2="100%">
   <stop offset="0%" style="stop-color: #FF8501; stop-opacity:1"/>
   <stop offset="100%" style="stop-color: #FFCB01; stop-opacity:1"/>
  </linearGradient>
  <linearGradient id="telinkrin" x1="0%" x2="0%" y1="0%" y2="100%">
   <stop offset="0%" style="stop-color: #b2ced6; stop-opacity:1"/>
   <stop offset="100%" style="stop-color: #6da5b7; stop-opacity:1"/>
  </linearGradient>
  <linearGradient id="60spsycho" x1="0%" x2="0%" y1="0%" y2="100%">
   <stop offset="0%" style="stop-color: #df5940; stop-opacity:1"/>
   <stop offset="25%" style="stop-color: #d8d15f; stop-opacity:1"/>
   <stop offset="50%" style="stop-color: #e9882a; stop-opacity:1"/>
   <stop offset="100%" style="stop-color: #279362; stop-opacity:1"/>
  </linearGradient>
  <linearGradient id="90ssummer" x1="0%" x2="0%" y1="0%" y2="100%">
   <stop offset="0%" style="stop-color: #f618c7; stop-opacity:1"/>
   <stop offset="20%" style="stop-color: #94ffab; stop-opacity:1"/>
   <stop offset="50%" style="stop-color: #fbfd54; stop-opacity:1"/>
   <stop offset="100%" style="stop-color: #0f83ae; stop-opacity:1"/>
  </linearGradient>
 </defs>
 <path fill="currentColor" class="ColorScheme-Text" d="M 8 0 C 5.46 0.004 3.072 1.213 1.567 3.259 L 4.033 7.528 C 4.037 7.491 4.042 7.453 4.047 7.416 C 4.066 7.284 4.092 7.153 4.125 7.024 C 4.158 6.895 4.197 6.767 4.242 6.642 C 4.281 6.534 4.325 6.428 4.373 6.323 C 4.384 6.299 4.395 6.275 4.406 6.252 C 4.451 6.161 4.499 6.073 4.55 5.986 C 4.566 5.958 4.582 5.931 4.598 5.903 C 4.656 5.811 4.718 5.72 4.783 5.633 C 4.795 5.615 4.808 5.596 4.82 5.578 C 4.883 5.496 4.95 5.417 5.019 5.341 C 5.04 5.315 5.062 5.29 5.084 5.266 C 5.144 5.203 5.205 5.143 5.269 5.084 C 5.307 5.048 5.345 5.012 5.384 4.977 C 5.438 4.932 5.493 4.889 5.548 4.847 C 5.6 4.806 5.652 4.765 5.705 4.727 C 5.76 4.689 5.816 4.652 5.873 4.617 C 5.915 4.589 5.957 4.562 6 4.536 C 6.016 4.528 6.032 4.519 6.048 4.511 C 6.079 4.494 6.111 4.477 6.142 4.461 C 6.208 4.427 6.275 4.395 6.342 4.364 C 6.407 4.334 6.473 4.306 6.539 4.28 C 6.594 4.258 6.649 4.238 6.705 4.219 C 6.774 4.195 6.845 4.173 6.916 4.153 C 6.978 4.136 7.04 4.12 7.103 4.106 C 7.168 4.091 7.234 4.078 7.3 4.066 C 7.364 4.054 7.428 4.044 7.492 4.036 C 7.562 4.027 7.632 4.021 7.702 4.016 C 7.762 4.011 7.823 4.008 7.884 4.006 C 7.923 4.004 7.962 4.001 8 4 L 14.916 4 C 13.489 1.529 10.854 0.004 8.001 0 L 8 0 Z M 1.077 4.006 C 0.374 5.22 0.003 6.598 0 8 C 0 12.418 3.582 16 8 16 C 9.102 15.997 10.192 15.766 11.2 15.322 L 11.2 10.398 C 11.185 10.418 11.17 10.437 11.155 10.456 C 11.121 10.498 11.087 10.539 11.052 10.579 C 11.002 10.64 10.95 10.699 10.897 10.756 C 10.857 10.797 10.816 10.837 10.774 10.876 C 10.719 10.93 10.663 10.982 10.605 11.033 C 10.56 11.07 10.515 11.105 10.469 11.14 C 10.412 11.186 10.354 11.231 10.295 11.273 C 10.24 11.311 10.184 11.348 10.127 11.383 C 10.085 11.41 10.043 11.438 10 11.464 C 9.984 11.472 9.968 11.481 9.952 11.489 C 9.921 11.506 9.889 11.523 9.858 11.539 C 9.792 11.573 9.725 11.605 9.658 11.636 C 9.593 11.666 9.527 11.694 9.461 11.72 C 9.406 11.742 9.351 11.762 9.295 11.781 C 9.226 11.805 9.155 11.827 9.084 11.847 C 9.022 11.864 8.96 11.879 8.897 11.894 C 8.832 11.909 8.766 11.922 8.7 11.934 C 8.636 11.946 8.572 11.956 8.508 11.964 C 8.438 11.972 8.368 11.979 8.298 11.984 C 8.238 11.989 8.177 11.992 8.116 11.994 C 8.077 11.996 8.039 11.998 8 12 C 7.951 11.999 7.902 11.998 7.853 11.995 C 7.831 11.994 7.81 11.993 7.788 11.992 C 7.7 11.987 7.612 11.978 7.525 11.967 C 7.477 11.962 7.429 11.956 7.38 11.95 C 7.298 11.936 7.216 11.919 7.135 11.9 C 7.086 11.89 7.036 11.879 6.988 11.867 C 6.909 11.846 6.831 11.823 6.753 11.797 C 6.703 11.781 6.653 11.764 6.604 11.746 C 6.537 11.72 6.471 11.692 6.405 11.662 C 6.345 11.637 6.285 11.61 6.225 11.582 C 6.172 11.554 6.12 11.525 6.068 11.495 C 6.004 11.461 5.941 11.425 5.879 11.387 C 5.828 11.354 5.778 11.321 5.728 11.286 C 5.666 11.244 5.605 11.2 5.544 11.154 C 5.502 11.121 5.461 11.086 5.42 11.051 C 5.36 11.001 5.302 10.95 5.244 10.897 C 5.203 10.857 5.163 10.816 5.124 10.774 C 5.07 10.719 5.018 10.663 4.968 10.605 C 4.931 10.56 4.895 10.515 4.86 10.469 C 4.814 10.412 4.77 10.354 4.727 10.295 C 4.689 10.24 4.652 10.184 4.617 10.126 C 4.59 10.085 4.563 10.043 4.536 10 L 4.489 9.917 L 1.077 4.006 L 1.077 4.006 Z M 10.398 4.8 C 10.418 4.815 10.437 4.83 10.456 4.845 C 10.498 4.879 10.539 4.913 10.58 4.948 C 10.64 4.998 10.699 5.05 10.756 5.103 C 10.797 5.143 10.837 5.185 10.876 5.227 C 10.93 5.281 10.982 5.338 11.033 5.395 C 11.07 5.44 11.105 5.485 11.14 5.531 C 11.186 5.588 11.231 5.646 11.273 5.705 C 11.311 5.76 11.348 5.816 11.383 5.873 C 11.411 5.915 11.438 5.957 11.464 6 C 11.472 6.016 11.481 6.032 11.489 6.048 C 11.506 6.08 11.523 6.111 11.539 6.142 C 11.573 6.208 11.605 6.275 11.636 6.342 C 11.666 6.407 11.694 6.473 11.72 6.539 C 11.742 6.594 11.762 6.649 11.781 6.705 C 11.805 6.774 11.827 6.845 11.847 6.916 C 11.864 6.978 11.879 7.04 11.894 7.103 C 11.909 7.168 11.922 7.234 11.934 7.3 C 11.946 7.364 11.956 7.428 11.964 7.492 C 11.97 7.528 11.975 7.564 11.979 7.6 C 11.981 7.634 11.983 7.668 11.984 7.702 C 11.989 7.762 11.992 7.824 11.994 7.885 C 11.996 7.923 11.998 7.961 12 8 L 12 14.915 C 14.471 13.489 15.995 10.854 16 8 C 15.997 6.898 15.766 5.809 15.322 4.8 L 10.398 4.8 L 10.398 4.8 Z"/>
</svg>
