<svg xmlns="http://www.w3.org/2000/svg" width="16" height="16" version="1.1">
 <defs>
   <style id="current-color-scheme" type="text/css">
   .ColorScheme-Text { color: #c8dff1; } .ColorScheme-Highlight { color:#5294e2; }
  </style>
  <linearGradient id="arrongin" x1="0%" x2="0%" y1="0%" y2="100%">
   <stop offset="0%" style="stop-color:#dd9b44; stop-opacity:1"/>
   <stop offset="100%" style="stop-color:#ad6c16; stop-opacity:1"/>
  </linearGradient>
  <linearGradient id="aurora" x1="0%" x2="0%" y1="0%" y2="100%">
   <stop offset="0%" style="stop-color:#09D4DF; stop-opacity:1"/>
   <stop offset="100%" style="stop-color:#9269F4; stop-opacity:1"/>
  </linearGradient>
  <linearGradient id="cyberneon" x1="0%" x2="0%" y1="0%" y2="100%">
    <stop offset="0" style="stop-color:#0abdc6; stop-opacity:1"/>
    <stop offset="1" style="stop-color:#ea00d9; stop-opacity:1"/>
  </linearGradient>
  <linearGradient id="fitdance" x1="0%" x2="0%" y1="0%" y2="100%">
   <stop offset="0%" style="stop-color:#1AD6AB; stop-opacity:1"/>
   <stop offset="100%" style="stop-color:#329DB6; stop-opacity:1"/>
  </linearGradient>
  <linearGradient id="oomox" x1="0%" x2="0%" y1="0%" y2="100%">
   <stop offset="0%" style="stop-color:#efefe7; stop-opacity:1"/>
   <stop offset="100%" style="stop-color:#8f8f8b; stop-opacity:1"/>
  </linearGradient>
  <linearGradient id="rainblue" x1="0%" x2="0%" y1="0%" y2="100%">
   <stop offset="0%" style="stop-color:#00F260; stop-opacity:1"/>
   <stop offset="100%" style="stop-color:#0575E6; stop-opacity:1"/>
  </linearGradient>
  <linearGradient id="sunrise" x1="0%" x2="0%" y1="0%" y2="100%">
   <stop offset="0%" style="stop-color: #FF8501; stop-opacity:1"/>
   <stop offset="100%" style="stop-color: #FFCB01; stop-opacity:1"/>
  </linearGradient>
  <linearGradient id="telinkrin" x1="0%" x2="0%" y1="0%" y2="100%">
   <stop offset="0%" style="stop-color: #b2ced6; stop-opacity:1"/>
   <stop offset="100%" style="stop-color: #6da5b7; stop-opacity:1"/>
  </linearGradient>
  <linearGradient id="60spsycho" x1="0%" x2="0%" y1="0%" y2="100%">
   <stop offset="0%" style="stop-color: #df5940; stop-opacity:1"/>
   <stop offset="25%" style="stop-color: #d8d15f; stop-opacity:1"/>
   <stop offset="50%" style="stop-color: #e9882a; stop-opacity:1"/>
   <stop offset="100%" style="stop-color: #279362; stop-opacity:1"/>
  </linearGradient>
  <linearGradient id="90ssummer" x1="0%" x2="0%" y1="0%" y2="100%">
   <stop offset="0%" style="stop-color: #f618c7; stop-opacity:1"/>
   <stop offset="20%" style="stop-color: #94ffab; stop-opacity:1"/>
   <stop offset="50%" style="stop-color: #fbfd54; stop-opacity:1"/>
   <stop offset="100%" style="stop-color: #0f83ae; stop-opacity:1"/>
  </linearGradient>
 </defs>
 <path fill="currentColor" class="ColorScheme-Text" fill-rule="evenodd" d="M 15.992 6.394 L 10.398 5.594 L 8 0 L 5.602 5.594 L 0.008 6.394 L 4.004 10.39 L 3.205 16 L 8 13.586 L 12.795 15.984 L 11.996 10.39 L 15.992 6.394 Z M 10.065 12.515 L 5.636 12.515 L 5.636 12.515 Q 5.636 10.246 7.906 9.038 L 7.906 9.038 L 7.906 9.038 Q 8.372 8.791 8.638 8.53 L 8.638 8.53 L 8.638 8.53 Q 8.903 8.269 8.903 7.894 L 8.903 7.894 L 8.903 7.894 Q 8.903 7.519 8.633 7.281 L 8.633 7.281 L 8.633 7.281 Q 8.363 7.043 7.924 7.043 L 7.924 7.043 L 7.924 7.043 Q 7.064 7.043 6.725 7.83 L 6.725 7.83 L 5.737 7.382 L 5.737 7.382 Q 5.993 6.75 6.579 6.375 L 6.579 6.375 L 6.579 6.375 Q 7.164 6 7.915 6 L 7.915 6 L 7.915 6 Q 8.875 6 9.443 6.531 L 9.443 6.531 L 9.443 6.531 Q 10.01 7.061 10.01 7.894 L 10.01 7.894 L 10.01 7.894 Q 10.01 8.644 9.63 9.079 L 9.63 9.079 L 9.63 9.079 Q 9.251 9.514 8.455 9.953 L 8.455 9.953 L 8.455 9.953 Q 7.787 10.319 7.43 10.667 L 7.43 10.667 L 7.43 10.667 Q 7.073 11.014 6.954 11.454 L 6.954 11.454 L 10.065 11.454 L 10.065 12.515 Z"/>
</svg>
