<svg xmlns="http://www.w3.org/2000/svg" width="16" height="16" version="1.1">
 <defs>
   <style id="current-color-scheme" type="text/css">
   .ColorScheme-Text { color: #c8dff1; } .ColorScheme-Highlight { color:#5294e2; }
  </style>
  <linearGradient id="arrongin" x1="0%" x2="0%" y1="0%" y2="100%">
   <stop offset="0%" style="stop-color:#dd9b44; stop-opacity:1"/>
   <stop offset="100%" style="stop-color:#ad6c16; stop-opacity:1"/>
  </linearGradient>
  <linearGradient id="aurora" x1="0%" x2="0%" y1="0%" y2="100%">
   <stop offset="0%" style="stop-color:#09D4DF; stop-opacity:1"/>
   <stop offset="100%" style="stop-color:#9269F4; stop-opacity:1"/>
  </linearGradient>
  <linearGradient id="cyberneon" x1="0%" x2="0%" y1="0%" y2="100%">
    <stop offset="0" style="stop-color:#0abdc6; stop-opacity:1"/>
    <stop offset="1" style="stop-color:#ea00d9; stop-opacity:1"/>
  </linearGradient>
  <linearGradient id="fitdance" x1="0%" x2="0%" y1="0%" y2="100%">
   <stop offset="0%" style="stop-color:#1AD6AB; stop-opacity:1"/>
   <stop offset="100%" style="stop-color:#329DB6; stop-opacity:1"/>
  </linearGradient>
  <linearGradient id="oomox" x1="0%" x2="0%" y1="0%" y2="100%">
   <stop offset="0%" style="stop-color:#efefe7; stop-opacity:1"/>
   <stop offset="100%" style="stop-color:#8f8f8b; stop-opacity:1"/>
  </linearGradient>
  <linearGradient id="rainblue" x1="0%" x2="0%" y1="0%" y2="100%">
   <stop offset="0%" style="stop-color:#00F260; stop-opacity:1"/>
   <stop offset="100%" style="stop-color:#0575E6; stop-opacity:1"/>
  </linearGradient>
  <linearGradient id="sunrise" x1="0%" x2="0%" y1="0%" y2="100%">
   <stop offset="0%" style="stop-color: #FF8501; stop-opacity:1"/>
   <stop offset="100%" style="stop-color: #FFCB01; stop-opacity:1"/>
  </linearGradient>
  <linearGradient id="telinkrin" x1="0%" x2="0%" y1="0%" y2="100%">
   <stop offset="0%" style="stop-color: #b2ced6; stop-opacity:1"/>
   <stop offset="100%" style="stop-color: #6da5b7; stop-opacity:1"/>
  </linearGradient>
  <linearGradient id="60spsycho" x1="0%" x2="0%" y1="0%" y2="100%">
   <stop offset="0%" style="stop-color: #df5940; stop-opacity:1"/>
   <stop offset="25%" style="stop-color: #d8d15f; stop-opacity:1"/>
   <stop offset="50%" style="stop-color: #e9882a; stop-opacity:1"/>
   <stop offset="100%" style="stop-color: #279362; stop-opacity:1"/>
  </linearGradient>
  <linearGradient id="90ssummer" x1="0%" x2="0%" y1="0%" y2="100%">
   <stop offset="0%" style="stop-color: #f618c7; stop-opacity:1"/>
   <stop offset="20%" style="stop-color: #94ffab; stop-opacity:1"/>
   <stop offset="50%" style="stop-color: #fbfd54; stop-opacity:1"/>
   <stop offset="100%" style="stop-color: #0f83ae; stop-opacity:1"/>
  </linearGradient>
 </defs>
 <path fill="currentColor" class="ColorScheme-Text" d="M 7.921319,2.9958696 C 7.1865938,3.512612 6.3538866,4.098299 5.9077036,5.0672804 5.1327297,6.7578192 7.4934902,8.6018373 7.5943914,8.6795086 c 0.023447,0.018044 0.051522,0.02705 0.079504,0.02705 0.029721,0 0.059472,-0.010155 0.083634,-0.030404 0.046864,-0.039193 0.060156,-0.1057771 0.032019,-0.160001 C 7.7810075,8.4996937 6.9336108,6.8537204 6.9651017,5.6729054 6.9762508,5.2616295 7.5518135,4.7950737 8.1611342,4.3011264 8.7192123,3.8487012 9.3518251,3.3359339 9.7219517,2.7360853 10.534503,1.4157042 9.6313921,0.11737285 9.6221684,0.1043914 9.5862986,0.05401841 9.520087,0.03578848 9.4634718,0.0606023 9.4069186,0.0855714 9.375583,0.14672086 9.3885023,0.20718709 9.3903346,0.21578963 9.5659569,1.0743666 9.0772581,1.9589375 8.8759525,2.3244678 8.4335894,2.6355878 7.921319,2.9958696 Z"/>
 <path fill="currentColor" class="ColorScheme-Text" d="m 11.016774,3.5781094 c 0.05183,-0.039038 0.06705,-0.1102492 0.03571,-0.1670819 -0.0314,-0.056833 -0.09972,-0.081895 -0.160405,-0.058851 -0.124814,0.047454 -3.0564167,1.1774921 -3.0564167,2.5428735 0,0.9412172 0.4020522,1.4384254 0.6956256,1.8015333 0.115156,0.1424233 0.2145666,0.2654054 0.2473307,0.3704061 0.092237,0.3025796 -0.1262741,0.8494775 -0.2181691,1.0346961 -0.026491,0.05323 -0.013509,0.1177647 0.031553,0.156647 0.024348,0.021025 0.054752,0.031708 0.085187,0.031708 0.025901,0 0.051926,-0.0077 0.07441,-0.023354 C 8.8020079,9.231655 9.9835062,8.396308 9.7716104,7.389873 9.6926658,7.0073239 9.5046832,6.727819 9.3388126,6.4811715 9.0818544,6.0990262 8.8962631,5.8229995 9.1778178,5.3131826 9.5076956,4.7185204 11.001649,3.5894138 11.016774,3.5781094 Z"/>
 <path fill="currentColor" class="ColorScheme-Text" d="m 3.3856998,9.3116555 c -0.050249,0.1504668 -0.026522,0.2997224 0.068541,0.4317729 0.3177971,0.4412136 1.4434876,0.6841346 3.169834,0.6841346 9.32e-5,0 1.553e-4,0 2.174e-4,0 0.2339146,0 0.4808727,-0.0046 0.7338246,-0.01366 2.7601112,-0.09879 3.7838442,-0.9586712 3.8260802,-0.9952242 0.04603,-0.039845 0.05832,-0.1061808 0.02972,-0.1598457 C 11.185284,9.2051952 11.123576,9.1782385 11.0646,9.1944808 10.092513,9.4598862 8.2773772,9.5541105 7.0183629,9.5541105 5.609565,9.5541105 4.892107,9.4526191 4.7164537,9.3776807 4.8065785,9.2539222 5.3624827,9.032927 6.0513381,8.8974292 6.117177,8.8845099 6.1624257,8.823702 6.1559039,8.7569314 6.1493822,8.6901608 6.0932948,8.6392288 6.0261826,8.6392288 c -0.4037914,0 -2.4288044,0.032423 -2.6404828,0.6724267 z"/>
 <path fill="currentColor" class="ColorScheme-Text" d="m 12.621598,8.4259976 c -0.56929,0 -1.109138,0.2853435 -1.131871,0.2974243 -0.05264,0.028199 -0.07935,0.088572 -0.06491,0.1465848 0.0145,0.05792 0.06658,0.098634 0.126305,0.098696 0.01208,0 1.214356,0.00984 1.323238,0.6967746 0.09646,0.5926127 -1.137554,1.5528057 -1.62119,1.8728077 -0.05224,0.03457 -0.07252,0.101336 -0.04826,0.1591 0.02065,0.04916 0.06851,0.07991 0.120125,0.07991 0.009,0 0.01814,-9.31e-4 0.02721,-0.0029 0.114783,-0.02457 2.807657,-0.617985 2.522935,-2.1858526 C 13.70148,8.627707 13.097563,8.4259976 12.621598,8.4259976 Z"/>
 <path fill="currentColor" class="ColorScheme-Text" d="m 10.774847,11.34642 c 0.0094,-0.05022 -0.01152,-0.101305 -0.05332,-0.130653 l -0.645687,-0.45227 c -0.03149,-0.02205 -0.07127,-0.02897 -0.1082306,-0.01919 -0.00674,0.0017 -0.6819609,0.179225 -1.6622777,0.288077 -0.3890708,0.04363 -0.82485,0.06668 -1.2603187,0.06668 -0.9800684,0 -1.6208799,-0.115156 -1.7142035,-0.199628 -0.01236,-0.02373 -0.00845,-0.0345 -0.00624,-0.0405 0.016957,-0.04714 0.1078268,-0.103168 0.1663986,-0.125342 0.06469,-0.02394 0.099566,-0.09419 0.079441,-0.160156 -0.020062,-0.06606 -0.088106,-0.104908 -0.1552495,-0.08879 -0.647706,0.156306 -0.9644161,0.374879 -0.9413725,0.649632 0.040932,0.487146 1.1692622,0.737179 2.1231503,0.803266 0.1371748,0.0094 0.2855298,0.01413 0.4408414,0.01413 9.31e-5,0 1.552e-4,0 2.484e-4,0 1.5861593,0 3.6195888,-0.497674 3.6398998,-0.502736 0.04966,-0.01211 0.08752,-0.0522 0.09693,-0.102516 z"/>
 <path fill="currentColor" class="ColorScheme-Text" d="m 5.9069582,12.391893 c 0.048913,-0.0318 0.070591,-0.09227 0.05323,-0.147952 -0.017298,-0.05568 -0.069379,-0.09227 -0.127889,-0.09149 -0.086802,0.0023 -0.8493533,0.03671 -0.9027387,0.522208 -0.016149,0.145095 0.025404,0.277673 0.1235722,0.393978 0.2737906,0.324474 1.0128636,0.517333 2.2590518,0.589569 0.1474233,0.0089 0.2971758,0.01329 0.4451581,0.01329 1.5843269,0 2.6513524,-0.496059 2.6960424,-0.517177 0.04332,-0.0205 0.07189,-0.06307 0.07444,-0.110901 0.0025,-0.04783 -0.02133,-0.0932 -0.0622,-0.1182 l -0.8159992,-0.49814 c -0.028323,-0.01727 -0.062205,-0.02298 -0.094504,-0.01637 -0.00516,0.0011 -0.5232642,0.108541 -1.3051636,0.21469 -0.1479513,0.02013 -0.333232,0.03034 -0.5506247,0.03034 -0.7810609,0 -1.6498243,-0.127609 -1.8164402,-0.211181 -0.00242,-0.01559 6.521e-4,-0.0354 0.024068,-0.05267 z"/>
 <path fill="currentColor" class="ColorScheme-Text" d="m 7.018953,15.169271 c 3.629029,-0.0031 5.576775,-0.648452 5.951995,-1.054572 0.132827,-0.143666 0.147175,-0.279691 0.135901,-0.368543 -0.02789,-0.218635 -0.227051,-0.352487 -0.249629,-0.367021 -0.05447,-0.03503 -0.127578,-0.02587 -0.170063,0.02314 -0.04239,0.04901 -0.04338,0.120622 -8.38e-4,0.169597 0.02289,0.02944 0.03612,0.07873 -0.03081,0.145715 -0.150001,0.140094 -1.662899,0.565346 -4.1818903,0.69311 -0.3450643,0.01792 -0.7069921,0.02705 -1.0756591,0.02711 -2.2553871,0 -3.9059878,-0.308946 -4.1226662,-0.488947 0.08351,-0.120001 0.6673645,-0.31171 1.2882691,-0.420158 0.069969,-0.0122 0.1172368,-0.07814 0.1063982,-0.148324 -0.010839,-0.07015 -0.075528,-0.118448 -0.1462432,-0.109286 -0.017516,0.0024 -0.076957,0.0059 -0.1457773,0.01015 -1.0244786,0.06255 -2.2083682,0.201958 -2.2701388,0.729819 -0.018758,0.160839 0.029038,0.306865 0.1421127,0.433946 0.2766788,0.310872 1.0719324,0.724198 4.7689126,0.724198 6.21e-5,6.2e-5 6.21e-5,6.2e-5 1.243e-4,6.2e-5 z"/>
 <path fill="currentColor" class="ColorScheme-Text" d="m 13.683747,14.22914 c -0.0513,-0.02373 -0.111926,-0.01174 -0.150187,0.02957 -0.0053,0.0057 -0.550935,0.576277 -2.191443,0.91131 -0.628047,0.125839 -1.8069367,0.18966 -3.5039352,0.18966 -1.7001662,0 -3.3179716,-0.0669 -3.3340897,-0.06758 -0.067578,-0.0033 -0.1253735,0.04584 -0.1345661,0.112361 -0.00922,0.06646 0.033634,0.129131 0.098883,0.144659 0.016832,0.004 1.7122781,0.401183 4.0304296,0.401183 1.1118395,0 2.1937714,-0.09028 3.2157964,-0.26848 1.905634,-0.334071 2.039051,-1.278984 2.043802,-1.319046 0.0066,-0.05599 -0.02348,-0.109908 -0.07469,-0.133635 z"/>
</svg>