<svg xmlns="http://www.w3.org/2000/svg" width="16" height="16" version="1.1">
 <defs>
   <style id="current-color-scheme" type="text/css">
   .ColorScheme-Text { color: #c8dff1; } .ColorScheme-Highlight { color:#5294e2; }
  </style>
  <linearGradient id="arrongin" x1="0%" x2="0%" y1="0%" y2="100%">
   <stop offset="0%" style="stop-color:#dd9b44; stop-opacity:1"/>
   <stop offset="100%" style="stop-color:#ad6c16; stop-opacity:1"/>
  </linearGradient>
  <linearGradient id="aurora" x1="0%" x2="0%" y1="0%" y2="100%">
   <stop offset="0%" style="stop-color:#09D4DF; stop-opacity:1"/>
   <stop offset="100%" style="stop-color:#9269F4; stop-opacity:1"/>
  </linearGradient>
  <linearGradient id="cyberneon" x1="0%" x2="0%" y1="0%" y2="100%">
    <stop offset="0" style="stop-color:#0abdc6; stop-opacity:1"/>
    <stop offset="1" style="stop-color:#ea00d9; stop-opacity:1"/>
  </linearGradient>
  <linearGradient id="fitdance" x1="0%" x2="0%" y1="0%" y2="100%">
   <stop offset="0%" style="stop-color:#1AD6AB; stop-opacity:1"/>
   <stop offset="100%" style="stop-color:#329DB6; stop-opacity:1"/>
  </linearGradient>
  <linearGradient id="oomox" x1="0%" x2="0%" y1="0%" y2="100%">
   <stop offset="0%" style="stop-color:#efefe7; stop-opacity:1"/>
   <stop offset="100%" style="stop-color:#8f8f8b; stop-opacity:1"/>
  </linearGradient>
  <linearGradient id="rainblue" x1="0%" x2="0%" y1="0%" y2="100%">
   <stop offset="0%" style="stop-color:#00F260; stop-opacity:1"/>
   <stop offset="100%" style="stop-color:#0575E6; stop-opacity:1"/>
  </linearGradient>
  <linearGradient id="sunrise" x1="0%" x2="0%" y1="0%" y2="100%">
   <stop offset="0%" style="stop-color: #FF8501; stop-opacity:1"/>
   <stop offset="100%" style="stop-color: #FFCB01; stop-opacity:1"/>
  </linearGradient>
  <linearGradient id="telinkrin" x1="0%" x2="0%" y1="0%" y2="100%">
   <stop offset="0%" style="stop-color: #b2ced6; stop-opacity:1"/>
   <stop offset="100%" style="stop-color: #6da5b7; stop-opacity:1"/>
  </linearGradient>
  <linearGradient id="60spsycho" x1="0%" x2="0%" y1="0%" y2="100%">
   <stop offset="0%" style="stop-color: #df5940; stop-opacity:1"/>
   <stop offset="25%" style="stop-color: #d8d15f; stop-opacity:1"/>
   <stop offset="50%" style="stop-color: #e9882a; stop-opacity:1"/>
   <stop offset="100%" style="stop-color: #279362; stop-opacity:1"/>
  </linearGradient>
  <linearGradient id="90ssummer" x1="0%" x2="0%" y1="0%" y2="100%">
   <stop offset="0%" style="stop-color: #f618c7; stop-opacity:1"/>
   <stop offset="20%" style="stop-color: #94ffab; stop-opacity:1"/>
   <stop offset="50%" style="stop-color: #fbfd54; stop-opacity:1"/>
   <stop offset="100%" style="stop-color: #0f83ae; stop-opacity:1"/>
  </linearGradient>
 </defs>
 <path fill="currentColor" class="ColorScheme-Text" fill-rule="evenodd" d="M 11.335 16 L 13.079 15.96 C 13.575 15.425 13.932 14.87 14.19 14.315 C 14.447 13.76 14.586 13.165 14.646 12.511 C 14.646 12.035 14.626 11.559 14.586 11.103 C 14.546 10.647 14.467 10.211 14.308 9.814 C 14.031 9.12 13.595 8.525 12.98 8.03 C 12.366 7.514 11.85 7.138 11.394 6.9 L 11.632 6.007 L 11.81 5.948 L 11.81 5.095 L 10.066 5.095 C 9.729 5.611 9.55 6.007 9.471 6.325 L 9.411 6.305 L 7.726 6.305 C 7.369 6.325 7.032 6.364 6.715 6.463 L 6.794 4.263 L 9.53 4.144 C 10.561 4.104 11.652 3.985 12.841 3.787 L 12.841 2.855 L 9.59 3.133 C 8.678 3.212 7.786 3.271 6.874 3.311 L 6.874 0 L 4.99 0 L 4.99 2.756 C 4.99 3.053 4.97 3.271 4.95 3.39 L 4.058 3.351 L 1.481 3.351 L 1.481 4.263 L 2.869 4.322 L 4.871 4.322 L 4.792 5.353 L 4.792 7.256 C 4.633 7.336 4.395 7.475 4.098 7.673 C 3.8 7.851 3.523 8.069 3.245 8.307 C 2.73 8.763 2.313 9.259 1.996 9.814 C 1.659 10.349 1.461 10.944 1.362 11.579 C 1.342 12.035 1.362 12.511 1.421 12.967 C 1.481 13.442 1.659 13.859 1.996 14.216 C 2.254 14.473 2.571 14.612 2.908 14.691 L 4.792 14.691 C 5.188 14.612 5.525 14.513 5.823 14.374 C 5.902 14.691 6.021 15.088 6.219 15.584 L 8.063 15.584 C 7.964 14.989 7.885 14.533 7.786 14.196 C 7.686 13.859 7.607 13.542 7.548 13.204 L 7.627 13.125 C 8.361 12.372 9.015 11.599 9.55 10.746 C 10.105 9.893 10.482 9.1 10.74 8.367 L 11.315 8.803 C 11.791 9.219 12.128 9.675 12.346 10.211 C 12.584 10.746 12.703 11.301 12.742 11.916 C 12.703 12.53 12.584 13.105 12.366 13.641 C 12.147 14.176 11.81 14.711 11.335 15.247 L 11.335 16 Z M 4.812 13.244 L 3.979 13.641 C 3.919 13.641 3.84 13.581 3.761 13.482 C 3.503 13.185 3.325 12.808 3.265 12.392 C 3.245 11.916 3.325 11.46 3.523 11.063 C 3.701 10.647 3.959 10.231 4.276 9.834 C 4.574 9.437 4.772 9.18 4.871 9.041 C 4.931 9.378 4.99 9.893 5.109 10.587 C 5.208 11.281 5.327 11.955 5.486 12.61 L 5.486 12.669 L 4.812 13.244 Z M 6.973 9.893 L 6.735 8.168 L 6.755 7.911 C 6.913 7.812 7.151 7.693 7.429 7.574 C 7.726 7.455 8.023 7.375 8.321 7.316 C 8.678 7.316 8.916 7.356 9.035 7.415 C 8.836 8.05 8.539 8.704 8.123 9.418 C 7.825 9.953 7.488 10.468 7.131 10.964 C 7.111 10.726 7.052 10.369 6.973 9.893 Z"/>
</svg>
