<svg xmlns="http://www.w3.org/2000/svg" width="16" height="16" version="1.1">
 <defs>
   <style id="current-color-scheme" type="text/css">
   .ColorScheme-Text { color: #c8dff1; } .ColorScheme-Highlight { color:#5294e2; }
  </style>
  <linearGradient id="arrongin" x1="0%" x2="0%" y1="0%" y2="100%">
   <stop offset="0%" style="stop-color:#dd9b44; stop-opacity:1"/>
   <stop offset="100%" style="stop-color:#ad6c16; stop-opacity:1"/>
  </linearGradient>
  <linearGradient id="aurora" x1="0%" x2="0%" y1="0%" y2="100%">
   <stop offset="0%" style="stop-color:#09D4DF; stop-opacity:1"/>
   <stop offset="100%" style="stop-color:#9269F4; stop-opacity:1"/>
  </linearGradient>
  <linearGradient id="cyberneon" x1="0%" x2="0%" y1="0%" y2="100%">
    <stop offset="0" style="stop-color:#0abdc6; stop-opacity:1"/>
    <stop offset="1" style="stop-color:#ea00d9; stop-opacity:1"/>
  </linearGradient>
  <linearGradient id="fitdance" x1="0%" x2="0%" y1="0%" y2="100%">
   <stop offset="0%" style="stop-color:#1AD6AB; stop-opacity:1"/>
   <stop offset="100%" style="stop-color:#329DB6; stop-opacity:1"/>
  </linearGradient>
  <linearGradient id="oomox" x1="0%" x2="0%" y1="0%" y2="100%">
   <stop offset="0%" style="stop-color:#efefe7; stop-opacity:1"/>
   <stop offset="100%" style="stop-color:#8f8f8b; stop-opacity:1"/>
  </linearGradient>
  <linearGradient id="rainblue" x1="0%" x2="0%" y1="0%" y2="100%">
   <stop offset="0%" style="stop-color:#00F260; stop-opacity:1"/>
   <stop offset="100%" style="stop-color:#0575E6; stop-opacity:1"/>
  </linearGradient>
  <linearGradient id="sunrise" x1="0%" x2="0%" y1="0%" y2="100%">
   <stop offset="0%" style="stop-color: #FF8501; stop-opacity:1"/>
   <stop offset="100%" style="stop-color: #FFCB01; stop-opacity:1"/>
  </linearGradient>
  <linearGradient id="telinkrin" x1="0%" x2="0%" y1="0%" y2="100%">
   <stop offset="0%" style="stop-color: #b2ced6; stop-opacity:1"/>
   <stop offset="100%" style="stop-color: #6da5b7; stop-opacity:1"/>
  </linearGradient>
  <linearGradient id="60spsycho" x1="0%" x2="0%" y1="0%" y2="100%">
   <stop offset="0%" style="stop-color: #df5940; stop-opacity:1"/>
   <stop offset="25%" style="stop-color: #d8d15f; stop-opacity:1"/>
   <stop offset="50%" style="stop-color: #e9882a; stop-opacity:1"/>
   <stop offset="100%" style="stop-color: #279362; stop-opacity:1"/>
  </linearGradient>
  <linearGradient id="90ssummer" x1="0%" x2="0%" y1="0%" y2="100%">
   <stop offset="0%" style="stop-color: #f618c7; stop-opacity:1"/>
   <stop offset="20%" style="stop-color: #94ffab; stop-opacity:1"/>
   <stop offset="50%" style="stop-color: #fbfd54; stop-opacity:1"/>
   <stop offset="100%" style="stop-color: #0f83ae; stop-opacity:1"/>
  </linearGradient>
 </defs>
 <path fill="currentColor" class="ColorScheme-Text" fill-rule="evenodd" d="M 0.816 5.561 C 0.613 5.572 0.411 5.5 0.259 5.363 C 0.107 5.226 0.014 5.035 0.001 4.829 C -0.009 4.625 0.063 4.423 0.2 4.271 C 0.336 4.116 0.527 4.026 0.734 4.013 C 0.909 4.005 1.085 4 1.26 4 C 1.712 3.998 2.161 4.034 2.602 4.106 C 3.002 4.173 3.394 4.276 3.774 4.413 C 4.447 4.663 5.072 5.035 5.616 5.507 C 6.099 5.936 6.527 6.421 6.891 6.952 C 7.221 7.432 7.531 7.928 7.82 8.434 C 8.029 8.8 8.248 9.159 8.48 9.51 C 8.666 9.793 8.88 10.054 9.123 10.289 C 9.296 10.446 9.484 10.588 9.683 10.712 C 9.918 10.862 10.163 10.996 10.416 11.112 C 10.981 11.373 11.567 11.589 12.168 11.755 C 12.746 11.92 13.332 12.049 13.925 12.144 C 14.17 12.186 14.418 12.217 14.666 12.24 C 14.854 12.26 15.043 12.271 15.231 12.271 C 15.435 12.273 15.634 12.356 15.778 12.5 C 15.92 12.647 16.003 12.844 16 13.05 C 16 13.254 15.915 13.453 15.77 13.595 C 15.623 13.739 15.427 13.822 15.221 13.819 C 14.986 13.816 14.748 13.806 14.514 13.78 C 14.235 13.755 13.956 13.718 13.678 13.675 C 13.027 13.569 12.382 13.427 11.75 13.246 C 11.069 13.058 10.405 12.813 9.766 12.518 C 9.453 12.371 9.151 12.209 8.86 12.026 C 8.576 11.848 8.308 11.644 8.062 11.417 C 7.732 11.099 7.438 10.743 7.188 10.361 C 6.937 9.982 6.7 9.595 6.475 9.203 C 6.207 8.733 5.921 8.274 5.614 7.827 C 5.322 7.401 4.979 7.014 4.592 6.669 C 4.194 6.323 3.735 6.052 3.239 5.866 C 2.95 5.763 2.654 5.685 2.352 5.634 C 1.993 5.574 1.629 5.546 1.265 5.549 C 1.116 5.549 0.966 5.551 0.816 5.561 Z M 9.249 5.422 C 9.211 5.698 9.193 5.977 9.19 6.258 C 9.19 6.349 9.195 6.439 9.206 6.527 C 9.208 6.539 9.211 6.55 9.213 6.56 L 9.216 6.558 C 9.404 6.929 9.691 7.241 10.042 7.463 C 10.333 7.644 10.669 7.742 11.012 7.742 C 11.389 7.747 11.755 7.608 12.031 7.35 C 12.165 7.218 12.271 7.061 12.343 6.885 C 12.431 6.658 12.475 6.418 12.472 6.176 C 12.47 5.902 12.431 5.629 12.356 5.363 C 12.325 4.826 12.075 4.323 11.662 3.974 C 11.288 3.652 10.813 3.474 10.32 3.471 C 10.021 3.469 9.729 3.549 9.476 3.706 C 9.347 3.789 9.231 3.889 9.133 4.008 C 9.015 4.147 8.919 4.307 8.847 4.475 C 8.813 4.558 8.759 4.635 8.692 4.697 C 8.862 4.718 9.017 4.808 9.12 4.942 C 9.226 5.079 9.27 5.252 9.249 5.422 L 9.249 5.422 Z M 8.171 4.862 C 7.969 4.836 7.794 4.718 7.693 4.542 C 7.593 4.369 7.582 4.155 7.66 3.972 C 7.781 3.685 7.944 3.42 8.142 3.182 C 8.326 2.96 8.545 2.767 8.79 2.612 C 9.252 2.326 9.786 2.176 10.331 2.181 C 11.125 2.186 11.894 2.473 12.501 2.991 C 13.141 3.536 13.546 4.307 13.634 5.143 C 13.716 5.479 13.76 5.82 13.763 6.163 C 13.768 6.573 13.693 6.978 13.543 7.36 C 13.404 7.708 13.19 8.023 12.921 8.284 C 12.403 8.772 11.711 9.04 10.999 9.032 C 10.418 9.03 9.851 8.864 9.358 8.557 C 8.816 8.217 8.375 7.739 8.08 7.172 C 8.034 7.094 7.998 7.012 7.975 6.927 C 7.951 6.849 7.936 6.772 7.926 6.692 C 7.908 6.545 7.9 6.395 7.9 6.245 C 7.902 5.912 7.926 5.58 7.969 5.249 C 7.99 5.102 8.06 4.965 8.171 4.862 L 8.171 4.862 Z"/>
</svg>
