<svg xmlns="http://www.w3.org/2000/svg" width="16" height="16" version="1.1">
 <defs>
   <style id="current-color-scheme" type="text/css">
   .ColorScheme-Text { color: #c8dff1; } .ColorScheme-Highlight { color:#5294e2; }
  </style>
  <linearGradient id="arrongin" x1="0%" x2="0%" y1="0%" y2="100%">
   <stop offset="0%" style="stop-color:#dd9b44; stop-opacity:1"/>
   <stop offset="100%" style="stop-color:#ad6c16; stop-opacity:1"/>
  </linearGradient>
  <linearGradient id="aurora" x1="0%" x2="0%" y1="0%" y2="100%">
   <stop offset="0%" style="stop-color:#09D4DF; stop-opacity:1"/>
   <stop offset="100%" style="stop-color:#9269F4; stop-opacity:1"/>
  </linearGradient>
  <linearGradient id="cyberneon" x1="0%" x2="0%" y1="0%" y2="100%">
    <stop offset="0" style="stop-color:#0abdc6; stop-opacity:1"/>
    <stop offset="1" style="stop-color:#ea00d9; stop-opacity:1"/>
  </linearGradient>
  <linearGradient id="fitdance" x1="0%" x2="0%" y1="0%" y2="100%">
   <stop offset="0%" style="stop-color:#1AD6AB; stop-opacity:1"/>
   <stop offset="100%" style="stop-color:#329DB6; stop-opacity:1"/>
  </linearGradient>
  <linearGradient id="oomox" x1="0%" x2="0%" y1="0%" y2="100%">
   <stop offset="0%" style="stop-color:#efefe7; stop-opacity:1"/>
   <stop offset="100%" style="stop-color:#8f8f8b; stop-opacity:1"/>
  </linearGradient>
  <linearGradient id="rainblue" x1="0%" x2="0%" y1="0%" y2="100%">
   <stop offset="0%" style="stop-color:#00F260; stop-opacity:1"/>
   <stop offset="100%" style="stop-color:#0575E6; stop-opacity:1"/>
  </linearGradient>
  <linearGradient id="sunrise" x1="0%" x2="0%" y1="0%" y2="100%">
   <stop offset="0%" style="stop-color: #FF8501; stop-opacity:1"/>
   <stop offset="100%" style="stop-color: #FFCB01; stop-opacity:1"/>
  </linearGradient>
  <linearGradient id="telinkrin" x1="0%" x2="0%" y1="0%" y2="100%">
   <stop offset="0%" style="stop-color: #b2ced6; stop-opacity:1"/>
   <stop offset="100%" style="stop-color: #6da5b7; stop-opacity:1"/>
  </linearGradient>
  <linearGradient id="60spsycho" x1="0%" x2="0%" y1="0%" y2="100%">
   <stop offset="0%" style="stop-color: #df5940; stop-opacity:1"/>
   <stop offset="25%" style="stop-color: #d8d15f; stop-opacity:1"/>
   <stop offset="50%" style="stop-color: #e9882a; stop-opacity:1"/>
   <stop offset="100%" style="stop-color: #279362; stop-opacity:1"/>
  </linearGradient>
  <linearGradient id="90ssummer" x1="0%" x2="0%" y1="0%" y2="100%">
   <stop offset="0%" style="stop-color: #f618c7; stop-opacity:1"/>
   <stop offset="20%" style="stop-color: #94ffab; stop-opacity:1"/>
   <stop offset="50%" style="stop-color: #fbfd54; stop-opacity:1"/>
   <stop offset="100%" style="stop-color: #0f83ae; stop-opacity:1"/>
  </linearGradient>
 </defs>
 <path fill="currentColor" class="ColorScheme-Text" d="M 8.594 0 L 8.6 7.397 L 8.61 15.533 L 10.796 15.533 L 10.802 13.394 C 10.806 11.7 10.811 11.256 10.831 11.263 C 10.844 11.268 11.267 11.917 11.7 12.704 C 12.134 13.491 12.545 14.223 12.612 14.333 C 12.75 14.559 13.02 14.871 13.196 15.005 C 13.565 15.287 13.948 15.431 14.541 15.512 C 14.859 15.555 15.932 15.57 15.965 15.532 C 15.979 15.515 15.984 15.128 15.981 14.305 L 15.975 12.969 L 15.579 12.954 C 14.887 12.962 14.563 12.781 14.175 12.274 C 14.115 12.176 13.808 11.623 13.494 11.046 C 12.941 10.029 12.925 9.995 12.955 9.942 C 12.971 9.913 13.661 8.803 14.487 7.476 C 15.312 6.149 15.994 5.218 16 5.201 C 16.008 5.174 15.797 5.185 14.67 5.185 L 13.328 5.185 L 12.12 6.942 C 11.455 8.01 10.842 8.887 10.829 8.892 C 10.808 8.9 10.808 2.711 10.819 0.01 C 10.747 0.01 10.736 0.001 10.665 0.001 L 8.594 0.001 L 8.594 0 Z M 3.599 5.185 C 3.323 5.187 3.052 5.2 2.922 5.225 C 1.855 5.428 1.136 6.002 0.727 6.921 C 0.598 7.212 0.518 7.494 0.468 7.836 C 0.435 8.065 0.432 8.163 0.441 8.534 C 0.448 8.836 0.461 9.028 0.487 9.176 C 0.666 10.187 1.142 10.828 2.034 11.162 C 2.322 11.27 2.502 11.311 3.272 11.44 C 3.701 11.511 4.027 11.575 4.095 11.603 C 4.39 11.724 4.527 11.942 4.553 12.324 C 4.584 12.794 4.355 13.116 3.893 13.25 C 3.708 13.303 3.369 13.333 3.131 13.318 C 2.347 13.266 1.836 13.073 1.393 12.661 L 1.341 12.611 L 0.671 13.395 C 0.302 13.826 0 14.198 0 14.218 C 0 14.271 0.31 14.582 0.547 14.768 C 1.146 15.238 1.781 15.46 2.789 15.548 C 3.001 15.566 3.781 15.539 3.962 15.507 C 5.318 15.27 6.328 14.459 6.635 13.252 C 6.777 12.691 6.774 11.844 6.627 11.215 C 6.52 10.754 6.38 10.465 6.108 10.144 C 5.824 9.81 5.505 9.637 5.076 9.469 C 4.787 9.356 4.359 9.301 3.586 9.176 C 2.763 9.04 2.665 9.006 2.477 8.801 C 2.264 8.568 2.227 8.259 2.37 7.919 C 2.471 7.68 2.676 7.544 2.973 7.449 C 3.128 7.4 3.932 7.395 4.179 7.44 C 4.511 7.502 4.823 7.616 5.044 7.826 C 5.109 7.887 5.173 7.937 5.186 7.937 C 5.223 7.937 6.507 6.428 6.507 6.385 C 6.507 6.335 6.259 6.089 6.018 5.9 C 5.554 5.536 5.001 5.313 4.313 5.213 C 4.159 5.191 3.876 5.182 3.6 5.184 L 3.599 5.185 Z"/>
</svg>
