<svg xmlns="http://www.w3.org/2000/svg" width="16" height="16" version="1.1">
 <defs>
   <style id="current-color-scheme" type="text/css">
   .ColorScheme-Text { color: #c8dff1; } .ColorScheme-Highlight { color:#5294e2; }
  </style>
  <linearGradient id="arrongin" x1="0%" x2="0%" y1="0%" y2="100%">
   <stop offset="0%" style="stop-color:#dd9b44; stop-opacity:1"/>
   <stop offset="100%" style="stop-color:#ad6c16; stop-opacity:1"/>
  </linearGradient>
  <linearGradient id="aurora" x1="0%" x2="0%" y1="0%" y2="100%">
   <stop offset="0%" style="stop-color:#09D4DF; stop-opacity:1"/>
   <stop offset="100%" style="stop-color:#9269F4; stop-opacity:1"/>
  </linearGradient>
  <linearGradient id="cyberneon" x1="0%" x2="0%" y1="0%" y2="100%">
    <stop offset="0" style="stop-color:#0abdc6; stop-opacity:1"/>
    <stop offset="1" style="stop-color:#ea00d9; stop-opacity:1"/>
  </linearGradient>
  <linearGradient id="fitdance" x1="0%" x2="0%" y1="0%" y2="100%">
   <stop offset="0%" style="stop-color:#1AD6AB; stop-opacity:1"/>
   <stop offset="100%" style="stop-color:#329DB6; stop-opacity:1"/>
  </linearGradient>
  <linearGradient id="oomox" x1="0%" x2="0%" y1="0%" y2="100%">
   <stop offset="0%" style="stop-color:#efefe7; stop-opacity:1"/>
   <stop offset="100%" style="stop-color:#8f8f8b; stop-opacity:1"/>
  </linearGradient>
  <linearGradient id="rainblue" x1="0%" x2="0%" y1="0%" y2="100%">
   <stop offset="0%" style="stop-color:#00F260; stop-opacity:1"/>
   <stop offset="100%" style="stop-color:#0575E6; stop-opacity:1"/>
  </linearGradient>
  <linearGradient id="sunrise" x1="0%" x2="0%" y1="0%" y2="100%">
   <stop offset="0%" style="stop-color: #FF8501; stop-opacity:1"/>
   <stop offset="100%" style="stop-color: #FFCB01; stop-opacity:1"/>
  </linearGradient>
  <linearGradient id="telinkrin" x1="0%" x2="0%" y1="0%" y2="100%">
   <stop offset="0%" style="stop-color: #b2ced6; stop-opacity:1"/>
   <stop offset="100%" style="stop-color: #6da5b7; stop-opacity:1"/>
  </linearGradient>
  <linearGradient id="60spsycho" x1="0%" x2="0%" y1="0%" y2="100%">
   <stop offset="0%" style="stop-color: #df5940; stop-opacity:1"/>
   <stop offset="25%" style="stop-color: #d8d15f; stop-opacity:1"/>
   <stop offset="50%" style="stop-color: #e9882a; stop-opacity:1"/>
   <stop offset="100%" style="stop-color: #279362; stop-opacity:1"/>
  </linearGradient>
  <linearGradient id="90ssummer" x1="0%" x2="0%" y1="0%" y2="100%">
   <stop offset="0%" style="stop-color: #f618c7; stop-opacity:1"/>
   <stop offset="20%" style="stop-color: #94ffab; stop-opacity:1"/>
   <stop offset="50%" style="stop-color: #fbfd54; stop-opacity:1"/>
   <stop offset="100%" style="stop-color: #0f83ae; stop-opacity:1"/>
  </linearGradient>
 </defs>
 <path fill="currentColor" class="ColorScheme-Text" d="M 11.575 0.345 C 11.254 0.36 10.962 0.537 10.802 0.816 C 10.677 1.033 10.642 1.29 10.707 1.532 C 10.772 1.774 10.93 1.98 11.147 2.106 C 11.364 2.231 11.622 2.265 11.864 2.2 C 12.105 2.135 12.312 1.977 12.437 1.76 C 12.562 1.543 12.596 1.286 12.531 1.044 C 12.467 0.802 12.308 0.596 12.091 0.471 C 11.935 0.38 11.755 0.336 11.575 0.345 L 11.575 0.345 Z M 5.501 1.82 C 5.343 1.82 5.191 1.883 5.079 1.995 C 4.967 2.107 4.905 2.258 4.905 2.416 C 4.905 2.745 5.172 3.011 5.501 3.011 C 5.829 3.011 6.095 2.744 6.095 2.416 C 6.095 2.088 5.829 1.821 5.501 1.82 L 5.501 1.82 Z M 7 1.972 C 6.862 1.972 6.729 2.027 6.632 2.124 C 6.534 2.222 6.479 2.354 6.48 2.492 C 6.48 2.779 6.713 3.011 7 3.011 C 7.286 3.011 7.518 2.778 7.519 2.492 C 7.519 2.205 7.287 1.972 7 1.972 L 7 1.972 Z M 3.759 2.032 C 3.573 2.032 3.394 2.106 3.263 2.237 C 3.131 2.369 3.057 2.548 3.057 2.734 C 3.057 2.92 3.131 3.098 3.263 3.23 C 3.394 3.361 3.573 3.435 3.759 3.435 C 3.945 3.435 4.123 3.361 4.255 3.23 C 4.387 3.098 4.46 2.92 4.46 2.734 C 4.46 2.548 4.387 2.369 4.255 2.237 C 4.123 2.106 3.945 2.032 3.759 2.032 L 3.759 2.032 Z M 8.234 2.396 C 7.984 2.396 7.782 2.598 7.782 2.847 C 7.781 2.967 7.829 3.082 7.914 3.167 C 7.999 3.252 8.114 3.3 8.234 3.299 C 8.483 3.299 8.685 3.097 8.685 2.847 C 8.684 2.598 8.483 2.397 8.234 2.396 L 8.234 2.396 Z M 11.835 2.886 C 11.561 2.899 11.311 3.051 11.174 3.289 C 10.951 3.676 11.084 4.169 11.47 4.392 C 11.856 4.615 12.349 4.483 12.573 4.097 C 12.68 3.911 12.709 3.691 12.654 3.484 C 12.598 3.277 12.463 3.1 12.278 2.993 C 12.143 2.916 11.99 2.879 11.835 2.886 Z M 9.173 2.971 C 9.069 2.971 8.969 3.012 8.895 3.085 C 8.822 3.158 8.78 3.258 8.78 3.362 C 8.78 3.466 8.821 3.566 8.895 3.639 C 8.969 3.713 9.068 3.754 9.173 3.754 C 9.276 3.754 9.376 3.712 9.449 3.639 C 9.523 3.565 9.564 3.466 9.563 3.362 C 9.563 3.146 9.388 2.971 9.173 2.971 Z M 13.888 3.176 C 13.614 3.189 13.365 3.341 13.227 3.579 C 13.005 3.965 13.137 4.458 13.523 4.682 C 13.708 4.789 13.929 4.818 14.136 4.763 C 14.343 4.707 14.519 4.572 14.626 4.386 C 14.849 4 14.716 3.507 14.33 3.284 C 14.196 3.206 14.043 3.169 13.888 3.176 Z M 5.772 3.547 C 5.444 3.547 5.177 3.814 5.178 4.143 C 5.178 4.471 5.444 4.737 5.772 4.737 C 6.101 4.737 6.368 4.471 6.368 4.143 C 6.368 3.984 6.306 3.833 6.194 3.721 C 6.082 3.609 5.93 3.547 5.772 3.547 L 5.772 3.547 Z M 9.869 3.653 C 9.781 3.652 9.697 3.687 9.635 3.749 C 9.573 3.811 9.538 3.895 9.538 3.983 C 9.538 4.071 9.573 4.155 9.635 4.217 C 9.697 4.279 9.781 4.314 9.869 4.314 C 9.956 4.314 10.041 4.279 10.103 4.217 C 10.165 4.155 10.199 4.071 10.199 3.983 C 10.199 3.895 10.165 3.811 10.103 3.749 C 10.041 3.687 9.956 3.652 9.869 3.653 L 9.869 3.653 Z M 7.271 3.698 C 6.985 3.699 6.752 3.931 6.752 4.218 C 6.753 4.505 6.985 4.737 7.271 4.737 C 7.558 4.737 7.791 4.505 7.791 4.218 C 7.792 4.08 7.737 3.948 7.639 3.85 C 7.542 3.753 7.409 3.698 7.271 3.698 L 7.271 3.698 Z M 4.032 3.758 C 3.846 3.758 3.667 3.832 3.535 3.964 C 3.404 4.095 3.33 4.274 3.33 4.46 C 3.33 4.646 3.404 4.824 3.535 4.956 C 3.667 5.088 3.846 5.162 4.032 5.162 C 4.218 5.162 4.396 5.088 4.528 4.956 C 4.659 4.824 4.733 4.646 4.733 4.46 C 4.733 4.274 4.659 4.095 4.528 3.964 C 4.396 3.832 4.218 3.758 4.032 3.758 L 4.032 3.758 Z M 8.505 4.122 C 8.256 4.123 8.055 4.325 8.054 4.574 C 8.054 4.823 8.256 5.025 8.505 5.026 C 8.625 5.026 8.74 4.978 8.825 4.893 C 8.91 4.809 8.958 4.693 8.958 4.574 C 8.957 4.324 8.755 4.122 8.505 4.122 L 8.505 4.122 Z M 2.124 4.455 C 1.678 4.455 1.316 4.817 1.316 5.263 C 1.316 5.709 1.678 6.07 2.124 6.07 C 2.57 6.07 2.931 5.709 2.931 5.263 C 2.931 4.817 2.57 4.455 2.124 4.455 L 2.124 4.455 Z M 9.444 4.697 C 9.228 4.697 9.053 4.872 9.053 5.088 C 9.053 5.304 9.228 5.479 9.444 5.479 C 9.66 5.479 9.835 5.304 9.835 5.088 C 9.835 4.872 9.66 4.697 9.444 4.697 L 9.444 4.697 Z M 11.581 5.046 C 11.343 5.057 11.126 5.189 11.007 5.395 C 10.914 5.557 10.888 5.748 10.937 5.928 C 10.985 6.108 11.103 6.261 11.264 6.354 C 11.6 6.548 12.028 6.432 12.222 6.097 C 12.415 5.762 12.301 5.333 11.966 5.139 C 11.849 5.072 11.716 5.039 11.581 5.046 Z M 13.634 5.335 C 13.396 5.347 13.18 5.478 13.06 5.685 C 12.967 5.846 12.942 6.038 12.99 6.217 C 13.038 6.397 13.155 6.551 13.317 6.644 C 13.478 6.737 13.67 6.762 13.849 6.714 C 14.029 6.666 14.183 6.548 14.276 6.387 C 14.469 6.051 14.354 5.622 14.018 5.429 C 13.902 5.361 13.768 5.329 13.634 5.335 Z M 6.549 5.47 C 6.22 5.47 5.953 5.736 5.953 6.065 C 5.953 6.223 6.015 6.374 6.127 6.486 C 6.239 6.598 6.391 6.661 6.549 6.661 C 6.707 6.661 6.858 6.598 6.97 6.486 C 7.082 6.374 7.145 6.223 7.144 6.065 C 7.144 5.736 6.877 5.47 6.549 5.47 L 6.549 5.47 Z M 8.048 5.62 C 7.91 5.62 7.777 5.675 7.68 5.773 C 7.582 5.87 7.528 6.003 7.528 6.14 C 7.528 6.278 7.582 6.411 7.68 6.508 C 7.777 6.606 7.91 6.661 8.048 6.661 C 8.335 6.66 8.567 6.427 8.567 6.14 C 8.567 5.854 8.335 5.621 8.048 5.62 L 8.048 5.62 Z M 4.807 5.682 C 4.621 5.682 4.442 5.756 4.311 5.887 C 4.179 6.019 4.105 6.197 4.105 6.383 C 4.105 6.569 4.179 6.748 4.311 6.879 C 4.442 7.011 4.621 7.085 4.807 7.085 C 4.993 7.085 5.171 7.011 5.303 6.879 C 5.434 6.748 5.508 6.569 5.508 6.383 C 5.508 6.197 5.434 6.019 5.303 5.887 C 5.171 5.756 4.993 5.682 4.807 5.682 L 4.807 5.682 Z M 15.266 5.962 C 15.027 5.973 14.81 6.105 14.691 6.312 C 14.598 6.473 14.572 6.665 14.621 6.845 C 14.669 7.025 14.787 7.178 14.948 7.271 C 15.284 7.464 15.712 7.349 15.906 7.014 C 16.099 6.678 15.985 6.25 15.65 6.056 C 15.533 5.989 15.4 5.956 15.266 5.962 Z M 9.282 6.045 C 9.162 6.045 9.047 6.092 8.962 6.177 C 8.877 6.262 8.829 6.377 8.829 6.497 C 8.83 6.746 9.032 6.948 9.282 6.948 C 9.531 6.948 9.732 6.746 9.733 6.497 C 9.733 6.247 9.531 6.045 9.282 6.045 L 9.282 6.045 Z M 2.899 6.378 C 2.453 6.378 2.092 6.739 2.092 7.185 C 2.092 7.631 2.453 7.993 2.899 7.993 C 3.345 7.993 3.706 7.631 3.706 7.185 C 3.706 6.739 3.345 6.378 2.899 6.378 L 2.899 6.378 Z M 10.991 6.819 C 10.789 6.828 10.605 6.94 10.503 7.116 C 10.339 7.401 10.437 7.765 10.722 7.929 C 11.006 8.093 11.37 7.995 11.535 7.711 C 11.699 7.426 11.602 7.062 11.318 6.898 C 11.219 6.841 11.105 6.813 10.991 6.819 Z M 13.044 7.108 C 12.841 7.118 12.658 7.23 12.557 7.406 C 12.393 7.69 12.49 8.054 12.774 8.219 C 12.911 8.298 13.074 8.319 13.226 8.278 C 13.379 8.237 13.509 8.137 13.588 8 C 13.752 7.716 13.655 7.352 13.37 7.187 C 13.271 7.13 13.158 7.103 13.044 7.108 Z M 6.624 7.581 C 6.548 7.582 6.474 7.604 6.408 7.642 C 6.192 7.767 6.119 8.043 6.243 8.259 C 6.368 8.475 6.645 8.548 6.86 8.424 C 7.076 8.299 7.15 8.022 7.025 7.807 C 6.943 7.664 6.789 7.577 6.624 7.581 Z M 0.943 7.664 C 0.693 7.664 0.453 7.764 0.276 7.941 C 0.099 8.118 0 8.358 0 8.608 C 0 9.129 0.422 9.552 0.943 9.552 C 1.194 9.552 1.434 9.453 1.611 9.276 C 1.788 9.099 1.888 8.859 1.888 8.608 C 1.888 8.358 1.788 8.118 1.611 7.94 C 1.434 7.763 1.194 7.664 0.943 7.664 L 0.943 7.664 Z M 14.675 7.735 C 14.473 7.745 14.289 7.857 14.187 8.033 C 14.023 8.317 14.121 8.681 14.406 8.846 C 14.691 9.01 15.054 8.912 15.219 8.627 C 15.383 8.343 15.286 7.979 15.002 7.814 C 14.903 7.757 14.789 7.73 14.675 7.735 Z M 10.179 8.154 C 10.003 8.163 9.842 8.26 9.754 8.414 C 9.685 8.533 9.666 8.675 9.702 8.808 C 9.737 8.942 9.825 9.055 9.944 9.124 C 10.064 9.193 10.206 9.212 10.339 9.176 C 10.472 9.141 10.586 9.053 10.655 8.934 C 10.724 8.814 10.743 8.672 10.707 8.539 C 10.671 8.406 10.584 8.292 10.464 8.223 C 10.378 8.173 10.279 8.149 10.179 8.154 Z M 5.325 8.204 C 5.259 8.206 5.194 8.224 5.138 8.257 C 5.048 8.309 4.982 8.394 4.955 8.494 C 4.929 8.595 4.943 8.701 4.995 8.791 C 5.047 8.881 5.132 8.946 5.233 8.973 C 5.333 9 5.44 8.986 5.53 8.934 C 5.716 8.825 5.78 8.587 5.672 8.4 C 5.601 8.276 5.468 8.201 5.325 8.204 L 5.325 8.204 Z M 12.233 8.445 C 12.056 8.453 11.896 8.55 11.808 8.703 C 11.738 8.822 11.72 8.964 11.755 9.098 C 11.79 9.231 11.878 9.345 11.997 9.414 C 12.116 9.483 12.258 9.501 12.392 9.466 C 12.525 9.43 12.638 9.343 12.707 9.223 C 12.85 8.975 12.765 8.657 12.517 8.514 C 12.431 8.464 12.332 8.44 12.233 8.445 Z M 4.156 8.45 C 4.101 8.452 4.047 8.467 3.999 8.495 C 3.841 8.586 3.787 8.788 3.878 8.946 C 3.922 9.022 3.994 9.078 4.079 9.1 C 4.164 9.123 4.254 9.111 4.33 9.067 C 4.406 9.023 4.461 8.951 4.484 8.866 C 4.507 8.781 4.494 8.691 4.45 8.615 C 4.39 8.511 4.277 8.447 4.156 8.45 L 4.156 8.45 Z M 6.932 8.76 C 6.844 8.762 6.759 8.785 6.683 8.829 C 6.564 8.898 6.477 9.012 6.441 9.145 C 6.405 9.278 6.424 9.42 6.493 9.54 C 6.562 9.659 6.676 9.746 6.809 9.781 C 6.942 9.817 7.084 9.798 7.203 9.729 C 7.452 9.585 7.537 9.268 7.394 9.019 C 7.299 8.855 7.122 8.755 6.932 8.76 Z M 13.863 9.072 C 13.687 9.08 13.527 9.177 13.438 9.33 C 13.369 9.45 13.35 9.592 13.386 9.725 C 13.422 9.858 13.509 9.972 13.628 10.041 C 13.748 10.11 13.89 10.128 14.023 10.093 C 14.156 10.057 14.27 9.97 14.339 9.85 C 14.482 9.602 14.397 9.284 14.149 9.141 C 14.062 9.091 13.963 9.067 13.863 9.072 Z M 9.257 9.113 C 9.103 9.12 8.964 9.206 8.887 9.339 C 8.828 9.443 8.811 9.566 8.842 9.682 C 8.874 9.798 8.95 9.896 9.053 9.956 C 9.157 10.016 9.28 10.032 9.396 10.001 C 9.512 9.97 9.61 9.894 9.67 9.79 C 9.73 9.686 9.746 9.563 9.715 9.447 C 9.684 9.332 9.608 9.233 9.504 9.173 C 9.429 9.13 9.344 9.109 9.257 9.113 Z M 5.347 9.214 C 5.271 9.216 5.197 9.237 5.131 9.274 C 4.915 9.399 4.841 9.676 4.966 9.891 C 5.091 10.107 5.367 10.181 5.583 10.056 C 5.799 9.931 5.873 9.655 5.748 9.439 C 5.665 9.297 5.512 9.211 5.347 9.214 Z M 3.966 9.303 C 3.9 9.305 3.837 9.323 3.78 9.356 C 3.69 9.408 3.624 9.493 3.597 9.593 C 3.57 9.694 3.584 9.8 3.636 9.89 C 3.688 9.98 3.774 10.046 3.874 10.072 C 3.974 10.099 4.081 10.085 4.171 10.033 C 4.261 9.981 4.326 9.895 4.353 9.795 C 4.38 9.695 4.365 9.588 4.313 9.498 C 4.242 9.375 4.109 9.3 3.966 9.303 L 3.966 9.303 Z M 11.311 9.402 C 11.157 9.41 11.018 9.495 10.941 9.629 C 10.816 9.845 10.89 10.121 11.106 10.246 C 11.21 10.305 11.333 10.322 11.449 10.29 C 11.564 10.259 11.663 10.183 11.723 10.08 C 11.848 9.864 11.774 9.588 11.558 9.463 C 11.483 9.419 11.397 9.398 11.311 9.402 Z M 7.613 10.02 C 7.513 10.022 7.416 10.05 7.329 10.1 C 7.045 10.264 6.948 10.628 7.112 10.913 C 7.276 11.197 7.64 11.295 7.925 11.131 C 8.062 11.052 8.162 10.922 8.203 10.769 C 8.244 10.616 8.223 10.454 8.143 10.317 C 8.034 10.128 7.831 10.014 7.613 10.02 Z M 10.399 10.02 C 10.265 10.026 10.145 10.099 10.078 10.214 C 10.026 10.304 10.012 10.411 10.039 10.511 C 10.066 10.612 10.132 10.697 10.222 10.749 C 10.409 10.856 10.647 10.792 10.755 10.605 C 10.807 10.516 10.821 10.409 10.795 10.309 C 10.768 10.208 10.702 10.123 10.613 10.071 C 10.548 10.034 10.473 10.016 10.399 10.02 L 10.399 10.02 Z M 12.942 10.03 C 12.788 10.037 12.648 10.122 12.571 10.256 C 12.512 10.359 12.496 10.483 12.527 10.598 C 12.558 10.714 12.634 10.813 12.737 10.873 C 12.841 10.932 12.965 10.949 13.08 10.918 C 13.196 10.886 13.295 10.81 13.354 10.707 C 13.414 10.603 13.43 10.48 13.399 10.364 C 13.368 10.248 13.292 10.149 13.189 10.09 C 13.114 10.047 13.029 10.026 12.942 10.03 Z M 3.988 10.313 C 3.913 10.315 3.839 10.336 3.773 10.374 C 3.669 10.433 3.594 10.532 3.562 10.648 C 3.531 10.763 3.547 10.887 3.607 10.991 C 3.732 11.206 4.008 11.28 4.224 11.156 C 4.328 11.096 4.404 10.997 4.435 10.881 C 4.466 10.766 4.45 10.642 4.39 10.538 C 4.307 10.396 4.153 10.309 3.988 10.313 Z M 5.653 10.393 C 5.566 10.395 5.481 10.418 5.406 10.462 C 5.286 10.531 5.199 10.644 5.163 10.777 C 5.128 10.911 5.146 11.053 5.215 11.172 C 5.284 11.292 5.398 11.379 5.531 11.415 C 5.665 11.45 5.807 11.432 5.926 11.363 C 6.046 11.294 6.133 11.18 6.169 11.047 C 6.204 10.914 6.185 10.772 6.117 10.652 C 6.021 10.487 5.843 10.388 5.653 10.393 Z M 12.029 10.646 C 11.896 10.653 11.776 10.726 11.709 10.841 C 11.657 10.931 11.643 11.038 11.67 11.138 C 11.697 11.238 11.762 11.324 11.852 11.376 C 11.942 11.428 12.049 11.442 12.149 11.415 C 12.249 11.388 12.335 11.322 12.387 11.232 C 12.439 11.142 12.453 11.036 12.426 10.935 C 12.399 10.835 12.334 10.75 12.244 10.698 C 12.179 10.66 12.104 10.643 12.029 10.646 L 12.029 10.646 Z M 11.146 11 C 11.034 11.005 10.932 11.067 10.875 11.164 C 10.784 11.322 10.839 11.524 10.997 11.615 C 11.073 11.66 11.163 11.672 11.248 11.649 C 11.333 11.626 11.405 11.571 11.449 11.495 C 11.493 11.419 11.505 11.329 11.482 11.244 C 11.459 11.159 11.404 11.087 11.328 11.043 C 11.272 11.011 11.209 10.996 11.146 11 L 11.146 11 Z M 8.757 11.262 C 8.64 11.265 8.525 11.298 8.423 11.357 C 8.088 11.551 7.972 11.979 8.166 12.315 C 8.259 12.476 8.412 12.594 8.592 12.642 C 8.772 12.691 8.963 12.665 9.125 12.572 C 9.286 12.479 9.403 12.326 9.451 12.146 C 9.499 11.966 9.474 11.774 9.381 11.613 C 9.253 11.391 9.014 11.257 8.757 11.262 Z M 4.296 11.492 C 4.208 11.494 4.123 11.517 4.047 11.561 C 3.928 11.63 3.84 11.743 3.805 11.877 C 3.769 12.01 3.788 12.152 3.857 12.271 C 3.926 12.391 4.039 12.478 4.173 12.514 C 4.306 12.55 4.448 12.531 4.567 12.462 C 4.687 12.393 4.774 12.279 4.81 12.146 C 4.846 12.013 4.827 11.871 4.758 11.751 C 4.663 11.587 4.486 11.487 4.296 11.492 Z M 6.336 11.653 C 6.236 11.655 6.138 11.683 6.052 11.732 C 5.915 11.812 5.815 11.942 5.775 12.094 C 5.734 12.247 5.755 12.41 5.835 12.547 C 5.999 12.831 6.363 12.928 6.648 12.764 C 6.932 12.599 7.03 12.235 6.866 11.951 C 6.757 11.762 6.554 11.648 6.336 11.653 Z M 10.403 12.407 C 10.268 12.411 10.136 12.448 10.019 12.515 C 9.833 12.622 9.698 12.799 9.642 13.006 C 9.586 13.213 9.615 13.433 9.723 13.619 C 9.83 13.805 10.006 13.94 10.213 13.995 C 10.42 14.051 10.641 14.022 10.826 13.914 C 11.212 13.691 11.344 13.198 11.121 12.812 C 10.974 12.556 10.698 12.401 10.403 12.407 Z M 4.977 12.751 C 4.877 12.754 4.78 12.781 4.693 12.832 C 4.409 12.996 4.312 13.36 4.476 13.645 C 4.64 13.929 5.004 14.027 5.289 13.863 C 5.574 13.699 5.671 13.335 5.507 13.05 C 5.399 12.861 5.195 12.746 4.977 12.751 Z M 7.48 12.896 C 7.362 12.899 7.247 12.931 7.145 12.99 C 6.81 13.183 6.695 13.612 6.888 13.948 C 6.981 14.109 7.135 14.227 7.314 14.275 C 7.494 14.323 7.686 14.298 7.847 14.205 C 8.008 14.112 8.126 13.958 8.174 13.778 C 8.222 13.599 8.197 13.407 8.103 13.246 C 7.975 13.024 7.736 12.89 7.48 12.896 L 7.48 12.896 Z M 12.609 13.254 C 12.452 13.258 12.297 13.302 12.161 13.381 C 11.71 13.641 11.555 14.218 11.815 14.669 C 12.076 15.12 12.653 15.275 13.104 15.014 C 13.555 14.754 13.709 14.177 13.449 13.726 C 13.277 13.427 12.955 13.246 12.609 13.254 Z M 6.121 13.995 C 6.004 13.998 5.889 14.03 5.787 14.089 C 5.451 14.282 5.336 14.711 5.53 15.047 C 5.623 15.208 5.776 15.326 5.956 15.374 C 6.136 15.422 6.327 15.397 6.489 15.304 C 6.65 15.211 6.767 15.058 6.815 14.878 C 6.863 14.698 6.838 14.506 6.745 14.345 C 6.616 14.123 6.377 13.989 6.121 13.995 Z M 9.126 14.041 C 8.991 14.044 8.858 14.082 8.742 14.149 C 8.355 14.372 8.223 14.865 8.445 15.252 C 8.552 15.437 8.729 15.573 8.936 15.629 C 9.143 15.684 9.363 15.655 9.549 15.548 C 9.735 15.441 9.87 15.264 9.925 15.057 C 9.981 14.85 9.951 14.63 9.844 14.444 C 9.696 14.189 9.421 14.034 9.126 14.041 Z"/>
</svg>
