<svg xmlns="http://www.w3.org/2000/svg" width="16" height="16" version="1.1">
 <defs>
   <style id="current-color-scheme" type="text/css">
   .ColorScheme-Text { color: #c8dff1; } .ColorScheme-Highlight { color:#5294e2; }
  </style>
  <linearGradient id="arrongin" x1="0%" x2="0%" y1="0%" y2="100%">
   <stop offset="0%" style="stop-color:#dd9b44; stop-opacity:1"/>
   <stop offset="100%" style="stop-color:#ad6c16; stop-opacity:1"/>
  </linearGradient>
  <linearGradient id="aurora" x1="0%" x2="0%" y1="0%" y2="100%">
   <stop offset="0%" style="stop-color:#09D4DF; stop-opacity:1"/>
   <stop offset="100%" style="stop-color:#9269F4; stop-opacity:1"/>
  </linearGradient>
  <linearGradient id="cyberneon" x1="0%" x2="0%" y1="0%" y2="100%">
    <stop offset="0" style="stop-color:#0abdc6; stop-opacity:1"/>
    <stop offset="1" style="stop-color:#ea00d9; stop-opacity:1"/>
  </linearGradient>
  <linearGradient id="fitdance" x1="0%" x2="0%" y1="0%" y2="100%">
   <stop offset="0%" style="stop-color:#1AD6AB; stop-opacity:1"/>
   <stop offset="100%" style="stop-color:#329DB6; stop-opacity:1"/>
  </linearGradient>
  <linearGradient id="oomox" x1="0%" x2="0%" y1="0%" y2="100%">
   <stop offset="0%" style="stop-color:#efefe7; stop-opacity:1"/>
   <stop offset="100%" style="stop-color:#8f8f8b; stop-opacity:1"/>
  </linearGradient>
  <linearGradient id="rainblue" x1="0%" x2="0%" y1="0%" y2="100%">
   <stop offset="0%" style="stop-color:#00F260; stop-opacity:1"/>
   <stop offset="100%" style="stop-color:#0575E6; stop-opacity:1"/>
  </linearGradient>
  <linearGradient id="sunrise" x1="0%" x2="0%" y1="0%" y2="100%">
   <stop offset="0%" style="stop-color: #FF8501; stop-opacity:1"/>
   <stop offset="100%" style="stop-color: #FFCB01; stop-opacity:1"/>
  </linearGradient>
  <linearGradient id="telinkrin" x1="0%" x2="0%" y1="0%" y2="100%">
   <stop offset="0%" style="stop-color: #b2ced6; stop-opacity:1"/>
   <stop offset="100%" style="stop-color: #6da5b7; stop-opacity:1"/>
  </linearGradient>
  <linearGradient id="60spsycho" x1="0%" x2="0%" y1="0%" y2="100%">
   <stop offset="0%" style="stop-color: #df5940; stop-opacity:1"/>
   <stop offset="25%" style="stop-color: #d8d15f; stop-opacity:1"/>
   <stop offset="50%" style="stop-color: #e9882a; stop-opacity:1"/>
   <stop offset="100%" style="stop-color: #279362; stop-opacity:1"/>
  </linearGradient>
  <linearGradient id="90ssummer" x1="0%" x2="0%" y1="0%" y2="100%">
   <stop offset="0%" style="stop-color: #f618c7; stop-opacity:1"/>
   <stop offset="20%" style="stop-color: #94ffab; stop-opacity:1"/>
   <stop offset="50%" style="stop-color: #fbfd54; stop-opacity:1"/>
   <stop offset="100%" style="stop-color: #0f83ae; stop-opacity:1"/>
  </linearGradient>
 </defs>
 <path fill="currentColor" class="ColorScheme-Text" d="M 7.826 0 C 6.215 0 5.398 1.167 5.398 3.469 L 5.398 5.203 C 5.398 5.332 5.363 5.485 5.302 5.608 C 5.282 5.651 5.184 5.789 5.098 5.909 C 4.615 6.584 3.549 8.449 3.351 10.476 C 3.428 10.461 3.507 10.45 3.595 10.45 C 3.807 10.45 4.368 10.45 5.263 11.925 C 5.434 12.17 5.523 12.321 5.646 12.527 C 5.729 12.668 5.83 12.84 5.993 13.099 L 6.001 13.111 L 6.011 13.126 C 6.105 13.292 6.202 13.425 6.297 13.551 C 6.351 13.624 6.406 13.701 6.461 13.779 C 6.673 13.694 6.89 13.566 7.019 13.382 C 7.188 13.1 7.169 12.765 6.969 12.465 C 6.886 12.339 6.733 12.249 6.367 12.039 C 6.148 11.914 5.875 11.758 5.751 11.652 C 5.459 11.403 5.051 10.859 5.051 10.428 C 5.051 9.507 5.668 8.102 6.162 7.268 C 6.446 6.793 6.661 6.425 6.747 6.113 C 6.795 6.146 6.85 6.179 6.925 6.205 L 6.937 6.209 L 6.951 6.213 C 7.192 6.276 7.435 6.266 7.592 6.266 C 7.919 6.266 8.154 6.108 8.374 5.977 C 8.589 5.846 8.802 5.724 8.833 5.713 C 8.99 6.01 9.194 6.285 9.405 6.571 C 9.985 7.351 10.682 8.664 10.887 10.614 C 11.157 10.471 11.311 10.428 11.642 10.428 C 11.649 10.428 11.657 10.43 11.664 10.43 C 11.693 10.428 11.722 10.425 11.752 10.425 C 11.838 10.425 11.926 10.431 12.013 10.439 C 12.218 10.451 12.492 10.522 12.653 10.577 C 12.924 10.657 13.147 10.799 13.305 10.981 C 13.445 10.982 13.581 11.015 13.706 11.076 C 13.706 10.85 13.723 10.517 13.723 10.428 C 13.723 9.283 12.973 7.703 12.408 6.893 C 12.291 6.725 12.179 6.568 12.07 6.417 C 11.57 5.725 11.174 5.177 10.948 4.235 C 10.799 3.622 10.779 3.432 10.759 3.25 C 10.739 3.065 10.718 2.873 10.594 2.355 C 10.37 1.306 10.092 0 7.826 0 L 7.826 0 Z M 6.786 2.082 C 7.169 2.082 7.48 2.779 7.48 3.355 C 7.48 3.39 7.475 3.446 7.473 3.496 C 7.447 3.495 7.421 3.491 7.394 3.491 C 7.295 3.491 7.203 3.506 7.115 3.529 C 7.073 3.308 6.946 3.144 6.786 3.144 C 6.595 3.144 6.439 3.377 6.439 3.664 C 6.439 3.734 6.448 3.801 6.466 3.862 C 6.372 3.932 6.301 3.992 6.259 4.034 L 6.226 4.062 C 6.2 4.007 6.178 3.95 6.16 3.892 C 6.12 3.649 6.092 3.355 6.092 3.355 C 6.092 2.78 6.402 2.082 6.786 2.082 L 6.786 2.082 Z M 8.52 2.082 C 8.903 2.082 9.214 2.779 9.214 3.355 C 9.214 3.569 9.168 3.821 9.093 4.02 C 9.002 3.981 8.909 3.95 8.813 3.926 C 8.844 3.848 8.867 3.762 8.867 3.664 C 8.867 3.377 8.711 3.144 8.52 3.144 C 8.329 3.144 8.173 3.377 8.173 3.664 L 8.173 3.668 C 8.064 3.623 7.952 3.585 7.837 3.554 C 7.831 3.488 7.828 3.422 7.826 3.355 C 7.826 2.779 8.137 2.082 8.52 2.082 Z M 7.394 4.184 C 7.535 4.184 7.74 4.24 7.927 4.316 C 8.114 4.392 8.272 4.475 8.405 4.531 L 8.432 4.543 L 8.46 4.549 C 8.637 4.591 8.795 4.636 8.86 4.669 C 8.843 4.818 8.825 4.9 8.817 4.912 C 8.807 4.927 8.758 4.973 8.581 5.068 C 8.362 5.146 8.195 5.274 8.016 5.382 C 7.819 5.5 7.621 5.572 7.592 5.572 C 7.44 5.572 7.23 5.561 7.146 5.543 C 7.179 5.553 7.122 5.524 7.05 5.458 C 6.973 5.385 6.877 5.285 6.779 5.181 L 6.753 5.155 L 6.726 5.135 C 6.615 5.057 6.528 4.986 6.486 4.936 C 6.443 4.885 6.439 4.87 6.439 4.836 C 6.439 4.784 6.43 4.816 6.461 4.78 C 6.492 4.744 6.587 4.669 6.715 4.556 L 6.727 4.546 L 6.738 4.534 C 6.72 4.554 6.845 4.431 6.982 4.341 C 7.119 4.252 7.288 4.184 7.394 4.184 Z M 11.752 11.12 C 11.428 11.12 11.203 11.217 11.142 11.294 C 11.283 11.457 11.37 11.614 11.459 11.898 C 11.555 12.11 11.796 12.163 11.989 12.163 C 12.577 12.163 12.691 11.809 12.877 11.61 C 12.877 11.61 12.828 11.555 12.828 11.503 C 12.779 11.397 12.635 11.291 12.443 11.238 C 12.298 11.186 12.057 11.133 11.96 11.133 C 11.891 11.124 11.821 11.12 11.752 11.12 Z M 3.595 11.143 C 3.353 11.143 3.234 11.263 3.073 11.424 C 2.912 11.584 2.741 11.833 2.459 12.034 C 2.212 12.356 1.47 12.046 1.258 12.531 C 1.14 12.797 1.545 13.146 1.545 13.746 C 1.545 13.988 1.343 14.148 1.303 14.309 C 1.263 14.508 1.222 14.628 1.303 14.788 C 1.463 15.028 1.665 15.11 3.033 15.388 C 3.756 15.55 4.44 15.951 4.882 15.99 C 5.324 16.029 6.088 15.99 6.088 14.909 C 6.128 14.268 5.767 14.108 5.405 13.467 C 5.003 12.825 4.963 12.706 4.682 12.305 C 4.44 11.904 3.917 11.144 3.595 11.144 L 3.595 11.143 Z M 10.683 11.836 C 10.601 11.998 10.601 12.122 10.601 12.531 C 10.601 12.859 10.601 13.227 10.561 13.515 C 10.478 14.211 10.255 14.524 10.255 14.933 C 10.255 15.385 10.378 15.672 10.542 15.795 C 10.664 15.918 10.87 16 11.321 16 C 11.771 16 12.058 15.836 12.345 15.55 C 12.55 15.344 12.714 15.263 13.289 14.852 C 13.738 14.565 14.436 14.197 14.558 14.074 C 14.641 13.992 14.764 13.95 14.764 13.703 C 14.764 13.499 14.6 13.417 14.477 13.377 C 14.313 13.294 14.027 13.171 13.78 12.802 C 13.673 12.625 13.689 12.168 13.561 11.89 L 13.383 12.081 C 13.363 12.103 13.345 12.131 13.325 12.157 C 13.157 12.385 12.807 12.856 11.989 12.856 C 11.452 12.856 11.019 12.605 10.828 12.184 L 10.81 12.146 L 10.796 12.104 C 10.753 11.966 10.718 11.892 10.683 11.836 Z M 9.736 14.053 C 9.405 14.337 8.9 14.612 8.173 14.612 C 7.435 14.612 6.936 14.34 6.619 14.061 C 6.729 14.291 6.802 14.565 6.782 14.931 C 6.782 15.062 6.769 15.187 6.75 15.306 L 9.589 15.306 C 9.571 15.183 9.562 15.058 9.561 14.933 C 9.561 14.627 9.637 14.378 9.711 14.136 C 9.719 14.109 9.727 14.079 9.736 14.052 L 9.736 14.053 Z"/>
</svg>
