<svg xmlns="http://www.w3.org/2000/svg" width="16" height="16" version="1.1">
 <defs>
   <style id="current-color-scheme" type="text/css">
   .ColorScheme-Text { color: #00aa00; } .ColorScheme-Highlight { color:#5294e2; }
  </style>
  <linearGradient id="arrongin" x1="0%" x2="0%" y1="0%" y2="100%">
   <stop offset="0%" style="stop-color:#dd9b44; stop-opacity:1"/>
   <stop offset="100%" style="stop-color:#ad6c16; stop-opacity:1"/>
  </linearGradient>
  <linearGradient id="aurora" x1="0%" x2="0%" y1="0%" y2="100%">
   <stop offset="0%" style="stop-color:#09D4DF; stop-opacity:1"/>
   <stop offset="100%" style="stop-color:#9269F4; stop-opacity:1"/>
  </linearGradient>
  <linearGradient id="cyberneon" x1="0%" x2="0%" y1="0%" y2="100%">
    <stop offset="0" style="stop-color:#0abdc6; stop-opacity:1"/>
    <stop offset="1" style="stop-color:#ea00d9; stop-opacity:1"/>
  </linearGradient>
  <linearGradient id="fitdance" x1="0%" x2="0%" y1="0%" y2="100%">
   <stop offset="0%" style="stop-color:#1AD6AB; stop-opacity:1"/>
   <stop offset="100%" style="stop-color:#329DB6; stop-opacity:1"/>
  </linearGradient>
  <linearGradient id="oomox" x1="0%" x2="0%" y1="0%" y2="100%">
   <stop offset="0%" style="stop-color:#00aa00; stop-opacity:1"/>
   <stop offset="100%" style="stop-color:#00cc00; stop-opacity:1"/>
  </linearGradient>
  <linearGradient id="rainblue" x1="0%" x2="0%" y1="0%" y2="100%">
   <stop offset="0%" style="stop-color:#00F260; stop-opacity:1"/>
   <stop offset="100%" style="stop-color:#0575E6; stop-opacity:1"/>
  </linearGradient>
  <linearGradient id="sunrise" x1="0%" x2="0%" y1="0%" y2="100%">
   <stop offset="0%" style="stop-color: #FF8501; stop-opacity:1"/>
   <stop offset="100%" style="stop-color: #FFCB01; stop-opacity:1"/>
  </linearGradient>
  <linearGradient id="telinkrin" x1="0%" x2="0%" y1="0%" y2="100%">
   <stop offset="0%" style="stop-color: #b2ced6; stop-opacity:1"/>
   <stop offset="100%" style="stop-color: #6da5b7; stop-opacity:1"/>
  </linearGradient>
  <linearGradient id="60spsycho" x1="0%" x2="0%" y1="0%" y2="100%">
   <stop offset="0%" style="stop-color: #df5940; stop-opacity:1"/>
   <stop offset="25%" style="stop-color: #d8d15f; stop-opacity:1"/>
   <stop offset="50%" style="stop-color: #e9882a; stop-opacity:1"/>
   <stop offset="100%" style="stop-color: #279362; stop-opacity:1"/>
  </linearGradient>
  <linearGradient id="90ssummer" x1="0%" x2="0%" y1="0%" y2="100%">
   <stop offset="0%" style="stop-color: #f618c7; stop-opacity:1"/>
   <stop offset="20%" style="stop-color: #94ffab; stop-opacity:1"/>
   <stop offset="50%" style="stop-color: #fbfd54; stop-opacity:1"/>
   <stop offset="100%" style="stop-color: #0f83ae; stop-opacity:1"/>
  </linearGradient>
 </defs>
 <path fill="url(#oomox)" class="ColorScheme-Text" d="M 6.613 10.89 C 6.92 10.781 7.554 10.926 7.671 11.536 C 8.064 11.036 8.239 10.409 7.481 9.825 C 7.286 9.675 7.005 9.518 6.657 9.445 C 6.08 9.324 5.735 9.331 5.262 9.586 C 4.79 9.842 4.43 10.388 4.375 10.776 C 4.285 11.405 4.543 12.678 5.452 13.438 C 6.381 14.38 7.859 14.447 8.368 14.389 C 10.821 14.109 12.556 11.94 10.777 9.825 C 10.153 9.128 9.161 8.738 8.368 8.367 C 6.933 7.697 5.595 7.27 4.819 6.592 C 4.069 5.938 3.828 5.07 3.931 4.12 C 4.026 3.253 4.548 2.513 5.135 2.029 C 6.467 0.931 8.437 0.96 10.46 1.902 L 11.601 1.648 C 11.744 1.692 11.85 1.82 11.918 2.029 C 11.946 2.174 11.77 2.314 11.791 2.45 C 12.308 4.164 11.876 5.373 10.777 5.705 L 10.46 5.578 C 10.838 4.786 10.838 4.026 10.46 3.296 Q 9.211 1.787 7.671 1.839 C 4.466 1.945 4.638 5.224 7.227 5.959 C 7.622 6.159 9.569 6.838 10.206 7.151 Q 11.515 7.792 12.044 8.494 C 13.084 10.244 13.005 12.447 11.601 13.818 C 10.213 15.174 7.36 15.302 5.135 14.515 L 4.058 14.706 C 3.86 14.694 3.734 14.631 3.678 14.515 L 3.614 13.438 C 2.563 11.135 3.94 8.92 5.833 8.811 C 6.822 8.754 8.028 9.332 8.368 10.205 C 8.711 11.084 8.045 12.241 7.481 12.487 C 6.916 12.733 5.929 12.277 6.086 11.536 C 6.149 11.239 6.365 10.978 6.613 10.89 Z"/>
</svg>
