<svg xmlns="http://www.w3.org/2000/svg" width="22" height="22" version="1.1">
 <defs>
  <style id="current-color-scheme" type="text/css">
   .ColorScheme-Text { color: #c8dff1; } .ColorScheme-Highlight { color: #1AD6AB; }
  </style>
  <linearGradient id="arrongin" x1="0%" x2="0%" y1="0%" y2="100%">
   <stop offset="0%" style="stop-color:#dd9b44"/>
   <stop offset="100%" style="stop-color:#ad6c16"/>
  </linearGradient>
  <linearGradient id="aurora" x1="0%" x2="0%" y1="0%" y2="100%">
   <stop offset="0%" style="stop-color:#09D4DF"/>
   <stop offset="100%" style="stop-color:#9269F4"/>
  </linearGradient>
  <linearGradient id="cyberneon" x1="0%" x2="0%" y1="0%" y2="100%">
   <stop offset="0" style="stop-color:#0abdc6"/>
   <stop offset="1" style="stop-color:#ea00d9"/>
  </linearGradient>
  <linearGradient id="fitdance" x1="0%" x2="0%" y1="0%" y2="100%">
   <stop offset="0%" style="stop-color:#1AD6AB"/>
   <stop offset="100%" style="stop-color:#329DB6"/>
  </linearGradient>
  <linearGradient id="oomox" x1="0%" x2="0%" y1="0%" y2="100%">
   <stop offset="0%" style="stop-color:#efefe7"/>
   <stop offset="100%" style="stop-color:#8f8f8b"/>
  </linearGradient>
  <linearGradient id="rainblue" x1="0%" x2="0%" y1="0%" y2="100%">
   <stop offset="0%" style="stop-color:#00F260"/>
   <stop offset="100%" style="stop-color:#0575E6"/>
  </linearGradient>
  <linearGradient id="sunrise" x1="0%" x2="0%" y1="0%" y2="100%">
   <stop offset="0%" style="stop-color:#FF8501"/>
   <stop offset="100%" style="stop-color:#FFCB01"/>
  </linearGradient>
  <linearGradient id="telinkrin" x1="0%" x2="0%" y1="0%" y2="100%">
   <stop offset="0%" style="stop-color:#b2ced6"/>
   <stop offset="100%" style="stop-color:#6da5b7"/>
  </linearGradient>
  <linearGradient id="60spsycho" x1="0%" x2="0%" y1="0%" y2="100%">
   <stop offset="0%" style="stop-color:#df5940"/>
   <stop offset="25%" style="stop-color:#d8d15f"/>
   <stop offset="50%" style="stop-color:#e9882a"/>
   <stop offset="100%" style="stop-color:#279362"/>
  </linearGradient>
  <linearGradient id="90ssummer" x1="0%" x2="0%" y1="0%" y2="100%">
   <stop offset="0%" style="stop-color:#f618c7"/>
   <stop offset="20%" style="stop-color:#94ffab"/>
   <stop offset="50%" style="stop-color:#fbfd54"/>
   <stop offset="100%" style="stop-color:#0f83ae"/>
  </linearGradient>
 </defs>
 <path fill="currentColor" class="ColorScheme-Text" d="m12.5 4c-1.5387 0-2.9701 0.7889-3.7949 2.0879-0.23072-0.057-0.4674-0.087-0.70508-0.088-1.6569 0-3 1.3431-3 3 0.0011 0.4065 0.08486 0.8085 0.24609 1.1816-1.9218 0.557-3.2446 2.317-3.2461 4.318 0 2.4853 2.0147 4.5 4.5 4.5h6.4453l-3.8145-4.1621a0.50005 0.50005 0 0 1 0.369 -0.8h2.5v-4.5a0.50005 0.50005 0 0 1 0.5 -0.5h5a0.50005 0.50005 0 0 1 0.21094 0.047c-0.226-0.163-0.464-0.3128-0.717-0.4416 0.0024-0.035 0.0043-0.07 0.0059-0.1055 0-2.4853-2.0147-4.5-4.5-4.5zm5.4023 5.2012a0.50005 0.50005 0 0 1 0.098 0.2988v4.5h1.957c0.01516-0.1663 0.04297-0.3297 0.04297-0.5-0.0023-1.6986-0.79549-3.2697-2.0977-4.2988zm-4.902 0.8v4.5a0.50005 0.50005 0 0 1 -0.5 0.5h-1.8633l4.3633 4.7598 4.3633-4.7598h-1.8633a0.50005 0.50005 0 0 1 -0.5 -0.5v-4.5h-4z"/>
</svg>
