<svg xmlns="http://www.w3.org/2000/svg" width="24" height="24" version="1.1">
 <defs>
  <style id="current-color-scheme" type="text/css">
   .ColorScheme-Text { color: #e5112a; } .ColorScheme-Highlight { color: #1AD6AB; }
  </style>
  <linearGradient id="arrongin" x1="0%" x2="0%" y1="0%" y2="100%">
   <stop offset="0%" style="stop-color:#dd9b44"/>
   <stop offset="100%" style="stop-color:#ad6c16"/>
  </linearGradient>
  <linearGradient id="aurora" x1="0%" x2="0%" y1="0%" y2="100%">
   <stop offset="0%" style="stop-color:#09D4DF"/>
   <stop offset="100%" style="stop-color:#9269F4"/>
  </linearGradient>
  <linearGradient id="cyberneon" x1="0%" x2="0%" y1="0%" y2="100%">
   <stop offset="0" style="stop-color:#0abdc6"/>
   <stop offset="1" style="stop-color:#ea00d9"/>
  </linearGradient>
  <linearGradient id="fitdance" x1="0%" x2="0%" y1="0%" y2="100%">
   <stop offset="0%" style="stop-color:#1AD6AB"/>
   <stop offset="100%" style="stop-color:#329DB6"/>
  </linearGradient>
  <linearGradient id="oomox" x1="0%" x2="0%" y1="0%" y2="100%">
   <stop offset="0%" style="stop-color:#efefe7"/>
   <stop offset="100%" style="stop-color:#8f8f8b"/>
  </linearGradient>
  <linearGradient id="rainblue" x1="0%" x2="0%" y1="0%" y2="100%">
   <stop offset="0%" style="stop-color:#00F260"/>
   <stop offset="100%" style="stop-color:#0575E6"/>
  </linearGradient>
  <linearGradient id="sunrise" x1="0%" x2="0%" y1="0%" y2="100%">
   <stop offset="0%" style="stop-color:#FF8501"/>
   <stop offset="100%" style="stop-color:#FFCB01"/>
  </linearGradient>
  <linearGradient id="telinkrin" x1="0%" x2="0%" y1="0%" y2="100%">
   <stop offset="0%" style="stop-color:#b2ced6"/>
   <stop offset="100%" style="stop-color:#6da5b7"/>
  </linearGradient>
  <linearGradient id="60spsycho" x1="0%" x2="0%" y1="0%" y2="100%">
   <stop offset="0%" style="stop-color:#df5940"/>
   <stop offset="25%" style="stop-color:#d8d15f"/>
   <stop offset="50%" style="stop-color:#e9882a"/>
   <stop offset="100%" style="stop-color:#279362"/>
  </linearGradient>
  <linearGradient id="90ssummer" x1="0%" x2="0%" y1="0%" y2="100%">
   <stop offset="0%" style="stop-color:#f618c7"/>
   <stop offset="20%" style="stop-color:#94ffab"/>
   <stop offset="50%" style="stop-color:#fbfd54"/>
   <stop offset="100%" style="stop-color:#0f83ae"/>
  </linearGradient>
 </defs>
 <path fill="currentColor" class="ColorScheme-Text" d="m 11.999999,4 c -4.4319998,0 -7.9999988,3.568 -7.9999988,8 0,4.432 3.567999,8 7.9999988,8 C 16.432,20 20,16.432 20,12 20,7.568 16.432,4 11.999999,4 Z m 2.210939,4 c 0.204819,0 0.565773,0.1131569 0.689453,0.2167969 l 0.09961,0.083984 -0.0957,0.2832032 c -0.2179,0.6464 -0.821334,3.5304879 -1.058595,5.0546879 -0.0627,0.40283 -0.151695,0.925439 -0.197265,1.162109 -0.0988,0.51299 -0.102492,0.708193 -0.01367,0.945313 0.14055,0.37522 0.13485,0.412938 -0.09375,0.517578 -0.11323,0.05183 -0.372332,0.122633 -0.576172,0.158203 -0.68941,0.1203 -0.900101,-0.03324 -0.900391,-0.65625 -2.06e-4,-0.41919 0.03843,-0.643601 0.302735,-1.744141 0.11636,-0.48455 0.210937,-0.918857 0.210937,-0.966797 0,-0.08116 -0.01978,-0.08685 -0.296875,-0.05859 -0.16366,0.01669 -0.663628,0.03401 -1.111328,0.03711 -0.44774,0.0031 -0.82774,0.0186 -0.84375,0.03516 -0.016,0.01656 -0.105135,0.366654 -0.197266,0.777344 -0.09212,0.41069 -0.2566568,1.086953 -0.3671868,1.501953 -0.11053,0.41504 -0.210603,0.878017 -0.220703,1.029297 -0.01201,0.1797 -0.04203,0.297724 -0.08789,0.339844 -0.1042,0.09569 -0.61884,0.246704 -0.94336,0.277344 -0.3948,0.041 -0.534959,-0.132828 -0.505859,-0.423829 0.02656,-0.261129 0.181369,-0.825039 0.568359,-2.0625 0.65476,-2.0937 1.066729,-4.474215 0.892579,-5.1660153 -0.04328,-0.17195 -0.0494,-0.2591482 -0.01758,-0.2988281 0.09911,-0.1235901 0.496838,-0.2587869 0.8242178,-0.2792969 0.67605,-0.014051 0.643324,0.23674 0.621094,0.78125 -0.01992,0.4880503 -0.149751,1.4062843 -0.269531,2.0214843 -0.03717,0.19092 -0.05592,0.375246 -0.04297,0.410156 0.01952,0.05266 0.200513,0.06306 1.064453,0.0625 0.57283,-3.55e-4 1.063797,-0.01673 1.091797,-0.03516 0.0874,-0.05751 0.138676,-0.251757 0.509766,-1.935547 0.1985,-0.9007295 0.39603,-1.6964308 0.4375,-1.7695308 0.09463,-0.1667394 0.326781,-0.2988275 0.527342,-0.2988275 z"/>
</svg>
