<svg xmlns="http://www.w3.org/2000/svg" width="16" height="16" version="1.1">
 <defs>
   <style id="current-color-scheme" type="text/css">
   .ColorScheme-Text { color: #E7E7E7; } .ColorScheme-Highlight { color: #1AD6AB; }
  </style>
  <linearGradient id="arrongin" x1="0%" x2="0%" y1="0%" y2="100%">
   <stop offset="0%"    stop-color= "#dd9b44" stop-opacity="1"/>
   <stop offset="100%"  stop-color= "#ad6c16" stop-opacity="1"/>
  </linearGradient>
  <linearGradient id="aurora" x1="0%" x2="0%" y1="0%" y2="100%">
   <stop offset="0%"    stop-color= "#09D4DF" stop-opacity="1"/>
   <stop offset="100%"  stop-color= "#9269F4" stop-opacity="1"/>
  </linearGradient> 
  <linearGradient id="cyberblue" x1="0%" x2="0%" y1="0%" y2="100%">
   <stop offset="0%"    stop-color= "#07B3FF" stop-opacity="1"/>
   <stop offset="100%"  stop-color= "#007DE8" stop-opacity="1"/>
  </linearGradient>
  <linearGradient id="cyberneon" x1="0%" x2="0%" y1="0%" y2="100%">
    <stop offset="0%"   stop-color= "#0abdc6" stop-opacity="1"/>
    <stop offset="100%" stop-color= "#ea00d9" stop-opacity="1"/>
  </linearGradient>
  <linearGradient id="fitdance" x1="0%" x2="0%" y1="0%" y2="100%">
   <stop offset="0%"    stop-color= "#1AD6AB" stop-opacity="1"/>
   <stop offset="100%"  stop-color= "#329DB6" stop-opacity="1"/>
  </linearGradient>
  <linearGradient id="oomox" x1="0%" x2="0%" y1="0%" y2="100%">
   <stop offset="0%"    stop-color= "#efefe7" stop-opacity="1"/>
   <stop offset="100%"  stop-color= "#8f8f8b" stop-opacity="1"/>
  </linearGradient>
  <linearGradient id="rainblue" x1="0%" x2="0%" y1="0%" y2="100%">
   <stop offset="0%"    stop-color= "#00F260" stop-opacity="1"/>
   <stop offset="100%"  stop-color= "#0575E6" stop-opacity="1"/>
  </linearGradient>
  <linearGradient id="redcarbon" x1="0%" x2="0%" y1="0%" y2="100%">
   <stop offset="0%"    stop-color= "#FF6D57" stop-opacity="1"/>
   <stop offset="50%"   stop-color= "#FF5160" stop-opacity="1"/>
   <stop offset="100%"  stop-color= "#F50F22" stop-opacity="1"/>
  </linearGradient>
  <linearGradient id="sunrise" x1="0%" x2="0%" y1="0%" y2="100%">
   <stop offset="0%"    stop-color= "#FF8501" stop-opacity="1"/>
   <stop offset="100%"  stop-color= "#FFCB01" stop-opacity="1"/>
  </linearGradient>
  <linearGradient id="telinkrin" x1="0%" x2="0%" y1="0%" y2="100%">
   <stop offset="0%"    stop-color= "#b2ced6" stop-opacity="1"/>
   <stop offset="100%"  stop-color= "#6da5b7" stop-opacity="1"/>
  </linearGradient>
  <linearGradient id="60spsycho" x1="0%" x2="0%" y1="0%" y2="100%">
   <stop offset="0%"    stop-color= "#df5940" stop-opacity="1"/>
   <stop offset="25%"   stop-color= "#d8d15f" stop-opacity="1"/>
   <stop offset="50%"   stop-color= "#e9882a" stop-opacity="1"/>
   <stop offset="100%"  stop-color= "#279362" stop-opacity="1"/>
  </linearGradient>
  <linearGradient id="90ssummer" x1="0%" x2="0%" y1="0%" y2="100%">
   <stop offset="0%"    stop-color= "#f618c7" stop-opacity="1"/>
   <stop offset="20%"   stop-color= "#94ffab" stop-opacity="1"/>
   <stop offset="50%"   stop-color= "#fbfd54" stop-opacity="1"/>
   <stop offset="100%"  stop-color= "#0f83ae" stop-opacity="1"/>
  </linearGradient>
 </defs>
 <path fill="currentColor" class="ColorScheme-Text" d="M 2 13 L 2 15 L 14 15 L 14 13 L 2 13 Z"/>
 <path fill="currentColor" class="ColorScheme-Text" fill-rule="evenodd" d="M 13.03625 11.621 L 10.39656 11.621 L 10.39656 10.719 L 10.39656 10.719 Q 9.215647 11.885 7.247457 11.885 L 7.247457 11.885 L 7.247457 11.885 Q 5.348733 11.885 4.156241 10.906 L 4.156241 10.906 L 4.156241 10.906 Q 2.96375 9.927 2.96375 8.145 L 2.96375 8.145 L 2.96375 8.145 Q 2.96375 6.319 4.318327 5.373 L 4.318327 5.373 L 4.318327 5.373 Q 5.672905 4.427 7.594785 4.427 L 7.594785 4.427 L 7.594785 4.427 Q 9.285112 4.427 10.39656 5.021 L 10.39656 5.021 L 10.39656 4.427 L 10.39656 4.427 Q 10.39656 3.349 9.829258 2.865 L 9.829258 2.865 L 9.829258 2.865 Q 9.261957 2.381 8.081043 2.381 L 8.081043 2.381 L 8.081043 2.381 Q 6.159164 2.381 4.561457 3.437 L 4.561457 3.437 L 3.727871 1.347 L 3.727871 1.347 Q 5.64975 0.115 8.358905 0.115 L 8.358905 0.115 L 8.358905 0.115 Q 9.285112 0.115 9.991345 0.258 L 9.991345 0.258 L 9.991345 0.258 Q 10.697578 0.401 11.450121 0.819 L 11.450121 0.819 L 11.450121 0.819 Q 12.202663 1.237 12.619456 2.139 L 12.619456 2.139 L 12.619456 2.139 Q 13.03625 3.041 13.03625 4.383 L 13.03625 4.383 L 13.03625 11.621 Z M 7.75687 9.619 L 7.75687 9.619 L 7.75687 9.619 Q 9.308267 9.619 10.39656 8.541 L 10.39656 8.541 L 10.39656 7.089 L 10.39656 7.089 Q 9.377732 6.627 8.034732 6.627 L 8.034732 6.627 L 8.034732 6.627 Q 6.94644 6.627 6.274939 7.001 L 6.274939 7.001 L 6.274939 7.001 Q 5.60344 7.375 5.60344 8.145 L 5.60344 8.145 L 5.60344 8.145 Q 5.60344 8.827 6.159164 9.223 L 6.159164 9.223 L 6.159164 9.223 Q 6.714888 9.619 7.75687 9.619 Z"/>
</svg>
