<svg xmlns="http://www.w3.org/2000/svg" width="16" height="16" version="1.1">
 <defs>
   <style id="current-color-scheme" type="text/css">
   .ColorScheme-Text { color: #00aa00; } .ColorScheme-Highlight { color: #5294e2; }
  </style>
  <linearGradient id="arrongin" x1="0%" x2="0%" y1="0%" y2="100%">
   <stop offset="0%" style="stop-color: #dd9b44; stop-opacity: 1"/>
   <stop offset="100%" style="stop-color: #ad6c16; stop-opacity: 1"/>
  </linearGradient>
  <linearGradient id="aurora" x1="0%" x2="0%" y1="0%" y2="100%">
   <stop offset="0%" style="stop-color: #09D4DF; stop-opacity: 1"/>
   <stop offset="100%" style="stop-color: #9269F4; stop-opacity: 1"/>
  </linearGradient>
  <linearGradient id="cyberneon" x1="0%" x2="0%" y1="0%" y2="100%">
    <stop offset="0" style="stop-color: #0abdc6; stop-opacity: 1"/>
    <stop offset="1" style="stop-color: #ea00d9; stop-opacity: 1"/>
  </linearGradient>
  <linearGradient id="fitdance" x1="0%" x2="0%" y1="0%" y2="100%">
   <stop offset="0%" style="stop-color: #1AD6AB; stop-opacity: 1"/>
   <stop offset="100%" style="stop-color: #329DB6; stop-opacity: 1"/>
  </linearGradient>
  <linearGradient id="oomox" x1="0%" x2="0%" y1="0%" y2="100%">
   <stop offset="0%" style="stop-color: #00aa00; stop-opacity: 1"/>
   <stop offset="100%" style="stop-color: #00cc00; stop-opacity: 1"/>
  </linearGradient>
  <linearGradient id="rainblue" x1="0%" x2="0%" y1="0%" y2="100%">
   <stop offset="0%" style="stop-color: #00F260; stop-opacity: 1"/>
   <stop offset="100%" style="stop-color: #0575E6; stop-opacity: 1"/>
  </linearGradient>
  <linearGradient id="sunrise" x1="0%" x2="0%" y1="0%" y2="100%">
   <stop offset="0%" style="stop-color: #FF8501; stop-opacity: 1"/>
   <stop offset="100%" style="stop-color: #FFCB01; stop-opacity: 1"/>
  </linearGradient>
  <linearGradient id="telinkrin" x1="0%" x2="0%" y1="0%" y2="100%">
   <stop offset="0%" style="stop-color: #b2ced6; stop-opacity: 1"/>
   <stop offset="100%" style="stop-color: #6da5b7; stop-opacity: 1"/>
  </linearGradient>
  <linearGradient id="60spsycho" x1="0%" x2="0%" y1="0%" y2="100%">
   <stop offset="0%" style="stop-color: #df5940; stop-opacity: 1"/>
   <stop offset="25%" style="stop-color: #d8d15f; stop-opacity: 1"/>
   <stop offset="50%" style="stop-color: #e9882a; stop-opacity: 1"/>
   <stop offset="100%" style="stop-color: #279362; stop-opacity: 1"/>
  </linearGradient>
  <linearGradient id="90ssummer" x1="0%" x2="0%" y1="0%" y2="100%">
   <stop offset="0%" style="stop-color: #f618c7; stop-opacity: 1"/>
   <stop offset="20%" style="stop-color: #94ffab; stop-opacity: 1"/>
   <stop offset="50%" style="stop-color: #fbfd54; stop-opacity: 1"/>
   <stop offset="100%" style="stop-color: #0f83ae; stop-opacity: 1"/>
  </linearGradient>
 </defs>
   <path fill="url(#oomox)" class="ColorScheme-Text" fill-rule="evenodd" d="M 3.086295 9.795579 L 2.393233 9.795579 L 2.144162 9.005523 L 0.942133 9.005523 L 0.693062 9.795579 L 0 9.795579 L 1.239933 6.204419 L 1.846362 6.204419 L 3.086295 9.795579 Z M 1.4511 7.384371 L 1.115398 8.451458 L 1.970897 8.451458 L 1.635195 7.384371 L 1.635195 7.384371 Q 1.58105 7.220204 1.543148 6.984214 L 1.543148 6.984214 L 1.543148 6.984214 Q 1.478172 7.297158 1.4511 7.384371 L 1.4511 7.384371 Z M 4.921828 9.857143 L 4.921828 9.857143 L 4.921828 9.857143 Q 4.461592 9.857143 4.093402 9.605759 L 4.093402 9.605759 L 4.093402 9.605759 Q 3.725212 9.354379 3.573605 8.933701 L 3.573605 8.933701 L 4.158376 8.728491 L 4.158376 8.728491 Q 4.28291 8.979875 4.502199 9.131215 L 4.502199 9.131215 L 4.502199 9.131215 Q 4.72149 9.282556 4.975972 9.282556 L 4.975972 9.282556 L 4.975972 9.282556 Q 5.225043 9.282556 5.37665 9.159432 L 5.37665 9.159432 L 5.37665 9.159432 Q 5.528257 9.036304 5.528257 8.805445 L 5.528257 8.805445 L 5.528257 8.805445 Q 5.528257 8.610498 5.322505 8.459153 L 5.322505 8.459153 L 5.322505 8.459153 Q 5.116752 8.307812 4.748562 8.153906 L 4.748562 8.153906 L 4.748562 8.153906 Q 4.515736 8.056432 4.374959 7.984609 L 4.374959 7.984609 L 4.374959 7.984609 Q 4.234179 7.912786 4.058206 7.78453 L 4.058206 7.78453 L 4.058206 7.78453 Q 3.882235 7.656275 3.795602 7.481847 L 3.795602 7.481847 L 3.795602 7.481847 Q 3.708969 7.307419 3.708969 7.091948 L 3.708969 7.091948 L 3.708969 7.091948 Q 3.708969 6.691791 4.031134 6.417324 L 4.031134 6.417324 L 4.031134 6.417324 Q 4.3533 6.142857 4.878512 6.142857 L 4.878512 6.142857 L 4.878512 6.142857 Q 5.295431 6.142857 5.606768 6.358325 L 5.606768 6.358325 L 5.606768 6.358325 Q 5.918105 6.573796 6.020981 6.90726 L 6.020981 6.90726 L 5.441624 7.091948 L 5.441624 7.091948 Q 5.2467 6.717442 4.840609 6.717442 L 4.840609 6.717442 L 4.840609 6.717442 Q 4.629441 6.717442 4.494078 6.820047 L 4.494078 6.820047 L 4.494078 6.820047 Q 4.358714 6.922652 4.358714 7.102209 L 4.358714 7.102209 L 4.358714 7.102209 Q 4.358714 7.143252 4.369543 7.181727 L 4.369543 7.181727 L 4.369543 7.181727 Q 4.380372 7.220204 4.407445 7.253552 L 4.407445 7.253552 L 4.407445 7.253552 Q 4.434517 7.286898 4.458884 7.315114 L 4.458884 7.315114 L 4.458884 7.315114 Q 4.483248 7.34333 4.534687 7.376676 L 4.534687 7.376676 L 4.534687 7.376676 Q 4.586126 7.410022 4.62132 7.430543 L 4.62132 7.430543 L 4.62132 7.430543 Q 4.656516 7.451065 4.726903 7.48441 L 4.726903 7.48441 L 4.726903 7.48441 Q 4.797293 7.517758 4.835195 7.533148 L 4.835195 7.533148 L 4.835195 7.533148 Q 4.873097 7.548538 4.959729 7.587015 L 4.959729 7.587015 L 4.959729 7.587015 Q 5.046362 7.625493 5.084264 7.640883 L 5.084264 7.640883 L 5.084264 7.640883 Q 5.311676 7.738358 5.463283 7.823005 L 5.463283 7.823005 L 5.463283 7.823005 Q 5.61489 7.907655 5.798984 8.046171 L 5.798984 8.046171 L 5.798984 8.046171 Q 5.983079 8.184688 6.080541 8.374507 L 6.080541 8.374507 L 6.080541 8.374507 Q 6.178003 8.564323 6.178003 8.790055 L 6.178003 8.790055 L 6.178003 8.790055 Q 6.178003 9.282556 5.812522 9.569848 L 5.812522 9.569848 L 5.812522 9.569848 Q 5.44704 9.857143 4.921828 9.857143 Z M 8.278848 9.852012 L 8.278848 9.852012 L 8.278848 9.852012 Q 7.959391 9.852012 7.702201 9.744278 L 7.702201 9.744278 L 7.702201 9.744278 Q 7.445011 9.636543 7.274451 9.45955 L 7.274451 9.45955 L 7.274451 9.45955 Q 7.103891 9.282556 6.990186 9.038871 L 6.990186 9.038871 L 6.990186 9.038871 Q 6.876481 8.795186 6.827748 8.536107 L 6.827748 8.536107 L 6.827748 8.536107 Q 6.779019 8.277032 6.779019 7.999999 L 6.779019 7.999999 L 6.779019 7.999999 Q 6.779019 7.661404 6.862944 7.345894 L 6.862944 7.345894 L 6.862944 7.345894 Q 6.946869 7.030386 7.120134 6.755919 L 7.120134 6.755919 L 7.120134 6.755919 Q 7.2934 6.481452 7.591202 6.314719 L 7.591202 6.314719 L 7.591202 6.314719 Q 7.889004 6.147986 8.278848 6.147986 L 8.278848 6.147986 L 8.278848 6.147986 Q 8.722841 6.147986 9.020643 6.363457 L 9.020643 6.363457 L 9.020643 6.363457 Q 9.318445 6.578925 9.453809 6.896999 L 9.453809 6.896999 L 8.879864 7.158642 L 8.879864 7.158642 Q 8.760747 6.943171 8.622673 6.835437 L 8.622673 6.835437 L 8.622673 6.835437 Q 8.484604 6.727702 8.278848 6.727702 L 8.278848 6.727702 L 8.278848 6.727702 Q 7.986466 6.727702 7.791542 6.932912 L 7.791542 6.932912 L 7.791542 6.932912 Q 7.596618 7.13812 7.520814 7.412588 L 7.520814 7.412588 L 7.520814 7.412588 Q 7.445011 7.687055 7.445011 7.999999 L 7.445011 7.999999 L 7.445011 7.999999 Q 7.445011 8.507891 7.661589 8.890094 L 7.661589 8.890094 L 7.661589 8.890094 Q 7.878172 9.272298 8.278848 9.272298 L 8.278848 9.272298 L 8.278848 9.272298 Q 8.657869 9.272298 8.885279 8.810576 L 8.885279 8.810576 L 9.470052 9.020914 L 9.470052 9.020914 Q 9.11269 9.852012 8.278848 9.852012 Z M 12.664638 6.204419 L 12.664638 6.743093 L 11.868699 6.743093 L 11.868699 9.256904 L 12.664638 9.256904 L 12.664638 9.795579 L 10.433841 9.795579 L 10.433841 9.256904 L 11.224366 9.256904 L 11.224366 6.743093 L 10.433841 6.743093 L 10.433841 6.204419 L 12.664638 6.204419 Z M 16 6.204419 L 16 6.743093 L 15.20406 6.743093 L 15.20406 9.256904 L 16 9.256904 L 16 9.795579 L 13.769207 9.795579 L 13.769207 9.256904 L 14.559731 9.256904 L 14.559731 6.743093 L 13.769207 6.743093 L 13.769207 6.204419 L 16 6.204419 Z"/>
</svg>
