<svg xmlns="http://www.w3.org/2000/svg" width="16" height="16" version="1.1">
 <defs>
   <style id="current-color-scheme" type="text/css">
   .ColorScheme-Text { color: #E7E7E7; } .ColorScheme-Highlight { color: #1AD6AB; }
  </style>
  <linearGradient id="arrongin" x1="0%" x2="0%" y1="0%" y2="100%">
   <stop offset="0%" style="stop-color: #dd9b44; stop-opacity: 1"/>
   <stop offset="100%" style="stop-color: #ad6c16; stop-opacity: 1"/>
  </linearGradient>
  <linearGradient id="aurora" x1="0%" x2="0%" y1="0%" y2="100%">
   <stop offset="0%" style="stop-color: #09D4DF; stop-opacity: 1"/>
   <stop offset="100%" style="stop-color: #9269F4; stop-opacity: 1"/>
  </linearGradient>
  <linearGradient id="cyberneon" x1="0%" x2="0%" y1="0%" y2="100%">
    <stop offset="0" style="stop-color: #0abdc6; stop-opacity: 1"/>
    <stop offset="1" style="stop-color: #ea00d9; stop-opacity: 1"/>
  </linearGradient>
  <linearGradient id="fitdance" x1="0%" x2="0%" y1="0%" y2="100%">
   <stop offset="0%" style="stop-color: #1AD6AB; stop-opacity: 1"/>
   <stop offset="100%" style="stop-color: #329DB6; stop-opacity: 1"/>
  </linearGradient>
  <linearGradient id="oomox" x1="0%" x2="0%" y1="0%" y2="100%">
   <stop offset="0%" style="stop-color: #efefe7; stop-opacity: 1"/>
   <stop offset="100%" style="stop-color: #8f8f8b; stop-opacity: 1"/>
  </linearGradient>
  <linearGradient id="rainblue" x1="0%" x2="0%" y1="0%" y2="100%">
   <stop offset="0%" style="stop-color: #00F260; stop-opacity: 1"/>
   <stop offset="100%" style="stop-color: #0575E6; stop-opacity: 1"/>
  </linearGradient>
  <linearGradient id="sunrise" x1="0%" x2="0%" y1="0%" y2="100%">
   <stop offset="0%" style="stop-color: #FF8501; stop-opacity: 1"/>
   <stop offset="100%" style="stop-color: #FFCB01; stop-opacity: 1"/>
  </linearGradient>
  <linearGradient id="telinkrin" x1="0%" x2="0%" y1="0%" y2="100%">
   <stop offset="0%" style="stop-color: #b2ced6; stop-opacity: 1"/>
   <stop offset="100%" style="stop-color: #6da5b7; stop-opacity: 1"/>
  </linearGradient>
  <linearGradient id="60spsycho" x1="0%" x2="0%" y1="0%" y2="100%">
   <stop offset="0%" style="stop-color: #df5940; stop-opacity: 1"/>
   <stop offset="25%" style="stop-color: #d8d15f; stop-opacity: 1"/>
   <stop offset="50%" style="stop-color: #e9882a; stop-opacity: 1"/>
   <stop offset="100%" style="stop-color: #279362; stop-opacity: 1"/>
  </linearGradient>
  <linearGradient id="90ssummer" x1="0%" x2="0%" y1="0%" y2="100%">
   <stop offset="0%" style="stop-color: #f618c7; stop-opacity: 1"/>
   <stop offset="20%" style="stop-color: #94ffab; stop-opacity: 1"/>
   <stop offset="50%" style="stop-color: #fbfd54; stop-opacity: 1"/>
   <stop offset="100%" style="stop-color: #0f83ae; stop-opacity: 1"/>
  </linearGradient>
 </defs>
  <path fill="currentColor" fill-rule="evenodd" class="ColorScheme-Text" d="M 7.171 7.114 L 10.553 7.114 L 10.553 7.967 L 7.171 7.967 L 7.171 7.114 L 7.171 7.114 L 7.171 7.114 Z M 0.24 1.969 C -0.086 5.267 -0.078 10.396 0.251 13.95 C 0.337 14.883 1.166 15.703 2.1 15.779 C 5.656 16.068 10.738 16.076 13.935 15.792 C 14.869 15.708 15.695 14.883 15.78 13.95 C 15.874 12.911 16 10.265 16 7.698 C 16 5.152 15.877 2.685 15.803 1.981 C 15.706 1.049 14.867 0.245 13.932 0.188 C 9.954 -0.059 4.89 -0.055 2.101 0.153 C 1.166 0.223 0.332 1.036 0.24 1.969 Z M 4.635 5.409 L 4.635 6.261 L 5.058 6.261 C 5.294 6.27 5.48 6.074 5.48 5.835 C 5.48 5.596 5.294 5.409 5.058 5.409 L 4.635 5.409 L 4.635 5.409 L 4.635 5.409 Z M 3.789 4.556 L 3.789 3.703 L 3.367 3.703 C 3.13 3.703 2.944 3.891 2.944 4.13 C 2.944 4.368 3.13 4.556 3.367 4.556 L 3.789 4.556 L 3.789 4.556 L 3.789 4.556 Z M 4.635 2.851 L 4.635 1.998 L 3.789 1.998 L 3.789 2.851 L 3.367 2.851 C 2.665 2.851 2.098 3.422 2.098 4.13 C 2.098 4.837 2.665 5.409 3.367 5.409 L 3.789 5.409 L 3.789 6.261 L 3.367 6.261 L 2.174 6.261 C 2.352 6.756 2.817 7.114 3.367 7.114 L 3.789 7.114 L 3.789 7.967 L 4.635 7.967 L 4.635 7.114 L 5.058 7.114 C 5.759 7.114 6.326 6.543 6.326 5.835 C 6.326 5.127 5.759 4.556 5.058 4.556 L 4.635 4.556 L 4.635 3.703 L 5.058 3.703 L 6.25 3.703 C 6.072 3.209 5.607 2.851 5.058 2.851 L 4.635 2.851 L 4.635 2.851 L 4.635 2.851 Z"/>
</svg>
