<svg xmlns="http://www.w3.org/2000/svg" width="16" height="16" version="1.1">
 <defs>
   <style id="current-color-scheme" type="text/css">
   .ColorScheme-Text { color: #00aa00; } .ColorScheme-Highlight { color:#5294e2; }
  </style>
  <linearGradient id="arrongin" x1="0%" x2="0%" y1="0%" y2="100%">
   <stop offset="0%" style="stop-color:#dd9b44; stop-opacity:1"/>
   <stop offset="100%" style="stop-color:#ad6c16; stop-opacity:1"/>
  </linearGradient>
  <linearGradient id="aurora" x1="0%" x2="0%" y1="0%" y2="100%">
   <stop offset="0%" style="stop-color:#09D4DF; stop-opacity:1"/>
   <stop offset="100%" style="stop-color:#9269F4; stop-opacity:1"/>
  </linearGradient>
  <linearGradient id="cyberneon" x1="0%" x2="0%" y1="0%" y2="100%">
    <stop offset="0" style="stop-color:#0abdc6; stop-opacity:1"/>
    <stop offset="1" style="stop-color:#ea00d9; stop-opacity:1"/>
  </linearGradient>
  <linearGradient id="fitdance" x1="0%" x2="0%" y1="0%" y2="100%">
   <stop offset="0%" style="stop-color:#1AD6AB; stop-opacity:1"/>
   <stop offset="100%" style="stop-color:#329DB6; stop-opacity:1"/>
  </linearGradient>
  <linearGradient id="oomox" x1="0%" x2="0%" y1="0%" y2="100%">
   <stop offset="0%" style="stop-color:#00aa00; stop-opacity:1"/>
   <stop offset="100%" style="stop-color:#00cc00; stop-opacity:1"/>
  </linearGradient>
  <linearGradient id="rainblue" x1="0%" x2="0%" y1="0%" y2="100%">
   <stop offset="0%" style="stop-color:#00F260; stop-opacity:1"/>
   <stop offset="100%" style="stop-color:#0575E6; stop-opacity:1"/>
  </linearGradient>
  <linearGradient id="sunrise" x1="0%" x2="0%" y1="0%" y2="100%">
   <stop offset="0%" style="stop-color: #FF8501; stop-opacity:1"/>
   <stop offset="100%" style="stop-color: #FFCB01; stop-opacity:1"/>
  </linearGradient>
  <linearGradient id="telinkrin" x1="0%" x2="0%" y1="0%" y2="100%">
   <stop offset="0%" style="stop-color: #b2ced6; stop-opacity:1"/>
   <stop offset="100%" style="stop-color: #6da5b7; stop-opacity:1"/>
  </linearGradient>
  <linearGradient id="60spsycho" x1="0%" x2="0%" y1="0%" y2="100%">
   <stop offset="0%" style="stop-color: #df5940; stop-opacity:1"/>
   <stop offset="25%" style="stop-color: #d8d15f; stop-opacity:1"/>
   <stop offset="50%" style="stop-color: #e9882a; stop-opacity:1"/>
   <stop offset="100%" style="stop-color: #279362; stop-opacity:1"/>
  </linearGradient>
  <linearGradient id="90ssummer" x1="0%" x2="0%" y1="0%" y2="100%">
   <stop offset="0%" style="stop-color: #f618c7; stop-opacity:1"/>
   <stop offset="20%" style="stop-color: #94ffab; stop-opacity:1"/>
   <stop offset="50%" style="stop-color: #fbfd54; stop-opacity:1"/>
   <stop offset="100%" style="stop-color: #0f83ae; stop-opacity:1"/>
  </linearGradient>
 </defs>
 <path fill="url(#oomox)" class="ColorScheme-Text" fill-rule="evenodd" d="M 2.51 11.483 L 2.51 4.517 C 3.068 4.232 3.451 3.65 3.451 2.98 C 3.451 2.028 2.678 1.255 1.725 1.255 C 0.773 1.255 0 2.028 0 2.98 L 0 2.98 L 0 2.98 C 0 3.65 0.383 4.232 0.941 4.518 L 0.941 11.482 C 0.383 11.768 0 12.35 0 13.02 L 0 13.02 L 0 13.02 C 0 13.972 0.773 14.745 1.725 14.745 C 2.396 14.745 2.977 14.362 3.263 13.804 L 12.737 13.804 L 12.737 13.804 C 13.023 14.362 13.604 14.745 14.275 14.745 C 15.227 14.745 16 13.972 16 13.02 C 16 12.067 15.227 11.294 14.275 11.294 C 13.605 11.294 13.023 11.677 12.738 12.235 L 3.262 12.235 C 3.097 11.912 2.833 11.648 2.51 11.483 Z M 6.418 9.952 L 6.418 9.952 C 6.611 9.902 6.804 9.853 6.996 9.804 C 7.508 9.679 8.014 9.53 8.511 9.352 L 8.511 9.352 C 8.798 9.588 9.167 9.725 9.569 9.725 C 10.463 9.725 11.199 9.044 11.282 8.171 C 11.578 7.988 11.855 7.776 12.107 7.536 C 12.367 7.275 12.602 6.993 12.809 6.689 C 12.91 6.546 13.008 6.403 13.106 6.259 C 13.18 6.269 13.256 6.275 13.333 6.275 C 14.286 6.275 15.059 5.501 15.059 4.549 C 15.059 3.597 14.286 2.824 13.333 2.824 C 12.381 2.824 11.608 3.597 11.608 4.549 L 11.608 4.549 L 11.608 4.549 C 11.608 4.843 11.681 5.119 11.824 5.355 C 11.725 5.502 11.625 5.649 11.523 5.795 C 11.373 6.014 11.2 6.221 11.012 6.413 C 10.905 6.514 10.791 6.606 10.677 6.699 C 10.387 6.43 9.996 6.275 9.569 6.275 C 8.637 6.275 7.876 7.015 7.847 7.94 C 7.44 8.064 7.03 8.182 6.616 8.282 C 6.522 8.307 6.427 8.331 6.332 8.355 C 6.031 7.86 5.485 7.529 4.863 7.529 C 3.91 7.529 3.137 8.303 3.137 9.255 L 3.137 9.255 L 3.137 9.255 C 3.137 10.207 3.91 10.98 4.863 10.98 C 5.563 10.98 6.167 10.562 6.418 9.952 L 6.418 9.952 Z"/>
</svg>
