<svg xmlns="http://www.w3.org/2000/svg" width="16" height="16" version="1.1">
 <defs>
   <style id="current-color-scheme" type="text/css">
   .ColorScheme-Text { color: #00aa00; } .ColorScheme-Highlight { color:#5294e2; }
  </style>
  <linearGradient id="arrongin" x1="0%" x2="0%" y1="0%" y2="100%">
   <stop offset="0%" style="stop-color:#dd9b44; stop-opacity:1"/>
   <stop offset="100%" style="stop-color:#ad6c16; stop-opacity:1"/>
  </linearGradient>
  <linearGradient id="aurora" x1="0%" x2="0%" y1="0%" y2="100%">
   <stop offset="0%" style="stop-color:#09D4DF; stop-opacity:1"/>
   <stop offset="100%" style="stop-color:#9269F4; stop-opacity:1"/>
  </linearGradient>
  <linearGradient id="cyberneon" x1="0%" x2="0%" y1="0%" y2="100%">
    <stop offset="0" style="stop-color:#0abdc6; stop-opacity:1"/>
    <stop offset="1" style="stop-color:#ea00d9; stop-opacity:1"/>
  </linearGradient>
  <linearGradient id="fitdance" x1="0%" x2="0%" y1="0%" y2="100%">
   <stop offset="0%" style="stop-color:#1AD6AB; stop-opacity:1"/>
   <stop offset="100%" style="stop-color:#329DB6; stop-opacity:1"/>
  </linearGradient>
  <linearGradient id="oomox" x1="0%" x2="0%" y1="0%" y2="100%">
   <stop offset="0%" style="stop-color:#00aa00; stop-opacity:1"/>
   <stop offset="100%" style="stop-color:#00cc00; stop-opacity:1"/>
  </linearGradient>
  <linearGradient id="rainblue" x1="0%" x2="0%" y1="0%" y2="100%">
   <stop offset="0%" style="stop-color:#00F260; stop-opacity:1"/>
   <stop offset="100%" style="stop-color:#0575E6; stop-opacity:1"/>
  </linearGradient>
  <linearGradient id="sunrise" x1="0%" x2="0%" y1="0%" y2="100%">
   <stop offset="0%" style="stop-color: #FF8501; stop-opacity:1"/>
   <stop offset="100%" style="stop-color: #FFCB01; stop-opacity:1"/>
  </linearGradient>
  <linearGradient id="telinkrin" x1="0%" x2="0%" y1="0%" y2="100%">
   <stop offset="0%" style="stop-color: #b2ced6; stop-opacity:1"/>
   <stop offset="100%" style="stop-color: #6da5b7; stop-opacity:1"/>
  </linearGradient>
  <linearGradient id="60spsycho" x1="0%" x2="0%" y1="0%" y2="100%">
   <stop offset="0%" style="stop-color: #df5940; stop-opacity:1"/>
   <stop offset="25%" style="stop-color: #d8d15f; stop-opacity:1"/>
   <stop offset="50%" style="stop-color: #e9882a; stop-opacity:1"/>
   <stop offset="100%" style="stop-color: #279362; stop-opacity:1"/>
  </linearGradient>
  <linearGradient id="90ssummer" x1="0%" x2="0%" y1="0%" y2="100%">
   <stop offset="0%" style="stop-color: #f618c7; stop-opacity:1"/>
   <stop offset="20%" style="stop-color: #94ffab; stop-opacity:1"/>
   <stop offset="50%" style="stop-color: #fbfd54; stop-opacity:1"/>
   <stop offset="100%" style="stop-color: #0f83ae; stop-opacity:1"/>
  </linearGradient>
 </defs>
 <path fill="url(#oomox)" class="ColorScheme-Text" d="M 2.6425787,1.2851555 A 2.1428573,2.1428573 0 0 0 0.50000065,3.4277336 2.1428573,2.1428573 0 0 0 2.6425787,5.5722649 2.1428573,2.1428573 0 0 0 4.7851567,3.4277336 2.1428573,2.1428573 0 0 0 2.6425787,1.2851555 Z m 10.7148443,0 A 2.1428573,2.1428573 0 0 0 11.214845,3.4277336 2.1428573,2.1428573 0 0 0 13.357423,5.5722649 2.1428573,2.1428573 0 0 0 15.500001,3.4277336 2.1428573,2.1428573 0 0 0 13.357423,1.2851555 Z M 8.0429697,6.0097649 A 2.1428573,2.1428573 0 0 0 5.9003917,8.1523426 2.1428573,2.1428573 0 0 0 8.0429697,10.294922 2.1428573,2.1428573 0 0 0 10.185548,8.1523426 2.1428573,2.1428573 0 0 0 8.0429697,6.0097649 Z M 2.6425787,10.714843 A 2.1428573,2.1428573 0 0 0 0.50000065,12.857422 2.1428573,2.1428573 0 0 0 2.6425787,15 2.1428573,2.1428573 0 0 0 4.7851567,12.857422 2.1428573,2.1428573 0 0 0 2.6425787,10.714843 Z m 10.7148443,0 A 2.1428573,2.1428573 0 0 0 11.214845,12.857422 2.1428573,2.1428573 0 0 0 13.357423,15 2.1428573,2.1428573 0 0 0 15.500001,12.857422 2.1428573,2.1428573 0 0 0 13.357423,10.714843 Z"/>
</svg>
