<svg xmlns="http://www.w3.org/2000/svg" width="16" height="16" version="1.1">
 <defs>
   <style id="current-color-scheme" type="text/css">
   .ColorScheme-Text { color: #00aa00; } .ColorScheme-Highlight { color:#5294e2; }
  </style>
  <linearGradient id="arrongin" x1="0%" x2="0%" y1="0%" y2="100%">
   <stop offset="0%" style="stop-color:#dd9b44; stop-opacity:1"/>
   <stop offset="100%" style="stop-color:#ad6c16; stop-opacity:1"/>
  </linearGradient>
  <linearGradient id="aurora" x1="0%" x2="0%" y1="0%" y2="100%">
   <stop offset="0%" style="stop-color:#09D4DF; stop-opacity:1"/>
   <stop offset="100%" style="stop-color:#9269F4; stop-opacity:1"/>
  </linearGradient>
  <linearGradient id="cyberneon" x1="0%" x2="0%" y1="0%" y2="100%">
    <stop offset="0" style="stop-color:#0abdc6; stop-opacity:1"/>
    <stop offset="1" style="stop-color:#ea00d9; stop-opacity:1"/>
  </linearGradient>
  <linearGradient id="fitdance" x1="0%" x2="0%" y1="0%" y2="100%">
   <stop offset="0%" style="stop-color:#1AD6AB; stop-opacity:1"/>
   <stop offset="100%" style="stop-color:#329DB6; stop-opacity:1"/>
  </linearGradient>
  <linearGradient id="oomox" x1="0%" x2="0%" y1="0%" y2="100%">
   <stop offset="0%" style="stop-color:#00aa00; stop-opacity:1"/>
   <stop offset="100%" style="stop-color:#00cc00; stop-opacity:1"/>
  </linearGradient>
  <linearGradient id="rainblue" x1="0%" x2="0%" y1="0%" y2="100%">
   <stop offset="0%" style="stop-color:#00F260; stop-opacity:1"/>
   <stop offset="100%" style="stop-color:#0575E6; stop-opacity:1"/>
  </linearGradient>
  <linearGradient id="sunrise" x1="0%" x2="0%" y1="0%" y2="100%">
   <stop offset="0%" style="stop-color: #FF8501; stop-opacity:1"/>
   <stop offset="100%" style="stop-color: #FFCB01; stop-opacity:1"/>
  </linearGradient>
  <linearGradient id="telinkrin" x1="0%" x2="0%" y1="0%" y2="100%">
   <stop offset="0%" style="stop-color: #b2ced6; stop-opacity:1"/>
   <stop offset="100%" style="stop-color: #6da5b7; stop-opacity:1"/>
  </linearGradient>
  <linearGradient id="60spsycho" x1="0%" x2="0%" y1="0%" y2="100%">
   <stop offset="0%" style="stop-color: #df5940; stop-opacity:1"/>
   <stop offset="25%" style="stop-color: #d8d15f; stop-opacity:1"/>
   <stop offset="50%" style="stop-color: #e9882a; stop-opacity:1"/>
   <stop offset="100%" style="stop-color: #279362; stop-opacity:1"/>
  </linearGradient>
  <linearGradient id="90ssummer" x1="0%" x2="0%" y1="0%" y2="100%">
   <stop offset="0%" style="stop-color: #f618c7; stop-opacity:1"/>
   <stop offset="20%" style="stop-color: #94ffab; stop-opacity:1"/>
   <stop offset="50%" style="stop-color: #fbfd54; stop-opacity:1"/>
   <stop offset="100%" style="stop-color: #0f83ae; stop-opacity:1"/>
  </linearGradient>
 </defs>
 <path fill="url(#oomox)" class="ColorScheme-Text" d="m 13.812042,13.875665 c 0.393249,-0.73521 1.210934,-0.81426 1.210422,-1.68369 -3.2e-4,-0.67039 -0.186453,-1.03319 -0.64032,-1.24857 -0.8344,-0.39594 -1.646443,0.0739 -1.646443,0.95267 0,0.86247 0.82224,1.34091 1.367456,0.79569 0.227435,-0.22744 0.282347,-0.60899 0.120843,-0.83967 -0.07168,-0.10238 -0.07947,-0.0862 -0.03467,0.0723 0.154464,0.54697 -0.266518,0.92534 -0.750891,0.67486 -0.506197,-0.26176 -0.410187,-1.10253 0.141717,-1.24105 0.272619,-0.0684 0.636576,0.17061 0.815328,0.53548 0.09632,0.19662 0.09973,0.31451 0.01718,0.59006 -0.270849,0.904 -1.488139,0.91009 -3.319958,0.0166 -0.444022,-0.21659 -1.039211,-0.54367 -1.322635,-0.72685 -0.488491,-0.31573 -1.083307,-0.58061 -1.935904,-1.32978 -0.451659,-0.39688 -0.518262,-0.34286 0.659712,-0.5350302 0.338667,-0.0552 1.328277,-0.3426 2.199126,-0.63856 1.547114,-0.5258 1.605536,-0.53828 2.550997,-0.54508 0.532181,-0.004 -0.35072,-0.0374 0.532224,0.001 l 1.605366,0.0697 v -0.87109 -0.8711 l -1.869259,-0.0491 c -2.672555,-0.0702 -1.370347,-0.1628 -4.128886,-1.22847 -0.526742,-0.20349 -1.259051,-0.44879 -1.62736,-0.54511 -0.870859,-0.22774 -2.189707,-0.30524 -2.850667,-0.16751 -0.762134,0.15881 -1.839659,0.73666 -2.465707,1.32229 -0.970379,0.90775 -2.06680601,2.60472 -1.95940301,3.03265 0.04832,0.1927 0.09845,0.20539 0.95353601,0.24152 0.496363,0.021 1.525931,0.13424 2.287926,0.2517 l 1.385451,0.2135502 v 0.59708 c -0.238998,1.09511 -0.06848,1.68609 -0.02592,2.08492 0.159275,1.44347 0.218667,1.59995 0.587403,1.54768 0.569632,-0.93676 0.577941,-2.73164 0.58207,-3.76699 l 0.637749,0.56904 c 1.592384,1.42086 2.061141,1.4005 3.426838,2.06482 1.289365,0.6272 2.705856,0.89214 3.496683,0.65402 z M 1.695113,8.8099448 c -0.08811,-0.0881 0.455392,-0.76008 1.167691,-1.4439 1.060704,-1.01833 1.056448,-1.01752 1.058923,-0.20065 0.0021,0.80378 0.195178,1.24118 0.750016,1.70206 l 0.362933,0.30147 -1.647445,-0.15715 C 2.48114,8.9253748 1.71969,8.8345148 1.695113,8.8099448 Z m 5.941153,0.0767 c 0.157269,-0.12395 0.394773,-0.4105 0.527797,-0.63678 0.21104,-0.35899 0.241856,-0.50388 0.241856,-1.13713 0,-0.39914 0.02624,-0.72571 0.05824,-0.72571 0.032,0 0.659648,0.25759 1.394731,0.57243 0.735083,0.31483 1.431296,0.59621 1.547147,0.62529 0.115851,0.0291 0.210635,0.0834 0.210635,0.12065 0,0.0373 -0.445333,0.2889 -0.989611,0.55916 -1.109974,0.55115 -1.940299,0.78109 -3.012811,0.83433 l -0.263893,0.0131 z M 16,4.6536648 c 0,-0.49052 -0.05888,-0.5372 -0.677632,-0.5372 -1.379435,0 -1.722592,-0.22252 -3.798731,-1.1422 -2.223734,-0.98506 -3.571147,-1.33736 -5.114827,-1.33736 -1.510976,0 -3.102774,0.41238 -4.738336,1.22755 -1.33130701,0.66353 -1.90049101,1.21133 -1.58569701,1.52613 0.111051,0.11105 0.03488,0.13477 1.89968001,-0.59186 1.27439,-0.49658 2.841195,-0.91618 3.688491,-0.98781 1.30831,-0.11059 2.867126,0.23307 5.62559,1.24025 0.990571,0.36167 2.129537,0.74146 2.531051,0.84398 0.858699,0.21924 0.948694,0.18478 1.664619,0.18722 L 16,5.0843648 Z"/>
</svg>
