<svg xmlns="http://www.w3.org/2000/svg" width="16" height="16" version="1.1">
 <defs>
   <style id="current-color-scheme" type="text/css">
   .ColorScheme-Text { color: #00aa00; } .ColorScheme-Highlight { color:#5294e2; }
  </style>
  <linearGradient id="arrongin" x1="0%" x2="0%" y1="0%" y2="100%">
   <stop offset="0%" style="stop-color:#dd9b44; stop-opacity:1"/>
   <stop offset="100%" style="stop-color:#ad6c16; stop-opacity:1"/>
  </linearGradient>
  <linearGradient id="aurora" x1="0%" x2="0%" y1="0%" y2="100%">
   <stop offset="0%" style="stop-color:#09D4DF; stop-opacity:1"/>
   <stop offset="100%" style="stop-color:#9269F4; stop-opacity:1"/>
  </linearGradient>
  <linearGradient id="cyberneon" x1="0%" x2="0%" y1="0%" y2="100%">
    <stop offset="0" style="stop-color:#0abdc6; stop-opacity:1"/>
    <stop offset="1" style="stop-color:#ea00d9; stop-opacity:1"/>
  </linearGradient>
  <linearGradient id="fitdance" x1="0%" x2="0%" y1="0%" y2="100%">
   <stop offset="0%" style="stop-color:#1AD6AB; stop-opacity:1"/>
   <stop offset="100%" style="stop-color:#329DB6; stop-opacity:1"/>
  </linearGradient>
  <linearGradient id="oomox" x1="0%" x2="0%" y1="0%" y2="100%">
   <stop offset="0%" style="stop-color:#00aa00; stop-opacity:1"/>
   <stop offset="100%" style="stop-color:#00cc00; stop-opacity:1"/>
  </linearGradient>
  <linearGradient id="rainblue" x1="0%" x2="0%" y1="0%" y2="100%">
   <stop offset="0%" style="stop-color:#00F260; stop-opacity:1"/>
   <stop offset="100%" style="stop-color:#0575E6; stop-opacity:1"/>
  </linearGradient>
  <linearGradient id="sunrise" x1="0%" x2="0%" y1="0%" y2="100%">
   <stop offset="0%" style="stop-color: #FF8501; stop-opacity:1"/>
   <stop offset="100%" style="stop-color: #FFCB01; stop-opacity:1"/>
  </linearGradient>
  <linearGradient id="telinkrin" x1="0%" x2="0%" y1="0%" y2="100%">
   <stop offset="0%" style="stop-color: #b2ced6; stop-opacity:1"/>
   <stop offset="100%" style="stop-color: #6da5b7; stop-opacity:1"/>
  </linearGradient>
  <linearGradient id="60spsycho" x1="0%" x2="0%" y1="0%" y2="100%">
   <stop offset="0%" style="stop-color: #df5940; stop-opacity:1"/>
   <stop offset="25%" style="stop-color: #d8d15f; stop-opacity:1"/>
   <stop offset="50%" style="stop-color: #e9882a; stop-opacity:1"/>
   <stop offset="100%" style="stop-color: #279362; stop-opacity:1"/>
  </linearGradient>
  <linearGradient id="90ssummer" x1="0%" x2="0%" y1="0%" y2="100%">
   <stop offset="0%" style="stop-color: #f618c7; stop-opacity:1"/>
   <stop offset="20%" style="stop-color: #94ffab; stop-opacity:1"/>
   <stop offset="50%" style="stop-color: #fbfd54; stop-opacity:1"/>
   <stop offset="100%" style="stop-color: #0f83ae; stop-opacity:1"/>
  </linearGradient>
 </defs>
 <path fill="url(#oomox)" class="ColorScheme-Text" d="m 2.0000375,12.76326 c -0.07431,-0.02268 -0.202734,-0.120945 -0.35452,-0.275149 -0.191055,-0.194268 -0.271597,-0.311055 -0.408321,-0.591988 -0.99265196,-2.0403786 -0.98110896,-5.7553135 0.02419,-7.7906647 0.286412,-0.5798929 0.616021,-0.908485 0.948876,-0.9460157 0.352063,-0.039685 1.112829,0.2645669 1.783117,0.713159 0.924329,0.6185575 1.912233,1.5704315 2.3810119,2.294211 0.1203402,0.1859528 0.1466457,0.2592756 0.1787717,0.4996913 0.020787,0.1549607 0.037795,0.3994205 0.037795,0.5431181 v 0.2611654 l -0.2262426,-0.096 C 6.0501835,7.2413701 5.5307705,7.0864094 5.1303145,7.0062835 4.7159125,6.9231335 4.0055575,6.8585039 3.8636175,6.8910079 c -0.101783,0.022677 -0.09955,0.026457 0.0796,0.070299 0.57818,0.1455118 2.5747309,0.7970263 2.6384387,0.8607493 0.030236,0.03024 -0.06565,0.809046 -0.1026898,0.832555 -0.083679,0.05329 -0.6747859,0.23433 -1.3443549,0.411779 -0.386223,0.102425 -0.710484,0.194646 -0.720582,0.20485 -0.01021,0.01134 0.04951,0.01134 0.132434,-7.55e-4 0.08296,-0.01134 0.369525,-0.04271 0.636798,-0.07106 0.267288,-0.03024 0.654939,-0.08126 0.861448,-0.117544 0.2065139,-0.0378 0.3817101,-0.06614 0.3893221,-0.06614 0.024567,0 -0.077518,0.410041 -0.1836095,0.737348 -0.1205291,0.3719068 -0.1505763,0.4081148 -0.8362846,1.0086438 -1.240683,1.086576 -2.19267,1.747313 -2.817468,1.955527 -0.271559,0.09071 -0.406012,0.100914 -0.596572,0.04611 z M 13.428036,12.74814 c -0.451472,-0.119055 -1.21601,-0.577814 -1.890868,-1.134538 -0.434086,-0.3583 -1.030291,-0.911358 -1.294729,-1.201361 l -0.207157,-0.227148 0.05669,-0.2252596 c 0.03137,-0.123969 0.06539,-0.3583 0.07601,-0.521122 0.01814,-0.280819 0.02306,-0.294803 0.08957,-0.275149 0.446518,0.130771 1.03093,0.240756 1.695787,0.318992 0.175105,0.0189 0.363628,0.04422 0.418945,0.05291 0.09823,0.01512 0.09861,0.01512 0.01663,-0.02268 -0.04607,-0.0189 -0.377877,-0.118299 -0.73734,-0.218079 -0.35947,-0.100157 -0.835268,-0.243401 -1.05736,-0.318236 L 10.19041,8.8400284 10.12956,8.3650934 c -0.03364,-0.261166 -0.06289,-0.512618 -0.06542,-0.55869 -0.0042,-0.07521 0.04585,-0.109606 0.498164,-0.342425 C 10.838814,7.321868 11.347512,7.0738932 11.69276,6.9130743 12.03802,6.7520664 12.316189,6.6163814 12.310936,6.6110901 12.284101,6.5846331 11.44203,6.8329483 10.75128,7.0719656 10.320645,7.220879 9.956759,7.3304853 9.9426462,7.3149893 9.9286622,7.2998713 9.8906402,7.2038712 9.8584002,7.1025798 9.8262745,7.0012945 9.7489453,6.813452 9.6866965,6.6856283 9.6244855,6.5578803 9.5735753,6.4395811 9.5735753,6.4233291 c 0,-0.015118 0.069581,-0.1379527 0.1546204,-0.2702362 C 10.277792,5.298315 11.447654,4.1915181 12.390332,3.6344914 12.946108,3.3060504 13.553051,3.106 13.832509,3.1591402 c 0.314646,0.059717 0.625399,0.3847559 0.902423,0.9436346 0.52029,1.0496504 0.808619,2.6527748 0.759508,4.2229416 -0.04437,1.418343 -0.305122,2.6844096 -0.73479,3.5676096 -0.136592,0.280819 -0.217285,0.397758 -0.40752,0.591043 -0.315704,0.320882 -0.502624,0.373795 -0.924268,0.262677 z M 7.6814228,10.350788 C 7.273094,10.291448 6.8816484,10.136111 6.7280106,9.9724184 6.6608866,9.9009884 6.6608486,9.8998484 6.7255506,9.6500254 6.9042088,8.9601854 7.0065207,7.8033104 6.9596167,7.0029953 6.9342937,6.5691811 6.9369397,6.5124126 6.9864517,6.474126 7.1704013,6.3320157 8.1560151,6.1407717 8.5125871,6.177811 8.7503949,6.204268 8.9562847,6.2911969 9.0776,6.4208346 c 0.2079496,0.2218583 0.4642658,0.9559559 0.5854526,1.6764848 0.086665,0.515377 0.085644,1.550211 -0.00181,1.844334 -0.058885,0.1980476 -0.06875,0.2101426 -0.2282835,0.2785516 -0.091691,0.03931 -0.279874,0.09335 -0.4181858,0.119811 -0.2751496,0.05253 -1.0057663,0.05858 -1.333508,0.01134 z"/>
</svg>
