<svg xmlns="http://www.w3.org/2000/svg" width="16" height="16" version="1.1">
 <defs>
   <style id="current-color-scheme" type="text/css">
   .ColorScheme-Text { color: #00aa00; } .ColorScheme-Highlight { color:#5294e2; }
  </style>
  <linearGradient id="arrongin" x1="0%" x2="0%" y1="0%" y2="100%">
   <stop offset="0%" style="stop-color:#dd9b44; stop-opacity:1"/>
   <stop offset="100%" style="stop-color:#ad6c16; stop-opacity:1"/>
  </linearGradient>
  <linearGradient id="aurora" x1="0%" x2="0%" y1="0%" y2="100%">
   <stop offset="0%" style="stop-color:#09D4DF; stop-opacity:1"/>
   <stop offset="100%" style="stop-color:#9269F4; stop-opacity:1"/>
  </linearGradient>
  <linearGradient id="cyberneon" x1="0%" x2="0%" y1="0%" y2="100%">
    <stop offset="0" style="stop-color:#0abdc6; stop-opacity:1"/>
    <stop offset="1" style="stop-color:#ea00d9; stop-opacity:1"/>
  </linearGradient>
  <linearGradient id="fitdance" x1="0%" x2="0%" y1="0%" y2="100%">
   <stop offset="0%" style="stop-color:#1AD6AB; stop-opacity:1"/>
   <stop offset="100%" style="stop-color:#329DB6; stop-opacity:1"/>
  </linearGradient>
  <linearGradient id="oomox" x1="0%" x2="0%" y1="0%" y2="100%">
   <stop offset="0%" style="stop-color:#00aa00; stop-opacity:1"/>
   <stop offset="100%" style="stop-color:#00cc00; stop-opacity:1"/>
  </linearGradient>
  <linearGradient id="rainblue" x1="0%" x2="0%" y1="0%" y2="100%">
   <stop offset="0%" style="stop-color:#00F260; stop-opacity:1"/>
   <stop offset="100%" style="stop-color:#0575E6; stop-opacity:1"/>
  </linearGradient>
  <linearGradient id="sunrise" x1="0%" x2="0%" y1="0%" y2="100%">
   <stop offset="0%" style="stop-color: #FF8501; stop-opacity:1"/>
   <stop offset="100%" style="stop-color: #FFCB01; stop-opacity:1"/>
  </linearGradient>
  <linearGradient id="telinkrin" x1="0%" x2="0%" y1="0%" y2="100%">
   <stop offset="0%" style="stop-color: #b2ced6; stop-opacity:1"/>
   <stop offset="100%" style="stop-color: #6da5b7; stop-opacity:1"/>
  </linearGradient>
  <linearGradient id="60spsycho" x1="0%" x2="0%" y1="0%" y2="100%">
   <stop offset="0%" style="stop-color: #df5940; stop-opacity:1"/>
   <stop offset="25%" style="stop-color: #d8d15f; stop-opacity:1"/>
   <stop offset="50%" style="stop-color: #e9882a; stop-opacity:1"/>
   <stop offset="100%" style="stop-color: #279362; stop-opacity:1"/>
  </linearGradient>
  <linearGradient id="90ssummer" x1="0%" x2="0%" y1="0%" y2="100%">
   <stop offset="0%" style="stop-color: #f618c7; stop-opacity:1"/>
   <stop offset="20%" style="stop-color: #94ffab; stop-opacity:1"/>
   <stop offset="50%" style="stop-color: #fbfd54; stop-opacity:1"/>
   <stop offset="100%" style="stop-color: #0f83ae; stop-opacity:1"/>
  </linearGradient>
 </defs>
 <path fill="url(#oomox)" class="ColorScheme-Text" d="M 7.998 10.234 L 7.998 10.6 C 7.778 10.6 7.599 10.78 7.599 11 C 7.599 11.22 7.778 11.4 7.998 11.4 L 8.398 11.4 C 8.618 11.4 8.798 11.22 8.798 11 L 8.798 10.234 L 7.998 10.234 Z M 4.001 10.603 C 3.781 10.603 3.601 10.783 3.601 11.003 C 3.601 11.223 3.781 11.403 4.001 11.403 L 4.401 11.403 C 4.62 11.403 4.8 11.223 4.8 11.003 L 4.8 10.237 C 4.524 10.234 4.254 10.194 4.001 10.117 L 4.001 10.603 Z M 5.5 9.801 L 6.499 9.801 L 6.499 4.604 C 6.163 4.614 5.83 4.64 5.5 4.69 L 5.5 9.801 Z M 2.585 6.423 C 2.551 6.509 2.521 6.597 2.495 6.686 C 2.435 6.896 2.405 7.116 2.405 7.342 L 2.405 7.382 C 2.405 7.798 2.512 8.192 2.698 8.535 C 2.735 8.605 2.775 8.671 2.818 8.735 C 2.927 8.895 3.055 9.043 3.198 9.174 C 3.255 9.228 3.315 9.274 3.378 9.321 C 3.534 9.437 3.701 9.534 3.884 9.611 C 4.064 9.687 4.257 9.741 4.457 9.774 C 4.577 9.794 4.7 9.801 4.827 9.801 L 4.91 9.801 L 4.91 4.807 C 4.62 4.874 4.334 4.957 4.047 5.054 C 3.365 5.287 2.845 5.793 2.585 6.423 L 2.585 6.423 Z M 7.099 9.801 L 8.098 9.801 L 8.098 4.724 C 7.768 4.668 7.434 4.631 7.099 4.614 L 7.099 9.801 Z M 10.897 6.213 C 10.88 6.186 10.867 6.159 10.85 6.133 C 10.803 6.053 10.75 5.976 10.693 5.903 C 10.657 5.853 10.617 5.806 10.573 5.76 C 10.297 5.455 9.947 5.226 9.557 5.093 C 9.271 4.997 8.984 4.914 8.698 4.844 L 8.698 9.801 L 8.781 9.801 C 10.117 9.801 11.2 8.718 11.2 7.382 C 11.2 7.189 11.176 6.999 11.133 6.816 C 11.08 6.603 11 6.399 10.897 6.213 L 10.897 6.213 Z M 1.969 7.342 C 1.969 6.946 2.052 6.563 2.202 6.213 C 0.58 6.386 0 8.691 0 9.801 L 0.8 9.801 L 2.502 9.044 C 2.153 8.56 1.965 7.979 1.965 7.382 L 1.965 7.342 L 1.969 7.342 L 1.969 7.342 Z M 2.399 5.583 C 2.395 5.543 2.385 5.497 2.375 5.453 C 2.355 5.36 2.319 5.267 2.272 5.173 C 2.222 5.081 2.159 4.996 2.085 4.92 C 2.009 4.847 1.925 4.78 1.832 4.73 C 1.742 4.68 1.646 4.647 1.552 4.627 C 1.506 4.617 1.462 4.61 1.422 4.604 C 1.382 4.6 1.342 4.597 1.313 4.597 C 1.279 4.597 1.253 4.6 1.233 4.6 C 1.223 4.6 1.216 4.6 1.209 4.604 L 1.203 4.604 L 1.203 4.61 C 1.203 4.614 1.199 4.624 1.199 4.634 C 1.199 4.65 1.196 4.68 1.196 4.714 C 1.196 4.747 1.199 4.784 1.203 4.827 C 1.206 4.867 1.216 4.914 1.226 4.957 C 1.246 5.05 1.283 5.147 1.329 5.237 C 1.379 5.327 1.442 5.413 1.519 5.49 C 1.596 5.563 1.679 5.63 1.772 5.676 C 1.862 5.726 1.959 5.76 2.052 5.78 C 2.099 5.79 2.142 5.796 2.182 5.803 C 2.222 5.806 2.262 5.81 2.292 5.81 C 2.325 5.81 2.352 5.806 2.372 5.806 C 2.382 5.806 2.389 5.806 2.395 5.803 L 2.402 5.803 L 2.402 5.796 C 2.402 5.793 2.405 5.783 2.405 5.773 C 2.405 5.756 2.408 5.726 2.408 5.693 C 2.405 5.663 2.402 5.623 2.399 5.583 L 2.399 5.583 Z M 11.393 8.555 L 11.386 8.545 C 11.156 9.059 10.78 9.493 10.304 9.794 C 11.083 10.257 11.973 10.513 12.882 10.533 L 16 10.6 L 13.158 9.724 C 12.468 9.516 11.854 9.109 11.393 8.555 L 11.393 8.555 Z"/>
</svg>
