<svg xmlns="http://www.w3.org/2000/svg" width="16" height="16" version="1.1">
 <defs>
   <style id="current-color-scheme" type="text/css">
   .ColorScheme-Text { color: #00aa00; } .ColorScheme-Highlight { color:#5294e2; }
  </style>
  <linearGradient id="arrongin" x1="0%" x2="0%" y1="0%" y2="100%">
   <stop offset="0%" style="stop-color:#dd9b44; stop-opacity:1"/>
   <stop offset="100%" style="stop-color:#ad6c16; stop-opacity:1"/>
  </linearGradient>
  <linearGradient id="aurora" x1="0%" x2="0%" y1="0%" y2="100%">
   <stop offset="0%" style="stop-color:#09D4DF; stop-opacity:1"/>
   <stop offset="100%" style="stop-color:#9269F4; stop-opacity:1"/>
  </linearGradient>
  <linearGradient id="cyberneon" x1="0%" x2="0%" y1="0%" y2="100%">
    <stop offset="0" style="stop-color:#0abdc6; stop-opacity:1"/>
    <stop offset="1" style="stop-color:#ea00d9; stop-opacity:1"/>
  </linearGradient>
  <linearGradient id="fitdance" x1="0%" x2="0%" y1="0%" y2="100%">
   <stop offset="0%" style="stop-color:#1AD6AB; stop-opacity:1"/>
   <stop offset="100%" style="stop-color:#329DB6; stop-opacity:1"/>
  </linearGradient>
  <linearGradient id="oomox" x1="0%" x2="0%" y1="0%" y2="100%">
   <stop offset="0%" style="stop-color:#00aa00; stop-opacity:1"/>
   <stop offset="100%" style="stop-color:#00cc00; stop-opacity:1"/>
  </linearGradient>
  <linearGradient id="rainblue" x1="0%" x2="0%" y1="0%" y2="100%">
   <stop offset="0%" style="stop-color:#00F260; stop-opacity:1"/>
   <stop offset="100%" style="stop-color:#0575E6; stop-opacity:1"/>
  </linearGradient>
  <linearGradient id="sunrise" x1="0%" x2="0%" y1="0%" y2="100%">
   <stop offset="0%" style="stop-color: #FF8501; stop-opacity:1"/>
   <stop offset="100%" style="stop-color: #FFCB01; stop-opacity:1"/>
  </linearGradient>
  <linearGradient id="telinkrin" x1="0%" x2="0%" y1="0%" y2="100%">
   <stop offset="0%" style="stop-color: #b2ced6; stop-opacity:1"/>
   <stop offset="100%" style="stop-color: #6da5b7; stop-opacity:1"/>
  </linearGradient>
  <linearGradient id="60spsycho" x1="0%" x2="0%" y1="0%" y2="100%">
   <stop offset="0%" style="stop-color: #df5940; stop-opacity:1"/>
   <stop offset="25%" style="stop-color: #d8d15f; stop-opacity:1"/>
   <stop offset="50%" style="stop-color: #e9882a; stop-opacity:1"/>
   <stop offset="100%" style="stop-color: #279362; stop-opacity:1"/>
  </linearGradient>
  <linearGradient id="90ssummer" x1="0%" x2="0%" y1="0%" y2="100%">
   <stop offset="0%" style="stop-color: #f618c7; stop-opacity:1"/>
   <stop offset="20%" style="stop-color: #94ffab; stop-opacity:1"/>
   <stop offset="50%" style="stop-color: #fbfd54; stop-opacity:1"/>
   <stop offset="100%" style="stop-color: #0f83ae; stop-opacity:1"/>
  </linearGradient>
 </defs>
 <path fill="url(#oomox)" class="ColorScheme-Text" fill-rule="evenodd" d="M 12.051 9.36 C 12.051 10.832 10.729 12.159 10.027 13.448 C 9.185 14.993 9.373 15.32 7.669 15.32 C 4.545 15.32 3.513 12.431 3.513 9.193 C 3.513 7.505 3.595 5.425 4.696 4.356 C 5.708 3.373 7.414 3.124 8.91 3.124 C 10.568 3.124 11.383 4.352 11.868 5.118 C 12.298 5.795 12.051 7.84 12.051 9.359 L 12.051 9.36 L 12.051 9.36 Z M 15.429 6.338 C 15.429 10.084 11.101 16 7.329 16 C 3.557 16 0.326 10.088 0.586 6.074 C 0.763 3.346 4.07 -0.064 5.999 0.001 C 6.646 0.065 5.481 0.73 6.258 0.514 C 6.846 0.35 7.467 0.262 8.109 0.262 C 11.881 0.262 15.429 2.593 15.429 6.338 L 15.429 6.338 L 15.429 6.338 Z M 5.871 7.448 L 6.022 7.505 C 6.152 7.554 6.29 7.507 6.329 7.401 L 6.329 7.401 C 6.368 7.294 6.294 7.168 6.164 7.119 L 4.723 6.575 C 4.593 6.526 4.455 6.572 4.416 6.679 L 4.416 6.679 C 4.376 6.785 4.451 6.912 4.581 6.961 L 5.258 7.216 C 5.086 7.446 4.968 7.91 4.968 8.445 C 4.968 9.208 5.207 9.826 5.502 9.826 C 5.796 9.826 6.035 9.208 6.035 8.445 C 6.035 8.053 5.972 7.699 5.871 7.448 L 5.871 7.448 Z M 9.161 6.307 L 10.72 5.553 C 10.861 5.485 11.015 5.517 11.064 5.624 L 11.064 5.624 C 11.114 5.732 11.039 5.874 10.898 5.942 L 9.339 6.696 C 9.199 6.764 9.044 6.732 8.995 6.625 L 8.995 6.625 C 8.946 6.517 9.02 6.375 9.161 6.307 L 9.161 6.307 L 9.161 6.307 L 9.161 6.307 Z M 9.303 8.125 C 9.25 7.325 9.462 6.672 9.774 6.669 C 10.087 6.666 10.384 7.313 10.437 8.114 C 10.49 8.915 10.278 9.567 9.966 9.57 C 9.653 9.573 9.356 8.926 9.303 8.125 L 9.303 8.125 L 9.303 8.125 L 9.303 8.125 Z M 8.724 9.752 C 8.952 10.029 9.559 10.173 9.693 10.576 C 9.812 10.933 9.668 11.375 9.446 11.679 C 9.317 11.854 9.099 11.995 8.883 12.007 C 8.554 12.025 8.075 11.923 7.978 11.607 C 7.952 11.523 8.032 11.408 8.116 11.383 C 8.323 11.321 8.496 11.714 8.704 11.656 C 9.073 11.553 9.413 11.081 9.351 10.701 C 9.294 10.347 8.66 10.369 8.499 10.049 C 8.376 9.806 8.219 9.283 8.485 9.232 C 8.553 9.383 8.623 9.626 8.724 9.752 L 8.724 9.752 L 8.724 9.752 L 8.724 9.752 L 8.724 9.752 Z M 6.575 13.473 L 8.833 13.717 C 9.033 13.738 9.17 13.83 9.137 13.921 L 9.137 13.921 C 9.105 14.012 8.916 14.068 8.716 14.047 L 6.458 13.804 C 6.258 13.782 6.121 13.691 6.153 13.599 L 6.153 13.599 C 6.186 13.508 6.375 13.452 6.575 13.473 L 6.575 13.473 L 6.575 13.473 L 6.575 13.473 Z"/>
</svg>
