<svg xmlns="http://www.w3.org/2000/svg" width="16" height="16" version="1.1">
 <defs>
   <style id="current-color-scheme" type="text/css">
   .ColorScheme-Text { color: #00aa00; } .ColorScheme-Highlight { color: #5294e2; }
  </style>
  <linearGradient id="arrongin" x1="0%" x2="0%" y1="0%" y2="100%">
   <stop offset="0%" style="stop-color: #dd9b44; stop-opacity: 1"/>
   <stop offset="100%" style="stop-color: #ad6c16; stop-opacity: 1"/>
  </linearGradient>
  <linearGradient id="aurora" x1="0%" x2="0%" y1="0%" y2="100%">
   <stop offset="0%" style="stop-color: #09D4DF; stop-opacity: 1"/>
   <stop offset="100%" style="stop-color: #9269F4; stop-opacity: 1"/>
  </linearGradient>
  <linearGradient id="cyberneon" x1="0%" x2="0%" y1="0%" y2="100%">
    <stop offset="0" style="stop-color: #0abdc6; stop-opacity: 1"/>
    <stop offset="1" style="stop-color: #ea00d9; stop-opacity: 1"/>
  </linearGradient>
  <linearGradient id="fitdance" x1="0%" x2="0%" y1="0%" y2="100%">
   <stop offset="0%" style="stop-color: #1AD6AB; stop-opacity: 1"/>
   <stop offset="100%" style="stop-color: #329DB6; stop-opacity: 1"/>
  </linearGradient>
  <linearGradient id="oomox" x1="0%" x2="0%" y1="0%" y2="100%">
   <stop offset="0%" style="stop-color: #00aa00; stop-opacity: 1"/>
   <stop offset="100%" style="stop-color: #00cc00; stop-opacity: 1"/>
  </linearGradient>
  <linearGradient id="rainblue" x1="0%" x2="0%" y1="0%" y2="100%">
   <stop offset="0%" style="stop-color: #00F260; stop-opacity: 1"/>
   <stop offset="100%" style="stop-color: #0575E6; stop-opacity: 1"/>
  </linearGradient>
  <linearGradient id="sunrise" x1="0%" x2="0%" y1="0%" y2="100%">
   <stop offset="0%" style="stop-color: #FF8501; stop-opacity: 1"/>
   <stop offset="100%" style="stop-color: #FFCB01; stop-opacity: 1"/>
  </linearGradient>
  <linearGradient id="telinkrin" x1="0%" x2="0%" y1="0%" y2="100%">
   <stop offset="0%" style="stop-color: #b2ced6; stop-opacity: 1"/>
   <stop offset="100%" style="stop-color: #6da5b7; stop-opacity: 1"/>
  </linearGradient>
  <linearGradient id="60spsycho" x1="0%" x2="0%" y1="0%" y2="100%">
   <stop offset="0%" style="stop-color: #df5940; stop-opacity: 1"/>
   <stop offset="25%" style="stop-color: #d8d15f; stop-opacity: 1"/>
   <stop offset="50%" style="stop-color: #e9882a; stop-opacity: 1"/>
   <stop offset="100%" style="stop-color: #279362; stop-opacity: 1"/>
  </linearGradient>
  <linearGradient id="90ssummer" x1="0%" x2="0%" y1="0%" y2="100%">
   <stop offset="0%" style="stop-color: #f618c7; stop-opacity: 1"/>
   <stop offset="20%" style="stop-color: #94ffab; stop-opacity: 1"/>
   <stop offset="50%" style="stop-color: #fbfd54; stop-opacity: 1"/>
   <stop offset="100%" style="stop-color: #0f83ae; stop-opacity: 1"/>
  </linearGradient>
 </defs>
   <path fill="url(#oomox)" class="ColorScheme-Text" fill-rule="evenodd" d="M 3.428571 13.142857 L 3.428571 14.285714 L 16 14.285714 L 16 13.142857 L 3.428571 13.142857 L 3.428571 13.142857 L 3.428571 13.142857 L 3.428571 13.142857 L 3.428571 13.142857 L 3.428571 13.142857 L 3.428571 13.142857 Z M 3.428571 1.714286 L 3.428571 2.857143 L 16 2.857143 L 16 1.714286 L 3.428571 1.714286 L 3.428571 1.714286 L 3.428571 1.714286 L 3.428571 1.714286 L 3.428571 1.714286 L 3.428571 1.714286 L 3.428571 1.714286 L 3.428571 1.714286 L 3.428571 1.714286 L 3.428571 1.714286 L 3.428571 1.714286 Z M 3.428571 6.285714 L 3.428571 7.428571 L 16 7.428571 L 16 6.285714 L 3.428571 6.285714 L 3.428571 6.285714 L 3.428571 6.285714 L 3.428571 6.285714 L 3.428571 6.285714 L 3.428571 6.285714 L 3.428571 6.285714 L 3.428571 6.285714 L 3.428571 6.285714 L 3.428571 6.285714 Z M 3.428571 8.571429 L 3.428571 9.714286 L 16 9.714286 L 16 8.571429 L 3.428571 8.571429 L 3.428571 8.571429 L 3.428571 8.571429 L 3.428571 8.571429 L 3.428571 8.571429 L 3.428571 8.571429 L 3.428571 8.571429 L 3.428571 8.571429 L 3.428571 8.571429 Z M 3.428571 10.857143 L 3.428571 12 L 16 12 L 16 10.857143 L 3.428571 10.857143 L 3.428571 10.857143 L 3.428571 10.857143 L 3.428571 10.857143 L 3.428571 10.857143 L 3.428571 10.857143 L 3.428571 10.857143 L 3.428571 10.857143 Z M 3.428571 4 L 3.428571 5.142857 L 16 5.142857 L 16 4 L 3.428571 4 L 3.428571 4 L 3.428571 4 L 3.428571 4 L 3.428571 4 L 3.428571 4 L 3.428571 4 L 3.428571 4 L 3.428571 4 L 3.428571 4 L 3.428571 4 Z M 0 1.714286 L 2.285714 1.714286 L 2.285714 2.857143 L 0 2.857143 L 0 1.714286 L 0 1.714286 L 0 1.714286 L 0 1.714286 L 0 1.714286 L 0 1.714286 Z M 0 4 L 2.285714 4 L 2.285714 5.142857 L 0 5.142857 L 0 4 L 0 4 L 0 4 L 0 4 L 0 4 Z M 0 6.285714 L 2.285714 6.285714 L 2.285714 7.428571 L 0 7.428571 L 0 6.285714 L 0 6.285714 L 0 6.285714 L 0 6.285714 Z M 0 8.571429 L 2.285714 8.571429 L 2.285714 9.714286 L 0 9.714286 L 0 8.571429 L 0 8.571429 L 0 8.571429 Z M 0 10.857143 L 2.285714 10.857143 L 2.285714 12 L 0 12 L 0 10.857143 L 0 10.857143 Z M 0 13.142857 L 2.285714 13.142857 L 2.285714 14.285714 L 0 14.285714 L 0 13.142857 Z"/>
</svg>
