<svg xmlns="http://www.w3.org/2000/svg" width="16" height="16" version="1.1">
 <defs>
  <style id="current-color-scheme" type="text/css">
   .ColorScheme-Text { color: #00aa00; } .ColorScheme-Highlight { color: #5294e2; }
  </style>
  <linearGradient id="arrongin" x1="0%" x2="0%" y1="0%" y2="100%">
   <stop id="stop3" offset="0%" style="stop-color: #dd9b44"/>
   <stop id="stop5" offset="100%" style="stop-color: #ad6c16"/>
  </linearGradient>
  <linearGradient id="aurora" x1="0%" x2="0%" y1="0%" y2="100%">
   <stop id="stop8" offset="0%" style="stop-color: #09D4DF"/>
   <stop id="stop10" offset="100%" style="stop-color: #9269F4"/>
  </linearGradient>
  <linearGradient id="cyberneon" x1="0%" x2="0%" y1="0%" y2="100%">
   <stop id="stop56" offset="0" style="stop-color: #0abdc6"/>
   <stop id="stop58" offset="1" style="stop-color: #ea00d9"/>
  </linearGradient>
  <linearGradient id="fitdance" x1="0%" x2="0%" y1="0%" y2="100%">
   <stop id="stop13" offset="0%" style="stop-color: #1AD6AB"/>
   <stop id="stop15" offset="100%" style="stop-color: #329DB6"/>
  </linearGradient>
  <linearGradient id="oomox" x1="0%" x2="0%" y1="0%" y2="100%">
   <stop id="stop18" offset="0%" style="stop-color: #00aa00"/>
   <stop id="stop20" offset="100%" style="stop-color: #00cc00"/>
  </linearGradient>
  <linearGradient id="rainblue" x1="0%" x2="0%" y1="0%" y2="100%">
   <stop id="stop23" offset="0%" style="stop-color: #00F260"/>
   <stop id="stop25" offset="100%" style="stop-color: #0575E6"/>
  </linearGradient>
  <linearGradient id="sunrise" x1="0%" x2="0%" y1="0%" y2="100%">
   <stop id="stop28" offset="0%" style="stop-color: #FF8501"/>
   <stop id="stop30" offset="100%" style="stop-color: #FFCB01"/>
  </linearGradient>
  <linearGradient id="telinkrin" x1="0%" x2="0%" y1="0%" y2="100%">
   <stop id="stop33" offset="0%" style="stop-color: #b2ced6"/>
   <stop id="stop35" offset="100%" style="stop-color: #6da5b7"/>
  </linearGradient>
  <linearGradient id="60spsycho" x1="0%" x2="0%" y1="0%" y2="100%">
   <stop id="stop38" offset="0%" style="stop-color: #df5940"/>
   <stop id="stop40" offset="25%" style="stop-color: #d8d15f"/>
   <stop id="stop42" offset="50%" style="stop-color: #e9882a"/>
   <stop id="stop44" offset="100%" style="stop-color: #279362"/>
  </linearGradient>
  <linearGradient id="90ssummer" x1="0%" x2="0%" y1="0%" y2="100%">
   <stop id="stop47" offset="0%" style="stop-color: #f618c7"/>
   <stop id="stop49" offset="20%" style="stop-color: #94ffab"/>
   <stop id="stop51" offset="50%" style="stop-color: #fbfd54"/>
   <stop id="stop53" offset="100%" style="stop-color: #0f83ae"/>
  </linearGradient>
 </defs>
 <path fill="url(#oomox)" class="ColorScheme-Text" d="m 11.94127,0.57363605 c -0.276428,-0.1327296 -0.539694,-0.213903 -0.789796,-0.2402296 -0.253392,-0.0263265 -0.484846,-0.00878 -0.694362,0.050459 -0.209515,0.060332 -0.393801,0.1590561 -0.5539539,0.2961735 -0.160153,0.1371173 -0.287398,0.3049489 -0.382831,0.50239795 -0.06033,0.125051 -0.104209,0.2413265 -0.13273,0.3488265 -0.02962,0.1107908 -0.04936,0.2084183 -0.05924,0.2928826 -0.01097,0.087755 -0.01426,0.16125 -0.01097,0.2193877 0.0022,0.059235 0.0011,0.1107908 0.0055,0.1349235 l 0.02633,0.2621683 c 0.01316,0.1217602 0,0.2160969 -0.03839,0.2819132 -0.036199,0.069107 -0.1053057,0.108597 -0.207321,0.1184694 -0.024133,0.00219 -0.049362,0.00219 -0.077883,0.0011 -0.027423,-0.0011 -0.052653,-0.00439 -0.074592,-0.00878 L 4.8210415,0.84567685 3.4761947,3.6395797 c -0.00439,0.021939 -0.00768,0.047168 -0.00878,0.075689 -0.00219,0.027424 -0.0011,0.05375 0.0011,0.076786 0.00987,0.1020153 0.049362,0.1711225 0.1184693,0.2073215 0.065816,0.038393 0.1601531,0.051556 0.2819133,0.03949 l 0.2621698,-0.027424 c 0.024133,-0.00329 0.075689,-0.00219 0.1349235,-0.00548 0.058138,-0.00329 0.1316326,0.0011 0.2193877,0.012066 0.084464,0.00878 0.1820918,0.02852 0.2928826,0.058138 0.1075,0.02852 0.2237755,0.073495 0.3488265,0.1327295 0.197449,0.095434 0.3652806,0.2226786 0.5023979,0.3828316 0.1371174,0.1601531 0.2358418,0.3455357 0.2961735,0.5539541 0.059235,0.2095152 0.076786,0.4409693 0.050459,0.6943621 -0.027423,0.2501018 -0.1075,0.513367 -0.2402296,0.7897956 C 5.6020619,6.906263 5.4506843,7.1377171 5.2795619,7.3209058 5.1073425,7.5008038 4.9241538,7.6346303 4.7288987,7.7201915 4.5336436,7.8068497 4.33071,7.8463395 4.1190008,7.8386609 3.9083886,7.8309823 3.6977763,7.7761354 3.4860672,7.6741201 3.3632101,7.6159823 3.2546131,7.5534568 3.1569856,7.4865436 3.060455,7.4207273 2.9792815,7.3582018 2.9112713,7.2978701 2.8432611,7.2375385 2.7884142,7.1837885 2.7467305,7.1366201 2.7072407,7.086161 2.6918836,7.0532528 2.6798173,7.0280232 L 2.5361183,6.8053447 C 2.470302,6.7022324 2.4011948,6.6364161 2.3298938,6.6089926 2.2596898,6.5782784 2.1807102,6.5903447 2.094052,6.6462886 2.074307,6.6583546 2.053465,6.6748086 2.032623,6.6934566 2.011781,6.7121046 1.99423,6.7296556 1.97997,6.7472066 L -3.9180906e-6,10.857436 4.1288732,12.845089 c 0.021939,0.0044 0.047168,0.0077 0.075689,0.0088 0.02852,0.0022 0.05375,0.0011 0.077883,-0.0011 0.1020152,-0.0099 0.1711224,-0.04936 0.2073214,-0.117372 0.038393,-0.06691 0.051556,-0.16125 0.038393,-0.281913 l -0.026327,-0.263266 c -0.00439,-0.02413 -0.00329,-0.07569 -0.00658,-0.134923 -0.00219,-0.05814 0.0011,-0.131633 0.012066,-0.219388 0.00987,-0.08446 0.029617,-0.182092 0.059235,-0.292883 0.02852,-0.1075 0.072398,-0.223775 0.1327295,-0.348826 0.094337,-0.197449 0.2226786,-0.364184 0.3828316,-0.502398 0.1601531,-0.137117 0.3444388,-0.235842 0.5539541,-0.295076 0.2084183,-0.06033 0.4398724,-0.07788 0.6943621,-0.05156 0.2490051,0.02742 0.5122704,0.1075 0.7897959,0.24023 0.2764285,0.133827 0.5067856,0.285204 0.6910713,0.456326 0.179898,0.17222 0.3126276,0.356506 0.3992857,0.551761 0.085561,0.194158 0.125051,0.398188 0.1184694,0.608801 -0.00768,0.210612 -0.062525,0.422321 -0.1645408,0.63403 -0.059235,0.12176 -0.1217602,0.231454 -0.1875765,0.327985 -0.065816,0.09653 -0.1294388,0.177704 -0.1897704,0.245714 -0.059235,0.06801 -0.1129847,0.122857 -0.16125,0.164541 -0.050459,0.03949 -0.083367,0.05485 -0.1085969,0.06801 L 7.29464,13.785184 c -0.1020153,0.06582 -0.1678316,0.134924 -0.196352,0.206225 -0.030714,0.0702 -0.017551,0.149183 0.037296,0.235841 0.013163,0.01975 0.02852,0.04059 0.047168,0.06143 0.018648,0.02084 0.037296,0.03839 0.05375,0.05375 l 2.775255,1.336071 1.979975,-4.110229 c 0.01426,-0.01755 0.03181,-0.0351 0.05265,-0.05375 0.02194,-0.01865 0.04168,-0.03401 0.06143,-0.04717 0.08666,-0.05485 0.165638,-0.06801 0.235842,-0.0373 0.0713,0.02852 0.140409,0.09324 0.206225,0.196352 l 0.143699,0.222678 c 0.01207,0.02523 0.02742,0.05814 0.06801,0.108597 0.04059,0.04717 0.09653,0.102016 0.163444,0.16125 0.06801,0.06033 0.149184,0.122857 0.246812,0.189771 0.09653,0.06582 0.206224,0.128341 0.327984,0.187576 0.211709,0.100919 0.422322,0.156862 0.634031,0.163444 0.210612,0.0077 0.413546,-0.03181 0.608801,-0.117372 0.195255,-0.08666 0.378444,-0.220485 0.550663,-0.399286 0.171121,-0.184286 0.322499,-0.414643 0.456325,-0.692168 0.13273,-0.276429 0.212807,-0.539694 0.24023,-0.788699 0.02633,-0.25449 0.0099,-0.485944 -0.05046,-0.6943617 -0.06033,-0.20953 -0.159054,-0.394912 -0.296172,-0.555065 C 15.504127,9.2526148 15.336295,9.1253699 15.138847,9.0310332 15.014892,8.9707016 14.898617,8.926824 14.79002,8.8983036 14.679229,8.8686863 14.581602,8.8489414 14.497137,8.839069 14.409387,8.8281 14.335887,8.823712 14.27775,8.827003 c -0.05924,0.00329 -0.110791,0.00219 -0.133827,0.00658 l -0.263265,0.026326 c -0.12176,0.012066 -0.216097,-0.0011 -0.281913,-0.038393 -0.06801,-0.036199 -0.1075,-0.1053061 -0.11847,-0.2084183 -0.0022,-0.023036 -0.0022,-0.048265 -0.0011,-0.076786 0.0011,-0.02852 0.0044,-0.05375 0.0088,-0.075689 L 14.832801,5.6667223 12.057546,4.3295541 c -0.01645,-0.01426 -0.03401,-0.031811 -0.05265,-0.052653 -0.01865,-0.020842 -0.0351,-0.041684 -0.04717,-0.061428 -0.05594,-0.086658 -0.06911,-0.1656378 -0.0373,-0.2358418 0.02742,-0.071301 0.09324,-0.1404082 0.195256,-0.2062245 l 0.222678,-0.143699 c 0.02633,-0.012066 0.05814,-0.027423 0.109694,-0.066913 0.04717,-0.041684 0.100918,-0.096531 0.16125,-0.1645408 0.05924,-0.06801 0.122857,-0.1491837 0.188673,-0.2457143 0.06582,-0.097628 0.128344,-0.2062253 0.187579,-0.3290824 0.102015,-0.2117092 0.156862,-0.4223214 0.164541,-0.6329336 0.0066,-0.2117092 -0.03291,-0.4146428 -0.11847,-0.6098979 C 12.944969,1.3853707 12.81224,1.202182 12.632342,1.0299626 12.448056,0.85884015 12.217699,0.70746255 11.94127,0.57363605 Z"/>
</svg>
