<svg xmlns="http://www.w3.org/2000/svg" width="16" height="16" version="1.1">
 <defs>
   <style id="current-color-scheme" type="text/css">
   .ColorScheme-Text { color: #00aa00; } .ColorScheme-Highlight { color: #5294e2; }
  </style>
  <linearGradient id="arrongin" x1="0%" x2="0%" y1="0%" y2="100%">
   <stop offset="0%" style="stop-color: #dd9b44; stop-opacity: 1"/>
   <stop offset="100%" style="stop-color: #ad6c16; stop-opacity: 1"/>
  </linearGradient>
  <linearGradient id="aurora" x1="0%" x2="0%" y1="0%" y2="100%">
   <stop offset="0%" style="stop-color: #09D4DF; stop-opacity: 1"/>
   <stop offset="100%" style="stop-color: #9269F4; stop-opacity: 1"/>
  </linearGradient>
  <linearGradient id="cyberneon" x1="0%" x2="0%" y1="0%" y2="100%">
    <stop offset="0" style="stop-color: #0abdc6; stop-opacity: 1"/>
    <stop offset="1" style="stop-color: #ea00d9; stop-opacity: 1"/>
  </linearGradient>
  <linearGradient id="fitdance" x1="0%" x2="0%" y1="0%" y2="100%">
   <stop offset="0%" style="stop-color: #1AD6AB; stop-opacity: 1"/>
   <stop offset="100%" style="stop-color: #329DB6; stop-opacity: 1"/>
  </linearGradient>
  <linearGradient id="oomox" x1="0%" x2="0%" y1="0%" y2="100%">
   <stop offset="0%" style="stop-color: #00aa00; stop-opacity: 1"/>
   <stop offset="100%" style="stop-color: #00cc00; stop-opacity: 1"/>
  </linearGradient>
  <linearGradient id="rainblue" x1="0%" x2="0%" y1="0%" y2="100%">
   <stop offset="0%" style="stop-color: #00F260; stop-opacity: 1"/>
   <stop offset="100%" style="stop-color: #0575E6; stop-opacity: 1"/>
  </linearGradient>
  <linearGradient id="sunrise" x1="0%" x2="0%" y1="0%" y2="100%">
   <stop offset="0%" style="stop-color: #FF8501; stop-opacity: 1"/>
   <stop offset="100%" style="stop-color: #FFCB01; stop-opacity: 1"/>
  </linearGradient>
  <linearGradient id="telinkrin" x1="0%" x2="0%" y1="0%" y2="100%">
   <stop offset="0%" style="stop-color: #b2ced6; stop-opacity: 1"/>
   <stop offset="100%" style="stop-color: #6da5b7; stop-opacity: 1"/>
  </linearGradient>
  <linearGradient id="60spsycho" x1="0%" x2="0%" y1="0%" y2="100%">
   <stop offset="0%" style="stop-color: #df5940; stop-opacity: 1"/>
   <stop offset="25%" style="stop-color: #d8d15f; stop-opacity: 1"/>
   <stop offset="50%" style="stop-color: #e9882a; stop-opacity: 1"/>
   <stop offset="100%" style="stop-color: #279362; stop-opacity: 1"/>
  </linearGradient>
  <linearGradient id="90ssummer" x1="0%" x2="0%" y1="0%" y2="100%">
   <stop offset="0%" style="stop-color: #f618c7; stop-opacity: 1"/>
   <stop offset="20%" style="stop-color: #94ffab; stop-opacity: 1"/>
   <stop offset="50%" style="stop-color: #fbfd54; stop-opacity: 1"/>
   <stop offset="100%" style="stop-color: #0f83ae; stop-opacity: 1"/>
  </linearGradient>
 </defs>
 <path fill="url(#oomox)" class="ColorScheme-Text" d="M 7.9214006,0.34374994 C 7.0943521,0.34583819 6.1668391,0.47066038 5.5556982,0.66138544 5.4520678,0.69372504 5.3403221,0.71995237 5.3062667,0.71984591 5.1414423,0.71928719 3.9857964,1.2364115 3.5563484,1.5032169 3.434985,1.5786051 3.3158646,1.6415734 3.2932761,1.6415734 c -0.022589,0 -0.040803,0.013911 -0.040923,0.031179 -2.394e-4,0.028043 -0.095246,0.095482 -0.3488144,0.2474829 -0.225393,0.1350922 -0.8968028,0.7747672 -1.2491065,1.190646 -0.183688,0.2168391 -0.6625525,0.8884558 -0.6625525,0.9295222 10e-9,0.011002 -0.0622633,0.130328 -0.13835656,0.265021 -0.39644274,0.7013351 -0.68523859,1.6592002 -0.80480609,2.6696972 -0.14758364,1.2474237 0.04257157,2.5686431 0.54368284,3.7707033 0.15045709,0.360778 0.36145064,0.770036 0.48911971,0.950958 0.043115,0.06119 0.077947,0.122839 0.077947,0.136408 0,0.02275 0.1421986,0.218525 0.4111723,0.567066 0.1230661,0.159504 0.3920871,0.46655 0.5534262,0.631375 0.3047453,0.311423 1.1149778,0.960701 1.1984406,0.960701 0.015405,0 0.062953,0.03184 0.105229,0.07015 0.091671,0.08288 0.1348475,0.107638 0.6099381,0.342969 0.9766808,0.484096 1.7253182,0.713183 2.774926,0.847677 1.3372191,0.171476 3.0389573,-0.01505 4.1565432,-0.454043 l 0.198765,-0.07795 -1.071776,-1.056187 -1.0717758,-1.056186 -0.1539461,0.03313 c -0.084341,0.01783 -0.5014781,0.03312 -0.9275736,0.03312 -0.8036351,0 -0.8718142,-0.01168 -1.5492038,-0.233842 C 6.1078836,12.347527 5.6257687,12.108461 5.3354969,11.915035 4.6422767,11.453021 4.0746459,10.806249 3.6927563,10.046247 3.5484718,9.7591692 3.4867792,9.5977092 3.3166604,9.0524187 3.1413299,8.4902332 3.1406151,7.1133243 3.3147116,6.5600519 3.350949,6.4449809 3.4091687,6.256156 3.4452735,6.1410849 3.5246126,5.8880616 3.8867216,5.1589481 3.9324444,5.1589481 c 0.017946,0 0.033127,-0.02251 0.033127,-0.048717 0,-0.1129426 0.6628571,-0.8612381 0.9879828,-1.1146473 C 5.857494,3.290963 6.868167,2.9393971 7.9837578,2.9393971 c 0.9680604,0 1.8216483,0.2553143 2.6190312,0.7853197 0.267125,0.1775819 0.660265,0.5126262 0.791166,0.6742446 0.0439,0.054276 0.110804,0.1298064 0.150048,0.1675869 0.252757,0.2433122 0.702211,1.02467 0.867165,1.5102301 0.207128,0.6102094 0.262541,0.9707649 0.263073,1.7109445 2.69e-4,0.5157579 -0.02031,0.8088411 -0.06821,1.0191618 l -0.06626,0.2961999 1.165313,1.1672624 c 0.641339,0.642403 1.187338,1.16921 1.212082,1.16921 0.04696,0 0.302001,-0.483974 0.409223,-0.775577 C 15.59219,9.9402965 15.734676,9.4020864 15.813566,8.8224741 15.968683,7.683869 15.888768,6.7357565 15.534908,5.5136086 15.354521,4.8906284 14.720623,3.677253 14.365699,3.2745707 13.987892,2.8461471 13.420937,2.2860992 13.139976,2.0663866 12.820704,1.8166491 12.32034,1.4739867 12.27671,1.4739867 c -0.0097,0 -0.110092,-0.055547 -0.224099,-0.1227672 C 11.841492,1.2267166 11.248454,0.96483761 10.832735,0.81338278 10.044132,0.52606428 8.8969106,0.34128855 7.9214006,0.34374994 Z M 9.1451741,6.6730756 c -0.7619967,0.00652 -1.5257582,0.01372 -2.2877549,0.021435 l -0.021435,0.00195 v 2.1883721 l 1.6135103,1.5901263 1.3796683,1.36213 0.1325105,0.130562 c 1.2036567,1.194744 2.4361877,2.410126 3.6229517,3.621764 l 2.409164,-0.01918 0.0063,-2.189445 -3.366744,-3.256596 h 0.0098 L 10.756736,8.2632017 Z"/>
</svg>
