<svg xmlns="http://www.w3.org/2000/svg" width="16" height="16" version="1.1">
 <defs>
   <style id="current-color-scheme" type="text/css">
   .ColorScheme-Text { color: #00aa00; } .ColorScheme-Highlight { color: #5294e2; }
  </style>
  <linearGradient id="arrongin" x1="0%" x2="0%" y1="0%" y2="100%">
   <stop offset="0%" style="stop-color: #dd9b44; stop-opacity: 1"/>
   <stop offset="100%" style="stop-color: #ad6c16; stop-opacity: 1"/>
  </linearGradient>
  <linearGradient id="aurora" x1="0%" x2="0%" y1="0%" y2="100%">
   <stop offset="0%" style="stop-color: #09D4DF; stop-opacity: 1"/>
   <stop offset="100%" style="stop-color: #9269F4; stop-opacity: 1"/>
  </linearGradient>
  <linearGradient id="cyberneon" x1="0%" x2="0%" y1="0%" y2="100%">
    <stop offset="0" style="stop-color: #0abdc6; stop-opacity: 1"/>
    <stop offset="1" style="stop-color: #ea00d9; stop-opacity: 1"/>
  </linearGradient>
  <linearGradient id="fitdance" x1="0%" x2="0%" y1="0%" y2="100%">
   <stop offset="0%" style="stop-color: #1AD6AB; stop-opacity: 1"/>
   <stop offset="100%" style="stop-color: #329DB6; stop-opacity: 1"/>
  </linearGradient>
  <linearGradient id="oomox" x1="0%" x2="0%" y1="0%" y2="100%">
   <stop offset="0%" style="stop-color: #00aa00; stop-opacity: 1"/>
   <stop offset="100%" style="stop-color: #00cc00; stop-opacity: 1"/>
  </linearGradient>
  <linearGradient id="rainblue" x1="0%" x2="0%" y1="0%" y2="100%">
   <stop offset="0%" style="stop-color: #00F260; stop-opacity: 1"/>
   <stop offset="100%" style="stop-color: #0575E6; stop-opacity: 1"/>
  </linearGradient>
  <linearGradient id="sunrise" x1="0%" x2="0%" y1="0%" y2="100%">
   <stop offset="0%" style="stop-color: #FF8501; stop-opacity: 1"/>
   <stop offset="100%" style="stop-color: #FFCB01; stop-opacity: 1"/>
  </linearGradient>
  <linearGradient id="telinkrin" x1="0%" x2="0%" y1="0%" y2="100%">
   <stop offset="0%" style="stop-color: #b2ced6; stop-opacity: 1"/>
   <stop offset="100%" style="stop-color: #6da5b7; stop-opacity: 1"/>
  </linearGradient>
  <linearGradient id="60spsycho" x1="0%" x2="0%" y1="0%" y2="100%">
   <stop offset="0%" style="stop-color: #df5940; stop-opacity: 1"/>
   <stop offset="25%" style="stop-color: #d8d15f; stop-opacity: 1"/>
   <stop offset="50%" style="stop-color: #e9882a; stop-opacity: 1"/>
   <stop offset="100%" style="stop-color: #279362; stop-opacity: 1"/>
  </linearGradient>
  <linearGradient id="90ssummer" x1="0%" x2="0%" y1="0%" y2="100%">
   <stop offset="0%" style="stop-color: #f618c7; stop-opacity: 1"/>
   <stop offset="20%" style="stop-color: #94ffab; stop-opacity: 1"/>
   <stop offset="50%" style="stop-color: #fbfd54; stop-opacity: 1"/>
   <stop offset="100%" style="stop-color: #0f83ae; stop-opacity: 1"/>
  </linearGradient>
 </defs>
 <path fill="url(#oomox)" class="ColorScheme-Text" d="m 8.1311484,2.325e-5 -0.017358,0.49373193 0.4590165,0.0154291 0.5766635,0.0675024 0.057859,-0.48987465 -0.5766635,-0.06943106 h -0.00964 -0.00964 z m -1.099325,0.06171649 -0.4165863,0.05593057 -0.011572,0.001929 -0.00964,0.001929 L 5.9691425,0.2603897 6.0752178,0.74254979 6.6808109,0.60754497 h 0.00579 l 0.4107963,-0.0578592 z m 3.2497586,0.26808102 -0.140791,0.47251688 0.310511,0.0925747 0.607523,0.23915136 h 0.0019 l 0.01736,0.00771 0.01929,0.00964 0.219865,-0.4397301 -0.03857,-0.0192864 -0.0096,-0.005786 -0.0096,-0.003857 -0.626807,-0.24686597 -0.0096,-0.003857 -0.0096,-0.003857 z M 4.9276767,0.6191168 4.6827394,0.7174775 l -0.00964,0.003857 -0.00964,0.005786 -0.5882353,0.2989393 -0.00964,0.00579 -0.00771,0.00579 -0.1176471,0.07136 0.262295,0.4204436 0.098361,-0.063645 0.011572,-0.00579 0.00579,-0.00386 0.5708775,-0.2892961 0.2237223,-0.090646 z m 9.0086793,0.0462874 c -0.779092,2.2e-7 -1.409836,0.6307935 -1.409836,1.409836 0,0.7790426 0.630744,1.4117647 1.409836,1.4117648 0.779091,3e-7 1.409835,-0.6327218 1.409835,-1.4117648 0,-0.7790429 -0.630744,-1.40983631 -1.409835,-1.409836 z M 3.0491811,1.722299 2.9373199,1.805231 l -0.00771,0.00579 -0.00771,0.00771 -0.5053037,0.4551592 -0.00964,0.00579 -0.00579,0.00771 -0.1658631,0.1774348 0.3606557,0.3375121 0.150434,-0.1620058 0.00579,-0.00579 0.00964,-0.00964 0.4725168,-0.4243009 0.00193,-0.00193 0.1099325,-0.082932 z m 4.9623916,0.07136 C 4.5838669,1.7939628 1.8052982,4.5725314 1.805208,8.0000235 c 9.04e-5,3.4274925 2.778659,6.2060605 6.2063647,6.2063645 3.4277053,-3.04e-4 6.2062743,-2.778872 6.2063643,-6.2063645 -9e-5,-3.427492 -2.778659,-6.2060607 -6.2063643,-6.2063645 z m -6.4725171,1.5004821 -0.067502,0.086789 -0.00771,0.00964 -0.00579,0.00964 -0.3837994,0.5998071 -0.00579,0.00771 -0.00386,0.011572 L 0.95467869,4.2314498 1.39248,4.4571007 1.4985553,4.2507362 l 0.00386,-0.00579 0.3587272,-0.5612342 0.00579,-0.00771 0.00771,-0.011572 0.054002,-0.067502 z m 9.0125364,0.7560271 c 0.779228,4.602e-4 1.410489,0.6325855 1.409836,1.4117647 C 11.961017,6.240359 11.330067,6.8713091 10.551592,6.8717691 9.7723637,6.8723741 9.1402389,6.2411122 9.1398273,5.4619327 9.1391728,4.6819999 9.7716101,4.0495621 10.551592,4.0501682 Z m 4.597879,0.3259402 -0.449373,0.2044359 0.287366,0.6364513 0.0019,0.00386 0.109932,0.316297 0.466732,-0.1620058 -0.117647,-0.3375121 -0.0039,-0.011572 -0.0058,-0.00964 z m -14.64223797,0.8408872 -0.0366442,0.090646 -0.005786,0.011572 -0.001929,0.00964 -0.20250724,0.6615236 -0.003857,0.011572 -0.001929,0.00964 -0.0559306,0.2661524 0.48408873,0.1002893 0.0540019,-0.2565092 0.001929,-0.00771 0.18900677,-0.6190936 0.005786,-0.0135 0.001929,-0.00771 0.0289296,-0.07136 z M 15.861139,6.437825 l -0.486018,0.077146 0.10029,0.6403085 0.027,0.3895854 0.491802,-0.032787 -0.02507,-0.3895854 -0.0019,-0.011572 -0.0019,-0.00964 z m -15.82642286,0.9083895 -0.0057859,0.040501 -0.0019286,0.011572 v 0.011572 L 0.00578659,8.0925983 v 0.011572 0.011572 L 0.025073,8.449397 0.51880494,8.420467 0.49951854,8.0945268 v -0.00771 l 0.021215,-0.6518805 0.003857,-0.030858 z M 15.500482,8.561258 l -0.06943,0.611379 -0.08486,0.4146577 0.48409,0.1002893 0.08486,-0.4146577 0.0019,-0.011572 0.0019,-0.011572 0.07136,-0.632594 z M 0.63838057,9.4310746 0.15814912,9.5448645 l 0.1523626,0.6441665 0.003857,0.01157 0.001929,0.0096 0.12729027,0.378014 0.46865961,-0.156219 -0.12536163,-0.3703 -0.001929,-0.0077 z m 14.43201643,1.1321124 -0.231438,0.570877 -0.0019,0.0039 -0.192863,0.372229 0.439729,0.22565 0.200579,-0.391514 0.0058,-0.0096 0.0039,-0.01157 0.233366,-0.574735 z m -13.7704928,0.806171 -0.43201542,0.237223 0.30472522,0.55352 0.00579,0.0096 0.00579,0.0096 0.24108,0.356798 0.4088718,-0.277724 -0.2295082,-0.335584 -0.00579,-0.01157 -0.00579,-0.0077 z m 12.8138868,1.006751 -0.34137,0.445515 -0.0019,0.0019 -0.320154,0.349083 0.362585,0.335584 0.324011,-0.352942 0.0077,-0.0077 0.0058,-0.0077 0.35487,-0.464802 z m -11.6528453,0.68081 -0.3510125,0.345226 0.4551591,0.462874 0.00771,0.0077 0.00771,0.0058 0.316297,0.26808 0.3182257,-0.378013 -0.2989392,-0.250723 -0.00386,-0.0058 z m 10.2410803,0.804243 -0.42623,0.324012 -0.0077,0.0058 -0.01157,0.0077 -0.406943,0.252652 0.260366,0.418514 0.426229,-0.266152 0.0096,-0.0058 0.0096,-0.0058 0.445516,-0.337512 z m -8.6673098,0.507232 -0.246866,0.428158 0.5342335,0.306654 0.00964,0.0058 0.00964,0.0039 0.4050146,0.187078 0.2063645,-0.447444 -0.3837994,-0.177435 z m 6.9103178,0.541948 -0.476374,0.189007 -0.0058,0.0019 -0.4995173,0.146577 0.1388623,0.474445 0.505303,-0.148504 0.01157,-0.0039 0.0096,-0.0039 0.497589,-0.196721 z m -5.0395366,0.295082 -0.123433,0.478303 0.563163,0.144648 0.00964,0.0039 0.011572,0.0019 0.4725168,0.07715 0.081003,-0.486018 -0.4725169,-0.07907 z m 3.0607523,0.239151 -0.4705883,0.05207 h -0.00579 l -0.5593057,0.0096 0.00964,0.493732 0.563163,-0.0096 h 0.011572 l 0.011572,-0.0019 0.4937319,-0.05207 z"/>
</svg>
