<svg xmlns="http://www.w3.org/2000/svg" width="16" height="16" version="1.1">
 <defs>
   <style id="current-color-scheme" type="text/css">
   .ColorScheme-Text { color: #00aa00; } .ColorScheme-Highlight { color: #5294e2; }
  </style>
  <linearGradient id="arrongin" x1="0%" x2="0%" y1="0%" y2="100%">
   <stop offset="0%" style="stop-color: #dd9b44; stop-opacity: 1"/>
   <stop offset="100%" style="stop-color: #ad6c16; stop-opacity: 1"/>
  </linearGradient>
  <linearGradient id="aurora" x1="0%" x2="0%" y1="0%" y2="100%">
   <stop offset="0%" style="stop-color: #09D4DF; stop-opacity: 1"/>
   <stop offset="100%" style="stop-color: #9269F4; stop-opacity: 1"/>
  </linearGradient>
  <linearGradient id="cyberneon" x1="0%" x2="0%" y1="0%" y2="100%">
    <stop offset="0" style="stop-color: #0abdc6; stop-opacity: 1"/>
    <stop offset="1" style="stop-color: #ea00d9; stop-opacity: 1"/>
  </linearGradient>
  <linearGradient id="fitdance" x1="0%" x2="0%" y1="0%" y2="100%">
   <stop offset="0%" style="stop-color: #1AD6AB; stop-opacity: 1"/>
   <stop offset="100%" style="stop-color: #329DB6; stop-opacity: 1"/>
  </linearGradient>
  <linearGradient id="oomox" x1="0%" x2="0%" y1="0%" y2="100%">
   <stop offset="0%" style="stop-color: #00aa00; stop-opacity: 1"/>
   <stop offset="100%" style="stop-color: #00cc00; stop-opacity: 1"/>
  </linearGradient>
  <linearGradient id="rainblue" x1="0%" x2="0%" y1="0%" y2="100%">
   <stop offset="0%" style="stop-color: #00F260; stop-opacity: 1"/>
   <stop offset="100%" style="stop-color: #0575E6; stop-opacity: 1"/>
  </linearGradient>
  <linearGradient id="sunrise" x1="0%" x2="0%" y1="0%" y2="100%">
   <stop offset="0%" style="stop-color: #FF8501; stop-opacity: 1"/>
   <stop offset="100%" style="stop-color: #FFCB01; stop-opacity: 1"/>
  </linearGradient>
  <linearGradient id="telinkrin" x1="0%" x2="0%" y1="0%" y2="100%">
   <stop offset="0%" style="stop-color: #b2ced6; stop-opacity: 1"/>
   <stop offset="100%" style="stop-color: #6da5b7; stop-opacity: 1"/>
  </linearGradient>
  <linearGradient id="60spsycho" x1="0%" x2="0%" y1="0%" y2="100%">
   <stop offset="0%" style="stop-color: #df5940; stop-opacity: 1"/>
   <stop offset="25%" style="stop-color: #d8d15f; stop-opacity: 1"/>
   <stop offset="50%" style="stop-color: #e9882a; stop-opacity: 1"/>
   <stop offset="100%" style="stop-color: #279362; stop-opacity: 1"/>
  </linearGradient>
  <linearGradient id="90ssummer" x1="0%" x2="0%" y1="0%" y2="100%">
   <stop offset="0%" style="stop-color: #f618c7; stop-opacity: 1"/>
   <stop offset="20%" style="stop-color: #94ffab; stop-opacity: 1"/>
   <stop offset="50%" style="stop-color: #fbfd54; stop-opacity: 1"/>
   <stop offset="100%" style="stop-color: #0f83ae; stop-opacity: 1"/>
  </linearGradient>
 </defs>
   <path fill="url(#oomox)" class="ColorScheme-Text" d="M 6.350877 2.13005 C 6.36544 2.217362 6.321752 2.290174 6.176252 2.362924 C 5.987065 2.261049 5.579502 2.202799 5.244815 2.231924 C 4.88094 2.261049 4.575315 2.377487 4.619002 2.624862 C 4.67719 2.872299 5.026503 3.017862 5.652314 2.959612 C 7.180439 2.828612 7.165877 1.7953 9.407189 1.59155 C 11.153626 1.431487 12.128689 1.969987 12.259688 2.624862 C 12.361563 3.134237 11.939501 3.629112 10.673313 3.730987 C 9.552689 3.832862 8.897751 3.527237 8.839564 3.221612 C 8.810439 3.061487 8.897751 2.828612 9.436251 2.770424 C 9.494502 3.017862 9.800126 3.279799 10.527814 3.207049 C 11.051751 3.163362 11.488314 2.974174 11.430126 2.683112 C 11.371939 2.377487 10.818876 2.202799 9.945627 2.275612 C 8.170064 2.435674 7.733502 3.410799 6.219877 3.541799 C 5.14294 3.643674 4.26969 3.250612 4.153253 2.668549 C 4.109627 2.450237 4.109627 1.940862 5.244815 1.838987 C 5.82694 1.7953 6.292689 1.897175 6.350877 2.13005 Z M 0.674941 8.213548 C 0.180128 8.83936 -0.038184 9.566985 0.005441 10.280173 C 0.049128 10.993297 0.398378 11.575423 0.951441 12.02661 C 1.533566 12.477735 2.159378 12.608735 2.872565 12.477735 C 3.149065 12.43411 3.45469 12.288547 3.73119 12.201235 C 3.149065 12.201235 2.654253 12.012047 2.159378 11.61911 C 1.62094 11.22611 1.257066 10.67311 1.169753 10.003611 C 1.038753 9.377798 1.169753 8.795673 1.519066 8.286298 C 1.912003 7.791486 2.421378 7.514923 3.090815 7.427611 C 3.760315 7.383986 4.34244 7.558611 4.924565 7.966111 C 4.793627 7.776923 4.60444 7.645923 4.429815 7.471298 C 3.847628 7.078298 3.221815 6.889111 2.45044 7.078298 C 1.751878 7.223923 1.169753 7.587673 0.674941 8.213548 Z M 8.475752 4.851612 C 6.598252 4.851612 4.924627 4.662424 3.716628 4.400424 C 2.421378 4.080236 1.737316 3.730987 1.737316 3.279799 C 1.737316 3.090612 1.82469 2.930487 2.08669 2.741299 C 1.271628 3.061487 0.835003 3.323487 0.835003 3.730987 C 0.878691 4.182112 1.606378 4.633299 3.090815 4.982612 C 4.488002 5.331861 6.278127 5.521049 8.432064 5.521049 C 10.629688 5.521049 12.376126 5.331861 13.773313 4.982612 C 15.25775 4.633299 15.970875 4.167612 15.970875 3.730987 C 15.970875 3.410799 15.650687 3.105174 15.068563 2.872299 C 15.199562 2.959612 15.301438 3.105174 15.301438 3.265237 C 15.301438 3.716424 14.631937 4.080236 13.278438 4.385862 C 12.026813 4.662424 10.425939 4.851612 8.475752 4.851612 L 8.475752 4.851612 Z M 13.831501 6.103236 C 12.434314 6.423424 10.644251 6.641736 8.490251 6.641736 C 6.292689 6.641736 4.502565 6.408861 3.105378 6.103236 C 1.853753 5.783049 1.184378 5.433736 0.951441 5.069924 C 1.184316 6.641736 1.722816 8.126173 2.43594 9.436048 C 2.97444 10.251048 3.512878 10.964173 4.051377 11.735548 C 4.284252 12.186673 4.444315 12.63786 4.54619 13.089047 C 4.895503 13.58386 5.404939 13.904047 6.030689 14.078672 C 6.802064 14.355172 7.602502 14.471609 8.417564 14.427984 L 8.504814 14.427984 C 9.319814 14.471609 10.178563 14.34061 10.964439 14.078672 C 11.546563 13.889485 12.041376 13.58386 12.40525 13.089047 L 12.448876 13.089047 C 12.536188 12.637798 12.681751 12.186673 12.900063 11.735548 C 13.438563 10.964173 13.977063 10.251048 14.5155 9.436048 C 15.228625 8.140736 15.7235 6.656298 16 5.069924 C 15.708938 5.477424 15.039437 5.826736 13.831501 6.103236 L 13.831501 6.103236 Z"/>
</svg>
