<svg xmlns="http://www.w3.org/2000/svg" style="enable-background:new" width="16" height="16" version="1.1">
 <g transform="translate(-136,-140)">
  <path d="M 140.78571,141.07143 136.5,143.75 139.71429,145.89286 144,143.21429 Z m 3.21429,2.14286 4.28571,2.67857 3.21429,-2.14286 -4.28571,-2.67857 z m 4.28571,2.67857 -4.28571,2.67857 3.21429,2.14286 4.28571,-2.67858 z M 144,148.57143 l -4.28571,-2.67857 -3.21429,2.14285 4.28571,2.67858 z m 0,1.28697 -3.19545,2.1303 -1.09026,-0.6822 v 0.15486 0.9647 l 4.29408,2.57394 4.27734,-2.56557 v -0.96261 -0.16532 l -1.09026,0.6822 z" style="fill:#e3e9e9"/>
 </g>
</svg>
