<svg xmlns="http://www.w3.org/2000/svg" style="isolation:isolate" width="16" height="16" viewBox="0 0 16 16">
 <path fill="#e3e9e9" d="M 6.333 0 C 5.595 0 5 0.594 5 1.333 L 5 14.667 C 5 15.405 5.595 16 6.333 16 C 7.072 16 7.667 15.405 7.667 14.667 L 7.667 8.438 L 10.664 6.939 L 14.663 4.939 L 10.664 2.939 L 7.667 1.441 L 7.667 1.333 C 7.667 0.594 7.072 0 6.333 0 Z"/>
</svg>
