<svg xmlns="http://www.w3.org/2000/svg" style="isolation:isolate" width="16" height="16" viewBox="0 0 16 16">
 <path fill="#e3e9e9" d="M 0.43 9.629 C 0.515 11.338 0.419 13.38 1.673 14.642 C 2.846 15.734 4.565 15.858 6.049 15.946 C 6.76 15.988 7.538 16 8.43 16 L 9.736 16 L 10.827 16 C 10.852 15.892 10.868 15.767 10.895 15.679 C 11.003 15.324 11.104 14.592 11.104 14.157 C 11.104 13.626 10.973 12.654 10.799 11.895 C 10.778 11.804 10.801 11.801 11.591 11.801 C 12.327 11.801 12.44 11.79 12.76 11.685 C 13.009 11.604 13.235 11.567 13.518 11.561 C 14.364 11.546 15.027 11.076 15.246 10.337 C 15.289 10.194 15.368 10.059 15.445 9.998 C 15.557 9.909 15.572 9.863 15.569 9.641 C 15.563 9.221 15.348 8.863 14.741 8.267 L 14.227 7.762 L 14.227 7.412 C 14.227 7.092 14.216 7.053 14.097 6.942 C 13.908 6.766 13.742 6.741 13.49 6.852 C 13.374 6.904 13.248 6.935 13.212 6.921 C 13.127 6.889 12.997 6.563 12.997 6.383 C 12.997 6.269 13.044 6.209 13.26 6.05 C 13.548 5.837 13.612 5.721 13.612 5.417 C 13.612 5.092 13.256 4.679 12.976 4.679 C 12.911 4.679 12.739 4.538 12.496 4.286 C 12.277 4.059 12.024 3.848 11.899 3.787 C 11.675 3.678 11.133 3.568 11.056 3.615 C 11.033 3.629 10.977 3.571 10.931 3.486 C 10.805 3.247 10.818 2.728 10.957 2.44 C 11.265 1.807 12.166 1.281 13.245 1.107 C 13.48 1.069 13.682 1.028 13.694 1.016 C 13.706 1.005 13.575 0.951 13.402 0.898 C 12.113 0.5 10.756 0.75 10.035 1.518 C 9.92 1.641 9.825 1.737 9.823 1.731 C 9.71 1.418 9.975 0.606 10.326 0.189 C 10.396 0.106 10.442 0.026 10.427 0.011 C 10.417 0.002 10.398 -0.002 10.371 0.001 C 10.184 0.016 9.621 0.302 9.312 0.552 C 8.88 0.902 8.465 1.601 8.34 2.187 L 8.278 2.479 L 8.156 2.218 C 8.026 1.942 7.935 1.489 7.934 1.118 C 7.934 0.995 7.918 0.894 7.898 0.894 C 7.84 0.896 7.386 1.685 7.137 2.218 C 6.811 2.916 6.609 3.446 6.326 4.348 C 5.597 6.674 5.304 7.3 4.604 8.029 C 3.919 8.742 2.508 9.236 1.771 9.396 C 1.033 9.555 0.895 9.585 0.43 9.629 L 0.43 9.629 Z"/>
</svg>
