<svg xmlns="http://www.w3.org/2000/svg" width="16" height="16" version="1.1">
 <defs>
   <style id="current-color-scheme" type="text/css">
   .ColorScheme-Text { color: #cc00cc; } .ColorScheme-Highlight { color:#5294e2; }
  </style>
  <linearGradient id="arrongin" x1="0%" x2="0%" y1="0%" y2="100%">
   <stop offset="0%" style="stop-color:#dd9b44; stop-opacity:1"/>
   <stop offset="100%" style="stop-color:#ad6c16; stop-opacity:1"/>
  </linearGradient>
  <linearGradient id="aurora" x1="0%" x2="0%" y1="0%" y2="100%">
   <stop offset="0%" style="stop-color:#09D4DF; stop-opacity:1"/>
   <stop offset="100%" style="stop-color:#9269F4; stop-opacity:1"/>
  </linearGradient>
  <linearGradient id="cyberneon" x1="0%" x2="0%" y1="0%" y2="100%">
    <stop offset="0" style="stop-color:#0abdc6; stop-opacity:1"/>
    <stop offset="1" style="stop-color:#ea00d9; stop-opacity:1"/>
  </linearGradient>
  <linearGradient id="fitdance" x1="0%" x2="0%" y1="0%" y2="100%">
   <stop offset="0%" style="stop-color:#1AD6AB; stop-opacity:1"/>
   <stop offset="100%" style="stop-color:#329DB6; stop-opacity:1"/>
  </linearGradient>
  <linearGradient id="oomox" x1="0%" x2="0%" y1="0%" y2="100%">
   <stop offset="0%" style="stop-color:#efefe7; stop-opacity:1"/>
   <stop offset="100%" style="stop-color:#8f8f8b; stop-opacity:1"/>
  </linearGradient>
  <linearGradient id="rainblue" x1="0%" x2="0%" y1="0%" y2="100%">
   <stop offset="0%" style="stop-color:#00F260; stop-opacity:1"/>
   <stop offset="100%" style="stop-color:#0575E6; stop-opacity:1"/>
  </linearGradient>
  <linearGradient id="sunrise" x1="0%" x2="0%" y1="0%" y2="100%">
   <stop offset="0%" style="stop-color: #FF8501; stop-opacity:1"/>
   <stop offset="100%" style="stop-color: #FFCB01; stop-opacity:1"/>
  </linearGradient>
  <linearGradient id="telinkrin" x1="0%" x2="0%" y1="0%" y2="100%">
   <stop offset="0%" style="stop-color: #b2ced6; stop-opacity:1"/>
   <stop offset="100%" style="stop-color: #6da5b7; stop-opacity:1"/>
  </linearGradient>
  <linearGradient id="60spsycho" x1="0%" x2="0%" y1="0%" y2="100%">
   <stop offset="0%" style="stop-color: #df5940; stop-opacity:1"/>
   <stop offset="25%" style="stop-color: #d8d15f; stop-opacity:1"/>
   <stop offset="50%" style="stop-color: #e9882a; stop-opacity:1"/>
   <stop offset="100%" style="stop-color: #279362; stop-opacity:1"/>
  </linearGradient>
  <linearGradient id="90ssummer" x1="0%" x2="0%" y1="0%" y2="100%">
   <stop offset="0%" style="stop-color: #f618c7; stop-opacity:1"/>
   <stop offset="20%" style="stop-color: #94ffab; stop-opacity:1"/>
   <stop offset="50%" style="stop-color: #fbfd54; stop-opacity:1"/>
   <stop offset="100%" style="stop-color: #0f83ae; stop-opacity:1"/>
  </linearGradient>
 </defs>
<g fill="currentColor" class="ColorScheme-Text">
 <path fill-opacity=".4" d="M 2 5.5 C 2 4.672 2.672 4 3.5 4 C 4.328 4 5 4.672 5 5.5 C 5 6.328 4.328 7 3.5 7 C 2.672 7 2 6.328 2 5.5 Z"/>
 <path fill-opacity=".4" d="M 2 11 C 2 10.172 2.672 9.5 3.5 9.5 C 4.328 9.5 5 10.172 5 11 C 5 11.828 4.328 12.5 3.5 12.5 C 2.672 12.5 2 11.828 2 11 Z"/>
 <path fill-opacity=".4" d="M 7.5 12.5 C 7.5 11.672 8.172 11 9 11 C 9.828 11 10.5 11.672 10.5 12.5 C 10.5 13.328 9.828 14 9 14 C 8.172 14 7.5 13.328 7.5 12.5 Z"/>
 <path fill-opacity=".4" d="M 7.5 3.5 C 7.5 2.672 8.172 2 9 2 C 9.828 2 10.5 2.672 10.5 3.5 C 10.5 4.328 9.828 5 9 5 C 8.172 5 7.5 4.328 7.5 3.5 Z"/>
 <path fill-opacity=".4" d="M 11 8 C 11 7.172 11.672 6.5 12.5 6.5 C 13.328 6.5 14 7.172 14 8 C 14 8.828 13.328 9.5 12.5 9.5 C 11.672 9.5 11 8.828 11 8 Z"/>
 <path fill-rule="evenodd" d="M 1 5.5 C 1 4.12 2.12 3 3.5 3 C 4.88 3 6 4.12 6 5.5 C 6 6.88 4.88 8 3.5 8 C 2.12 8 1 6.88 1 5.5 Z M 2 5.5 C 2 4.672 2.672 4 3.5 4 C 4.328 4 5 4.672 5 5.5 C 5 6.328 4.328 7 3.5 7 C 2.672 7 2 6.328 2 5.5 Z"/>
 <path fill-rule="evenodd" d="M 1 11 C 1 9.62 2.12 8.5 3.5 8.5 C 4.88 8.5 6 9.62 6 11 C 6 12.38 4.88 13.5 3.5 13.5 C 2.12 13.5 1 12.38 1 11 Z M 2 11 C 2 10.172 2.672 9.5 3.5 9.5 C 4.328 9.5 5 10.172 5 11 C 5 11.828 4.328 12.5 3.5 12.5 C 2.672 12.5 2 11.828 2 11 Z"/>
 <path fill-rule="evenodd" d="M 6.5 12.5 C 6.5 11.12 7.62 10 9 10 C 10.38 10 11.5 11.12 11.5 12.5 C 11.5 13.88 10.38 15 9 15 C 7.62 15 6.5 13.88 6.5 12.5 Z M 7.5 12.5 C 7.5 11.672 8.172 11 9 11 C 9.828 11 10.5 11.672 10.5 12.5 C 10.5 13.328 9.828 14 9 14 C 8.172 14 7.5 13.328 7.5 12.5 Z"/>
 <path fill-rule="evenodd" d="M 6.5 3.5 C 6.5 2.12 7.62 1 9 1 C 10.38 1 11.5 2.12 11.5 3.5 C 11.5 4.88 10.38 6 9 6 C 7.62 6 6.5 4.88 6.5 3.5 Z M 7.5 3.5 C 7.5 2.672 8.172 2 9 2 C 9.828 2 10.5 2.672 10.5 3.5 C 10.5 4.328 9.828 5 9 5 C 8.172 5 7.5 4.328 7.5 3.5 Z"/>
 <path fill-rule="evenodd" d="M 10 8 C 10 6.62 11.12 5.5 12.5 5.5 C 13.88 5.5 15 6.62 15 8 C 15 9.38 13.88 10.5 12.5 10.5 C 11.12 10.5 10 9.38 10 8 Z M 11 8 C 11 7.172 11.672 6.5 12.5 6.5 C 13.328 6.5 14 7.172 14 8 C 14 8.828 13.328 9.5 12.5 9.5 C 11.672 9.5 11 8.828 11 8 Z"/>
</g>
</svg>
