<svg xmlns="http://www.w3.org/2000/svg" width="16" height="16" version="1.1">
 <defs>
   <style id="current-color-scheme" type="text/css">
   .ColorScheme-Text { color: #cc00cc; } .ColorScheme-Highlight { color:#5294e2; }
  </style>
  <linearGradient id="arrongin" x1="0%" x2="0%" y1="0%" y2="100%">
   <stop offset="0%" style="stop-color:#dd9b44; stop-opacity:1"/>
   <stop offset="100%" style="stop-color:#ad6c16; stop-opacity:1"/>
  </linearGradient>
  <linearGradient id="aurora" x1="0%" x2="0%" y1="0%" y2="100%">
   <stop offset="0%" style="stop-color:#09D4DF; stop-opacity:1"/>
   <stop offset="100%" style="stop-color:#9269F4; stop-opacity:1"/>
  </linearGradient>
  <linearGradient id="cyberneon" x1="0%" x2="0%" y1="0%" y2="100%">
    <stop offset="0" style="stop-color:#0abdc6; stop-opacity:1"/>
    <stop offset="1" style="stop-color:#ea00d9; stop-opacity:1"/>
  </linearGradient>
  <linearGradient id="fitdance" x1="0%" x2="0%" y1="0%" y2="100%">
   <stop offset="0%" style="stop-color:#1AD6AB; stop-opacity:1"/>
   <stop offset="100%" style="stop-color:#329DB6; stop-opacity:1"/>
  </linearGradient>
  <linearGradient id="oomox" x1="0%" x2="0%" y1="0%" y2="100%">
   <stop offset="0%" style="stop-color:#efefe7; stop-opacity:1"/>
   <stop offset="100%" style="stop-color:#8f8f8b; stop-opacity:1"/>
  </linearGradient>
  <linearGradient id="rainblue" x1="0%" x2="0%" y1="0%" y2="100%">
   <stop offset="0%" style="stop-color:#00F260; stop-opacity:1"/>
   <stop offset="100%" style="stop-color:#0575E6; stop-opacity:1"/>
  </linearGradient>
  <linearGradient id="sunrise" x1="0%" x2="0%" y1="0%" y2="100%">
   <stop offset="0%" style="stop-color: #FF8501; stop-opacity:1"/>
   <stop offset="100%" style="stop-color: #FFCB01; stop-opacity:1"/>
  </linearGradient>
  <linearGradient id="telinkrin" x1="0%" x2="0%" y1="0%" y2="100%">
   <stop offset="0%" style="stop-color: #b2ced6; stop-opacity:1"/>
   <stop offset="100%" style="stop-color: #6da5b7; stop-opacity:1"/>
  </linearGradient>
  <linearGradient id="60spsycho" x1="0%" x2="0%" y1="0%" y2="100%">
   <stop offset="0%" style="stop-color: #df5940; stop-opacity:1"/>
   <stop offset="25%" style="stop-color: #d8d15f; stop-opacity:1"/>
   <stop offset="50%" style="stop-color: #e9882a; stop-opacity:1"/>
   <stop offset="100%" style="stop-color: #279362; stop-opacity:1"/>
  </linearGradient>
  <linearGradient id="90ssummer" x1="0%" x2="0%" y1="0%" y2="100%">
   <stop offset="0%" style="stop-color: #f618c7; stop-opacity:1"/>
   <stop offset="20%" style="stop-color: #94ffab; stop-opacity:1"/>
   <stop offset="50%" style="stop-color: #fbfd54; stop-opacity:1"/>
   <stop offset="100%" style="stop-color: #0f83ae; stop-opacity:1"/>
  </linearGradient>
 </defs>
 <path fill="currentColor" class="ColorScheme-Text" d="M 0.504 0.002 C 0.21 0.058 -0.002 0.318 0.004 0.617 L 0.004 1.232 C 0.001 1.454 0.117 1.66 0.309 1.773 C 0.501 1.884 0.736 1.884 0.929 1.773 C 1.121 1.66 1.237 1.453 1.234 1.232 C 1.456 1.235 1.662 1.119 1.775 0.927 C 1.885 0.735 1.885 0.499 1.775 0.307 C 1.662 0.115 1.455 0 1.234 0.002 L 0.503 0.002 L 0.504 0.002 Z M 3.676 0.002 L 3.195 0.252 L 3.099 0.79 L 3.464 1.194 L 3.676 1.232 L 4.964 1.232 L 5.464 0.983 L 5.56 0.444 L 5.175 0.041 L 4.964 0.002 L 3.676 0.002 Z M 7.386 0.002 L 6.886 0.252 L 6.79 0.79 L 7.175 1.194 L 7.386 1.232 L 8.675 1.232 L 9.155 0.983 L 9.251 0.444 L 8.886 0.041 L 8.675 0.002 L 7.386 0.002 Z M 11.097 0.002 L 10.597 0.252 L 10.501 0.79 L 10.885 1.194 L 11.097 1.232 L 12.366 1.232 L 12.866 0.983 L 12.962 0.444 L 12.578 0.041 L 12.365 0.002 L 11.097 0.002 Z M 14.654 0.002 C 14.315 0.033 14.065 0.336 14.096 0.675 C 14.127 1.013 14.43 1.264 14.769 1.232 C 14.767 1.454 14.882 1.66 15.074 1.773 C 15.267 1.884 15.502 1.884 15.694 1.773 C 15.886 1.66 16.002 1.453 16 1.232 L 16 0.617 C 16 0.279 15.723 0.002 15.384 0.002 L 14.654 0.002 Z M 13.231 2.521 L 9.424 3.02 C 9.239 3.02 9.225 3.148 9.348 3.271 L 10.635 4.558 L 6.559 8.615 L 1.234 8.615 L 1.234 7.327 L 0.984 6.846 L 0.446 6.75 L 0.042 7.116 L 0.004 7.327 L 0.004 8.615 L 0.119 8.865 C 0.043 8.972 0.003 9.1 0.004 9.23 L 0.004 14.653 C -0.001 14.691 -0.001 14.729 0.004 14.768 L 0.004 15.383 C 0.006 15.447 0.018 15.512 0.042 15.575 C 0.051 15.609 0.064 15.641 0.08 15.671 C 0.102 15.712 0.128 15.751 0.157 15.786 C 0.167 15.796 0.167 15.815 0.176 15.825 C 0.213 15.854 0.251 15.881 0.292 15.902 C 0.299 15.907 0.304 15.916 0.311 15.921 L 0.33 15.94 C 0.343 15.948 0.355 15.955 0.369 15.96 L 0.388 15.96 C 0.393 15.962 0.402 15.957 0.407 15.96 C 0.463 15.981 0.521 15.994 0.58 15.998 L 6.771 15.998 C 6.891 15.998 6.99 15.969 7.079 15.921 L 7.118 15.96 L 7.329 15.998 L 8.617 15.998 L 9.117 15.748 L 9.213 15.21 L 8.828 14.806 L 8.617 14.768 L 7.386 14.768 L 7.386 9.442 L 11.443 5.366 L 12.731 6.654 C 12.854 6.777 12.981 6.7 12.981 6.577 L 13.481 2.771 C 13.481 2.586 13.353 2.458 13.231 2.521 Z M 0.446 3.039 L 0.042 3.424 L 0.004 3.636 L 0.004 4.905 L 0.253 5.405 L 0.792 5.501 L 1.196 5.117 L 1.234 4.904 L 1.234 3.636 L 0.984 3.136 L 0.446 3.039 Z M 15.211 3.097 L 14.807 3.463 L 14.769 3.674 L 14.769 4.962 L 15.019 5.462 L 15.557 5.558 L 15.961 5.174 L 16 4.962 L 16 3.675 L 15.75 3.194 L 15.211 3.097 Z M 15.211 6.789 L 14.807 7.173 L 14.769 7.385 L 14.769 8.673 L 15.019 9.154 L 15.557 9.25 L 15.961 8.884 L 16 8.673 L 16 7.385 L 15.75 6.885 L 15.211 6.789 Z M 15.211 10.499 L 14.807 10.884 L 14.769 11.095 L 14.769 12.364 L 15.019 12.864 L 15.557 12.961 L 15.961 12.576 L 16 12.364 L 16 11.095 L 15.75 10.595 L 15.211 10.499 Z M 15.327 14.133 C 15.3 14.138 15.274 14.146 15.25 14.152 C 14.963 14.217 14.763 14.474 14.769 14.768 C 14.547 14.765 14.341 14.881 14.228 15.073 C 14.118 15.265 14.118 15.501 14.228 15.693 C 14.342 15.885 14.548 16 14.769 15.998 L 15.384 15.998 C 15.723 15.998 16 15.721 16 15.383 L 16 14.768 C 16.006 14.591 15.936 14.419 15.807 14.298 C 15.678 14.177 15.503 14.116 15.327 14.133 Z M 11.04 14.768 L 10.539 15.017 L 10.443 15.556 L 10.828 15.96 L 11.039 15.998 L 12.327 15.998 L 12.808 15.748 L 12.904 15.21 L 12.539 14.806 L 12.327 14.768 L 11.04 14.768 Z"/>
</svg>
