<svg xmlns="http://www.w3.org/2000/svg" width="16" height="16" version="1.1">
 <defs>
   <style id="current-color-scheme" type="text/css">
   .ColorScheme-Text { color: #cc00cc; } .ColorScheme-Highlight { color:#5294e2; }
  </style>
  <linearGradient id="arrongin" x1="0%" x2="0%" y1="0%" y2="100%">
   <stop offset="0%" style="stop-color:#dd9b44; stop-opacity:1"/>
   <stop offset="100%" style="stop-color:#ad6c16; stop-opacity:1"/>
  </linearGradient>
  <linearGradient id="aurora" x1="0%" x2="0%" y1="0%" y2="100%">
   <stop offset="0%" style="stop-color:#09D4DF; stop-opacity:1"/>
   <stop offset="100%" style="stop-color:#9269F4; stop-opacity:1"/>
  </linearGradient>
  <linearGradient id="cyberneon" x1="0%" x2="0%" y1="0%" y2="100%">
    <stop offset="0" style="stop-color:#0abdc6; stop-opacity:1"/>
    <stop offset="1" style="stop-color:#ea00d9; stop-opacity:1"/>
  </linearGradient>
  <linearGradient id="fitdance" x1="0%" x2="0%" y1="0%" y2="100%">
   <stop offset="0%" style="stop-color:#1AD6AB; stop-opacity:1"/>
   <stop offset="100%" style="stop-color:#329DB6; stop-opacity:1"/>
  </linearGradient>
  <linearGradient id="oomox" x1="0%" x2="0%" y1="0%" y2="100%">
   <stop offset="0%" style="stop-color:#efefe7; stop-opacity:1"/>
   <stop offset="100%" style="stop-color:#8f8f8b; stop-opacity:1"/>
  </linearGradient>
  <linearGradient id="rainblue" x1="0%" x2="0%" y1="0%" y2="100%">
   <stop offset="0%" style="stop-color:#00F260; stop-opacity:1"/>
   <stop offset="100%" style="stop-color:#0575E6; stop-opacity:1"/>
  </linearGradient>
  <linearGradient id="sunrise" x1="0%" x2="0%" y1="0%" y2="100%">
   <stop offset="0%" style="stop-color: #FF8501; stop-opacity:1"/>
   <stop offset="100%" style="stop-color: #FFCB01; stop-opacity:1"/>
  </linearGradient>
  <linearGradient id="telinkrin" x1="0%" x2="0%" y1="0%" y2="100%">
   <stop offset="0%" style="stop-color: #b2ced6; stop-opacity:1"/>
   <stop offset="100%" style="stop-color: #6da5b7; stop-opacity:1"/>
  </linearGradient>
  <linearGradient id="60spsycho" x1="0%" x2="0%" y1="0%" y2="100%">
   <stop offset="0%" style="stop-color: #df5940; stop-opacity:1"/>
   <stop offset="25%" style="stop-color: #d8d15f; stop-opacity:1"/>
   <stop offset="50%" style="stop-color: #e9882a; stop-opacity:1"/>
   <stop offset="100%" style="stop-color: #279362; stop-opacity:1"/>
  </linearGradient>
  <linearGradient id="90ssummer" x1="0%" x2="0%" y1="0%" y2="100%">
   <stop offset="0%" style="stop-color: #f618c7; stop-opacity:1"/>
   <stop offset="20%" style="stop-color: #94ffab; stop-opacity:1"/>
   <stop offset="50%" style="stop-color: #fbfd54; stop-opacity:1"/>
   <stop offset="100%" style="stop-color: #0f83ae; stop-opacity:1"/>
  </linearGradient>
 </defs>
 <path fill="currentColor" class="ColorScheme-Text" d="m 9.4685803,0.50879071 c -0.127491,-0.017596 -0.261213,-0.00882 -0.393737,0.026696 -0.530094,0.1420325 -0.84154,0.68253689 -0.699507,1.21261099 L 8.8884703,3.6619073 5.0600711,4.6872085 4.5473329,2.7732998 C 4.4053789,2.2432653 3.8652999,1.9299596 3.335226,2.0720021 2.805053,2.2140446 2.4931108,2.7563616 2.6351639,3.2864952 l 0.513184,1.9120267 -1.9140511,0.5126408 c -0.53009373,0.142033 -0.84204583,0.684409 -0.70000273,1.214493 0.1420432,0.530054 0.68258783,0.841478 1.21270133,0.699455 l 1.9140512,-0.51264 1.0253774,3.8278173 -1.9140511,0.512641 c -0.5300937,0.142032 -0.8434129,0.682042 -0.7013697,1.212116 0.1420432,0.530054 0.68446,0.841983 1.2145834,0.69995 l 1.912169,-0.513146 0.5126789,1.913909 c 0.1420431,0.530054 0.68446,0.841983 1.2145838,0.699951 0.530093,-0.142023 0.84154,-0.682537 0.699507,-1.212611 l -0.512679,-1.913909 3.8281017,-1.025301 0.512679,1.913908 c 0.142043,0.530055 0.682093,0.843351 1.212206,0.701318 0.530094,-0.142033 0.842046,-0.684409 0.700003,-1.214493 l -0.513184,-1.912027 1.914051,-0.512641 c 0.530094,-0.142032 0.842046,-0.6844093 0.700003,-1.2144933 -0.142034,-0.530054 -0.682588,-0.841478 -1.212702,-0.699455 L 12.340142,8.8900917 11.314864,5.0617788 13.228717,4.5491777 C 13.758691,4.4071352 14.072714,3.8670964 13.930066,3.3370619 13.78841,2.8070274 13.245557,2.4951084 12.715582,2.6370519 L 10.80371,3.1502473 10.290576,1.2363385 C 10.184581,0.83873841 9.8527273,0.56247861 9.4703533,0.50968321 Z M 9.4012003,5.5740817 10.426577,9.4018997 6.5984753,10.427201 5.5730977,6.5993827 Z"/>
</svg>
