<svg xmlns="http://www.w3.org/2000/svg" width="16" height="16" version="1.1">
 <defs>
   <style id="current-color-scheme" type="text/css">
   .ColorScheme-Text { color: #cc00cc; } .ColorScheme-Highlight { color:#5294e2; }
  </style>
  <linearGradient id="arrongin" x1="0%" x2="0%" y1="0%" y2="100%">
   <stop offset="0%" style="stop-color:#dd9b44; stop-opacity:1"/>
   <stop offset="100%" style="stop-color:#ad6c16; stop-opacity:1"/>
  </linearGradient>
  <linearGradient id="aurora" x1="0%" x2="0%" y1="0%" y2="100%">
   <stop offset="0%" style="stop-color:#09D4DF; stop-opacity:1"/>
   <stop offset="100%" style="stop-color:#9269F4; stop-opacity:1"/>
  </linearGradient>
  <linearGradient id="cyberneon" x1="0%" x2="0%" y1="0%" y2="100%">
    <stop offset="0" style="stop-color:#0abdc6; stop-opacity:1"/>
    <stop offset="1" style="stop-color:#ea00d9; stop-opacity:1"/>
  </linearGradient>
  <linearGradient id="fitdance" x1="0%" x2="0%" y1="0%" y2="100%">
   <stop offset="0%" style="stop-color:#1AD6AB; stop-opacity:1"/>
   <stop offset="100%" style="stop-color:#329DB6; stop-opacity:1"/>
  </linearGradient>
  <linearGradient id="oomox" x1="0%" x2="0%" y1="0%" y2="100%">
   <stop offset="0%" style="stop-color:#efefe7; stop-opacity:1"/>
   <stop offset="100%" style="stop-color:#8f8f8b; stop-opacity:1"/>
  </linearGradient>
  <linearGradient id="rainblue" x1="0%" x2="0%" y1="0%" y2="100%">
   <stop offset="0%" style="stop-color:#00F260; stop-opacity:1"/>
   <stop offset="100%" style="stop-color:#0575E6; stop-opacity:1"/>
  </linearGradient>
  <linearGradient id="sunrise" x1="0%" x2="0%" y1="0%" y2="100%">
   <stop offset="0%" style="stop-color: #FF8501; stop-opacity:1"/>
   <stop offset="100%" style="stop-color: #FFCB01; stop-opacity:1"/>
  </linearGradient>
  <linearGradient id="telinkrin" x1="0%" x2="0%" y1="0%" y2="100%">
   <stop offset="0%" style="stop-color: #b2ced6; stop-opacity:1"/>
   <stop offset="100%" style="stop-color: #6da5b7; stop-opacity:1"/>
  </linearGradient>
  <linearGradient id="60spsycho" x1="0%" x2="0%" y1="0%" y2="100%">
   <stop offset="0%" style="stop-color: #df5940; stop-opacity:1"/>
   <stop offset="25%" style="stop-color: #d8d15f; stop-opacity:1"/>
   <stop offset="50%" style="stop-color: #e9882a; stop-opacity:1"/>
   <stop offset="100%" style="stop-color: #279362; stop-opacity:1"/>
  </linearGradient>
  <linearGradient id="90ssummer" x1="0%" x2="0%" y1="0%" y2="100%">
   <stop offset="0%" style="stop-color: #f618c7; stop-opacity:1"/>
   <stop offset="20%" style="stop-color: #94ffab; stop-opacity:1"/>
   <stop offset="50%" style="stop-color: #fbfd54; stop-opacity:1"/>
   <stop offset="100%" style="stop-color: #0f83ae; stop-opacity:1"/>
  </linearGradient>
 </defs>
 <path fill="currentColor" class="ColorScheme-Text" d="M 9.47 0 L 9.464 0.16 C 9.457 0.342 9.323 3.617 9.215 6.208 C 9.176 7.154 9.148 7.932 9.152 7.937 C 9.157 7.942 9.164 7.943 9.168 7.94 C 9.172 7.936 9.615 6.658 10.154 5.099 C 11.553 1.047 11.848 0.192 11.887 0.09 L 11.921 0 L 9.47 0 Z M 6.833 3.341 C 6.833 3.341 5.124 4.766 5.11 4.803 C 5.104 4.818 5.389 5.11 5.945 5.659 C 6.409 6.117 7.215 6.914 7.735 7.428 C 8.256 7.943 8.688 8.364 8.695 8.364 C 8.702 8.364 8.708 8.358 8.708 8.351 L 8.707 8.351 C 8.707 8.344 8.356 7.394 7.926 6.24 C 7.496 5.087 7.079 3.964 6.998 3.746 C 6.918 3.527 6.833 3.341 6.833 3.341 L 6.833 3.341 Z M 13.458 4.39 C 13.44 4.384 9.595 8.464 9.587 8.498 C 9.583 8.516 9.592 8.516 9.627 8.504 C 9.651 8.495 10.784 8.053 12.144 7.522 C 13.504 6.99 14.62 6.548 14.623 6.539 C 14.629 6.519 13.48 4.397 13.458 4.39 L 13.458 4.39 Z M 5.71 7.024 C 5.693 7.017 5.683 7.026 5.677 7.051 C 5.664 7.108 5.402 9.198 5.402 9.246 C 5.402 9.277 5.411 9.288 5.434 9.288 C 5.45 9.288 6.044 9.168 6.753 9.021 C 7.462 8.875 8.048 8.747 8.056 8.739 C 8.064 8.731 8.067 8.722 8.064 8.719 C 8.022 8.683 5.728 7.03 5.71 7.024 L 5.71 7.024 Z M 13.866 8.756 C 13.849 8.741 9.982 9.089 9.965 9.107 C 9.959 9.114 9.96 9.123 9.969 9.127 C 9.978 9.131 10.757 9.559 11.7 10.079 C 12.643 10.599 13.429 11.023 13.446 11.022 C 13.474 11.019 13.493 10.925 13.678 9.893 L 13.677 9.893 C 13.788 9.274 13.873 8.762 13.866 8.756 L 13.866 8.756 Z M 8.36 9.318 C 8.34 9.325 7.08 9.926 5.559 10.651 C 4.039 11.377 2.476 12.122 2.086 12.307 C 1.696 12.493 1.377 12.654 1.377 12.665 C 1.377 12.676 1.653 13.082 1.99 13.567 C 2.788 14.716 2.772 14.692 2.785 14.692 C 2.792 14.692 4.054 13.487 5.591 12.014 L 5.591 12.013 C 7.128 10.541 8.388 9.328 8.391 9.319 C 8.395 9.309 8.384 9.308 8.36 9.318 L 8.36 9.318 Z M 9.41 9.604 C 9.403 9.601 9.396 9.605 9.396 9.614 C 9.396 9.622 9.544 9.963 9.724 10.371 C 9.904 10.779 10.529 12.195 11.112 13.517 C 11.695 14.84 12.182 15.978 12.192 16 Q 12.283 15.997 12.284 15.996 C 12.289 15.99 12.72 15.703 13.23 15.381 C 13.741 15.06 14.158 14.792 14.158 14.786 C 14.158 14.772 9.43 9.611 9.41 9.604 L 9.41 9.604 Z M 8.853 9.714 C 8.848 9.709 8.842 9.711 8.836 9.719 C 8.804 9.754 6.953 13.063 6.953 13.083 C 6.953 13.1 7.006 13.112 7.169 13.134 C 7.287 13.149 7.796 13.216 8.3 13.282 C 8.804 13.348 9.226 13.398 9.237 13.395 C 9.251 13.39 9.254 13.369 9.248 13.323 C 9.24 13.264 8.964 10.638 8.901 10.013 C 8.88 9.809 8.869 9.729 8.853 9.714 L 8.853 9.714 Z"/>
</svg>
