<svg xmlns="http://www.w3.org/2000/svg" width="16" height="16" version="1.1">
 <defs>
   <style id="current-color-scheme" type="text/css">
   .ColorScheme-Text { color: #cc00cc; } .ColorScheme-Highlight { color:#5294e2; }
  </style>
  <linearGradient id="arrongin" x1="0%" x2="0%" y1="0%" y2="100%">
   <stop offset="0%" style="stop-color:#dd9b44; stop-opacity:1"/>
   <stop offset="100%" style="stop-color:#ad6c16; stop-opacity:1"/>
  </linearGradient>
  <linearGradient id="aurora" x1="0%" x2="0%" y1="0%" y2="100%">
   <stop offset="0%" style="stop-color:#09D4DF; stop-opacity:1"/>
   <stop offset="100%" style="stop-color:#9269F4; stop-opacity:1"/>
  </linearGradient>
  <linearGradient id="cyberneon" x1="0%" x2="0%" y1="0%" y2="100%">
    <stop offset="0" style="stop-color:#0abdc6; stop-opacity:1"/>
    <stop offset="1" style="stop-color:#ea00d9; stop-opacity:1"/>
  </linearGradient>
  <linearGradient id="fitdance" x1="0%" x2="0%" y1="0%" y2="100%">
   <stop offset="0%" style="stop-color:#1AD6AB; stop-opacity:1"/>
   <stop offset="100%" style="stop-color:#329DB6; stop-opacity:1"/>
  </linearGradient>
  <linearGradient id="oomox" x1="0%" x2="0%" y1="0%" y2="100%">
   <stop offset="0%" style="stop-color:#efefe7; stop-opacity:1"/>
   <stop offset="100%" style="stop-color:#8f8f8b; stop-opacity:1"/>
  </linearGradient>
  <linearGradient id="rainblue" x1="0%" x2="0%" y1="0%" y2="100%">
   <stop offset="0%" style="stop-color:#00F260; stop-opacity:1"/>
   <stop offset="100%" style="stop-color:#0575E6; stop-opacity:1"/>
  </linearGradient>
  <linearGradient id="sunrise" x1="0%" x2="0%" y1="0%" y2="100%">
   <stop offset="0%" style="stop-color: #FF8501; stop-opacity:1"/>
   <stop offset="100%" style="stop-color: #FFCB01; stop-opacity:1"/>
  </linearGradient>
  <linearGradient id="telinkrin" x1="0%" x2="0%" y1="0%" y2="100%">
   <stop offset="0%" style="stop-color: #b2ced6; stop-opacity:1"/>
   <stop offset="100%" style="stop-color: #6da5b7; stop-opacity:1"/>
  </linearGradient>
  <linearGradient id="60spsycho" x1="0%" x2="0%" y1="0%" y2="100%">
   <stop offset="0%" style="stop-color: #df5940; stop-opacity:1"/>
   <stop offset="25%" style="stop-color: #d8d15f; stop-opacity:1"/>
   <stop offset="50%" style="stop-color: #e9882a; stop-opacity:1"/>
   <stop offset="100%" style="stop-color: #279362; stop-opacity:1"/>
  </linearGradient>
  <linearGradient id="90ssummer" x1="0%" x2="0%" y1="0%" y2="100%">
   <stop offset="0%" style="stop-color: #f618c7; stop-opacity:1"/>
   <stop offset="20%" style="stop-color: #94ffab; stop-opacity:1"/>
   <stop offset="50%" style="stop-color: #fbfd54; stop-opacity:1"/>
   <stop offset="100%" style="stop-color: #0f83ae; stop-opacity:1"/>
  </linearGradient>
 </defs>
 <path fill="currentColor" class="ColorScheme-Text" fill-rule="evenodd" d="M 8 0 C 7.281 0 6.697 0.583 6.697 1.302 C 6.698 1.805 6.988 2.262 7.442 2.477 L 7.442 3.236 L 6.077 2.326 C 5.911 2.212 5.696 2.196 5.515 2.284 C 5.334 2.373 5.215 2.552 5.203 2.753 C 5.191 2.954 5.288 3.146 5.458 3.255 L 7.442 4.578 L 7.442 7.033 L 5.315 5.805 L 5.162 3.426 C 5.142 3.118 4.876 2.885 4.569 2.905 C 4.261 2.925 4.028 3.19 4.048 3.498 L 4.153 5.134 L 3.496 4.755 C 3.537 4.254 3.286 3.775 2.851 3.523 C 2.552 3.351 2.196 3.304 1.863 3.393 C 1.529 3.483 1.244 3.701 1.072 4 C 0.899 4.299 0.852 4.655 0.942 4.988 C 1.031 5.322 1.249 5.606 1.548 5.779 C 1.984 6.03 2.525 6.008 2.938 5.722 L 3.595 6.102 L 2.125 6.828 C 1.848 6.965 1.735 7.3 1.872 7.576 C 2.009 7.853 2.343 7.966 2.62 7.829 L 4.757 6.773 L 6.883 8 L 4.761 9.225 L 2.623 8.169 C 2.445 8.08 2.232 8.094 2.066 8.204 C 1.9 8.315 1.806 8.506 1.819 8.705 C 1.832 8.904 1.95 9.081 2.128 9.169 L 3.599 9.896 L 2.938 10.278 C 2.525 9.992 1.984 9.97 1.548 10.221 C 1.249 10.394 1.031 10.678 0.942 11.012 C 0.852 11.345 0.899 11.701 1.072 12 C 1.244 12.299 1.529 12.517 1.863 12.607 C 2.196 12.696 2.552 12.649 2.851 12.477 C 3.286 12.225 3.537 11.746 3.496 11.245 L 4.157 10.863 L 4.051 12.5 C 4.032 12.808 4.265 13.073 4.572 13.093 C 4.88 13.113 5.146 12.88 5.165 12.572 L 5.319 10.193 L 7.442 8.967 L 7.442 11.418 L 5.458 12.741 C 5.288 12.85 5.191 13.042 5.203 13.243 C 5.215 13.444 5.334 13.623 5.515 13.711 C 5.696 13.8 5.911 13.784 6.077 13.669 L 7.442 12.759 L 7.442 13.523 C 6.988 13.738 6.698 14.195 6.697 14.698 C 6.697 15.417 7.281 16 8 16 C 8.719 16 9.302 15.417 9.302 14.698 C 9.302 14.195 9.012 13.738 8.558 13.523 L 8.558 12.759 L 9.923 13.669 C 10.089 13.784 10.303 13.8 10.484 13.711 C 10.665 13.623 10.785 13.444 10.797 13.243 C 10.809 13.042 10.711 12.85 10.542 12.741 L 8.558 11.418 L 8.558 8.967 L 10.681 10.193 L 10.834 12.572 C 10.854 12.88 11.119 13.113 11.427 13.093 C 11.735 13.073 11.968 12.808 11.948 12.5 L 11.843 10.863 L 12.503 11.245 C 12.463 11.746 12.715 12.225 13.149 12.477 C 13.772 12.836 14.568 12.623 14.928 12 C 15.288 11.377 15.075 10.581 14.452 10.221 C 14.016 9.97 13.475 9.992 13.062 10.278 L 12.401 9.896 L 13.871 9.169 C 14.05 9.081 14.168 8.904 14.181 8.705 C 14.194 8.506 14.099 8.315 13.933 8.204 C 13.767 8.094 13.555 8.08 13.376 8.169 L 11.239 9.225 L 9.117 8 L 11.242 6.773 L 13.381 7.829 C 13.56 7.923 13.776 7.912 13.945 7.801 C 14.115 7.69 14.211 7.496 14.196 7.294 C 14.181 7.092 14.058 6.914 13.875 6.828 L 12.405 6.102 L 13.062 5.722 C 13.475 6.008 14.016 6.03 14.452 5.779 C 15.075 5.419 15.288 4.623 14.928 4 C 14.568 3.377 13.772 3.164 13.149 3.523 C 12.715 3.775 12.463 4.254 12.503 4.755 L 11.847 5.134 L 11.952 3.498 C 11.972 3.295 11.88 3.097 11.712 2.981 C 11.543 2.866 11.325 2.852 11.143 2.945 C 10.961 3.037 10.844 3.222 10.839 3.426 L 10.684 5.805 L 8.558 7.033 L 8.558 4.578 L 10.542 3.255 C 10.711 3.146 10.809 2.954 10.797 2.753 C 10.785 2.552 10.665 2.373 10.484 2.284 C 10.303 2.196 10.089 2.212 9.923 2.326 L 8.558 3.236 L 8.558 2.477 C 9.012 2.262 9.302 1.805 9.302 1.302 C 9.302 0.583 8.719 0 8 0 Z"/>
</svg>
