<svg xmlns="http://www.w3.org/2000/svg" width="16" height="16" version="1.1">
 <defs>
   <style id="current-color-scheme" type="text/css">
   .ColorScheme-Text { color: #cc00cc; } .ColorScheme-Highlight { color:#5294e2; }
  </style>
  <linearGradient id="arrongin" x1="0%" x2="0%" y1="0%" y2="100%">
   <stop offset="0%" style="stop-color:#dd9b44; stop-opacity:1"/>
   <stop offset="100%" style="stop-color:#ad6c16; stop-opacity:1"/>
  </linearGradient>
  <linearGradient id="aurora" x1="0%" x2="0%" y1="0%" y2="100%">
   <stop offset="0%" style="stop-color:#09D4DF; stop-opacity:1"/>
   <stop offset="100%" style="stop-color:#9269F4; stop-opacity:1"/>
  </linearGradient>
  <linearGradient id="cyberneon" x1="0%" x2="0%" y1="0%" y2="100%">
    <stop offset="0" style="stop-color:#0abdc6; stop-opacity:1"/>
    <stop offset="1" style="stop-color:#ea00d9; stop-opacity:1"/>
  </linearGradient>
  <linearGradient id="fitdance" x1="0%" x2="0%" y1="0%" y2="100%">
   <stop offset="0%" style="stop-color:#1AD6AB; stop-opacity:1"/>
   <stop offset="100%" style="stop-color:#329DB6; stop-opacity:1"/>
  </linearGradient>
  <linearGradient id="oomox" x1="0%" x2="0%" y1="0%" y2="100%">
   <stop offset="0%" style="stop-color:#efefe7; stop-opacity:1"/>
   <stop offset="100%" style="stop-color:#8f8f8b; stop-opacity:1"/>
  </linearGradient>
  <linearGradient id="rainblue" x1="0%" x2="0%" y1="0%" y2="100%">
   <stop offset="0%" style="stop-color:#00F260; stop-opacity:1"/>
   <stop offset="100%" style="stop-color:#0575E6; stop-opacity:1"/>
  </linearGradient>
  <linearGradient id="sunrise" x1="0%" x2="0%" y1="0%" y2="100%">
   <stop offset="0%" style="stop-color: #FF8501; stop-opacity:1"/>
   <stop offset="100%" style="stop-color: #FFCB01; stop-opacity:1"/>
  </linearGradient>
  <linearGradient id="telinkrin" x1="0%" x2="0%" y1="0%" y2="100%">
   <stop offset="0%" style="stop-color: #b2ced6; stop-opacity:1"/>
   <stop offset="100%" style="stop-color: #6da5b7; stop-opacity:1"/>
  </linearGradient>
  <linearGradient id="60spsycho" x1="0%" x2="0%" y1="0%" y2="100%">
   <stop offset="0%" style="stop-color: #df5940; stop-opacity:1"/>
   <stop offset="25%" style="stop-color: #d8d15f; stop-opacity:1"/>
   <stop offset="50%" style="stop-color: #e9882a; stop-opacity:1"/>
   <stop offset="100%" style="stop-color: #279362; stop-opacity:1"/>
  </linearGradient>
  <linearGradient id="90ssummer" x1="0%" x2="0%" y1="0%" y2="100%">
   <stop offset="0%" style="stop-color: #f618c7; stop-opacity:1"/>
   <stop offset="20%" style="stop-color: #94ffab; stop-opacity:1"/>
   <stop offset="50%" style="stop-color: #fbfd54; stop-opacity:1"/>
   <stop offset="100%" style="stop-color: #0f83ae; stop-opacity:1"/>
  </linearGradient>
 </defs>
 <path fill="currentColor" class="ColorScheme-Text" fill-rule="evenodd" d="M 8.647 5.714 L 4.857 5.714 L 4.857 8.571 L 4.286 8.571 L 4.286 7.27 L 4.286 6.635 L 4.286 5.791 L 4.286 5.429 L 4.286 3.619 L 4.286 2.857 L 7.714 2.857 L 7.714 2.262 C 7.714 1.009 6.371 0 4.617 0 L 4.024 0 L 4.024 0 C 2.269 0 0.857 1.009 0.857 2.262 L 0.857 5.429 L 0.857 10.286 L 4.857 10.286 L 4.857 10.286 L 4.857 10.571 L 4.857 13.738 C 4.857 14.991 6.269 16 8.024 16 L 8.024 16 L 8.617 16 C 10.371 16 11.714 14.991 11.714 13.738 L 11.714 13.143 L 8.286 13.143 L 8.286 12.381 L 8.286 10.571 L 8.286 10.286 L 8.881 10.286 C 10.059 10.286 11.022 9.037 11.132 7.429 L 11.494 7.429 C 12.239 7.429 12.857 8.062 12.857 8.73 L 12.857 9.65 C 12.857 10.319 12.239 10.857 11.494 10.857 L 10.539 10.857 L 8.857 10.857 L 8.857 12.571 L 12.881 12.571 C 14.134 12.571 15.143 11.254 15.143 9.5 L 15.143 8.881 C 15.143 7.126 14.134 5.714 12.881 5.714 L 11.524 5.714 L 11.072 5.714 C 10.822 4.367 9.939 3.429 8.881 3.429 L 4.857 3.429 L 4.857 5.143 L 6.539 5.143 L 7.494 5.143 C 7.978 5.143 8.41 5.371 8.652 5.714 L 8.647 5.714 L 8.647 5.714 Z M 8.839 7.429 L 8.839 7.429 L 8.286 7.429 L 8.286 8.313 C 8.585 8.099 8.795 7.775 8.846 7.429 L 8.839 7.429 L 8.839 7.429 Z M 5.857 0.857 C 5.62 0.857 5.429 1.049 5.429 1.286 C 5.429 1.522 5.62 1.714 5.857 1.714 C 6.094 1.714 6.286 1.522 6.286 1.286 C 6.286 1.049 6.094 0.857 5.857 0.857 L 5.857 0.857 L 5.857 0.857 L 5.857 0.857 Z M 9.857 15.143 C 9.62 15.143 9.429 14.951 9.429 14.714 C 9.429 14.478 9.62 14.286 9.857 14.286 C 10.094 14.286 10.286 14.478 10.286 14.714 C 10.286 14.951 10.094 15.143 9.857 15.143 L 9.857 15.143 L 9.857 15.143 L 9.857 15.143 Z"/>
</svg>
