<svg xmlns="http://www.w3.org/2000/svg" width="16" height="16" version="1.1">
 <defs>
   <style id="current-color-scheme" type="text/css">
   .ColorScheme-Text { color: #cc00cc; } .ColorScheme-Highlight { color:#5294e2; }
  </style>
  <linearGradient id="arrongin" x1="0%" x2="0%" y1="0%" y2="100%">
   <stop offset="0%" style="stop-color:#dd9b44; stop-opacity:1"/>
   <stop offset="100%" style="stop-color:#ad6c16; stop-opacity:1"/>
  </linearGradient>
  <linearGradient id="aurora" x1="0%" x2="0%" y1="0%" y2="100%">
   <stop offset="0%" style="stop-color:#09D4DF; stop-opacity:1"/>
   <stop offset="100%" style="stop-color:#9269F4; stop-opacity:1"/>
  </linearGradient>
  <linearGradient id="cyberneon" x1="0%" x2="0%" y1="0%" y2="100%">
    <stop offset="0" style="stop-color:#0abdc6; stop-opacity:1"/>
    <stop offset="1" style="stop-color:#ea00d9; stop-opacity:1"/>
  </linearGradient>
  <linearGradient id="fitdance" x1="0%" x2="0%" y1="0%" y2="100%">
   <stop offset="0%" style="stop-color:#1AD6AB; stop-opacity:1"/>
   <stop offset="100%" style="stop-color:#329DB6; stop-opacity:1"/>
  </linearGradient>
  <linearGradient id="oomox" x1="0%" x2="0%" y1="0%" y2="100%">
   <stop offset="0%" style="stop-color:#efefe7; stop-opacity:1"/>
   <stop offset="100%" style="stop-color:#8f8f8b; stop-opacity:1"/>
  </linearGradient>
  <linearGradient id="rainblue" x1="0%" x2="0%" y1="0%" y2="100%">
   <stop offset="0%" style="stop-color:#00F260; stop-opacity:1"/>
   <stop offset="100%" style="stop-color:#0575E6; stop-opacity:1"/>
  </linearGradient>
  <linearGradient id="sunrise" x1="0%" x2="0%" y1="0%" y2="100%">
   <stop offset="0%" style="stop-color: #FF8501; stop-opacity:1"/>
   <stop offset="100%" style="stop-color: #FFCB01; stop-opacity:1"/>
  </linearGradient>
  <linearGradient id="telinkrin" x1="0%" x2="0%" y1="0%" y2="100%">
   <stop offset="0%" style="stop-color: #b2ced6; stop-opacity:1"/>
   <stop offset="100%" style="stop-color: #6da5b7; stop-opacity:1"/>
  </linearGradient>
  <linearGradient id="60spsycho" x1="0%" x2="0%" y1="0%" y2="100%">
   <stop offset="0%" style="stop-color: #df5940; stop-opacity:1"/>
   <stop offset="25%" style="stop-color: #d8d15f; stop-opacity:1"/>
   <stop offset="50%" style="stop-color: #e9882a; stop-opacity:1"/>
   <stop offset="100%" style="stop-color: #279362; stop-opacity:1"/>
  </linearGradient>
  <linearGradient id="90ssummer" x1="0%" x2="0%" y1="0%" y2="100%">
   <stop offset="0%" style="stop-color: #f618c7; stop-opacity:1"/>
   <stop offset="20%" style="stop-color: #94ffab; stop-opacity:1"/>
   <stop offset="50%" style="stop-color: #fbfd54; stop-opacity:1"/>
   <stop offset="100%" style="stop-color: #0f83ae; stop-opacity:1"/>
  </linearGradient>
 </defs>
 <path fill="currentColor" class="ColorScheme-Text" fill-rule="evenodd" d="M 6.121 3.18 L 7.8 3.18 C 8.295 3.18 8.77 3.376 9.119 3.726 C 9.469 4.076 9.666 4.551 9.666 5.046 C 9.666 5.54 9.469 6.015 9.119 6.365 C 8.77 6.715 8.295 6.912 7.8 6.912 L 6.121 6.912 C 6.018 6.912 5.934 6.828 5.934 6.724 L 5.934 5.046 L 5.934 3.367 C 5.934 3.263 6.018 3.18 6.121 3.18 L 6.121 3.18 Z M 3.881 0.692 C 3.64 0.692 3.446 0.885 3.446 1.126 L 3.446 5.046 L 3.446 8.965 C 3.446 9.206 3.64 9.399 3.881 9.399 L 7.8 9.399 C 10.205 9.399 12.154 7.45 12.154 5.046 C 12.154 2.641 10.205 0.692 7.8 0.692 L 3.881 0.692 L 3.881 0.692 Z M 0.387 12.479 L 0.387 13.922 L 1.431 13.922 L 1.431 13.922 Q 1.851 13.922 2.048 13.715 L 2.048 13.715 L 2.048 13.715 Q 2.244 13.507 2.244 13.209 L 2.244 13.209 L 2.244 13.209 Q 2.244 12.927 2.053 12.703 L 2.053 12.703 L 2.053 12.703 Q 1.863 12.479 1.431 12.479 L 1.431 12.479 L 0.387 12.479 L 0.387 12.479 Z M 4.217 14.657 L 5.494 14.657 L 4.963 13.109 L 4.963 13.109 Q 4.875 12.861 4.853 12.761 L 4.853 12.761 L 4.808 12.905 L 4.808 12.905 Q 4.77 13.054 4.747 13.109 L 4.747 13.109 L 4.217 14.657 L 4.217 14.657 Z M 9.572 16 L 7.268 16 L 7.268 12.131 L 7.655 12.131 L 7.655 15.63 L 9.572 15.63 L 9.572 16 L 9.572 16 Z M 12.651 16 L 10.346 16 L 10.346 12.131 L 10.733 12.131 L 10.733 15.63 L 12.651 15.63 L 12.651 16 L 12.651 16 Z M 14.745 16 L 14.359 16 L 14.359 14.48 L 13.093 12.131 L 13.518 12.131 L 14.546 14.121 L 15.602 12.131 L 16 12.131 L 14.745 14.464 L 14.745 16 L 14.745 16 Z M 0.387 16 L 0 16 L 0 12.131 L 1.42 12.131 L 1.42 12.131 Q 2.05 12.131 2.332 12.438 L 2.332 12.438 L 2.332 12.438 Q 2.614 12.745 2.614 13.192 L 2.614 13.192 L 2.614 13.192 Q 2.614 13.585 2.382 13.88 L 2.382 13.88 L 2.382 13.88 Q 2.15 14.176 1.658 14.254 L 1.658 14.254 L 2.515 16 L 2.089 16 L 1.26 14.27 L 0.387 14.27 L 0.387 16 L 0.387 16 Z M 6.356 16 L 5.963 16 L 5.61 15 L 4.101 15 L 3.764 16 L 3.36 16 L 4.703 12.131 L 5.002 12.131 L 6.356 16 L 6.356 16 Z"/>
</svg>
