<svg xmlns="http://www.w3.org/2000/svg" width="16" height="16" version="1.1">
 <defs>
   <style id="current-color-scheme" type="text/css">
   .ColorScheme-Text { color: #cc00cc; } .ColorScheme-Highlight { color:#5294e2; }
  </style>
  <linearGradient id="arrongin" x1="0%" x2="0%" y1="0%" y2="100%">
   <stop offset="0%" style="stop-color:#dd9b44; stop-opacity:1"/>
   <stop offset="100%" style="stop-color:#ad6c16; stop-opacity:1"/>
  </linearGradient>
  <linearGradient id="aurora" x1="0%" x2="0%" y1="0%" y2="100%">
   <stop offset="0%" style="stop-color:#09D4DF; stop-opacity:1"/>
   <stop offset="100%" style="stop-color:#9269F4; stop-opacity:1"/>
  </linearGradient>
  <linearGradient id="cyberneon" x1="0%" x2="0%" y1="0%" y2="100%">
    <stop offset="0" style="stop-color:#0abdc6; stop-opacity:1"/>
    <stop offset="1" style="stop-color:#ea00d9; stop-opacity:1"/>
  </linearGradient>
  <linearGradient id="fitdance" x1="0%" x2="0%" y1="0%" y2="100%">
   <stop offset="0%" style="stop-color:#1AD6AB; stop-opacity:1"/>
   <stop offset="100%" style="stop-color:#329DB6; stop-opacity:1"/>
  </linearGradient>
  <linearGradient id="oomox" x1="0%" x2="0%" y1="0%" y2="100%">
   <stop offset="0%" style="stop-color:#efefe7; stop-opacity:1"/>
   <stop offset="100%" style="stop-color:#8f8f8b; stop-opacity:1"/>
  </linearGradient>
  <linearGradient id="rainblue" x1="0%" x2="0%" y1="0%" y2="100%">
   <stop offset="0%" style="stop-color:#00F260; stop-opacity:1"/>
   <stop offset="100%" style="stop-color:#0575E6; stop-opacity:1"/>
  </linearGradient>
  <linearGradient id="sunrise" x1="0%" x2="0%" y1="0%" y2="100%">
   <stop offset="0%" style="stop-color: #FF8501; stop-opacity:1"/>
   <stop offset="100%" style="stop-color: #FFCB01; stop-opacity:1"/>
  </linearGradient>
  <linearGradient id="telinkrin" x1="0%" x2="0%" y1="0%" y2="100%">
   <stop offset="0%" style="stop-color: #b2ced6; stop-opacity:1"/>
   <stop offset="100%" style="stop-color: #6da5b7; stop-opacity:1"/>
  </linearGradient>
  <linearGradient id="60spsycho" x1="0%" x2="0%" y1="0%" y2="100%">
   <stop offset="0%" style="stop-color: #df5940; stop-opacity:1"/>
   <stop offset="25%" style="stop-color: #d8d15f; stop-opacity:1"/>
   <stop offset="50%" style="stop-color: #e9882a; stop-opacity:1"/>
   <stop offset="100%" style="stop-color: #279362; stop-opacity:1"/>
  </linearGradient>
  <linearGradient id="90ssummer" x1="0%" x2="0%" y1="0%" y2="100%">
   <stop offset="0%" style="stop-color: #f618c7; stop-opacity:1"/>
   <stop offset="20%" style="stop-color: #94ffab; stop-opacity:1"/>
   <stop offset="50%" style="stop-color: #fbfd54; stop-opacity:1"/>
   <stop offset="100%" style="stop-color: #0f83ae; stop-opacity:1"/>
  </linearGradient>
 </defs>
 <path fill="currentColor" class="ColorScheme-Text" fill-rule="evenodd" d="M 7.828 12.65 L 8.785 12.65 C 8.785 12.65 9.074 12.618 9.221 12.454 C 9.357 12.304 9.353 12.023 9.353 12.023 C 9.353 12.023 9.334 10.704 9.929 10.51 C 10.517 10.318 11.27 11.784 12.07 12.348 C 12.674 12.774 13.133 12.681 13.133 12.681 L 15.27 12.65 C 15.27 12.65 16.387 12.579 15.857 11.676 C 15.814 11.603 15.549 11.008 14.269 9.787 C 12.928 8.51 13.108 8.717 14.722 6.506 C 15.705 5.16 16.098 4.338 15.975 3.987 C 15.858 3.651 15.135 3.74 15.135 3.74 L 12.729 3.755 C 12.729 3.755 12.551 3.73 12.418 3.811 C 12.289 3.891 12.206 4.077 12.206 4.077 C 12.206 4.077 11.825 5.118 11.317 6.004 C 10.246 7.873 9.818 7.972 9.643 7.856 C 9.235 7.586 9.337 6.77 9.337 6.19 C 9.337 4.378 9.604 3.623 8.816 3.427 C 8.555 3.362 8.362 3.319 7.693 3.312 C 6.835 3.303 6.109 3.315 5.697 3.522 C 5.423 3.66 5.212 3.967 5.341 3.984 C 5.5 4.006 5.86 4.084 6.051 4.351 C 6.298 4.696 6.289 5.47 6.289 5.47 C 6.289 5.47 6.431 7.602 5.958 7.867 C 5.634 8.049 5.189 7.678 4.234 5.982 C 3.745 5.114 3.375 4.153 3.375 4.153 C 3.375 4.153 3.304 3.974 3.177 3.878 C 3.023 3.761 2.808 3.724 2.808 3.724 L 0.522 3.74 C 0.522 3.74 0.178 3.75 0.052 3.903 C -0.06 4.039 0.043 4.321 0.043 4.321 C 0.043 4.321 1.833 8.624 3.86 10.793 C 5.718 12.781 7.828 12.651 7.828 12.651"/>
</svg>
