<svg xmlns="http://www.w3.org/2000/svg" width="16" height="16" version="1.1">
 <defs>
   <style id="current-color-scheme" type="text/css">
   .ColorScheme-Text { color: #00aa00; } .ColorScheme-Highlight { color: #1AD6AB; }
  </style>
  <linearGradient id="arrongin" x1="0%" x2="0%" y1="0%" y2="100%">
   <stop offset="0%" style="stop-color: #dd9b44; stop-opacity: 1"/>
   <stop offset="100%" style="stop-color: #ad6c16; stop-opacity: 1"/>
  </linearGradient>
  <linearGradient id="aurora" x1="0%" x2="0%" y1="0%" y2="100%">
   <stop offset="0%" style="stop-color: #09D4DF; stop-opacity: 1"/>
   <stop offset="100%" style="stop-color: #9269F4; stop-opacity: 1"/>
  </linearGradient>
  <linearGradient id="cyberneon" x1="0%" x2="0%" y1="0%" y2="100%">
    <stop offset="0" style="stop-color: #0abdc6; stop-opacity: 1"/>
    <stop offset="1" style="stop-color: #ea00d9; stop-opacity: 1"/>
  </linearGradient>
  <linearGradient id="fitdance" x1="0%" x2="0%" y1="0%" y2="100%">
   <stop offset="0%" style="stop-color: #1AD6AB; stop-opacity: 1"/>
   <stop offset="100%" style="stop-color: #329DB6; stop-opacity: 1"/>
  </linearGradient>
  <linearGradient id="oomox" x1="0%" x2="0%" y1="0%" y2="100%">
   <stop offset="0%" style="stop-color: #00aa00; stop-opacity: 1"/>
   <stop offset="100%" style="stop-color: #00cc00; stop-opacity: 1"/>
  </linearGradient>
  <linearGradient id="rainblue" x1="0%" x2="0%" y1="0%" y2="100%">
   <stop offset="0%" style="stop-color: #00F260; stop-opacity: 1"/>
   <stop offset="100%" style="stop-color: #0575E6; stop-opacity: 1"/>
  </linearGradient>
  <linearGradient id="sunrise" x1="0%" x2="0%" y1="0%" y2="100%">
   <stop offset="0%" style="stop-color: #FF8501; stop-opacity: 1"/>
   <stop offset="100%" style="stop-color: #FFCB01; stop-opacity: 1"/>
  </linearGradient>
  <linearGradient id="telinkrin" x1="0%" x2="0%" y1="0%" y2="100%">
   <stop offset="0%" style="stop-color: #b2ced6; stop-opacity: 1"/>
   <stop offset="100%" style="stop-color: #6da5b7; stop-opacity: 1"/>
  </linearGradient>
  <linearGradient id="60spsycho" x1="0%" x2="0%" y1="0%" y2="100%">
   <stop offset="0%" style="stop-color: #df5940; stop-opacity: 1"/>
   <stop offset="25%" style="stop-color: #d8d15f; stop-opacity: 1"/>
   <stop offset="50%" style="stop-color: #e9882a; stop-opacity: 1"/>
   <stop offset="100%" style="stop-color: #279362; stop-opacity: 1"/>
  </linearGradient>
  <linearGradient id="90ssummer" x1="0%" x2="0%" y1="0%" y2="100%">
   <stop offset="0%" style="stop-color: #f618c7; stop-opacity: 1"/>
   <stop offset="20%" style="stop-color: #94ffab; stop-opacity: 1"/>
   <stop offset="50%" style="stop-color: #fbfd54; stop-opacity: 1"/>
   <stop offset="100%" style="stop-color: #0f83ae; stop-opacity: 1"/>
  </linearGradient>
 </defs>
 <path fill="url(#oomox)" class="ColorScheme-Text" d="M 3,1.002 C 1.892,1.002 1,1.894 1,3.002 V 13.002 C 1,14.11 1.892,15.002 3,15.002 H 13 C 14.108,15.002 15,14.11 15,13.002 V 3.002 C 15,1.894 14.108,1.002 13,1.002 Z M 5.4961,2.9688 C 6.2759,2.9688 6.8862,3.1924 7.328,3.6387 7.77,4.0849 7.99,4.7 7.99,5.4863 7.99,6.2705 7.77,6.8858 7.328,7.332 6.8862,7.778 6.2759,8.002 5.4961,8.002 4.7184,8.002 4.1062,7.778 3.6621,7.332 3.2202,6.8858 3,6.2705 3,5.4863 3,4.7 3.2202,4.0849 3.6621,3.6387 4.1062,3.1924 4.7184,2.9688 5.4961,2.9688 Z M 5.4961,3.875 C 5.1148,3.875 4.8195,4.0153 4.6094,4.2969 4.3992,4.5785 4.293,4.9751 4.293,5.4863 4.293,5.9954 4.3992,6.3922 4.6094,6.6738 4.8195,6.9554 5.1148,7.096 5.4961,7.096 5.8795,7.096 6.1766,6.9554 6.3867,6.6738 6.5968,6.3922 6.7012,5.9954 6.7012,5.4863 6.7012,4.9751 6.5968,4.5785 6.3867,4.2969 6.1766,4.0153 5.8795,3.875 5.4961,3.875 Z M 9.064,7.15 H 10.943 C 11.617,7.15 12.103,7.251 12.404,7.455 12.708,7.659 12.859,7.985 12.859,8.434 12.859,8.67 12.804,8.872 12.693,9.039 12.583,9.204 12.423,9.326 12.213,9.406 12.482,9.484 12.691,9.628 12.838,9.838 12.985,10.048 13.059,10.306 13.059,10.611 13.059,11.079 12.9,11.429 12.584,11.658 12.268,11.888 11.786,12.002 11.141,12.002 H 9.064 Z M 10.316,8.002 V 9.029 H 11.008 C 11.205,9.029 11.353,8.985 11.455,8.898 11.557,8.812 11.609,8.685 11.609,8.516 11.609,8.349 11.557,8.221 11.455,8.135 11.353,8.046 11.205,8.002 11.008,8.002 Z M 10.314,9.881 V 11.15 H 11.049 C 11.3,11.15 11.49,11.098 11.615,10.992 11.743,10.886 11.807,10.724 11.807,10.51 11.807,10.3 11.745,10.143 11.619,10.039 11.493,9.933 11.302,9.881 11.049,9.881 Z"/>
</svg>
