<svg xmlns="http://www.w3.org/2000/svg" width="24" height="24" version="1.1">
 <defs>
   <style id="current-color-scheme" type="text/css">
   .ColorScheme-Text { color: #cc00cc; } .ColorScheme-Highlight { color: #1AD6AB; }
  </style>
  <linearGradient id="arrongin" x1="0%" x2="0%" y1="0%" y2="100%">
   <stop offset="0%"    stop-color= "#dd9b44" stop-opacity="1"/>
   <stop offset="100%"  stop-color= "#ad6c16" stop-opacity="1"/>
  </linearGradient>
  <linearGradient id="aurora" x1="0%" x2="0%" y1="0%" y2="100%">
   <stop offset="0%"    stop-color= "#09D4DF" stop-opacity="1"/>
   <stop offset="100%"  stop-color= "#9269F4" stop-opacity="1"/>
  </linearGradient> 
  <linearGradient id="cyberblue" x1="0%" x2="0%" y1="0%" y2="100%">
   <stop offset="0%"    stop-color= "#07B3FF" stop-opacity="1"/>
   <stop offset="100%"  stop-color= "#007DE8" stop-opacity="1"/>
  </linearGradient>
  <linearGradient id="cyberneon" x1="0%" x2="0%" y1="0%" y2="100%">
    <stop offset="0%"   stop-color= "#0abdc6" stop-opacity="1"/>
    <stop offset="100%" stop-color= "#ea00d9" stop-opacity="1"/>
  </linearGradient>
  <linearGradient id="fitdance" x1="0%" x2="0%" y1="0%" y2="100%">
   <stop offset="0%"    stop-color= "#1AD6AB" stop-opacity="1"/>
   <stop offset="100%"  stop-color= "#329DB6" stop-opacity="1"/>
  </linearGradient>
  <linearGradient id="oomox" x1="0%" x2="0%" y1="0%" y2="100%">
   <stop offset="0%"    stop-color= "#efefe7" stop-opacity="1"/>
   <stop offset="100%"  stop-color= "#8f8f8b" stop-opacity="1"/>
  </linearGradient>
  <linearGradient id="rainblue" x1="0%" x2="0%" y1="0%" y2="100%">
   <stop offset="0%"    stop-color= "#00F260" stop-opacity="1"/>
   <stop offset="100%"  stop-color= "#0575E6" stop-opacity="1"/>
  </linearGradient>
  <linearGradient id="redcarbon" x1="0%" x2="0%" y1="0%" y2="100%">
   <stop offset="0%"    stop-color= "#FF6D57" stop-opacity="1"/>
   <stop offset="50%"   stop-color= "#FF5160" stop-opacity="1"/>
   <stop offset="100%"  stop-color= "#F50F22" stop-opacity="1"/>
  </linearGradient>
  <linearGradient id="sunrise" x1="0%" x2="0%" y1="0%" y2="100%">
   <stop offset="0%"    stop-color= "#FF8501" stop-opacity="1"/>
   <stop offset="100%"  stop-color= "#FFCB01" stop-opacity="1"/>
  </linearGradient>
  <linearGradient id="telinkrin" x1="0%" x2="0%" y1="0%" y2="100%">
   <stop offset="0%"    stop-color= "#b2ced6" stop-opacity="1"/>
   <stop offset="100%"  stop-color= "#6da5b7" stop-opacity="1"/>
  </linearGradient>
  <linearGradient id="60spsycho" x1="0%" x2="0%" y1="0%" y2="100%">
   <stop offset="0%"    stop-color= "#df5940" stop-opacity="1"/>
   <stop offset="25%"   stop-color= "#d8d15f" stop-opacity="1"/>
   <stop offset="50%"   stop-color= "#e9882a" stop-opacity="1"/>
   <stop offset="100%"  stop-color= "#279362" stop-opacity="1"/>
  </linearGradient>
  <linearGradient id="90ssummer" x1="0%" x2="0%" y1="0%" y2="100%">
   <stop offset="0%"    stop-color= "#f618c7" stop-opacity="1"/>
   <stop offset="20%"   stop-color= "#94ffab" stop-opacity="1"/>
   <stop offset="50%"   stop-color= "#fbfd54" stop-opacity="1"/>
   <stop offset="100%"  stop-color= "#0f83ae" stop-opacity="1"/>
  </linearGradient>
 </defs>
  <path fill="currentColor" class="ColorScheme-Text" d="M 5.226563 6 L 5.226563 18 L 7.226563 18 L 7.226563 6 L 5.226563 6 Z"/>
  <path fill="currentColor" class="ColorScheme-Text" fill-rule="evenodd" d="M 18.773437 17.621 L 16.133747 17.621 L 16.133747 16.719 L 16.133747 16.719 Q 14.952835 17.885 12.984645 17.885 L 12.984645 17.885 L 12.984645 17.885 Q 11.085921 17.885 9.893429 16.906 L 9.893429 16.906 L 9.893429 16.906 Q 8.700938 15.927 8.700938 14.145 L 8.700938 14.145 L 8.700938 14.145 Q 8.700938 12.319 10.055516 11.373 L 10.055516 11.373 L 10.055516 11.373 Q 11.410093 10.427 13.331972 10.427 L 13.331972 10.427 L 13.331972 10.427 Q 15.0223 10.427 16.133747 11.021 L 16.133747 11.021 L 16.133747 10.427 L 16.133747 10.427 Q 16.133747 9.349 15.566447 8.865 L 15.566447 8.865 L 15.566447 8.865 Q 14.999144 8.381 13.81823 8.381 L 13.81823 8.381 L 13.81823 8.381 Q 11.896352 8.381 10.298645 9.437 L 10.298645 9.437 L 9.465059 7.347 L 9.465059 7.347 Q 11.386938 6.115 14.096093 6.115 L 14.096093 6.115 L 14.096093 6.115 Q 15.0223 6.115 15.728533 6.258 L 15.728533 6.258 L 15.728533 6.258 Q 16.434765 6.401 17.187309 6.819 L 17.187309 6.819 L 17.187309 6.819 Q 17.939852 7.237 18.356645 8.139 L 18.356645 8.139 L 18.356645 8.139 Q 18.773437 9.041 18.773437 10.383 L 18.773437 10.383 L 18.773437 17.621 Z M 13.494058 15.619 L 13.494058 15.619 L 13.494058 15.619 Q 15.045455 15.619 16.133747 14.541 L 16.133747 14.541 L 16.133747 13.089 L 16.133747 13.089 Q 15.11492 12.627 13.771921 12.627 L 13.771921 12.627 L 13.771921 12.627 Q 12.683628 12.627 12.012128 13.001 L 12.012128 13.001 L 12.012128 13.001 Q 11.340627 13.375 11.340627 14.145 L 11.340627 14.145 L 11.340627 14.145 Q 11.340627 14.827 11.896352 15.223 L 11.896352 15.223 L 11.896352 15.223 Q 12.452076 15.619 13.494058 15.619 Z"/>
</svg>
