<svg xmlns="http://www.w3.org/2000/svg" width="24" height="24" version="1.1">
 <defs>
   <style id="current-color-scheme" type="text/css">
   .ColorScheme-Text { color: #cc00cc; } .ColorScheme-Highlight { color: #1AD6AB; }
  </style>
  <linearGradient id="arrongin" x1="0%" x2="0%" y1="0%" y2="100%">
   <stop offset="0%"    stop-color= "#dd9b44" stop-opacity="1"/>
   <stop offset="100%"  stop-color= "#ad6c16" stop-opacity="1"/>
  </linearGradient>
  <linearGradient id="aurora" x1="0%" x2="0%" y1="0%" y2="100%">
   <stop offset="0%"    stop-color= "#09D4DF" stop-opacity="1"/>
   <stop offset="100%"  stop-color= "#9269F4" stop-opacity="1"/>
  </linearGradient> 
  <linearGradient id="cyberblue" x1="0%" x2="0%" y1="0%" y2="100%">
   <stop offset="0%"    stop-color= "#07B3FF" stop-opacity="1"/>
   <stop offset="100%"  stop-color= "#007DE8" stop-opacity="1"/>
  </linearGradient>
  <linearGradient id="cyberneon" x1="0%" x2="0%" y1="0%" y2="100%">
    <stop offset="0%"   stop-color= "#0abdc6" stop-opacity="1"/>
    <stop offset="100%" stop-color= "#ea00d9" stop-opacity="1"/>
  </linearGradient>
  <linearGradient id="fitdance" x1="0%" x2="0%" y1="0%" y2="100%">
   <stop offset="0%"    stop-color= "#1AD6AB" stop-opacity="1"/>
   <stop offset="100%"  stop-color= "#329DB6" stop-opacity="1"/>
  </linearGradient>
  <linearGradient id="oomox" x1="0%" x2="0%" y1="0%" y2="100%">
   <stop offset="0%"    stop-color= "#efefe7" stop-opacity="1"/>
   <stop offset="100%"  stop-color= "#8f8f8b" stop-opacity="1"/>
  </linearGradient>
  <linearGradient id="rainblue" x1="0%" x2="0%" y1="0%" y2="100%">
   <stop offset="0%"    stop-color= "#00F260" stop-opacity="1"/>
   <stop offset="100%"  stop-color= "#0575E6" stop-opacity="1"/>
  </linearGradient>
  <linearGradient id="redcarbon" x1="0%" x2="0%" y1="0%" y2="100%">
   <stop offset="0%"    stop-color= "#FF6D57" stop-opacity="1"/>
   <stop offset="50%"   stop-color= "#FF5160" stop-opacity="1"/>
   <stop offset="100%"  stop-color= "#F50F22" stop-opacity="1"/>
  </linearGradient>
  <linearGradient id="sunrise" x1="0%" x2="0%" y1="0%" y2="100%">
   <stop offset="0%"    stop-color= "#FF8501" stop-opacity="1"/>
   <stop offset="100%"  stop-color= "#FFCB01" stop-opacity="1"/>
  </linearGradient>
  <linearGradient id="telinkrin" x1="0%" x2="0%" y1="0%" y2="100%">
   <stop offset="0%"    stop-color= "#b2ced6" stop-opacity="1"/>
   <stop offset="100%"  stop-color= "#6da5b7" stop-opacity="1"/>
  </linearGradient>
  <linearGradient id="60spsycho" x1="0%" x2="0%" y1="0%" y2="100%">
   <stop offset="0%"    stop-color= "#df5940" stop-opacity="1"/>
   <stop offset="25%"   stop-color= "#d8d15f" stop-opacity="1"/>
   <stop offset="50%"   stop-color= "#e9882a" stop-opacity="1"/>
   <stop offset="100%"  stop-color= "#279362" stop-opacity="1"/>
  </linearGradient>
  <linearGradient id="90ssummer" x1="0%" x2="0%" y1="0%" y2="100%">
   <stop offset="0%"    stop-color= "#f618c7" stop-opacity="1"/>
   <stop offset="20%"   stop-color= "#94ffab" stop-opacity="1"/>
   <stop offset="50%"   stop-color= "#fbfd54" stop-opacity="1"/>
   <stop offset="100%"  stop-color= "#0f83ae" stop-opacity="1"/>
  </linearGradient>
 </defs>
 <path id="address-book-new" fill="currentColor" class="ColorScheme-Text" fill-rule="evenodd" d="M 7 5 C 5.892 5 5 5.892 5 7 L 5 17 C 5 18.108 5.892 19 7 19 L 17 19 C 18.108 19 19 18.108 19 17 L 19 7 C 19 5.892 18.108 5 17 5 L 7 5 Z M 11.78712 13.1729 L 11.78712 13.1729 L 11.78712 13.1729 Q 12.260186 13.1729 12.56768 12.741227 L 12.56768 12.741227 L 12.56768 12.741227 Q 12.875173 12.309554 12.875173 11.777354 L 12.875173 11.777354 L 12.875173 11.777354 Q 12.875173 11.363421 12.685946 11.120975 L 12.685946 11.120975 L 12.685946 11.120975 Q 12.49672 10.878528 12.153747 10.878528 L 12.153747 10.878528 L 12.153747 10.878528 Q 11.68068 10.878528 11.367274 11.280635 L 11.367274 11.280635 L 11.367274 11.280635 Q 11.053867 11.682741 11.053867 12.25042 L 11.053867 12.25042 L 11.053867 12.25042 Q 11.053867 12.664353 11.254921 12.918627 L 11.254921 12.918627 L 11.254921 12.918627 Q 11.455974 13.1729 11.78712 13.1729 L 11.78712 13.1729 L 11.78712 13.1729 Z M 12.082787 16.271484 L 12.082787 16.271484 L 12.082787 16.271484 Q 10.155041 16.271484 8.984202 15.177518 L 8.984202 15.177518 L 8.984202 15.177518 Q 7.813363 14.083552 7.813363 12.132154 L 7.813363 12.132154 L 7.813363 12.132154 Q 7.813363 10.216235 9.084729 8.96261 L 9.084729 8.96261 L 9.084729 8.96261 Q 10.356095 7.708984 12.201053 7.708984 L 12.201053 7.708984 L 12.201053 7.708984 Q 13.986878 7.708984 15.086758 8.73199 L 15.086758 8.73199 L 15.086758 8.73199 Q 16.186637 9.754996 16.186637 11.256981 L 16.186637 11.256981 L 16.186637 11.256981 Q 16.186637 12.53426 15.494777 13.38578 L 15.494777 13.38578 L 15.494777 13.38578 Q 14.802918 14.237299 13.809479 14.237299 L 13.809479 14.237299 L 13.809479 14.237299 Q 13.501985 14.237299 13.235886 14.065812 L 13.235886 14.065812 L 13.235886 14.065812 Q 12.969786 13.894326 12.898826 13.575006 L 12.898826 13.575006 L 12.898826 13.575006 Q 12.484893 14.260952 11.621547 14.260952 L 11.621547 14.260952 L 11.621547 14.260952 Q 10.864641 14.260952 10.391575 13.705099 L 10.391575 13.705099 L 10.391575 13.705099 Q 9.918508 13.149246 9.918508 12.238594 L 9.918508 12.238594 L 9.918508 12.238594 Q 9.918508 11.292461 10.533494 10.541468 L 10.533494 10.541468 L 10.533494 10.541468 Q 11.148481 9.790476 12.094613 9.790476 L 12.094613 9.790476 L 12.094613 9.790476 Q 12.851519 9.790476 13.159012 10.369982 L 13.159012 10.369982 L 13.241799 9.944222 L 14.353505 9.944222 L 13.963225 11.990234 L 13.963225 11.990234 Q 13.809479 12.794447 13.809479 13.007327 L 13.809479 13.007327 L 13.809479 13.007327 Q 13.809479 13.255686 14.010532 13.255686 L 14.010532 13.255686 L 14.010532 13.255686 Q 14.436291 13.255686 14.773351 12.688007 L 14.773351 12.688007 L 14.773351 12.688007 Q 15.110411 12.120327 15.110411 11.280635 L 15.110411 11.280635 L 15.110411 11.280635 Q 15.110411 10.192582 14.359418 9.482983 L 14.359418 9.482983 L 14.359418 9.482983 Q 13.608425 8.773383 12.24836 8.773383 L 12.24836 8.773383 L 12.24836 8.773383 Q 10.805508 8.773383 9.888942 9.731342 L 9.888942 9.731342 L 9.888942 9.731342 Q 8.972376 10.689302 8.972376 12.143981 L 8.972376 12.143981 L 8.972376 12.143981 Q 8.972376 13.598659 9.817982 14.402872 L 9.817982 14.402872 L 9.817982 14.402872 Q 10.663588 15.207085 12.130093 15.207085 L 12.130093 15.207085 L 12.130093 15.207085 Q 12.886999 15.207085 13.667559 15.006032 L 13.667559 15.006032 L 13.371892 16.188697 L 13.371892 16.188697 Q 12.792386 16.271484 12.082787 16.271484 L 12.082787 16.271484 L 12.082787 16.271484 Z"/>
</svg>
