<svg xmlns="http://www.w3.org/2000/svg" width="24" height="24" version="1.1">
 <defs>
   <style id="current-color-scheme" type="text/css">
   .ColorScheme-Text { color: #cc00cc; } .ColorScheme-Highlight { color: #1AD6AB; }
  </style>
  <linearGradient id="arrongin" x1="0%" x2="0%" y1="0%" y2="100%">
   <stop offset="0%"    stop-color= "#dd9b44" stop-opacity="1"/>
   <stop offset="100%"  stop-color= "#ad6c16" stop-opacity="1"/>
  </linearGradient>
  <linearGradient id="aurora" x1="0%" x2="0%" y1="0%" y2="100%">
   <stop offset="0%"    stop-color= "#09D4DF" stop-opacity="1"/>
   <stop offset="100%"  stop-color= "#9269F4" stop-opacity="1"/>
  </linearGradient> 
  <linearGradient id="cyberblue" x1="0%" x2="0%" y1="0%" y2="100%">
   <stop offset="0%"    stop-color= "#07B3FF" stop-opacity="1"/>
   <stop offset="100%"  stop-color= "#007DE8" stop-opacity="1"/>
  </linearGradient>
  <linearGradient id="cyberneon" x1="0%" x2="0%" y1="0%" y2="100%">
    <stop offset="0%"   stop-color= "#0abdc6" stop-opacity="1"/>
    <stop offset="100%" stop-color= "#ea00d9" stop-opacity="1"/>
  </linearGradient>
  <linearGradient id="fitdance" x1="0%" x2="0%" y1="0%" y2="100%">
   <stop offset="0%"    stop-color= "#1AD6AB" stop-opacity="1"/>
   <stop offset="100%"  stop-color= "#329DB6" stop-opacity="1"/>
  </linearGradient>
  <linearGradient id="oomox" x1="0%" x2="0%" y1="0%" y2="100%">
   <stop offset="0%"    stop-color= "#efefe7" stop-opacity="1"/>
   <stop offset="100%"  stop-color= "#8f8f8b" stop-opacity="1"/>
  </linearGradient>
  <linearGradient id="rainblue" x1="0%" x2="0%" y1="0%" y2="100%">
   <stop offset="0%"    stop-color= "#00F260" stop-opacity="1"/>
   <stop offset="100%"  stop-color= "#0575E6" stop-opacity="1"/>
  </linearGradient>
  <linearGradient id="redcarbon" x1="0%" x2="0%" y1="0%" y2="100%">
   <stop offset="0%"    stop-color= "#FF6D57" stop-opacity="1"/>
   <stop offset="50%"   stop-color= "#FF5160" stop-opacity="1"/>
   <stop offset="100%"  stop-color= "#F50F22" stop-opacity="1"/>
  </linearGradient>
  <linearGradient id="sunrise" x1="0%" x2="0%" y1="0%" y2="100%">
   <stop offset="0%"    stop-color= "#FF8501" stop-opacity="1"/>
   <stop offset="100%"  stop-color= "#FFCB01" stop-opacity="1"/>
  </linearGradient>
  <linearGradient id="telinkrin" x1="0%" x2="0%" y1="0%" y2="100%">
   <stop offset="0%"    stop-color= "#b2ced6" stop-opacity="1"/>
   <stop offset="100%"  stop-color= "#6da5b7" stop-opacity="1"/>
  </linearGradient>
  <linearGradient id="60spsycho" x1="0%" x2="0%" y1="0%" y2="100%">
   <stop offset="0%"    stop-color= "#df5940" stop-opacity="1"/>
   <stop offset="25%"   stop-color= "#d8d15f" stop-opacity="1"/>
   <stop offset="50%"   stop-color= "#e9882a" stop-opacity="1"/>
   <stop offset="100%"  stop-color= "#279362" stop-opacity="1"/>
  </linearGradient>
  <linearGradient id="90ssummer" x1="0%" x2="0%" y1="0%" y2="100%">
   <stop offset="0%"    stop-color= "#f618c7" stop-opacity="1"/>
   <stop offset="20%"   stop-color= "#94ffab" stop-opacity="1"/>
   <stop offset="50%"   stop-color= "#fbfd54" stop-opacity="1"/>
   <stop offset="100%"  stop-color= "#0f83ae" stop-opacity="1"/>
  </linearGradient>
 </defs>
 <path fill="currentColor" class="ColorScheme-Text" d="M 0.49414062 0 A 0.49975 0.49977 0 0 0 0.13085938 0.83007812 C 1.0374194 1.8880781 2.680775 2.3994 4.609375 2.8125 C 5.975675 3.1052 7.4898469 3.3304937 8.9980469 3.5585938 L 8.9980469 6.0039062 L 11.003906 6.0039062 L 11.003906 9.0039062 L 8.9980469 9.0039062 L 8.9980469 10.443359 C 8.9940469 10.444015 8.9903271 10.444612 8.9863281 10.445312 C 6.8769281 10.791723 4.7581781 11.244096 3.0800781 12.128906 C 1.4017781 13.013716 0.14861875 14.412044 0.01171875 16.464844 C -0.04226825 17.279884 0.25956187 18.005716 0.79492188 18.541016 C 1.3302919 19.076246 2.0696656 19.447021 2.9472656 19.738281 C 4.5662656 20.275511 6.6939469 20.537437 8.9980469 20.748047 L 8.9980469 23 L 11.003906 23 L 11.003906 23.996094 L 11.503906 23.996094 L 12.003906 23.996094 L 12.003906 23.496094 L 12.003906 23 L 13.996094 23 L 13.996094 21.203125 C 17.699594 21.564965 21.239597 22.093619 23.216797 23.412109 A 0.49998181 0.49999181 0 0 0 23.771484 22.580078 C 22.681584 21.853228 21.277356 21.3632 19.722656 21 L 23.994141 21 L 23.994141 20 L 21.494141 20 L 13.996094 20 L 13.996094 18.001953 L 12.003906 18.001953 L 12.003906 14.001953 L 13.996094 14.001953 L 13.996094 12.001953 L 21.494141 12.001953 L 23.994141 12.001953 L 23.994141 11.001953 L 21.494141 11.001953 L 13.996094 11.001953 L 13.996094 10.662109 C 14.350494 10.594189 14.70412 10.526336 15.03125 10.447266 C 15.88044 10.241946 16.629575 9.9939687 17.234375 9.6367188 C 17.839225 9.2794787 18.319575 8.7820469 18.484375 8.1230469 C 18.694375 7.2860469 18.592563 6.5099063 18.226562 5.8789062 C 17.859562 5.2479062 17.262969 4.7731781 16.542969 4.3925781 C 16.269969 4.2480781 15.960391 4.1255062 15.650391 4.0039062 L 21.494141 4.0039062 L 23.994141 4.0039062 L 23.994141 3.0039062 L 13.996094 3.0039062 L 13.996094 1.0058594 L 12.003906 1.0058594 L 12.003906 0.50585938 L 12.003906 0.005859375 L 11.003906 0.005859375 L 11.003906 0.50585938 L 11.003906 1.0058594 L 8.9980469 1.0058594 L 8.9980469 2.546875 C 7.5391469 2.325275 6.0918594 2.1067844 4.8183594 1.8339844 C 2.9566594 1.4351844 1.483025 0.8709175 0.890625 0.1796875 A 0.49975 0.49977 0 0 0 0.49414062 0 z M 21.494141 4.0039062 L 19.962891 6.0039062 L 20.994141 6.0039062 L 20.994141 9.0039062 L 19.994141 9.0039062 L 21.494141 11.001953 L 22.994141 9.0039062 L 21.994141 9.0039062 L 21.994141 6.0039062 L 22.962891 6.0039062 L 21.494141 4.0039062 z M 21.494141 12.001953 L 19.962891 14.001953 L 20.994141 14.001953 L 20.994141 18.001953 L 19.994141 18.001953 L 21.494141 20 L 22.994141 18.001953 L 21.994141 18.001953 L 21.994141 14.001953 L 22.962891 14.001953 L 21.494141 12.001953 z M 13.996094 4.5136719 C 14.794924 4.7326719 15.513572 4.9801337 16.076172 5.2773438 C 16.692022 5.6027438 17.124728 5.9730794 17.361328 6.3808594 C 17.597968 6.7886494 17.672932 7.2433994 17.513672 7.8808594 C 17.428692 8.2214494 17.189252 8.5040138 16.726562 8.7773438 C 16.263783 9.0506638 15.594875 9.2836125 14.796875 9.4765625 C 14.548215 9.5366825 14.267574 9.5887381 13.996094 9.6425781 L 13.996094 9.0039062 L 12.003906 9.0039062 L 12.003906 6.0039062 L 13.996094 6.0039062 L 13.996094 4.5136719 z M 8.9980469 11.458984 L 8.9980469 14.001953 L 11.003906 14.001953 L 11.003906 18.001953 L 8.9980469 18.001953 L 8.9980469 19.742188 C 6.7497469 19.533188 4.7022188 19.269016 3.2617188 18.791016 C 2.4702187 18.528016 1.8671 18.200984 1.5 17.833984 C 1.1329 17.466984 0.97262563 17.08825 1.0097656 16.53125 C 1.1226656 14.83625 2.055375 13.797719 3.546875 13.011719 C 5.001875 12.244719 6.9757469 11.796984 8.9980469 11.458984 z"/>
</svg>
