<svg xmlns="http://www.w3.org/2000/svg" width="16" height="16" version="1.1">
 <defs>
   <style id="current-color-scheme" type="text/css">
   .ColorScheme-Text { color: #00aa00; } .ColorScheme-Highlight { color:#5294e2; }
  </style>
  <linearGradient id="arrongin" x1="0%" x2="0%" y1="0%" y2="100%">
   <stop offset="0%" style="stop-color:#dd9b44; stop-opacity:1"/>
   <stop offset="100%" style="stop-color:#ad6c16; stop-opacity:1"/>
  </linearGradient>
  <linearGradient id="aurora" x1="0%" x2="0%" y1="0%" y2="100%">
   <stop offset="0%" style="stop-color:#09D4DF; stop-opacity:1"/>
   <stop offset="100%" style="stop-color:#9269F4; stop-opacity:1"/>
  </linearGradient>
  <linearGradient id="cyberneon" x1="0%" x2="0%" y1="0%" y2="100%">
    <stop offset="0" style="stop-color:#0abdc6; stop-opacity:1"/>
    <stop offset="1" style="stop-color:#ea00d9; stop-opacity:1"/>
  </linearGradient>
  <linearGradient id="fitdance" x1="0%" x2="0%" y1="0%" y2="100%">
   <stop offset="0%" style="stop-color:#1AD6AB; stop-opacity:1"/>
   <stop offset="100%" style="stop-color:#329DB6; stop-opacity:1"/>
  </linearGradient>
  <linearGradient id="oomox" x1="0%" x2="0%" y1="0%" y2="100%">
   <stop offset="0%" style="stop-color:#00aa00; stop-opacity:1"/>
   <stop offset="100%" style="stop-color:#00cc00; stop-opacity:1"/>
  </linearGradient>
  <linearGradient id="rainblue" x1="0%" x2="0%" y1="0%" y2="100%">
   <stop offset="0%" style="stop-color:#00F260; stop-opacity:1"/>
   <stop offset="100%" style="stop-color:#0575E6; stop-opacity:1"/>
  </linearGradient>
  <linearGradient id="sunrise" x1="0%" x2="0%" y1="0%" y2="100%">
   <stop offset="0%" style="stop-color: #FF8501; stop-opacity:1"/>
   <stop offset="100%" style="stop-color: #FFCB01; stop-opacity:1"/>
  </linearGradient>
  <linearGradient id="telinkrin" x1="0%" x2="0%" y1="0%" y2="100%">
   <stop offset="0%" style="stop-color: #b2ced6; stop-opacity:1"/>
   <stop offset="100%" style="stop-color: #6da5b7; stop-opacity:1"/>
  </linearGradient>
  <linearGradient id="60spsycho" x1="0%" x2="0%" y1="0%" y2="100%">
   <stop offset="0%" style="stop-color: #df5940; stop-opacity:1"/>
   <stop offset="25%" style="stop-color: #d8d15f; stop-opacity:1"/>
   <stop offset="50%" style="stop-color: #e9882a; stop-opacity:1"/>
   <stop offset="100%" style="stop-color: #279362; stop-opacity:1"/>
  </linearGradient>
  <linearGradient id="90ssummer" x1="0%" x2="0%" y1="0%" y2="100%">
   <stop offset="0%" style="stop-color: #f618c7; stop-opacity:1"/>
   <stop offset="20%" style="stop-color: #94ffab; stop-opacity:1"/>
   <stop offset="50%" style="stop-color: #fbfd54; stop-opacity:1"/>
   <stop offset="100%" style="stop-color: #0f83ae; stop-opacity:1"/>
  </linearGradient>
 </defs>
 <path fill="url(#oomox)" class="ColorScheme-Text" fill-rule="evenodd" d="m 9.7420597,8.8807574 c 0,1.0228536 0.024328,1.8754956 -0.492119,2.7842706 -0.4171509,0.739185 -1.0810414,1.192903 -1.81848,1.192903 -1.0076784,0 -1.5975501,-0.766696 -1.5975501,-1.90329 0,-2.23539 2.0074668,-2.6417743 3.9081491,-2.6417743 z m 2.6491993,6.3995536 c -0.174267,0.155624 -0.425315,0.166427 -0.621255,0.06095 -0.873118,-0.724336 -1.029341,-1.059427 -1.50608,-1.74902 C 8.8219401,15.059843 7.8002519,15.5 5.9322896,15.5 3.7200684,15.5 2,14.136621 2,11.409318 2,9.2785455 3.1548343,7.8299004 4.8016113,7.1194798 6.2271459,6.4943728 8.2183449,6.3809924 9.74201,6.2102745 V 5.8693233 C 9.74201,5.2446996 9.7908163,4.505719 9.4223376,3.9660389 9.1027045,3.4830167 8.4882567,3.2843643 7.9478819,3.2843643 6.945839,3.2843643 6.054664,3.797157 5.8361291,4.8601959 5.7902892,5.0970022 5.6178357,5.3307755 5.3792625,5.3430155 L 2.8329765,5.0674043 C 2.6181061,5.0192093 2.3787948,4.8466044 2.4411198,4.518754 3.0259994,1.4325059 5.8160561,0.5 8.3162921,0.5 c 1.2780954,0 2.9494359,0.3409483 3.9571489,1.3068382 1.278094,1.1933663 1.155298,2.7842698 1.155298,4.5173237 v 4.0888911 c 0,1.229893 0.511053,1.769775 0.991412,2.433178 0.167932,0.238133 0.205855,0.52227 -0.0087,0.696363 -0.536804,0.44964 -1.49076,1.27727 -2.015392,1.743621 z"/>
</svg>
