<svg xmlns="http://www.w3.org/2000/svg" width="16" height="16" version="1.1">
 <defs>
   <style id="current-color-scheme" type="text/css">
   .ColorScheme-Text { color: #00aa00; } .ColorScheme-Highlight { color:#5294e2; }
  </style>
  <linearGradient id="arrongin" x1="0%" x2="0%" y1="0%" y2="100%">
   <stop offset="0%" style="stop-color:#dd9b44; stop-opacity:1"/>
   <stop offset="100%" style="stop-color:#ad6c16; stop-opacity:1"/>
  </linearGradient>
  <linearGradient id="aurora" x1="0%" x2="0%" y1="0%" y2="100%">
   <stop offset="0%" style="stop-color:#09D4DF; stop-opacity:1"/>
   <stop offset="100%" style="stop-color:#9269F4; stop-opacity:1"/>
  </linearGradient>
  <linearGradient id="cyberneon" x1="0%" x2="0%" y1="0%" y2="100%">
    <stop offset="0" style="stop-color:#0abdc6; stop-opacity:1"/>
    <stop offset="1" style="stop-color:#ea00d9; stop-opacity:1"/>
  </linearGradient>
  <linearGradient id="fitdance" x1="0%" x2="0%" y1="0%" y2="100%">
   <stop offset="0%" style="stop-color:#1AD6AB; stop-opacity:1"/>
   <stop offset="100%" style="stop-color:#329DB6; stop-opacity:1"/>
  </linearGradient>
  <linearGradient id="oomox" x1="0%" x2="0%" y1="0%" y2="100%">
   <stop offset="0%" style="stop-color:#00aa00; stop-opacity:1"/>
   <stop offset="100%" style="stop-color:#00cc00; stop-opacity:1"/>
  </linearGradient>
  <linearGradient id="rainblue" x1="0%" x2="0%" y1="0%" y2="100%">
   <stop offset="0%" style="stop-color:#00F260; stop-opacity:1"/>
   <stop offset="100%" style="stop-color:#0575E6; stop-opacity:1"/>
  </linearGradient>
  <linearGradient id="sunrise" x1="0%" x2="0%" y1="0%" y2="100%">
   <stop offset="0%" style="stop-color: #FF8501; stop-opacity:1"/>
   <stop offset="100%" style="stop-color: #FFCB01; stop-opacity:1"/>
  </linearGradient>
  <linearGradient id="telinkrin" x1="0%" x2="0%" y1="0%" y2="100%">
   <stop offset="0%" style="stop-color: #b2ced6; stop-opacity:1"/>
   <stop offset="100%" style="stop-color: #6da5b7; stop-opacity:1"/>
  </linearGradient>
  <linearGradient id="60spsycho" x1="0%" x2="0%" y1="0%" y2="100%">
   <stop offset="0%" style="stop-color: #df5940; stop-opacity:1"/>
   <stop offset="25%" style="stop-color: #d8d15f; stop-opacity:1"/>
   <stop offset="50%" style="stop-color: #e9882a; stop-opacity:1"/>
   <stop offset="100%" style="stop-color: #279362; stop-opacity:1"/>
  </linearGradient>
  <linearGradient id="90ssummer" x1="0%" x2="0%" y1="0%" y2="100%">
   <stop offset="0%" style="stop-color: #f618c7; stop-opacity:1"/>
   <stop offset="20%" style="stop-color: #94ffab; stop-opacity:1"/>
   <stop offset="50%" style="stop-color: #fbfd54; stop-opacity:1"/>
   <stop offset="100%" style="stop-color: #0f83ae; stop-opacity:1"/>
  </linearGradient>
 </defs>
 <path fill="url(#oomox)" class="ColorScheme-Text" fill-rule="evenodd" d="M 7.233 3.734 C 6.585 4.832 5.936 5.928 5.288 6.97 C 4.954 7.479 4.452 7.802 3.951 7.802 C 2.194 7.79 2.233 6.842 1.486 5.795 C 1.612 5.654 1.684 5.467 1.684 5.263 C 1.684 4.798 1.307 4.421 0.842 4.421 C 0.377 4.421 0 4.798 0 5.263 C 0 5.708 0.346 6.073 0.783 6.103 L 0.783 6.103 L 0.83 6.235 C 1.164 7.536 1.443 8.951 1.777 10.422 C 1.833 10.649 2 10.818 2.223 10.818 C 4.118 11.045 6.068 11.158 8.019 11.158 L 8.019 11.158 C 9.969 11.158 11.919 11.045 13.814 10.818 C 13.981 10.818 14.148 10.649 14.204 10.422 C 14.538 8.951 14.817 7.536 15.152 6.235 L 15.196 6.104 L 15.196 6.104 C 15.643 6.084 16 5.715 16 5.263 C 16 4.798 15.623 4.421 15.158 4.421 C 14.693 4.421 14.316 4.798 14.316 5.263 C 14.316 5.504 14.417 5.721 14.586 5.868 C 13.729 6.796 13.384 7.741 11.975 7.802 C 11.418 7.802 10.972 7.479 10.638 6.97 C 9.998 5.942 9.359 4.863 8.72 3.781 C 9.047 3.549 9.263 3.168 9.263 2.737 C 9.263 2.04 8.697 1.474 8 1.474 C 7.303 1.474 6.737 2.04 6.737 2.737 C 6.737 3.144 6.93 3.507 7.233 3.734 Z M 13.895 12.355 C 13.895 12.108 13.734 11.96 13.466 12.009 C 11.679 12.255 9.852 12.504 8.025 12.505 C 6.182 12.506 4.337 12.257 2.534 12.009 C 2.32 11.96 2.105 12.158 2.105 12.355 L 2.105 13.391 C 2.105 13.638 2.266 13.885 2.534 13.934 C 6.124 14.724 9.876 14.724 13.466 13.934 C 13.68 13.885 13.895 13.638 13.895 13.391 L 13.895 12.355 L 13.895 12.355 L 13.895 12.355 L 13.895 12.355 Z"/>
</svg>
