<svg xmlns="http://www.w3.org/2000/svg" width="16" height="16" version="1.1">
 <defs>
   <style id="current-color-scheme" type="text/css">
   .ColorScheme-Text { color: #00aa00; } .ColorScheme-Highlight { color:#5294e2; }
  </style>
  <linearGradient id="arrongin" x1="0%" x2="0%" y1="0%" y2="100%">
   <stop offset="0%" style="stop-color:#dd9b44; stop-opacity:1"/>
   <stop offset="100%" style="stop-color:#ad6c16; stop-opacity:1"/>
  </linearGradient>
  <linearGradient id="aurora" x1="0%" x2="0%" y1="0%" y2="100%">
   <stop offset="0%" style="stop-color:#09D4DF; stop-opacity:1"/>
   <stop offset="100%" style="stop-color:#9269F4; stop-opacity:1"/>
  </linearGradient>
  <linearGradient id="cyberneon" x1="0%" x2="0%" y1="0%" y2="100%">
    <stop offset="0" style="stop-color:#0abdc6; stop-opacity:1"/>
    <stop offset="1" style="stop-color:#ea00d9; stop-opacity:1"/>
  </linearGradient>
  <linearGradient id="fitdance" x1="0%" x2="0%" y1="0%" y2="100%">
   <stop offset="0%" style="stop-color:#1AD6AB; stop-opacity:1"/>
   <stop offset="100%" style="stop-color:#329DB6; stop-opacity:1"/>
  </linearGradient>
  <linearGradient id="oomox" x1="0%" x2="0%" y1="0%" y2="100%">
   <stop offset="0%" style="stop-color:#00aa00; stop-opacity:1"/>
   <stop offset="100%" style="stop-color:#00cc00; stop-opacity:1"/>
  </linearGradient>
  <linearGradient id="rainblue" x1="0%" x2="0%" y1="0%" y2="100%">
   <stop offset="0%" style="stop-color:#00F260; stop-opacity:1"/>
   <stop offset="100%" style="stop-color:#0575E6; stop-opacity:1"/>
  </linearGradient>
  <linearGradient id="sunrise" x1="0%" x2="0%" y1="0%" y2="100%">
   <stop offset="0%" style="stop-color: #FF8501; stop-opacity:1"/>
   <stop offset="100%" style="stop-color: #FFCB01; stop-opacity:1"/>
  </linearGradient>
  <linearGradient id="telinkrin" x1="0%" x2="0%" y1="0%" y2="100%">
   <stop offset="0%" style="stop-color: #b2ced6; stop-opacity:1"/>
   <stop offset="100%" style="stop-color: #6da5b7; stop-opacity:1"/>
  </linearGradient>
  <linearGradient id="60spsycho" x1="0%" x2="0%" y1="0%" y2="100%">
   <stop offset="0%" style="stop-color: #df5940; stop-opacity:1"/>
   <stop offset="25%" style="stop-color: #d8d15f; stop-opacity:1"/>
   <stop offset="50%" style="stop-color: #e9882a; stop-opacity:1"/>
   <stop offset="100%" style="stop-color: #279362; stop-opacity:1"/>
  </linearGradient>
  <linearGradient id="90ssummer" x1="0%" x2="0%" y1="0%" y2="100%">
   <stop offset="0%" style="stop-color: #f618c7; stop-opacity:1"/>
   <stop offset="20%" style="stop-color: #94ffab; stop-opacity:1"/>
   <stop offset="50%" style="stop-color: #fbfd54; stop-opacity:1"/>
   <stop offset="100%" style="stop-color: #0f83ae; stop-opacity:1"/>
  </linearGradient>
 </defs>
 <path fill="url(#oomox)" class="ColorScheme-Text" fill-rule="evenodd" d="M 7.386 14.028 L 7.367 14.772 L 5.674 14.772 L 5.637 14.028 L 4.763 14.028 L 3.963 13.284 L 4.037 5.693 L 4.67 4.8 L 6.493 4.8 L 6.493 4.8 L 6.456 7.07 C 4.893 8.074 5.153 8.558 5.191 12.391 L 5.712 12.837 L 10.288 12.837 L 10.809 12.391 C 10.847 8.558 11.107 8.074 9.544 7.07 L 9.507 4.8 L 9.507 4.8 L 11.33 4.8 L 11.963 5.693 L 12.037 13.284 L 11.237 14.028 L 10.363 14.028 L 10.326 14.772 L 8.633 14.772 L 8.614 14.028 L 7.386 14.028 Z M 7.163 0 L 7.163 0 L 7.163 6.735 L 8.837 6.735 L 8.837 0 L 8.837 0 L 7.163 0 Z M 5.842 12.186 L 5.823 9.209 L 5.823 9.209 C 6.003 8.073 6.783 7.283 8 7.293 C 9.217 7.283 9.997 8.073 10.177 9.209 L 10.177 9.209 L 10.158 12.186 L 5.842 12.186 Z M 1.544 1.898 L 1.581 15.442 L 2.177 16 L 4.037 15.963 L 4.558 15.367 L 4.595 14.809 L 3.405 13.619 L 3.293 5.209 L 4.521 4.056 L 4.595 1.898 L 4.074 1.228 L 2.065 1.228 L 1.544 1.898 L 1.544 1.898 Z M 14.456 1.898 L 14.419 15.442 L 13.823 16 L 11.963 15.963 L 11.442 15.367 L 11.405 14.809 L 12.595 13.619 L 12.707 5.209 L 11.479 4.056 L 11.405 1.898 L 11.926 1.228 L 13.935 1.228 L 14.456 1.898 L 14.456 1.898 Z"/>
</svg>
