<svg xmlns="http://www.w3.org/2000/svg" width="16" height="16" version="1.1">
 <defs>
   <style id="current-color-scheme" type="text/css">
   .ColorScheme-Text { color: #00aa00; } .ColorScheme-Highlight { color:#5294e2; }
  </style>
  <linearGradient id="arrongin" x1="0%" x2="0%" y1="0%" y2="100%">
   <stop offset="0%" style="stop-color:#dd9b44; stop-opacity:1"/>
   <stop offset="100%" style="stop-color:#ad6c16; stop-opacity:1"/>
  </linearGradient>
  <linearGradient id="aurora" x1="0%" x2="0%" y1="0%" y2="100%">
   <stop offset="0%" style="stop-color:#09D4DF; stop-opacity:1"/>
   <stop offset="100%" style="stop-color:#9269F4; stop-opacity:1"/>
  </linearGradient>
  <linearGradient id="cyberneon" x1="0%" x2="0%" y1="0%" y2="100%">
    <stop offset="0" style="stop-color:#0abdc6; stop-opacity:1"/>
    <stop offset="1" style="stop-color:#ea00d9; stop-opacity:1"/>
  </linearGradient>
  <linearGradient id="fitdance" x1="0%" x2="0%" y1="0%" y2="100%">
   <stop offset="0%" style="stop-color:#1AD6AB; stop-opacity:1"/>
   <stop offset="100%" style="stop-color:#329DB6; stop-opacity:1"/>
  </linearGradient>
  <linearGradient id="oomox" x1="0%" x2="0%" y1="0%" y2="100%">
   <stop offset="0%" style="stop-color:#00aa00; stop-opacity:1"/>
   <stop offset="100%" style="stop-color:#00cc00; stop-opacity:1"/>
  </linearGradient>
  <linearGradient id="rainblue" x1="0%" x2="0%" y1="0%" y2="100%">
   <stop offset="0%" style="stop-color:#00F260; stop-opacity:1"/>
   <stop offset="100%" style="stop-color:#0575E6; stop-opacity:1"/>
  </linearGradient>
  <linearGradient id="sunrise" x1="0%" x2="0%" y1="0%" y2="100%">
   <stop offset="0%" style="stop-color: #FF8501; stop-opacity:1"/>
   <stop offset="100%" style="stop-color: #FFCB01; stop-opacity:1"/>
  </linearGradient>
  <linearGradient id="telinkrin" x1="0%" x2="0%" y1="0%" y2="100%">
   <stop offset="0%" style="stop-color: #b2ced6; stop-opacity:1"/>
   <stop offset="100%" style="stop-color: #6da5b7; stop-opacity:1"/>
  </linearGradient>
  <linearGradient id="60spsycho" x1="0%" x2="0%" y1="0%" y2="100%">
   <stop offset="0%" style="stop-color: #df5940; stop-opacity:1"/>
   <stop offset="25%" style="stop-color: #d8d15f; stop-opacity:1"/>
   <stop offset="50%" style="stop-color: #e9882a; stop-opacity:1"/>
   <stop offset="100%" style="stop-color: #279362; stop-opacity:1"/>
  </linearGradient>
  <linearGradient id="90ssummer" x1="0%" x2="0%" y1="0%" y2="100%">
   <stop offset="0%" style="stop-color: #f618c7; stop-opacity:1"/>
   <stop offset="20%" style="stop-color: #94ffab; stop-opacity:1"/>
   <stop offset="50%" style="stop-color: #fbfd54; stop-opacity:1"/>
   <stop offset="100%" style="stop-color: #0f83ae; stop-opacity:1"/>
  </linearGradient>
 </defs>
 <path fill="url(#oomox)" class="ColorScheme-Text" d="M 7.106 5.827 C 7.159 5.969 7.185 6.144 7.185 6.351 C 7.185 6.599 7.156 6.803 7.101 6.961 C 7.056 7.098 6.98 7.222 6.879 7.324 C 6.789 7.41 6.68 7.473 6.56 7.507 C 6.437 7.546 6.305 7.565 6.168 7.565 C 6.132 7.565 6.06 7.56 5.954 7.551 C 5.884 7.543 5.836 7.536 5.803 7.531 L 5.803 5.3 C 5.943 5.275 6.086 5.264 6.228 5.267 C 6.356 5.267 6.481 5.284 6.599 5.322 C 6.71 5.357 6.813 5.416 6.899 5.495 C 6.985 5.577 7.055 5.687 7.106 5.827 Z M 16 3 L 16 13 C 16 14.657 14.657 16 13 16 L 3 16 C 1.343 16 0 14.657 0 13 L 0 3 C 0 1.343 1.343 0 3 0 L 13 0 C 14.657 0 16 1.343 16 3 Z M 8.449 7.492 C 8.575 7.183 8.637 6.803 8.637 6.36 C 8.637 5.873 8.563 5.469 8.414 5.161 C 8.265 4.854 8.067 4.608 7.827 4.438 C 7.585 4.265 7.307 4.148 7.015 4.094 C 6.442 3.986 5.849 3.99 5.255 4.055 C 4.991 4.081 4.728 4.122 4.469 4.178 C 4.435 4.187 4.41 4.217 4.409 4.252 L 4.409 11.077 C 4.409 11.12 4.442 11.154 4.486 11.154 L 5.726 11.154 C 5.768 11.154 5.803 11.119 5.803 11.077 L 5.803 8.794 L 5.851 8.8 C 5.916 8.808 5.981 8.812 6.046 8.815 C 6.113 8.817 6.178 8.82 6.238 8.82 L 6.366 8.82 C 6.654 8.82 6.94 8.777 7.212 8.687 C 7.485 8.601 7.736 8.454 7.945 8.257 C 8.156 8.06 8.324 7.803 8.449 7.493 L 8.449 7.492 Z M 11.836 9.7 C 11.836 9.418 11.791 9.178 11.697 8.986 C 11.609 8.802 11.489 8.636 11.342 8.495 C 11.203 8.367 11.051 8.256 10.887 8.163 C 10.733 8.079 10.586 7.998 10.45 7.918 C 10.333 7.854 10.224 7.777 10.125 7.687 C 10.054 7.623 10.014 7.531 10.017 7.435 C 10.017 7.284 10.063 7.108 10.421 7.108 C 10.584 7.108 10.753 7.132 10.923 7.178 C 11.094 7.226 11.243 7.276 11.366 7.327 C 11.387 7.337 11.409 7.337 11.428 7.327 C 11.449 7.319 11.464 7.301 11.469 7.279 L 11.745 6.372 C 11.756 6.339 11.741 6.303 11.711 6.286 C 11.555 6.19 11.342 6.108 11.079 6.046 C 10.806 5.98 10.526 5.948 10.245 5.95 C 9.74 5.95 9.351 6.082 9.087 6.346 C 8.825 6.608 8.69 6.986 8.69 7.464 C 8.69 7.743 8.738 7.981 8.831 8.168 C 8.923 8.353 9.043 8.512 9.188 8.644 C 9.332 8.772 9.483 8.882 9.639 8.969 C 9.793 9.053 9.94 9.137 10.077 9.218 C 10.209 9.295 10.317 9.382 10.399 9.469 C 10.475 9.549 10.515 9.656 10.512 9.767 C 10.512 9.892 10.474 9.981 10.397 10.034 C 10.313 10.094 10.2 10.122 10.067 10.122 C 9.883 10.123 9.7 10.094 9.524 10.038 C 9.364 9.986 9.209 9.919 9.06 9.839 C 9.041 9.827 9.017 9.824 8.995 9.832 C 8.974 9.841 8.957 9.858 8.95 9.88 L 8.625 10.825 C 8.614 10.858 8.627 10.894 8.656 10.913 C 8.82 11.024 9.038 11.113 9.305 11.18 C 9.57 11.248 9.844 11.281 10.115 11.281 C 10.68 11.281 11.113 11.135 11.401 10.846 C 11.69 10.555 11.836 10.17 11.836 9.7 Z"/>
</svg>
