<svg xmlns="http://www.w3.org/2000/svg" width="16" height="16" version="1.1">
 <defs>
   <style id="current-color-scheme" type="text/css">
   .ColorScheme-Text { color: #00aa00; } .ColorScheme-Highlight { color:#5294e2; }
  </style>
  <linearGradient id="arrongin" x1="0%" x2="0%" y1="0%" y2="100%">
   <stop offset="0%" style="stop-color:#dd9b44; stop-opacity:1"/>
   <stop offset="100%" style="stop-color:#ad6c16; stop-opacity:1"/>
  </linearGradient>
  <linearGradient id="aurora" x1="0%" x2="0%" y1="0%" y2="100%">
   <stop offset="0%" style="stop-color:#09D4DF; stop-opacity:1"/>
   <stop offset="100%" style="stop-color:#9269F4; stop-opacity:1"/>
  </linearGradient>
  <linearGradient id="cyberneon" x1="0%" x2="0%" y1="0%" y2="100%">
    <stop offset="0" style="stop-color:#0abdc6; stop-opacity:1"/>
    <stop offset="1" style="stop-color:#ea00d9; stop-opacity:1"/>
  </linearGradient>
  <linearGradient id="fitdance" x1="0%" x2="0%" y1="0%" y2="100%">
   <stop offset="0%" style="stop-color:#1AD6AB; stop-opacity:1"/>
   <stop offset="100%" style="stop-color:#329DB6; stop-opacity:1"/>
  </linearGradient>
  <linearGradient id="oomox" x1="0%" x2="0%" y1="0%" y2="100%">
   <stop offset="0%" style="stop-color:#00aa00; stop-opacity:1"/>
   <stop offset="100%" style="stop-color:#00cc00; stop-opacity:1"/>
  </linearGradient>
  <linearGradient id="rainblue" x1="0%" x2="0%" y1="0%" y2="100%">
   <stop offset="0%" style="stop-color:#00F260; stop-opacity:1"/>
   <stop offset="100%" style="stop-color:#0575E6; stop-opacity:1"/>
  </linearGradient>
  <linearGradient id="sunrise" x1="0%" x2="0%" y1="0%" y2="100%">
   <stop offset="0%" style="stop-color: #FF8501; stop-opacity:1"/>
   <stop offset="100%" style="stop-color: #FFCB01; stop-opacity:1"/>
  </linearGradient>
  <linearGradient id="telinkrin" x1="0%" x2="0%" y1="0%" y2="100%">
   <stop offset="0%" style="stop-color: #b2ced6; stop-opacity:1"/>
   <stop offset="100%" style="stop-color: #6da5b7; stop-opacity:1"/>
  </linearGradient>
  <linearGradient id="60spsycho" x1="0%" x2="0%" y1="0%" y2="100%">
   <stop offset="0%" style="stop-color: #df5940; stop-opacity:1"/>
   <stop offset="25%" style="stop-color: #d8d15f; stop-opacity:1"/>
   <stop offset="50%" style="stop-color: #e9882a; stop-opacity:1"/>
   <stop offset="100%" style="stop-color: #279362; stop-opacity:1"/>
  </linearGradient>
  <linearGradient id="90ssummer" x1="0%" x2="0%" y1="0%" y2="100%">
   <stop offset="0%" style="stop-color: #f618c7; stop-opacity:1"/>
   <stop offset="20%" style="stop-color: #94ffab; stop-opacity:1"/>
   <stop offset="50%" style="stop-color: #fbfd54; stop-opacity:1"/>
   <stop offset="100%" style="stop-color: #0f83ae; stop-opacity:1"/>
  </linearGradient>
 </defs>
 <path fill="url(#oomox)" class="ColorScheme-Text" d="M 8 0 C 5.864 0 3.854 0.833 2.343 2.343 C 0.833 3.854 0 5.864 0 8 C 0 10.136 0.833 12.146 2.343 13.657 C 3.854 15.167 5.864 16 8 16 C 10.136 16 12.146 15.167 13.657 13.657 C 15.167 12.146 16 10.136 16 8 C 16 5.864 15.167 3.854 13.657 2.343 C 12.146 0.829 10.14 0 8 0 L 8 0 Z M 13.638 3.665 L 7.463 3.665 L 9.966 1.162 C 11.443 1.588 12.724 2.48 13.638 3.665 Z M 4.557 1.777 C 5.61 1.192 6.795 0.884 8 0.885 C 8.315 0.885 8.622 0.907 8.925 0.944 L 6.075 3.795 L 4.557 5.312 L 4.557 1.777 Z M 3.669 2.362 L 3.669 8.533 L 1.166 6.034 C 1.592 4.557 2.484 3.276 3.669 2.362 L 3.669 2.362 Z M 1.781 11.443 C 1.195 10.39 0.888 9.205 0.888 8 C 0.888 7.685 0.911 7.378 0.948 7.075 L 5.316 11.443 L 1.781 11.443 Z M 2.366 12.331 L 8.537 12.331 L 6.034 14.834 C 4.577 14.41 3.292 13.533 2.366 12.331 L 2.366 12.331 Z M 11.447 14.216 C 10.394 14.801 9.209 15.108 8.004 15.108 C 7.689 15.108 7.382 15.086 7.078 15.049 L 9.929 12.198 L 11.447 10.68 L 11.447 14.216 Z M 11.447 9.425 L 11.376 9.496 L 9.429 11.443 L 6.575 11.443 L 6.504 11.373 L 4.561 9.429 L 4.561 6.575 L 6.578 4.557 L 9.433 4.561 L 11.45 6.575 L 11.45 9.425 L 11.447 9.425 Z M 12.335 13.634 L 12.335 7.456 L 14.838 9.958 C 14.414 11.418 13.537 12.705 12.335 13.634 L 12.335 13.634 Z M 15.112 7.996 C 15.112 8.307 15.089 8.615 15.052 8.918 L 10.684 4.553 L 14.223 4.553 C 14.789 5.575 15.112 6.749 15.112 7.996 Z"/>
</svg>
