<svg xmlns="http://www.w3.org/2000/svg" width="16" height="16" version="1.1">
 <defs>
   <style id="current-color-scheme" type="text/css">
   .ColorScheme-Text { color: #00aa00; } .ColorScheme-Highlight { color:#5294e2; }
  </style>
  <linearGradient id="arrongin" x1="0%" x2="0%" y1="0%" y2="100%">
   <stop offset="0%" style="stop-color:#dd9b44; stop-opacity:1"/>
   <stop offset="100%" style="stop-color:#ad6c16; stop-opacity:1"/>
  </linearGradient>
  <linearGradient id="aurora" x1="0%" x2="0%" y1="0%" y2="100%">
   <stop offset="0%" style="stop-color:#09D4DF; stop-opacity:1"/>
   <stop offset="100%" style="stop-color:#9269F4; stop-opacity:1"/>
  </linearGradient>
  <linearGradient id="cyberneon" x1="0%" x2="0%" y1="0%" y2="100%">
    <stop offset="0" style="stop-color:#0abdc6; stop-opacity:1"/>
    <stop offset="1" style="stop-color:#ea00d9; stop-opacity:1"/>
  </linearGradient>
  <linearGradient id="fitdance" x1="0%" x2="0%" y1="0%" y2="100%">
   <stop offset="0%" style="stop-color:#1AD6AB; stop-opacity:1"/>
   <stop offset="100%" style="stop-color:#329DB6; stop-opacity:1"/>
  </linearGradient>
  <linearGradient id="oomox" x1="0%" x2="0%" y1="0%" y2="100%">
   <stop offset="0%" style="stop-color:#00aa00; stop-opacity:1"/>
   <stop offset="100%" style="stop-color:#00cc00; stop-opacity:1"/>
  </linearGradient>
  <linearGradient id="rainblue" x1="0%" x2="0%" y1="0%" y2="100%">
   <stop offset="0%" style="stop-color:#00F260; stop-opacity:1"/>
   <stop offset="100%" style="stop-color:#0575E6; stop-opacity:1"/>
  </linearGradient>
  <linearGradient id="sunrise" x1="0%" x2="0%" y1="0%" y2="100%">
   <stop offset="0%" style="stop-color: #FF8501; stop-opacity:1"/>
   <stop offset="100%" style="stop-color: #FFCB01; stop-opacity:1"/>
  </linearGradient>
  <linearGradient id="telinkrin" x1="0%" x2="0%" y1="0%" y2="100%">
   <stop offset="0%" style="stop-color: #b2ced6; stop-opacity:1"/>
   <stop offset="100%" style="stop-color: #6da5b7; stop-opacity:1"/>
  </linearGradient>
  <linearGradient id="60spsycho" x1="0%" x2="0%" y1="0%" y2="100%">
   <stop offset="0%" style="stop-color: #df5940; stop-opacity:1"/>
   <stop offset="25%" style="stop-color: #d8d15f; stop-opacity:1"/>
   <stop offset="50%" style="stop-color: #e9882a; stop-opacity:1"/>
   <stop offset="100%" style="stop-color: #279362; stop-opacity:1"/>
  </linearGradient>
  <linearGradient id="90ssummer" x1="0%" x2="0%" y1="0%" y2="100%">
   <stop offset="0%" style="stop-color: #f618c7; stop-opacity:1"/>
   <stop offset="20%" style="stop-color: #94ffab; stop-opacity:1"/>
   <stop offset="50%" style="stop-color: #fbfd54; stop-opacity:1"/>
   <stop offset="100%" style="stop-color: #0f83ae; stop-opacity:1"/>
  </linearGradient>
 </defs>
 <path fill="url(#oomox)" class="ColorScheme-Text" fill-rule="evenodd" d="M -0.031 12.5 L 15.969 12.5 L 15.969 14.5 L -0.031 14.5 L -0.031 12.5 Z"/>
 <path fill="url(#oomox)" class="ColorScheme-Text" fill-rule="evenodd" d="M 3.573 2.854 L 3.573 5.38 L 6.023 5.38 L 6.023 5.38 Q 6.712 5.38 7.03 5.023 L 7.03 5.023 L 7.03 5.023 Q 7.349 4.666 7.349 4.117 L 7.349 4.117 L 7.349 4.117 Q 7.349 3.581 7.043 3.218 L 7.043 3.218 L 7.043 3.218 Q 6.737 2.854 6.023 2.854 L 6.023 2.854 L 3.573 2.854 L 3.573 2.854 Z M 3.573 10.33 L 2.042 10.33 L 2.042 1.4 L 5.997 1.4 L 5.997 1.4 Q 7.541 1.4 8.236 2.165 L 8.236 2.165 L 8.236 2.165 Q 8.931 2.931 8.931 4.117 L 8.931 4.117 L 8.931 4.117 Q 8.931 4.946 8.459 5.674 L 8.459 5.674 L 8.459 5.674 Q 7.987 6.401 7.094 6.669 L 7.094 6.669 L 8.88 10.33 L 7.158 10.33 L 5.436 6.835 L 3.573 6.835 L 3.573 10.33 L 3.573 10.33 Z M 12.318 6.025 L 12.318 7.637 L 13.958 7.637 L 13.958 8.709 L 12.318 8.709 L 12.318 10.33 L 11.283 10.33 L 11.283 8.709 L 9.653 8.709 L 9.653 7.637 L 11.283 7.637 L 11.283 6.025 L 12.318 6.025 L 12.318 6.025 Z M 12.318 1.4 L 12.318 3.012 L 13.958 3.012 L 13.958 4.084 L 12.318 4.084 L 12.318 5.705 L 11.283 5.705 L 11.283 4.084 L 9.653 4.084 L 9.653 3.012 L 11.283 3.012 L 11.283 1.4 L 12.318 1.4 L 12.318 1.4 Z"/>
</svg>
