<svg xmlns="http://www.w3.org/2000/svg" width="16" height="16" version="1.1">
 <defs>
   <style id="current-color-scheme" type="text/css">
   .ColorScheme-Text { color: #00aa00; } .ColorScheme-Highlight { color:#5294e2; }
  </style>
  <linearGradient id="arrongin" x1="0%" x2="0%" y1="0%" y2="100%">
   <stop offset="0%" style="stop-color:#dd9b44; stop-opacity:1"/>
   <stop offset="100%" style="stop-color:#ad6c16; stop-opacity:1"/>
  </linearGradient>
  <linearGradient id="aurora" x1="0%" x2="0%" y1="0%" y2="100%">
   <stop offset="0%" style="stop-color:#09D4DF; stop-opacity:1"/>
   <stop offset="100%" style="stop-color:#9269F4; stop-opacity:1"/>
  </linearGradient>
  <linearGradient id="cyberneon" x1="0%" x2="0%" y1="0%" y2="100%">
    <stop offset="0" style="stop-color:#0abdc6; stop-opacity:1"/>
    <stop offset="1" style="stop-color:#ea00d9; stop-opacity:1"/>
  </linearGradient>
  <linearGradient id="fitdance" x1="0%" x2="0%" y1="0%" y2="100%">
   <stop offset="0%" style="stop-color:#1AD6AB; stop-opacity:1"/>
   <stop offset="100%" style="stop-color:#329DB6; stop-opacity:1"/>
  </linearGradient>
  <linearGradient id="oomox" x1="0%" x2="0%" y1="0%" y2="100%">
   <stop offset="0%" style="stop-color:#00aa00; stop-opacity:1"/>
   <stop offset="100%" style="stop-color:#00cc00; stop-opacity:1"/>
  </linearGradient>
  <linearGradient id="rainblue" x1="0%" x2="0%" y1="0%" y2="100%">
   <stop offset="0%" style="stop-color:#00F260; stop-opacity:1"/>
   <stop offset="100%" style="stop-color:#0575E6; stop-opacity:1"/>
  </linearGradient>
  <linearGradient id="sunrise" x1="0%" x2="0%" y1="0%" y2="100%">
   <stop offset="0%" style="stop-color: #FF8501; stop-opacity:1"/>
   <stop offset="100%" style="stop-color: #FFCB01; stop-opacity:1"/>
  </linearGradient>
  <linearGradient id="telinkrin" x1="0%" x2="0%" y1="0%" y2="100%">
   <stop offset="0%" style="stop-color: #b2ced6; stop-opacity:1"/>
   <stop offset="100%" style="stop-color: #6da5b7; stop-opacity:1"/>
  </linearGradient>
  <linearGradient id="60spsycho" x1="0%" x2="0%" y1="0%" y2="100%">
   <stop offset="0%" style="stop-color: #df5940; stop-opacity:1"/>
   <stop offset="25%" style="stop-color: #d8d15f; stop-opacity:1"/>
   <stop offset="50%" style="stop-color: #e9882a; stop-opacity:1"/>
   <stop offset="100%" style="stop-color: #279362; stop-opacity:1"/>
  </linearGradient>
  <linearGradient id="90ssummer" x1="0%" x2="0%" y1="0%" y2="100%">
   <stop offset="0%" style="stop-color: #f618c7; stop-opacity:1"/>
   <stop offset="20%" style="stop-color: #94ffab; stop-opacity:1"/>
   <stop offset="50%" style="stop-color: #fbfd54; stop-opacity:1"/>
   <stop offset="100%" style="stop-color: #0f83ae; stop-opacity:1"/>
  </linearGradient>
 </defs>
 <path fill="url(#oomox)" class="ColorScheme-Text" d="M 5.371 2.672 C 5.017 2.69 4.669 2.758 4.465 2.868 C 3.776 3.24 3.268 3.728 3.124 4.521 C 3.086 4.729 3.033 4.924 3.004 4.953 C 2.976 4.983 2.839 4.974 2.699 4.933 C 2.374 4.84 1.909 4.948 1.512 5.21 C 1.198 5.418 0.906 6.126 0.831 6.565 C 0.788 6.813 0.774 6.648 0.527 6.648 C 0.327 6.648 0.237 6.689 0.13 6.83 C -0.051 7.07 -0.044 7.195 0.156 7.403 C 0.318 7.571 0.332 7.573 1.538 7.572 C 1.987 7.572 2.325 7.56 2.558 7.545 C 2.691 7.261 2.865 6.992 3.097 6.75 C 4.086 5.722 5.611 5.568 6.808 6.229 C 7.107 5.705 7.478 5.255 7.92 4.913 C 7.919 4.859 7.861 4.628 7.788 4.389 C 7.554 3.617 7.046 3.062 6.308 2.773 C 6.083 2.684 5.724 2.654 5.371 2.672 Z M 10.643 4.893 C 9.937 4.881 9.208 5.09 8.564 5.534 C 7.948 5.959 7.512 6.441 7.278 7.212 C 7.215 7.419 7.136 7.588 7.102 7.588 C 7.067 7.588 6.938 7.361 6.813 7.247 C 5.926 6.437 4.582 6.489 3.738 7.367 C 3.11 8.02 2.995 9.161 3.314 10.027 C 3.348 10.119 3.047 10.191 2.737 10.354 C 2.272 10.598 1.971 10.945 1.857 11.369 C 1.651 12.133 2.243 12.945 3.05 13.244 C 3.387 13.37 4.039 13.361 4.428 13.225 C 4.716 13.125 4.999 12.861 6.728 11.079 C 9.005 8.73 9.091 8.445 10.022 8.441 C 10.494 8.44 10.831 8.467 11.223 8.668 C 11.757 8.941 12.149 9.597 12.34 10.127 C 12.517 10.62 12.519 11.22 12.344 11.518 C 12.191 11.779 11.636 12.023 11.338 12.023 C 11.042 12.023 10.544 11.764 10.423 11.499 C 10.228 11.046 10.199 10.618 10.667 10.222 C 9.739 10.246 9.629 10.591 9.334 11.652 C 9.334 12.385 9.705 13.089 10.317 13.277 C 10.467 13.323 11.301 13.342 12.586 13.328 C 14.523 13.307 14.631 13.298 14.885 13.155 C 15.257 12.945 15.686 12.466 15.853 12.071 C 16.019 11.678 16.049 10.927 15.919 10.513 C 15.673 9.791 14.538 9.012 13.82 9.501 C 13.694 9.644 13.574 9.519 13.552 9.496 C 13.529 9.473 13.65 9.364 13.711 9.145 C 13.793 8.853 13.815 8.562 13.796 8.046 C 13.772 7.391 13.753 7.306 13.493 6.749 C 12.934 5.553 11.82 4.915 10.643 4.893 Z"/>
</svg>
