<svg xmlns="http://www.w3.org/2000/svg" width="16" height="16" version="1.1">
 <defs>
   <style id="current-color-scheme" type="text/css">
   .ColorScheme-Text { color: #cc00cc; } .ColorScheme-Highlight { color:#5294e2; }
  </style>
  <linearGradient id="arrongin" x1="0%" x2="0%" y1="0%" y2="100%">
   <stop offset="0%" style="stop-color:#dd9b44; stop-opacity:1"/>
   <stop offset="100%" style="stop-color:#ad6c16; stop-opacity:1"/>
  </linearGradient>
  <linearGradient id="aurora" x1="0%" x2="0%" y1="0%" y2="100%">
   <stop offset="0%" style="stop-color:#09D4DF; stop-opacity:1"/>
   <stop offset="100%" style="stop-color:#9269F4; stop-opacity:1"/>
  </linearGradient>
  <linearGradient id="cyberneon" x1="0%" x2="0%" y1="0%" y2="100%">
    <stop offset="0" style="stop-color:#0abdc6; stop-opacity:1"/>
    <stop offset="1" style="stop-color:#ea00d9; stop-opacity:1"/>
  </linearGradient>
  <linearGradient id="fitdance" x1="0%" x2="0%" y1="0%" y2="100%">
   <stop offset="0%" style="stop-color:#1AD6AB; stop-opacity:1"/>
   <stop offset="100%" style="stop-color:#329DB6; stop-opacity:1"/>
  </linearGradient>
  <linearGradient id="oomox" x1="0%" x2="0%" y1="0%" y2="100%">
   <stop offset="0%" style="stop-color:#efefe7; stop-opacity:1"/>
   <stop offset="100%" style="stop-color:#8f8f8b; stop-opacity:1"/>
  </linearGradient>
  <linearGradient id="rainblue" x1="0%" x2="0%" y1="0%" y2="100%">
   <stop offset="0%" style="stop-color:#00F260; stop-opacity:1"/>
   <stop offset="100%" style="stop-color:#0575E6; stop-opacity:1"/>
  </linearGradient>
  <linearGradient id="sunrise" x1="0%" x2="0%" y1="0%" y2="100%">
   <stop offset="0%" style="stop-color: #FF8501; stop-opacity:1"/>
   <stop offset="100%" style="stop-color: #FFCB01; stop-opacity:1"/>
  </linearGradient>
  <linearGradient id="telinkrin" x1="0%" x2="0%" y1="0%" y2="100%">
   <stop offset="0%" style="stop-color: #b2ced6; stop-opacity:1"/>
   <stop offset="100%" style="stop-color: #6da5b7; stop-opacity:1"/>
  </linearGradient>
  <linearGradient id="60spsycho" x1="0%" x2="0%" y1="0%" y2="100%">
   <stop offset="0%" style="stop-color: #df5940; stop-opacity:1"/>
   <stop offset="25%" style="stop-color: #d8d15f; stop-opacity:1"/>
   <stop offset="50%" style="stop-color: #e9882a; stop-opacity:1"/>
   <stop offset="100%" style="stop-color: #279362; stop-opacity:1"/>
  </linearGradient>
  <linearGradient id="90ssummer" x1="0%" x2="0%" y1="0%" y2="100%">
   <stop offset="0%" style="stop-color: #f618c7; stop-opacity:1"/>
   <stop offset="20%" style="stop-color: #94ffab; stop-opacity:1"/>
   <stop offset="50%" style="stop-color: #fbfd54; stop-opacity:1"/>
   <stop offset="100%" style="stop-color: #0f83ae; stop-opacity:1"/>
  </linearGradient>
 </defs>
 <path fill="currentColor" class="ColorScheme-Text" fill-rule="evenodd" d="M 2.429 7.368 L 2.429 6.571 L 2.435 6.571 C 2.431 6.477 2.429 6.381 2.429 6.286 C 2.429 2.817 5.245 0 8.714 0 C 12.183 0 15 2.817 15 6.286 C 15 8.236 14.11 9.98 12.714 11.133 L 12.714 14.937 C 12.714 15.524 12.238 16 11.652 16 L 6.348 16 C 5.762 16 5.286 15.524 5.286 14.937 L 5.286 13.714 L 3.565 13.714 C 2.936 13.714 2.429 13.207 2.429 12.577 L 2.429 10.857 L 1.8 10.857 C 1.514 10.857 1.25 10.705 1.107 10.457 C 0.964 10.21 0.964 9.905 1.107 9.657 L 2.167 7.82 L 2.429 7.368 Z M 8.803 1.693 C 8.676 1.689 8.548 1.69 8.42 1.694 C 7.694 1.72 6.961 1.885 6.316 2.173 C 5.651 2.52 5.077 3.019 4.64 3.629 C 4.175 4.365 3.993 5.234 4.281 5.786 C 4.622 6.438 5.331 6.834 6.055 6.834 C 6.43 6.834 6.459 6.854 6.459 7.124 C 6.459 7.714 7.228 7.993 8.306 7.993 C 8.881 7.993 8.978 8.018 8.926 8.153 C 8.847 8.36 9.176 9.061 9.53 9.391 C 9.682 9.532 9.869 9.741 9.946 9.925 C 10.096 10.283 10.243 10.327 10.656 10.139 C 10.971 9.995 10.982 9.912 10.713 9.47 C 10.6 9.285 10.507 9.187 10.507 9.153 C 10.507 9.12 10.428 9.096 10.866 9.101 C 12.137 9.113 12.712 8.662 12.713 7.625 C 12.713 7.457 12.799 7.335 12.915 7.235 C 13.308 7.044 13.267 6.839 13.286 6.445 C 13.284 4.399 11.978 2.543 10.039 1.889 C 9.994 1.876 9.951 1.86 9.905 1.848 C 9.555 1.756 9.183 1.705 8.803 1.693 L 8.803 1.693 Z"/>
</svg>
