<svg xmlns="http://www.w3.org/2000/svg" width="16" height="16" version="1.1">
 <defs>
   <style id="current-color-scheme" type="text/css">
   .ColorScheme-Text { color: #cc00cc; } .ColorScheme-Highlight { color:#5294e2; }
  </style>
  <linearGradient id="arrongin" x1="0%" x2="0%" y1="0%" y2="100%">
   <stop offset="0%" style="stop-color:#dd9b44; stop-opacity:1"/>
   <stop offset="100%" style="stop-color:#ad6c16; stop-opacity:1"/>
  </linearGradient>
  <linearGradient id="aurora" x1="0%" x2="0%" y1="0%" y2="100%">
   <stop offset="0%" style="stop-color:#09D4DF; stop-opacity:1"/>
   <stop offset="100%" style="stop-color:#9269F4; stop-opacity:1"/>
  </linearGradient>
  <linearGradient id="cyberneon" x1="0%" x2="0%" y1="0%" y2="100%">
    <stop offset="0" style="stop-color:#0abdc6; stop-opacity:1"/>
    <stop offset="1" style="stop-color:#ea00d9; stop-opacity:1"/>
  </linearGradient>
  <linearGradient id="fitdance" x1="0%" x2="0%" y1="0%" y2="100%">
   <stop offset="0%" style="stop-color:#1AD6AB; stop-opacity:1"/>
   <stop offset="100%" style="stop-color:#329DB6; stop-opacity:1"/>
  </linearGradient>
  <linearGradient id="oomox" x1="0%" x2="0%" y1="0%" y2="100%">
   <stop offset="0%" style="stop-color:#efefe7; stop-opacity:1"/>
   <stop offset="100%" style="stop-color:#8f8f8b; stop-opacity:1"/>
  </linearGradient>
  <linearGradient id="rainblue" x1="0%" x2="0%" y1="0%" y2="100%">
   <stop offset="0%" style="stop-color:#00F260; stop-opacity:1"/>
   <stop offset="100%" style="stop-color:#0575E6; stop-opacity:1"/>
  </linearGradient>
  <linearGradient id="sunrise" x1="0%" x2="0%" y1="0%" y2="100%">
   <stop offset="0%" style="stop-color: #FF8501; stop-opacity:1"/>
   <stop offset="100%" style="stop-color: #FFCB01; stop-opacity:1"/>
  </linearGradient>
  <linearGradient id="telinkrin" x1="0%" x2="0%" y1="0%" y2="100%">
   <stop offset="0%" style="stop-color: #b2ced6; stop-opacity:1"/>
   <stop offset="100%" style="stop-color: #6da5b7; stop-opacity:1"/>
  </linearGradient>
  <linearGradient id="60spsycho" x1="0%" x2="0%" y1="0%" y2="100%">
   <stop offset="0%" style="stop-color: #df5940; stop-opacity:1"/>
   <stop offset="25%" style="stop-color: #d8d15f; stop-opacity:1"/>
   <stop offset="50%" style="stop-color: #e9882a; stop-opacity:1"/>
   <stop offset="100%" style="stop-color: #279362; stop-opacity:1"/>
  </linearGradient>
  <linearGradient id="90ssummer" x1="0%" x2="0%" y1="0%" y2="100%">
   <stop offset="0%" style="stop-color: #f618c7; stop-opacity:1"/>
   <stop offset="20%" style="stop-color: #94ffab; stop-opacity:1"/>
   <stop offset="50%" style="stop-color: #fbfd54; stop-opacity:1"/>
   <stop offset="100%" style="stop-color: #0f83ae; stop-opacity:1"/>
  </linearGradient>
 </defs>
 <path fill="currentColor" class="ColorScheme-Text" d="M 3.994,10 C 2.736,9.985 1.815,10.031 1.063,9.615 0.686,9.408 0.389,9.056 0.225,8.617 0.06,8.179 0,7.658 0,7 V 5 C 0,4.342 0.06,3.821 0.225,3.383 0.389,2.944 0.686,2.592 1.063,2.385 1.815,1.969 2.736,2.015 3.994,2 H 3.998 6.002 6.006 C 7.264,2.015 8.185,1.969 8.938,2.385 9.314,2.592 9.611,2.944 9.776,3.383 9.94,3.821 10,4.342 10,5 V 7 C 10,7.658 9.94,8.179 9.775,8.617 9.611,9.056 9.314,9.408 8.938,9.615 8.185,10.031 7.264,9.985 6.006,10 H 6.002 3.998 Z M 4,9 H 4.006 6 C 7.259,8.985 8.087,8.94 8.453,8.738 8.637,8.637 8.742,8.526 8.84,8.266 8.937,8.006 9,7.592 9,7 V 5 C 9,4.408 8.937,3.994 8.84,3.734 8.742,3.474 8.638,3.363 8.455,3.262 8.089,3.06 7.259,3.015 6,3 H 4.006 4 C 2.741,3.015 1.911,3.06 1.545,3.262 1.362,3.363 1.258,3.474 1.16,3.734 1.063,3.994 1,4.408 1,5 V 7 C 1,7.592 1.063,8.006 1.16,8.266 1.258,8.526 1.362,8.637 1.545,8.738 1.911,8.94 2.741,8.985 4,9 Z"/>
 <path fill="currentColor" class="ColorScheme-Text" opacity="0.6" d="M 6.994,15 C 5.736,14.985 4.815,15.031 4.063,14.615 3.686,14.408 3.389,14.056 3.225,13.617 3.06,13.179 3,12.658 3,12 v -1 h 1 v 1 c 0,0.592 0.063,1.006 0.16,1.266 0.098,0.26 0.202,0.371 0.385,0.472 C 4.911,13.94 5.741,13.985 7,14 h 3.5 1.5 c 1.259,-0.015 2.087,-0.06 2.453,-0.262 0.184,-0.101 0.289,-0.212 0.387,-0.472 C 14.937,13.006 15,12.592 15,12 V 8 C 15,7.408 14.937,6.994 14.84,6.734 14.742,6.474 14.638,6.363 14.455,6.262 14.088,6.059 13.258,6.015 11.994,6 H 11 V 5 h 1.002 0.004 c 1.258,0.015 2.179,-0.031 2.932,0.385 0.376,0.207 0.673,0.559 0.837,0.998 C 15.94,6.821 16,7.342 16,8 v 4 c 0,0.658 -0.06,1.179 -0.225,1.617 -0.164,0.439 -0.461,0.791 -0.837,0.998 -0.753,0.416 -1.674,0.37 -2.932,0.385 H 12.002 10.5 6.998 Z"/>
</svg>
