<svg xmlns="http://www.w3.org/2000/svg" width="16" height="16" version="1.1">
 <defs>
   <style id="current-color-scheme" type="text/css">
   .ColorScheme-Text { color: #cc00cc; } .ColorScheme-Highlight { color:#5294e2; }
  </style>
  <linearGradient id="arrongin" x1="0%" x2="0%" y1="0%" y2="100%">
   <stop offset="0%" style="stop-color:#dd9b44; stop-opacity:1"/>
   <stop offset="100%" style="stop-color:#ad6c16; stop-opacity:1"/>
  </linearGradient>
  <linearGradient id="aurora" x1="0%" x2="0%" y1="0%" y2="100%">
   <stop offset="0%" style="stop-color:#09D4DF; stop-opacity:1"/>
   <stop offset="100%" style="stop-color:#9269F4; stop-opacity:1"/>
  </linearGradient>
  <linearGradient id="cyberneon" x1="0%" x2="0%" y1="0%" y2="100%">
    <stop offset="0" style="stop-color:#0abdc6; stop-opacity:1"/>
    <stop offset="1" style="stop-color:#ea00d9; stop-opacity:1"/>
  </linearGradient>
  <linearGradient id="fitdance" x1="0%" x2="0%" y1="0%" y2="100%">
   <stop offset="0%" style="stop-color:#1AD6AB; stop-opacity:1"/>
   <stop offset="100%" style="stop-color:#329DB6; stop-opacity:1"/>
  </linearGradient>
  <linearGradient id="oomox" x1="0%" x2="0%" y1="0%" y2="100%">
   <stop offset="0%" style="stop-color:#efefe7; stop-opacity:1"/>
   <stop offset="100%" style="stop-color:#8f8f8b; stop-opacity:1"/>
  </linearGradient>
  <linearGradient id="rainblue" x1="0%" x2="0%" y1="0%" y2="100%">
   <stop offset="0%" style="stop-color:#00F260; stop-opacity:1"/>
   <stop offset="100%" style="stop-color:#0575E6; stop-opacity:1"/>
  </linearGradient>
  <linearGradient id="sunrise" x1="0%" x2="0%" y1="0%" y2="100%">
   <stop offset="0%" style="stop-color: #FF8501; stop-opacity:1"/>
   <stop offset="100%" style="stop-color: #FFCB01; stop-opacity:1"/>
  </linearGradient>
  <linearGradient id="telinkrin" x1="0%" x2="0%" y1="0%" y2="100%">
   <stop offset="0%" style="stop-color: #b2ced6; stop-opacity:1"/>
   <stop offset="100%" style="stop-color: #6da5b7; stop-opacity:1"/>
  </linearGradient>
  <linearGradient id="60spsycho" x1="0%" x2="0%" y1="0%" y2="100%">
   <stop offset="0%" style="stop-color: #df5940; stop-opacity:1"/>
   <stop offset="25%" style="stop-color: #d8d15f; stop-opacity:1"/>
   <stop offset="50%" style="stop-color: #e9882a; stop-opacity:1"/>
   <stop offset="100%" style="stop-color: #279362; stop-opacity:1"/>
  </linearGradient>
  <linearGradient id="90ssummer" x1="0%" x2="0%" y1="0%" y2="100%">
   <stop offset="0%" style="stop-color: #f618c7; stop-opacity:1"/>
   <stop offset="20%" style="stop-color: #94ffab; stop-opacity:1"/>
   <stop offset="50%" style="stop-color: #fbfd54; stop-opacity:1"/>
   <stop offset="100%" style="stop-color: #0f83ae; stop-opacity:1"/>
  </linearGradient>
 </defs>
 <path fill="currentColor" class="ColorScheme-Text" d="M 4.083 0.002 C 4.036 -0.027 3.647 0.232 3.335 0.498 C 2.901 0.869 2.455 1.496 2.224 2.056 C 1.868 2.918 1.809 3.98 2.067 4.88 C 2.227 5.439 2.736 6.361 2.882 6.355 C 2.915 6.354 3.025 6.252 3.126 6.13 C 3.228 6.006 3.312 5.891 3.312 5.872 C 3.312 5.853 3.241 5.721 3.154 5.58 C 2.953 5.254 2.804 4.895 2.707 4.503 C 2.601 4.074 2.599 3.372 2.704 2.943 C 2.914 2.091 3.395 1.38 4.111 0.86 C 4.272 0.743 4.404 0.643 4.404 0.638 C 4.404 0.6 4.111 0.02 4.083 0.002 Z M 9.273 0.074 C 8.333 0.054 7.356 0.398 6.647 0.858 C 6.301 1.087 6.337 1.155 6.7 0.959 C 7.305 0.634 7.896 0.505 8.785 0.504 C 9.924 0.503 10.559 0.68 11.215 1.183 L 11.493 1.396 L 11.847 1.399 C 12.042 1.401 12.28 1.416 12.377 1.431 C 12.633 1.471 12.67 1.472 12.692 1.436 C 12.739 1.352 11.931 0.759 11.462 0.533 C 10.748 0.17 9.99 0.091 9.273 0.074 Z M 4.838 1.171 C 4.755 1.171 4.388 1.321 4.126 1.598 C 3.704 2.044 3.436 2.574 3.319 3.193 C 3.201 3.818 3.304 4.623 3.572 5.157 C 3.708 5.431 3.845 5.639 3.887 5.639 C 3.907 5.639 3.994 5.556 4.08 5.454 C 4.362 5.122 4.35 5.177 4.208 4.873 C 4.02 4.471 3.958 4.201 3.958 3.773 C 3.958 2.987 4.335 2.222 4.938 1.784 C 5.044 1.707 5.132 1.616 5.132 1.581 C 5.135 1.484 4.892 1.171 4.838 1.171 Z M 6.5 2.226 C 5.509 2.226 4.706 3.029 4.706 4.019 C 4.706 5.01 5.509 5.813 6.5 5.813 C 7.491 5.813 8.294 5.01 8.294 4.019 C 8.294 3.029 7.491 2.226 6.5 2.226 Z M 11.522 2.226 C 10.531 2.226 9.728 3.029 9.728 4.019 C 9.728 5.01 10.531 5.813 11.522 5.813 C 12.513 5.813 13.315 5.01 13.315 4.019 C 13.315 3.029 12.513 2.226 11.522 2.226 Z M 6.499 2.943 C 7.093 2.943 7.576 3.425 7.576 4.019 C 7.576 4.613 7.093 5.096 6.499 5.096 C 5.905 5.096 5.424 4.613 5.424 4.019 C 5.424 3.425 5.905 2.943 6.499 2.943 Z M 11.521 2.943 C 12.115 2.943 12.598 3.425 12.598 4.019 C 12.598 4.613 12.115 5.096 11.521 5.096 C 10.927 5.096 10.446 4.613 10.446 4.019 C 10.446 3.425 10.927 2.943 11.521 2.943 Z M 6.416 3.351 C 6.327 3.356 6.248 3.368 6.234 3.382 C 6.224 3.392 6.231 3.455 6.249 3.522 C 6.314 3.751 6.182 3.894 5.968 3.829 C 5.91 3.811 5.859 3.809 5.844 3.823 C 5.83 3.837 5.823 3.943 5.829 4.059 C 5.837 4.23 5.855 4.291 5.919 4.387 C 6.005 4.517 6.174 4.641 6.315 4.677 C 6.453 4.712 6.684 4.686 6.808 4.622 C 7.146 4.449 7.272 4.027 7.089 3.69 C 6.999 3.526 6.818 3.385 6.657 3.355 C 6.603 3.345 6.505 3.346 6.416 3.351 Z M 11.438 3.351 C 11.349 3.356 11.27 3.368 11.256 3.382 C 11.246 3.392 11.252 3.455 11.271 3.522 C 11.336 3.751 11.204 3.894 10.989 3.829 C 10.932 3.811 10.881 3.809 10.866 3.823 C 10.852 3.837 10.845 3.943 10.851 4.059 C 10.859 4.23 10.877 4.291 10.94 4.387 C 11.027 4.517 11.196 4.641 11.337 4.677 C 11.475 4.712 11.706 4.686 11.83 4.622 C 12.168 4.449 12.294 4.027 12.11 3.69 C 12.021 3.526 11.84 3.385 11.679 3.355 C 11.625 3.345 11.527 3.346 11.438 3.351 Z M 9.011 4.378 C 8.771 4.378 8.63 4.484 8.519 4.749 C 8.425 4.975 8.481 5.516 8.64 5.897 C 8.731 6.114 8.98 6.53 9.019 6.53 C 9.032 6.53 9.091 6.464 9.149 6.383 C 9.379 6.059 9.543 5.505 9.548 5.033 C 9.551 4.786 9.545 4.758 9.463 4.633 C 9.342 4.451 9.214 4.378 9.011 4.378 Z M 14.057 4.92 C 14.03 4.927 13.779 5.154 13.499 5.425 L 12.99 5.918 L 12.967 6.449 C 12.863 8.867 12.044 10.829 10.499 12.359 C 9.332 13.516 7.572 14.469 5.769 14.908 C 5.218 15.042 3.837 15.241 3.79 15.194 C 3.768 15.172 3.801 15.093 3.883 14.97 C 4.187 14.512 4.425 13.913 4.538 13.321 C 4.65 12.738 4.662 12.338 4.594 11.498 C 4.52 10.571 4.539 9.945 4.642 9.465 C 4.789 8.779 5.085 8.237 5.469 7.948 C 5.938 7.596 6.374 7.44 6.892 7.44 C 8.069 7.44 9.258 8.264 9.497 9.378 C 9.569 9.719 9.541 10.474 9.44 10.975 C 9.206 12.139 8.457 12.977 7.58 13.72 C 7.413 13.862 7.219 14.031 7.15 14.094 L 7.025 14.209 L 7.131 14.17 C 7.189 14.149 7.395 14.037 7.589 13.922 C 9.047 13.052 10.008 12.169 10.319 10.695 C 10.414 10.244 10.453 9.423 10.393 9.076 C 10.295 8.51 9.955 7.916 9.464 7.454 C 8.451 6.5 6.889 6.278 5.613 6.875 C 4.958 7.182 4.39 7.696 4.112 8.236 C 3.655 9.124 3.577 9.978 3.87 11.498 C 3.969 12.01 4.014 12.41 4.014 12.764 C 4.014 13.895 3.618 14.963 2.909 15.745 C 2.801 15.864 2.711 15.97 2.711 15.981 C 2.711 16.017 2.797 16.005 3.218 15.914 C 3.442 15.866 3.962 15.778 4.374 15.72 C 5.954 15.494 7.083 15.154 8.399 14.505 C 10.024 13.702 11.296 12.627 12.266 11.264 C 13.257 9.869 13.88 8.084 14.031 6.2 C 14.103 5.306 14.11 4.908 14.057 4.92 Z"/>
</svg>
