<svg xmlns="http://www.w3.org/2000/svg" width="16" height="16" version="1.1">
 <defs>
   <style id="current-color-scheme" type="text/css">
   .ColorScheme-Text { color: #cc00cc; } .ColorScheme-Highlight { color:#5294e2; }
  </style>
  <linearGradient id="arrongin" x1="0%" x2="0%" y1="0%" y2="100%">
   <stop offset="0%" style="stop-color:#dd9b44; stop-opacity:1"/>
   <stop offset="100%" style="stop-color:#ad6c16; stop-opacity:1"/>
  </linearGradient>
  <linearGradient id="aurora" x1="0%" x2="0%" y1="0%" y2="100%">
   <stop offset="0%" style="stop-color:#09D4DF; stop-opacity:1"/>
   <stop offset="100%" style="stop-color:#9269F4; stop-opacity:1"/>
  </linearGradient>
  <linearGradient id="cyberneon" x1="0%" x2="0%" y1="0%" y2="100%">
    <stop offset="0" style="stop-color:#0abdc6; stop-opacity:1"/>
    <stop offset="1" style="stop-color:#ea00d9; stop-opacity:1"/>
  </linearGradient>
  <linearGradient id="fitdance" x1="0%" x2="0%" y1="0%" y2="100%">
   <stop offset="0%" style="stop-color:#1AD6AB; stop-opacity:1"/>
   <stop offset="100%" style="stop-color:#329DB6; stop-opacity:1"/>
  </linearGradient>
  <linearGradient id="oomox" x1="0%" x2="0%" y1="0%" y2="100%">
   <stop offset="0%" style="stop-color:#efefe7; stop-opacity:1"/>
   <stop offset="100%" style="stop-color:#8f8f8b; stop-opacity:1"/>
  </linearGradient>
  <linearGradient id="rainblue" x1="0%" x2="0%" y1="0%" y2="100%">
   <stop offset="0%" style="stop-color:#00F260; stop-opacity:1"/>
   <stop offset="100%" style="stop-color:#0575E6; stop-opacity:1"/>
  </linearGradient>
  <linearGradient id="sunrise" x1="0%" x2="0%" y1="0%" y2="100%">
   <stop offset="0%" style="stop-color: #FF8501; stop-opacity:1"/>
   <stop offset="100%" style="stop-color: #FFCB01; stop-opacity:1"/>
  </linearGradient>
  <linearGradient id="telinkrin" x1="0%" x2="0%" y1="0%" y2="100%">
   <stop offset="0%" style="stop-color: #b2ced6; stop-opacity:1"/>
   <stop offset="100%" style="stop-color: #6da5b7; stop-opacity:1"/>
  </linearGradient>
  <linearGradient id="60spsycho" x1="0%" x2="0%" y1="0%" y2="100%">
   <stop offset="0%" style="stop-color: #df5940; stop-opacity:1"/>
   <stop offset="25%" style="stop-color: #d8d15f; stop-opacity:1"/>
   <stop offset="50%" style="stop-color: #e9882a; stop-opacity:1"/>
   <stop offset="100%" style="stop-color: #279362; stop-opacity:1"/>
  </linearGradient>
  <linearGradient id="90ssummer" x1="0%" x2="0%" y1="0%" y2="100%">
   <stop offset="0%" style="stop-color: #f618c7; stop-opacity:1"/>
   <stop offset="20%" style="stop-color: #94ffab; stop-opacity:1"/>
   <stop offset="50%" style="stop-color: #fbfd54; stop-opacity:1"/>
   <stop offset="100%" style="stop-color: #0f83ae; stop-opacity:1"/>
  </linearGradient>
 </defs>
 <path fill="currentColor" class="ColorScheme-Text" d="M 5.4941406 0 C 4.2359406 0.0145 3.31525 -0.030604375 2.5625 0.38476562 C 2.18613 0.59242563 1.8892694 0.9441525 1.7246094 1.3828125 C 1.5599394 1.8214825 1.5 2.34239 1.5 3 L 1.5 13 C 1.5 13.65761 1.5598994 14.178528 1.7246094 14.617188 C 1.8892794 15.055848 2.18613 15.407584 2.5625 15.615234 C 3.31525 16.030554 4.2359506 15.98543 5.4941406 16 L 5.4980469 16 L 10.501953 16 L 10.505859 16 C 11.764049 15.9855 12.68475 16.030604 13.4375 15.615234 C 13.81387 15.407574 14.110721 15.055848 14.275391 14.617188 C 14.439881 14.178517 14.5 13.65761 14.5 13 L 14.5 3 C 14.5 2.34239 14.440101 1.8214825 14.275391 1.3828125 C 14.110731 0.9441525 13.81387 0.59242563 13.4375 0.38476562 C 12.68475 -0.030574375 11.764059 0.01452 10.505859 0 L 10.501953 0 L 5.4980469 0 L 5.4941406 0 z M 5.5 1 L 10.5 1 C 11.75852 1.0147 12.587175 1.0597988 12.953125 1.2617188 C 13.136535 1.3629187 13.242284 1.474455 13.339844 1.734375 C 13.437274 1.994285 13.5 2.40761 13.5 3 L 13.5 13 C 13.5 13.59239 13.437404 14.005725 13.339844 14.265625 C 13.242244 14.525535 13.136535 14.637091 12.953125 14.738281 C 12.587175 14.940191 11.75852 14.98529 10.5 15 L 5.5058594 15 L 5.5 15 C 4.24147 14.9853 3.4108819 14.940201 3.0449219 14.738281 C 2.8615119 14.637091 2.7577163 14.525535 2.6601562 14.265625 C 2.5625863 14.005725 2.5 13.59239 2.5 13 L 2.5 3 C 2.5 2.40761 2.5625962 1.994275 2.6601562 1.734375 C 2.7577563 1.474465 2.8615119 1.3629088 3.0449219 1.2617188 C 3.4108819 1.0598087 4.24147 1.01471 5.5 1 z M 8.2949219 5.0117188 C 7.2372919 4.9421187 6.1561087 5.2434075 5.2617188 5.9296875 C 3.4729187 7.3022575 2.9742125 9.79738 4.1015625 11.75 C 5.2289325 13.7026 7.6395662 14.521043 9.7226562 13.658203 C 11.805736 12.795373 12.933209 10.511874 12.349609 8.3339844 L 12.21875 7.8515625 L 11.251953 8.1113281 L 11.382812 8.59375 C 11.838492 10.29435 10.966434 12.058662 9.3398438 12.732422 C 7.7132637 13.406152 5.84906 12.77472 4.96875 11.25 C 4.08843 9.72529 4.4723506 7.7944263 5.8691406 6.7226562 C 7.1302406 5.7550063 8.8506538 5.775555 10.089844 6.703125 L 9.4453125 7.3476562 L 10.152344 8.0546875 L 10.828125 7.3789062 L 10.830078 7.3789062 L 11.183594 7.0234375 L 11.537109 6.671875 L 11.183594 6.3183594 C 10.386434 5.5212094 9.3525519 5.0813687 8.2949219 5.0117188 z M 8 8 A 1.5 1.5 0 0 0 6.5 9.5 A 1.5 1.5 0 0 0 8 11 A 1.5 1.5 0 0 0 9.5 9.5 A 1.5 1.5 0 0 0 8 8 z M 7.9882812 9 A 0.5 0.5 0 0 1 8 9 A 0.5 0.5 0 0 1 8.5 9.5 A 0.5 0.5 0 0 1 8 10 A 0.5 0.5 0 0 1 7.5 9.5 A 0.5 0.5 0 0 1 7.9882812 9 z"/>
</svg>
