<svg xmlns="http://www.w3.org/2000/svg" width="16" height="16" version="1.1">
 <defs>
   <style id="current-color-scheme" type="text/css">
   .ColorScheme-Text { color: #cc00cc; } .ColorScheme-Highlight { color:#5294e2; }
  </style>
  <linearGradient id="arrongin" x1="0%" x2="0%" y1="0%" y2="100%">
   <stop offset="0%" style="stop-color:#dd9b44; stop-opacity:1"/>
   <stop offset="100%" style="stop-color:#ad6c16; stop-opacity:1"/>
  </linearGradient>
  <linearGradient id="aurora" x1="0%" x2="0%" y1="0%" y2="100%">
   <stop offset="0%" style="stop-color:#09D4DF; stop-opacity:1"/>
   <stop offset="100%" style="stop-color:#9269F4; stop-opacity:1"/>
  </linearGradient>
  <linearGradient id="cyberneon" x1="0%" x2="0%" y1="0%" y2="100%">
    <stop offset="0" style="stop-color:#0abdc6; stop-opacity:1"/>
    <stop offset="1" style="stop-color:#ea00d9; stop-opacity:1"/>
  </linearGradient>
  <linearGradient id="fitdance" x1="0%" x2="0%" y1="0%" y2="100%">
   <stop offset="0%" style="stop-color:#1AD6AB; stop-opacity:1"/>
   <stop offset="100%" style="stop-color:#329DB6; stop-opacity:1"/>
  </linearGradient>
  <linearGradient id="oomox" x1="0%" x2="0%" y1="0%" y2="100%">
   <stop offset="0%" style="stop-color:#efefe7; stop-opacity:1"/>
   <stop offset="100%" style="stop-color:#8f8f8b; stop-opacity:1"/>
  </linearGradient>
  <linearGradient id="rainblue" x1="0%" x2="0%" y1="0%" y2="100%">
   <stop offset="0%" style="stop-color:#00F260; stop-opacity:1"/>
   <stop offset="100%" style="stop-color:#0575E6; stop-opacity:1"/>
  </linearGradient>
  <linearGradient id="sunrise" x1="0%" x2="0%" y1="0%" y2="100%">
   <stop offset="0%" style="stop-color: #FF8501; stop-opacity:1"/>
   <stop offset="100%" style="stop-color: #FFCB01; stop-opacity:1"/>
  </linearGradient>
  <linearGradient id="telinkrin" x1="0%" x2="0%" y1="0%" y2="100%">
   <stop offset="0%" style="stop-color: #b2ced6; stop-opacity:1"/>
   <stop offset="100%" style="stop-color: #6da5b7; stop-opacity:1"/>
  </linearGradient>
  <linearGradient id="60spsycho" x1="0%" x2="0%" y1="0%" y2="100%">
   <stop offset="0%" style="stop-color: #df5940; stop-opacity:1"/>
   <stop offset="25%" style="stop-color: #d8d15f; stop-opacity:1"/>
   <stop offset="50%" style="stop-color: #e9882a; stop-opacity:1"/>
   <stop offset="100%" style="stop-color: #279362; stop-opacity:1"/>
  </linearGradient>
  <linearGradient id="90ssummer" x1="0%" x2="0%" y1="0%" y2="100%">
   <stop offset="0%" style="stop-color: #f618c7; stop-opacity:1"/>
   <stop offset="20%" style="stop-color: #94ffab; stop-opacity:1"/>
   <stop offset="50%" style="stop-color: #fbfd54; stop-opacity:1"/>
   <stop offset="100%" style="stop-color: #0f83ae; stop-opacity:1"/>
  </linearGradient>
 </defs>
 <path fill="currentColor" class="ColorScheme-Text" fill-rule="evenodd" d="M 1 6.062 L 3.242 6.062 L 3.242 9.049 L 4.724 9.049 L 4.724 6.062 L 11.286 6.062 L 11.286 9.049 L 12.769 9.049 L 12.769 6.062 L 15 6.062 L 15 9.94 C 15 9.94 15 9.94 15 9.94 C 15 10.47 14.99 10.99 14.96 11.51 C 14.94 11.9 14.9 12.29 14.83 12.67 C 14.79 12.93 14.71 13.17 14.61 13.41 C 14.54 13.56 14.45 13.69 14.34 13.81 C 14.23 13.92 14.09 14.01 13.94 14.08 C 13.71 14.18 13.46 14.25 13.2 14.3 C 12.82 14.37 12.43 14.41 12.04 14.43 C 11.52 14.46 10.99 14.47 10.47 14.47 C 10.47 14.47 10.47 14.47 10.46 14.47 L 5.54 14.47 C 5.53 14.47 5.53 14.47 5.53 14.47 C 5.01 14.47 4.48 14.46 3.96 14.43 C 3.57 14.41 3.18 14.37 2.8 14.3 C 2.54 14.25 2.29 14.18 2.06 14.08 C 1.91 14.01 1.77 13.92 1.66 13.81 C 1.55 13.69 1.46 13.56 1.39 13.41 C 1.29 13.17 1.21 12.93 1.17 12.67 C 1.1 12.29 1.06 11.9 1.04 11.51 C 1.01 10.99 1 10.47 1 9.94 C 1 9.94 1 9.94 1 9.94 L 1 6.062 L 1 6.062 Z M 0 6.062 C 0 1.224 0.692 0.533 5.535 0.533 L 10.465 0.533 C 15.308 0.533 16 1.224 16 6.062 L 16 6.062 L 16 9.937 C 16 14.776 15.308 15.467 10.465 15.467 L 5.535 15.467 C 0.692 15.467 0 14.776 0 9.937 L 0 6.062 L 0 6.062 Z"/>
</svg>
