<svg xmlns="http://www.w3.org/2000/svg" viewBox="0 0 16 16">
  <defs id="defs3051">
    <style type="text/css" id="current-color-scheme">
      .ColorScheme-Text {
        color:#e1e1e1;
      }
      </style>
  </defs>
    <path 
        style="opacity:1;fill:currentColor;fill-opacity:1;stroke:none" 
        d="M 6.5 2 C 5.115 2 4 3.115 4 4.5 C 4 5.885 5.115 7 6.5 7 C 7.885 7 9 5.885 9 4.5 C 9 3.115 7.885 2 6.5 2 z M 6.5 3 C 7.331 3 8 3.669 8 4.5 C 8 5.331 7.331 6 6.5 6 C 5.669 6 5 5.331 5 4.5 C 5 3.669 5.669 3 6.5 3 z M 12 4 C 10.892 4 10 4.8919999 10 6 C 10 7.1080001 10.892 8 12 8 C 13.108 8 14 7.1080001 14 6 C 14 4.8919999 13.108 4 12 4 z M 12 5 C 12.554 5 13 5.4459999 13 6 C 13 6.5540001 12.554 7 12 7 C 11.446 7 11 6.5540001 11 6 C 11 5.4459999 11.446 5 12 5 z M 6.5 8 C 4.0070124 8 2 10.007012 2 12.5 L 2 13 L 2 14 L 2.2753906 14 L 3 14 L 3.3457031 14 L 9.6542969 14 L 10.724609 14 L 11 14 L 11 13 L 11 12.5 C 11 10.007012 8.9929876 8 6.5 8 z M 6.5 9 C 8.4389876 9 10 10.561012 10 12.5 L 10 13 L 3 13 L 3 12.5 C 3 10.561012 4.5610124 9 6.5 9 z M 12 9 C 11.445274 9 10.933115 9.1595125 10.488281 9.4199219 C 10.731419 9.6567988 10.95369 9.9149924 11.144531 10.197266 C 11.404642 10.073918 11.69198 10 12 10 C 13.108 10 14 10.892 14 12 L 11.900391 12 C 11.965505 12.323084 12 12.657168 12 13 L 13.724609 13 L 14.818359 13 L 15 13 L 15 12 C 15 10.338 13.662 9 12 9 z " 
        class="ColorScheme-Text"/>
</svg>
