<svg xmlns="http://www.w3.org/2000/svg" width="16" height="16" version="1.1">
 <path fill="#00aa00" d="M 3.994 1 C 2.736 1.015 1.815 0.971 1.062 1.387 C 0.672 1.608 0.374 1.961 0.222 2.383 C 0.058 2.821 0 3.343 0 4 L 0 12 C 0 12.658 0.058 13.179 0.223 13.617 C 0.387 14.056 0.686 14.407 1.063 14.615 C 1.815 15.031 2.736 14.985 3.994 15 L 12.006 15 C 13.264 14.985 14.185 15.03 14.938 14.615 C 15.314 14.408 15.613 14.055 15.778 13.617 C 15.942 13.179 16 12.657 16 12 L 16 6 C 16 5.342 15.942 4.821 15.777 4.383 C 15.757 4.328 15.729 4.279 15.703 4.229 L 15.676 4.172 C 15.514 3.842 15.257 3.568 14.938 3.385 C 14.185 2.969 13.264 3.015 12.006 3 L 8.967 3 L 6.945 1 L 3.996 1 L 3.994 1 Z"/>
</svg>
