<svg xmlns="http://www.w3.org/2000/svg" width="16" height="16" version="1.1">
 <defs>
   <style id="current-color-scheme" type="text/css">
   .ColorScheme-Text { color: #00aa00; } .ColorScheme-Highlight { color:#5294e2; }
  </style>
  <linearGradient id="arrongin" x1="0%" x2="0%" y1="0%" y2="100%">
   <stop offset="0%" style="stop-color:#dd9b44; stop-opacity:1"/>
   <stop offset="100%" style="stop-color:#ad6c16; stop-opacity:1"/>
  </linearGradient>
  <linearGradient id="aurora" x1="0%" x2="0%" y1="0%" y2="100%">
   <stop offset="0%" style="stop-color:#09D4DF; stop-opacity:1"/>
   <stop offset="100%" style="stop-color:#9269F4; stop-opacity:1"/>
  </linearGradient>
  <linearGradient id="cyberneon" x1="0%" x2="0%" y1="0%" y2="100%">
    <stop offset="0" style="stop-color:#0abdc6; stop-opacity:1"/>
    <stop offset="1" style="stop-color:#ea00d9; stop-opacity:1"/>
  </linearGradient>
  <linearGradient id="fitdance" x1="0%" x2="0%" y1="0%" y2="100%">
   <stop offset="0%" style="stop-color:#1AD6AB; stop-opacity:1"/>
   <stop offset="100%" style="stop-color:#329DB6; stop-opacity:1"/>
  </linearGradient>
  <linearGradient id="oomox" x1="0%" x2="0%" y1="0%" y2="100%">
   <stop offset="0%" style="stop-color:#00aa00; stop-opacity:1"/>
   <stop offset="100%" style="stop-color:#00cc00; stop-opacity:1"/>
  </linearGradient>
  <linearGradient id="rainblue" x1="0%" x2="0%" y1="0%" y2="100%">
   <stop offset="0%" style="stop-color:#00F260; stop-opacity:1"/>
   <stop offset="100%" style="stop-color:#0575E6; stop-opacity:1"/>
  </linearGradient>
  <linearGradient id="sunrise" x1="0%" x2="0%" y1="0%" y2="100%">
   <stop offset="0%" style="stop-color: #FF8501; stop-opacity:1"/>
   <stop offset="100%" style="stop-color: #FFCB01; stop-opacity:1"/>
  </linearGradient>
  <linearGradient id="telinkrin" x1="0%" x2="0%" y1="0%" y2="100%">
   <stop offset="0%" style="stop-color: #b2ced6; stop-opacity:1"/>
   <stop offset="100%" style="stop-color: #6da5b7; stop-opacity:1"/>
  </linearGradient>
  <linearGradient id="60spsycho" x1="0%" x2="0%" y1="0%" y2="100%">
   <stop offset="0%" style="stop-color: #df5940; stop-opacity:1"/>
   <stop offset="25%" style="stop-color: #d8d15f; stop-opacity:1"/>
   <stop offset="50%" style="stop-color: #e9882a; stop-opacity:1"/>
   <stop offset="100%" style="stop-color: #279362; stop-opacity:1"/>
  </linearGradient>
  <linearGradient id="90ssummer" x1="0%" x2="0%" y1="0%" y2="100%">
   <stop offset="0%" style="stop-color: #f618c7; stop-opacity:1"/>
   <stop offset="20%" style="stop-color: #94ffab; stop-opacity:1"/>
   <stop offset="50%" style="stop-color: #fbfd54; stop-opacity:1"/>
   <stop offset="100%" style="stop-color: #0f83ae; stop-opacity:1"/>
  </linearGradient>
 </defs>
 <path fill="url(#oomox)" class="ColorScheme-Text" fill-rule="evenodd" d="M 15 10.5 L 15 8.5 L 15 8.5 L 14 8.5 L 14 10.5 L 15 10.5 Z M 15 11.5 L 15 12 C 15 12.592 14.937 13.006 14.84 13.266 C 14.742 13.526 14.638 13.637 14.455 13.738 C 14.345 13.799 14.193 13.846 14 13.881 L 14 11.5 L 15 11.5 Z M 15 7.5 L 15 5.5 L 15 5.5 L 14 5.5 L 14 7.5 L 15 7.5 L 15 7.5 Z M 15 4.5 L 15 4 C 15 3.408 14.937 2.994 14.84 2.734 C 14.742 2.475 14.639 2.363 14.455 2.262 C 14.345 2.201 14.193 2.155 14 2.119 L 14 2.119 L 14 4.5 L 15 4.5 L 15 4.5 L 15 4.5 Z M 7 5 C 7.552 5 8 5.56 8 6.25 C 8 6.94 7.552 7.5 7 7.5 C 6.448 7.5 6 6.94 6 6.25 C 6 5.56 6.448 5 7 5 L 7 5 L 7 5 L 7 5 L 7 5 L 7 5 L 7 5 Z M 7.016 10.002 C 8.623 10.002 8.967 9.997 9.43 10.365 C 9.661 10.549 9.8 10.672 9.895 10.994 C 9.895 10.996 9.896 10.998 9.897 11 L 4.106 11 C 4.106 10.998 4.107 10.996 4.108 10.994 C 4.203 10.672 4.343 10.549 4.574 10.365 C 5.037 9.997 5.409 10.002 7.016 10.002 L 7.016 10.002 L 7.016 10.002 L 7.016 10.002 L 7.016 10.002 L 7.016 10.002 L 7.016 10.002 Z M 7 4 C 6.717 4 6.448 4.055 6.201 4.166 C 5.955 4.272 5.736 4.426 5.555 4.627 L 5.555 4.629 L 5.553 4.631 C 5.376 4.833 5.24 5.074 5.144 5.35 C 5.047 5.625 5 5.927 5 6.25 C 5 6.577 5.047 6.882 5.145 7.158 C 5.241 7.429 5.376 7.668 5.553 7.869 L 5.555 7.871 C 5.736 8.072 5.953 8.229 6.197 8.34 L 6.199 8.342 L 6.201 8.342 C 6.448 8.448 6.718 8.5 7 8.5 C 7.282 8.5 7.55 8.448 7.797 8.342 L 7.797 8.34 C 8.042 8.23 8.255 8.072 8.432 7.871 C 8.613 7.67 8.753 7.43 8.85 7.158 C 8.948 6.882 8.994 6.577 8.994 6.25 L 9 6.25 C 9 5.928 8.953 5.627 8.855 5.352 C 8.759 5.075 8.619 4.831 8.438 4.629 C 8.26 4.427 8.044 4.272 7.799 4.166 C 7.551 4.056 7.283 4 7 4 L 7 4 L 7 4 L 7 4 L 7 4 L 7 4 L 7 4 Z M 7.016 9 C 5.369 9 4.487 9.161 3.83 9.684 C 3.502 9.945 3.284 10.3 3.162 10.715 C 3.04 11.13 3.001 11.447 3 11.998 C 4 12 10 12 11 12 C 11 11.449 10.962 11.132 10.84 10.717 C 10.718 10.302 10.502 9.945 10.174 9.684 C 9.517 9.161 8.662 9 7.016 9 L 7.016 9 L 7.016 9 L 7.016 9 L 7.016 9 L 7.016 9 Z M 13 2.024 C 12.704 2.012 12.371 2.004 12 2 L 4 2 L 4 2 L 4 2 L 4 2 L 4 2 C 2.741 2.015 1.911 2.06 1.545 2.262 C 1.362 2.363 1.258 2.474 1.16 2.734 C 1.063 2.994 1 3.408 1 4 L 1 12 C 1 12.592 1.063 13.006 1.16 13.266 C 1.258 13.525 1.362 13.637 1.545 13.738 C 1.911 13.94 2.741 13.985 4 14 L 4.006 14 L 12 14 C 12.371 13.996 12.704 13.989 13 13.976 L 13 2.024 L 13 2.024 L 13 2.024 L 13 2.024 Z M 3.994 1 C 2.736 1.014 1.815 0.969 1.063 1.385 C 0.686 1.592 0.389 1.944 0.225 2.383 C 0.06 2.821 0 3.342 0 4 L 0 12 C 0 12.658 0.06 13.179 0.225 13.617 C 0.389 14.056 0.686 14.406 1.063 14.613 C 1.815 15.028 2.736 14.985 3.994 15 L 3.996 15 L 12.002 15 L 12.006 15 C 13.264 14.986 14.185 15.031 14.938 14.615 C 15.314 14.408 15.611 14.056 15.776 13.617 C 15.94 13.179 16 12.658 16 12 L 16 4 C 16 3.342 15.94 2.821 15.775 2.383 C 15.611 1.944 15.314 1.594 14.938 1.387 C 14.185 0.972 13.264 1.015 12.006 1 L 12.004 1 L 3.998 1 L 3.994 1 L 3.994 1 L 3.994 1 L 3.994 1 L 3.994 1 L 3.994 1 L 3.994 1 Z"/>
</svg>
