<svg xmlns="http://www.w3.org/2000/svg" width="16" height="16" version="1.1">
 <defs>
   <style id="current-color-scheme" type="text/css">
   .ColorScheme-Text { color: #00aa00; } .ColorScheme-Highlight { color:#5294e2; }
  </style>
  <linearGradient id="arrongin" x1="0%" x2="0%" y1="0%" y2="100%">
   <stop offset="0%" style="stop-color:#dd9b44; stop-opacity:1"/>
   <stop offset="100%" style="stop-color:#ad6c16; stop-opacity:1"/>
  </linearGradient>
  <linearGradient id="aurora" x1="0%" x2="0%" y1="0%" y2="100%">
   <stop offset="0%" style="stop-color:#09D4DF; stop-opacity:1"/>
   <stop offset="100%" style="stop-color:#9269F4; stop-opacity:1"/>
  </linearGradient>
  <linearGradient id="cyberneon" x1="0%" x2="0%" y1="0%" y2="100%">
    <stop offset="0" style="stop-color:#0abdc6; stop-opacity:1"/>
    <stop offset="1" style="stop-color:#ea00d9; stop-opacity:1"/>
  </linearGradient>
  <linearGradient id="fitdance" x1="0%" x2="0%" y1="0%" y2="100%">
   <stop offset="0%" style="stop-color:#1AD6AB; stop-opacity:1"/>
   <stop offset="100%" style="stop-color:#329DB6; stop-opacity:1"/>
  </linearGradient>
  <linearGradient id="oomox" x1="0%" x2="0%" y1="0%" y2="100%">
   <stop offset="0%" style="stop-color:#00aa00; stop-opacity:1"/>
   <stop offset="100%" style="stop-color:#00cc00; stop-opacity:1"/>
  </linearGradient>
  <linearGradient id="rainblue" x1="0%" x2="0%" y1="0%" y2="100%">
   <stop offset="0%" style="stop-color:#00F260; stop-opacity:1"/>
   <stop offset="100%" style="stop-color:#0575E6; stop-opacity:1"/>
  </linearGradient>
  <linearGradient id="sunrise" x1="0%" x2="0%" y1="0%" y2="100%">
   <stop offset="0%" style="stop-color: #FF8501; stop-opacity:1"/>
   <stop offset="100%" style="stop-color: #FFCB01; stop-opacity:1"/>
  </linearGradient>
  <linearGradient id="telinkrin" x1="0%" x2="0%" y1="0%" y2="100%">
   <stop offset="0%" style="stop-color: #b2ced6; stop-opacity:1"/>
   <stop offset="100%" style="stop-color: #6da5b7; stop-opacity:1"/>
  </linearGradient>
  <linearGradient id="60spsycho" x1="0%" x2="0%" y1="0%" y2="100%">
   <stop offset="0%" style="stop-color: #df5940; stop-opacity:1"/>
   <stop offset="25%" style="stop-color: #d8d15f; stop-opacity:1"/>
   <stop offset="50%" style="stop-color: #e9882a; stop-opacity:1"/>
   <stop offset="100%" style="stop-color: #279362; stop-opacity:1"/>
  </linearGradient>
  <linearGradient id="90ssummer" x1="0%" x2="0%" y1="0%" y2="100%">
   <stop offset="0%" style="stop-color: #f618c7; stop-opacity:1"/>
   <stop offset="20%" style="stop-color: #94ffab; stop-opacity:1"/>
   <stop offset="50%" style="stop-color: #fbfd54; stop-opacity:1"/>
   <stop offset="100%" style="stop-color: #0f83ae; stop-opacity:1"/>
  </linearGradient>
 </defs>
 <path fill="url(#oomox)" class="ColorScheme-Text" fill-rule="evenodd" d="M 4 8.629 C 4.037 8.804 3.938 8.987 4.104 9.098 C 5.133 9.783 7.064 10.26 8.375 10.285 C 10.109 10.294 11.476 9.978 11.942 9.381 C 12.043 9.25 11.98 8.81 11.988 8.615 L 11.011 8.592 L 11.988 8.503 L 11.988 8.036 L 7.146 8.036 L 7.14 8.571 L 6.29 8.571 L 6.281 8 L 4.002 8 L 4.004 8.55 L 4.754 8.575 L 4 8.629 L 4 8.629 L 4 8.629 L 4 8.629 L 4 8.629 L 4 8.629 L 4 8.629 Z M 10.465 6.28 C 11.167 6.294 12.19 6.278 12.28 6.278 C 12.566 6.076 12.767 5.286 12.261 4.508 C 11.706 3.639 10.81 4.014 10.447 4.67 C 10.137 5.406 10.349 5.894 10.465 6.276 L 10.465 6.28 L 10.465 6.28 L 10.465 6.28 Z M 4.286 5.371 C 4.286 5.528 4.158 5.657 4 5.657 C 3.842 5.657 3.714 5.528 3.714 5.371 C 3.714 5.215 3.842 5.085 4 5.085 C 4.158 5.085 4.286 5.215 4.286 5.371 L 4.286 5.371 Z M 3.443 6.571 C 4.137 6.502 4.134 6.495 5.367 6.392 C 5.501 6.003 5.622 5.769 5.135 5.044 C 4.6 4.236 3.739 4.584 3.39 5.194 C 3.092 5.88 3.172 6.311 3.443 6.571 L 3.443 6.571 L 3.443 6.571 L 3.443 6.571 L 3.443 6.571 Z M 8 0 C 5.61 0.066 2.937 0.433 0.874 0.961 C 0.311 1.108 0.101 1.189 0 1.343 L 0 15.242 C 0 15.741 3 15.992 3.484 16 C 4 15.992 6.286 15.741 6.286 15.242 L 6.286 13.714 L 8 13.714 L 9.714 13.714 L 9.714 15.242 C 9.714 15.741 12 15.992 12.516 16 C 13 15.992 16 15.741 16 15.242 L 16 1.343 C 15.899 1.189 15.688 1.108 15.126 0.961 C 13.063 0.433 10.39 0.066 8 0 L 8 0 L 8 0 L 8 0 L 8 0 L 8 0 L 8 0 Z M 11.429 4.857 C 11.429 5.016 11.3 5.143 11.142 5.143 C 10.985 5.143 10.857 5.016 10.857 4.857 C 10.857 4.701 10.985 4.571 11.142 4.571 C 11.3 4.571 11.429 4.701 11.429 4.857 Z"/>
</svg>
