<svg xmlns="http://www.w3.org/2000/svg" width="16" height="16" version="1.1">
 <defs>
   <style id="current-color-scheme" type="text/css">
   .ColorScheme-Text { color: #00aa00; } .ColorScheme-Highlight { color:#5294e2; }
  </style>
  <linearGradient id="arrongin" x1="0%" x2="0%" y1="0%" y2="100%">
   <stop offset="0%" style="stop-color:#dd9b44; stop-opacity:1"/>
   <stop offset="100%" style="stop-color:#ad6c16; stop-opacity:1"/>
  </linearGradient>
  <linearGradient id="aurora" x1="0%" x2="0%" y1="0%" y2="100%">
   <stop offset="0%" style="stop-color:#09D4DF; stop-opacity:1"/>
   <stop offset="100%" style="stop-color:#9269F4; stop-opacity:1"/>
  </linearGradient>
  <linearGradient id="cyberneon" x1="0%" x2="0%" y1="0%" y2="100%">
    <stop offset="0" style="stop-color:#0abdc6; stop-opacity:1"/>
    <stop offset="1" style="stop-color:#ea00d9; stop-opacity:1"/>
  </linearGradient>
  <linearGradient id="fitdance" x1="0%" x2="0%" y1="0%" y2="100%">
   <stop offset="0%" style="stop-color:#1AD6AB; stop-opacity:1"/>
   <stop offset="100%" style="stop-color:#329DB6; stop-opacity:1"/>
  </linearGradient>
  <linearGradient id="oomox" x1="0%" x2="0%" y1="0%" y2="100%">
   <stop offset="0%" style="stop-color:#00aa00; stop-opacity:1"/>
   <stop offset="100%" style="stop-color:#00cc00; stop-opacity:1"/>
  </linearGradient>
  <linearGradient id="rainblue" x1="0%" x2="0%" y1="0%" y2="100%">
   <stop offset="0%" style="stop-color:#00F260; stop-opacity:1"/>
   <stop offset="100%" style="stop-color:#0575E6; stop-opacity:1"/>
  </linearGradient>
  <linearGradient id="sunrise" x1="0%" x2="0%" y1="0%" y2="100%">
   <stop offset="0%" style="stop-color: #FF8501; stop-opacity:1"/>
   <stop offset="100%" style="stop-color: #FFCB01; stop-opacity:1"/>
  </linearGradient>
  <linearGradient id="telinkrin" x1="0%" x2="0%" y1="0%" y2="100%">
   <stop offset="0%" style="stop-color: #b2ced6; stop-opacity:1"/>
   <stop offset="100%" style="stop-color: #6da5b7; stop-opacity:1"/>
  </linearGradient>
  <linearGradient id="60spsycho" x1="0%" x2="0%" y1="0%" y2="100%">
   <stop offset="0%" style="stop-color: #df5940; stop-opacity:1"/>
   <stop offset="25%" style="stop-color: #d8d15f; stop-opacity:1"/>
   <stop offset="50%" style="stop-color: #e9882a; stop-opacity:1"/>
   <stop offset="100%" style="stop-color: #279362; stop-opacity:1"/>
  </linearGradient>
  <linearGradient id="90ssummer" x1="0%" x2="0%" y1="0%" y2="100%">
   <stop offset="0%" style="stop-color: #f618c7; stop-opacity:1"/>
   <stop offset="20%" style="stop-color: #94ffab; stop-opacity:1"/>
   <stop offset="50%" style="stop-color: #fbfd54; stop-opacity:1"/>
   <stop offset="100%" style="stop-color: #0f83ae; stop-opacity:1"/>
  </linearGradient>
 </defs>
 <path fill="url(#oomox)" class="ColorScheme-Text" d="M 8.381 1.905 C 7.119 1.905 6.095 2.928 6.095 4.19 C 6.095 4.367 6.129 4.526 6.167 4.69 L 3.714 6.214 C 3.323 5.901 2.826 5.714 2.286 5.714 C 1.023 5.714 0 6.738 0 8 C 0 9.263 1.023 10.286 2.286 10.286 C 2.826 10.286 3.323 10.099 3.714 9.786 L 6.167 11.31 C 6.129 11.474 6.095 11.634 6.095 11.81 C 6.095 13.072 7.118 14.095 8.381 14.095 C 9.643 14.095 10.666 13.072 10.666 11.81 C 10.666 10.547 9.643 9.524 8.381 9.524 C 7.841 9.524 7.343 9.71 6.952 10.024 L 4.5 8.5 C 4.538 8.335 4.571 8.176 4.571 8 C 4.571 7.824 4.538 7.665 4.5 7.5 L 6.952 5.977 C 7.343 6.29 7.841 6.476 8.381 6.476 C 9.643 6.476 10.666 5.453 10.666 4.191 C 10.666 2.928 9.643 1.905 8.381 1.905 L 8.381 1.905 Z M 13.714 1.905 C 12.452 1.905 11.429 2.928 11.429 4.19 C 11.429 5.453 12.452 6.476 13.714 6.476 C 14.977 6.476 16 5.453 16 4.19 C 16 2.928 14.977 1.905 13.714 1.905 Z M 13.714 9.524 C 12.452 9.524 11.429 10.547 11.429 11.81 C 11.429 13.072 12.452 14.095 13.714 14.095 C 14.977 14.095 16 13.072 16 11.81 C 16 10.547 14.977 9.524 13.714 9.524 Z"/>
</svg>
