<svg xmlns="http://www.w3.org/2000/svg" width="16" height="16" version="1.1">
 <defs>
   <style id="current-color-scheme" type="text/css">
   .ColorScheme-Text { color: #00aa00; } .ColorScheme-Highlight { color:#5294e2; }
  </style>
  <linearGradient id="arrongin" x1="0%" x2="0%" y1="0%" y2="100%">
   <stop offset="0%" style="stop-color:#dd9b44; stop-opacity:1"/>
   <stop offset="100%" style="stop-color:#ad6c16; stop-opacity:1"/>
  </linearGradient>
  <linearGradient id="aurora" x1="0%" x2="0%" y1="0%" y2="100%">
   <stop offset="0%" style="stop-color:#09D4DF; stop-opacity:1"/>
   <stop offset="100%" style="stop-color:#9269F4; stop-opacity:1"/>
  </linearGradient>
  <linearGradient id="cyberneon" x1="0%" x2="0%" y1="0%" y2="100%">
    <stop offset="0" style="stop-color:#0abdc6; stop-opacity:1"/>
    <stop offset="1" style="stop-color:#ea00d9; stop-opacity:1"/>
  </linearGradient>
  <linearGradient id="fitdance" x1="0%" x2="0%" y1="0%" y2="100%">
   <stop offset="0%" style="stop-color:#1AD6AB; stop-opacity:1"/>
   <stop offset="100%" style="stop-color:#329DB6; stop-opacity:1"/>
  </linearGradient>
  <linearGradient id="oomox" x1="0%" x2="0%" y1="0%" y2="100%">
   <stop offset="0%" style="stop-color:#00aa00; stop-opacity:1"/>
   <stop offset="100%" style="stop-color:#00cc00; stop-opacity:1"/>
  </linearGradient>
  <linearGradient id="rainblue" x1="0%" x2="0%" y1="0%" y2="100%">
   <stop offset="0%" style="stop-color:#00F260; stop-opacity:1"/>
   <stop offset="100%" style="stop-color:#0575E6; stop-opacity:1"/>
  </linearGradient>
  <linearGradient id="sunrise" x1="0%" x2="0%" y1="0%" y2="100%">
   <stop offset="0%" style="stop-color: #FF8501; stop-opacity:1"/>
   <stop offset="100%" style="stop-color: #FFCB01; stop-opacity:1"/>
  </linearGradient>
  <linearGradient id="telinkrin" x1="0%" x2="0%" y1="0%" y2="100%">
   <stop offset="0%" style="stop-color: #b2ced6; stop-opacity:1"/>
   <stop offset="100%" style="stop-color: #6da5b7; stop-opacity:1"/>
  </linearGradient>
  <linearGradient id="60spsycho" x1="0%" x2="0%" y1="0%" y2="100%">
   <stop offset="0%" style="stop-color: #df5940; stop-opacity:1"/>
   <stop offset="25%" style="stop-color: #d8d15f; stop-opacity:1"/>
   <stop offset="50%" style="stop-color: #e9882a; stop-opacity:1"/>
   <stop offset="100%" style="stop-color: #279362; stop-opacity:1"/>
  </linearGradient>
  <linearGradient id="90ssummer" x1="0%" x2="0%" y1="0%" y2="100%">
   <stop offset="0%" style="stop-color: #f618c7; stop-opacity:1"/>
   <stop offset="20%" style="stop-color: #94ffab; stop-opacity:1"/>
   <stop offset="50%" style="stop-color: #fbfd54; stop-opacity:1"/>
   <stop offset="100%" style="stop-color: #0f83ae; stop-opacity:1"/>
  </linearGradient>
 </defs>
 <path fill="url(#oomox)" class="ColorScheme-Text" d="M 2.28 15.16 C 1.545 15.102 0.836 14.957 0.197 14.733 L 0 14.664 L 0.009 14.608 C 0.031 14.469 0.091 14.189 0.148 13.962 C 0.411 12.923 0.915 11.896 1.591 11.026 C 1.994 10.506 2.535 9.968 3.063 9.562 C 3.651 9.111 4.375 8.702 5.042 8.445 C 5.151 8.403 5.152 8.402 5.144 8.359 C 5.139 8.336 5.124 8.221 5.109 8.104 C 4.98 7.081 5.041 6.093 5.295 5.082 C 5.373 4.775 5.543 4.261 5.663 3.972 C 6.087 2.957 6.712 2.036 7.492 1.28 C 7.688 1.09 7.985 0.828 8.005 0.828 C 8.026 0.828 8.323 1.09 8.524 1.286 C 8.95 1.702 9.297 2.122 9.628 2.623 C 9.838 2.942 9.954 3.145 10.132 3.507 C 10.849 4.962 11.115 6.614 10.888 8.213 C 10.873 8.315 10.863 8.4 10.864 8.401 C 10.866 8.402 10.951 8.438 11.053 8.479 C 12.565 9.089 13.862 10.151 14.779 11.53 C 15.362 12.408 15.769 13.409 15.973 14.467 C 16.002 14.615 16.006 14.66 15.993 14.668 C 15.983 14.674 15.873 14.713 15.748 14.755 C 15.168 14.949 14.595 15.072 13.954 15.141 C 13.672 15.171 12.975 15.183 12.657 15.162 C 11.005 15.056 9.396 14.445 8.143 13.448 L 8.004 13.338 L 7.905 13.418 C 7.038 14.114 5.974 14.64 4.872 14.921 C 4.44 15.031 4.102 15.091 3.626 15.142 C 3.389 15.167 2.52 15.179 2.28 15.16 L 2.28 15.16 Z M 3.271 13.667 C 4.562 13.578 5.757 13.14 6.798 12.374 L 6.93 12.276 L 6.89 12.228 C 6.792 12.114 6.514 11.735 6.394 11.555 C 6.104 11.116 5.818 10.574 5.637 10.118 C 5.584 9.986 5.54 9.876 5.537 9.873 C 5.523 9.851 4.925 10.138 4.669 10.29 C 3.584 10.931 2.714 11.843 2.137 12.944 C 2.011 13.186 1.836 13.586 1.851 13.599 C 1.865 13.612 2.199 13.653 2.404 13.667 C 2.646 13.683 3.037 13.683 3.271 13.667 L 3.271 13.667 Z M 13.579 13.667 C 13.695 13.658 13.874 13.642 13.976 13.629 C 14.191 13.602 14.181 13.621 14.096 13.421 C 13.489 11.981 12.334 10.758 10.935 10.071 C 10.732 9.971 10.505 9.871 10.483 9.872 C 10.475 9.872 10.426 9.981 10.373 10.113 C 10.197 10.56 9.912 11.103 9.618 11.55 C 9.503 11.725 9.219 12.111 9.119 12.228 L 9.078 12.276 L 9.224 12.384 C 10.466 13.304 12.056 13.772 13.579 13.667 Z M 8.143 11.034 C 8.463 10.605 8.74 10.124 8.946 9.639 L 9.019 9.467 L 8.975 9.458 C 8.951 9.453 8.838 9.438 8.725 9.424 C 8.559 9.404 8.419 9.399 8.004 9.399 C 7.508 9.399 7.348 9.408 7.042 9.456 L 6.992 9.464 L 7.048 9.603 C 7.138 9.823 7.388 10.313 7.517 10.522 C 7.7 10.818 7.975 11.201 8.006 11.201 C 8.013 11.201 8.074 11.126 8.143 11.034 L 8.143 11.034 Z M 6.775 7.98 C 7.256 7.906 7.857 7.874 8.337 7.897 C 8.667 7.912 9.036 7.948 9.273 7.987 C 9.341 7.998 9.398 8.005 9.4 8.004 C 9.401 8.002 9.414 7.908 9.427 7.795 C 9.463 7.499 9.463 6.664 9.427 6.371 C 9.278 5.145 8.86 4.087 8.145 3.126 C 8.074 3.03 8.01 2.952 8.005 2.952 C 7.999 2.952 7.935 3.03 7.863 3.126 C 7.107 4.14 6.665 5.319 6.562 6.603 C 6.542 6.86 6.554 7.562 6.583 7.803 C 6.594 7.897 6.604 7.982 6.604 7.992 C 6.604 8.005 6.616 8.008 6.642 8.003 C 6.663 7.998 6.723 7.988 6.775 7.98 L 6.775 7.98 Z"/>
</svg>
