<svg xmlns="http://www.w3.org/2000/svg" width="16" height="16" version="1.1">
 <defs>
   <style id="current-color-scheme" type="text/css">
   .ColorScheme-Text { color: #00aa00; } .ColorScheme-Highlight { color:#5294e2; }
  </style>
  <linearGradient id="arrongin" x1="0%" x2="0%" y1="0%" y2="100%">
   <stop offset="0%" style="stop-color:#dd9b44; stop-opacity:1"/>
   <stop offset="100%" style="stop-color:#ad6c16; stop-opacity:1"/>
  </linearGradient>
  <linearGradient id="aurora" x1="0%" x2="0%" y1="0%" y2="100%">
   <stop offset="0%" style="stop-color:#09D4DF; stop-opacity:1"/>
   <stop offset="100%" style="stop-color:#9269F4; stop-opacity:1"/>
  </linearGradient>
  <linearGradient id="cyberneon" x1="0%" x2="0%" y1="0%" y2="100%">
    <stop offset="0" style="stop-color:#0abdc6; stop-opacity:1"/>
    <stop offset="1" style="stop-color:#ea00d9; stop-opacity:1"/>
  </linearGradient>
  <linearGradient id="fitdance" x1="0%" x2="0%" y1="0%" y2="100%">
   <stop offset="0%" style="stop-color:#1AD6AB; stop-opacity:1"/>
   <stop offset="100%" style="stop-color:#329DB6; stop-opacity:1"/>
  </linearGradient>
  <linearGradient id="oomox" x1="0%" x2="0%" y1="0%" y2="100%">
   <stop offset="0%" style="stop-color:#00aa00; stop-opacity:1"/>
   <stop offset="100%" style="stop-color:#00cc00; stop-opacity:1"/>
  </linearGradient>
  <linearGradient id="rainblue" x1="0%" x2="0%" y1="0%" y2="100%">
   <stop offset="0%" style="stop-color:#00F260; stop-opacity:1"/>
   <stop offset="100%" style="stop-color:#0575E6; stop-opacity:1"/>
  </linearGradient>
  <linearGradient id="sunrise" x1="0%" x2="0%" y1="0%" y2="100%">
   <stop offset="0%" style="stop-color: #FF8501; stop-opacity:1"/>
   <stop offset="100%" style="stop-color: #FFCB01; stop-opacity:1"/>
  </linearGradient>
  <linearGradient id="telinkrin" x1="0%" x2="0%" y1="0%" y2="100%">
   <stop offset="0%" style="stop-color: #b2ced6; stop-opacity:1"/>
   <stop offset="100%" style="stop-color: #6da5b7; stop-opacity:1"/>
  </linearGradient>
  <linearGradient id="60spsycho" x1="0%" x2="0%" y1="0%" y2="100%">
   <stop offset="0%" style="stop-color: #df5940; stop-opacity:1"/>
   <stop offset="25%" style="stop-color: #d8d15f; stop-opacity:1"/>
   <stop offset="50%" style="stop-color: #e9882a; stop-opacity:1"/>
   <stop offset="100%" style="stop-color: #279362; stop-opacity:1"/>
  </linearGradient>
  <linearGradient id="90ssummer" x1="0%" x2="0%" y1="0%" y2="100%">
   <stop offset="0%" style="stop-color: #f618c7; stop-opacity:1"/>
   <stop offset="20%" style="stop-color: #94ffab; stop-opacity:1"/>
   <stop offset="50%" style="stop-color: #fbfd54; stop-opacity:1"/>
   <stop offset="100%" style="stop-color: #0f83ae; stop-opacity:1"/>
  </linearGradient>
 </defs>
 <path fill="url(#oomox)" class="ColorScheme-Text" d="M 11.071 14.143 C 11.637 13.705 15.266 10.632 15.631 10.282 C 16.11 9.822 16.114 9.701 15.691 8.47 C 14.765 5.775 13.136 2.427 12.403 1.846 C 12.098 1.604 11.535 1.608 11.139 1.853 C 10.587 2.197 10.612 2.659 11.24 3.756 C 11.466 4.151 11.652 4.634 11.652 4.667 C 11.652 4.7 11.573 4.727 11.477 4.727 C 11.354 4.727 11.073 4.379 10.527 3.55 C 9.696 2.287 9.456 2.087 8.91 2.197 C 8.499 2.28 8.03 2.598 7.875 2.899 C 7.697 3.247 7.77 3.423 8.602 4.632 C 9.114 5.375 9.253 5.641 9.174 5.721 C 9.116 5.78 9.04 5.827 9.004 5.827 C 8.968 5.827 8.503 5.229 7.97 4.498 C 7.629 4.031 7.363 3.688 7.165 3.46 C 6.824 2.995 6.5 3.139 6.082 3.293 C 5.782 3.441 5.479 3.653 5.33 3.85 C 4.979 4.313 5.031 4.606 5.607 5.415 C 5.884 5.805 6.296 6.351 6.521 6.63 C 6.916 7.118 7.012 7.462 6.774 7.541 C 6.635 7.586 6.707 7.666 4.056 4.55 C 2.415 2.62 1.644 1.781 1.451 1.713 C 1.088 1.585 0.692 1.752 0.305 2.198 C -0.269 2.856 -0.336 2.739 2.89 6.67 C 4.473 8.599 5.809 10.23 5.858 10.295 C 6.041 10.533 5.547 10.25 4.682 9.961 C 3.953 9.717 3.689 9.671 3.212 9.701 C 2.422 9.767 2.062 10.202 2.045 10.803 C 2.033 11.222 2.435 11.626 2.927 11.877 C 3.208 12.021 6.59 13.29 9.151 14.062 C 10.27 14.399 10.716 14.418 11.071 14.143 L 11.071 14.143 Z"/>
</svg>
