<svg xmlns="http://www.w3.org/2000/svg" width="16" height="16" version="1.1">
 <defs>
   <style id="current-color-scheme" type="text/css">
   .ColorScheme-Text { color: #00aa00; } .ColorScheme-Highlight { color:#5294e2; }
  </style>
  <linearGradient id="arrongin" x1="0%" x2="0%" y1="0%" y2="100%">
   <stop offset="0%" style="stop-color:#dd9b44; stop-opacity:1"/>
   <stop offset="100%" style="stop-color:#ad6c16; stop-opacity:1"/>
  </linearGradient>
  <linearGradient id="aurora" x1="0%" x2="0%" y1="0%" y2="100%">
   <stop offset="0%" style="stop-color:#09D4DF; stop-opacity:1"/>
   <stop offset="100%" style="stop-color:#9269F4; stop-opacity:1"/>
  </linearGradient>
  <linearGradient id="cyberneon" x1="0%" x2="0%" y1="0%" y2="100%">
    <stop offset="0" style="stop-color:#0abdc6; stop-opacity:1"/>
    <stop offset="1" style="stop-color:#ea00d9; stop-opacity:1"/>
  </linearGradient>
  <linearGradient id="fitdance" x1="0%" x2="0%" y1="0%" y2="100%">
   <stop offset="0%" style="stop-color:#1AD6AB; stop-opacity:1"/>
   <stop offset="100%" style="stop-color:#329DB6; stop-opacity:1"/>
  </linearGradient>
  <linearGradient id="oomox" x1="0%" x2="0%" y1="0%" y2="100%">
   <stop offset="0%" style="stop-color:#00aa00; stop-opacity:1"/>
   <stop offset="100%" style="stop-color:#00cc00; stop-opacity:1"/>
  </linearGradient>
  <linearGradient id="rainblue" x1="0%" x2="0%" y1="0%" y2="100%">
   <stop offset="0%" style="stop-color:#00F260; stop-opacity:1"/>
   <stop offset="100%" style="stop-color:#0575E6; stop-opacity:1"/>
  </linearGradient>
  <linearGradient id="sunrise" x1="0%" x2="0%" y1="0%" y2="100%">
   <stop offset="0%" style="stop-color: #FF8501; stop-opacity:1"/>
   <stop offset="100%" style="stop-color: #FFCB01; stop-opacity:1"/>
  </linearGradient>
  <linearGradient id="telinkrin" x1="0%" x2="0%" y1="0%" y2="100%">
   <stop offset="0%" style="stop-color: #b2ced6; stop-opacity:1"/>
   <stop offset="100%" style="stop-color: #6da5b7; stop-opacity:1"/>
  </linearGradient>
  <linearGradient id="60spsycho" x1="0%" x2="0%" y1="0%" y2="100%">
   <stop offset="0%" style="stop-color: #df5940; stop-opacity:1"/>
   <stop offset="25%" style="stop-color: #d8d15f; stop-opacity:1"/>
   <stop offset="50%" style="stop-color: #e9882a; stop-opacity:1"/>
   <stop offset="100%" style="stop-color: #279362; stop-opacity:1"/>
  </linearGradient>
  <linearGradient id="90ssummer" x1="0%" x2="0%" y1="0%" y2="100%">
   <stop offset="0%" style="stop-color: #f618c7; stop-opacity:1"/>
   <stop offset="20%" style="stop-color: #94ffab; stop-opacity:1"/>
   <stop offset="50%" style="stop-color: #fbfd54; stop-opacity:1"/>
   <stop offset="100%" style="stop-color: #0f83ae; stop-opacity:1"/>
  </linearGradient>
 </defs>
 <path fill="url(#oomox)" class="ColorScheme-Text" d="M 7.154 0.001 C 6.997 -0.001 6.854 0.004 6.729 0.016 C 5.551 0.12 4.016 1.169 2.714 2.76 C 1.455 4.298 1.092 5.527 1.629 6.432 C 2.233 7.451 2.933 8.031 3.91 8.323 C 4.745 8.572 4.994 8.724 5.71 9.416 C 6.865 10.534 7.262 10.66 9.69 10.666 C 10.716 10.67 11.951 10.627 12.435 10.574 C 13.151 10.495 13.453 10.404 14.044 10.081 C 15.613 9.224 15.865 8.641 15.404 6.961 C 15.259 6.438 15.024 5.331 14.881 4.501 C 14.738 3.672 14.558 2.865 14.48 2.708 C 14.133 2.01 13.016 1.338 11.091 0.668 C 10.037 0.301 8.254 0.008 7.154 0 L 7.154 0.001 Z M 6.472 3.556 C 7.405 3.595 7.616 4.413 7.611 5.113 C 7.611 6.102 7.468 6.483 6.958 6.861 C 6.577 7.144 5.645 7.201 5.366 6.96 C 5.075 6.708 4.944 6.236 4.944 5.434 C 4.944 4.227 5.489 3.556 6.472 3.556 L 6.472 3.556 Z M 11.206 3.556 L 11.208 3.556 C 11.438 3.553 11.684 3.625 11.979 3.773 C 12.283 3.926 12.625 4.173 12.739 4.321 C 13.01 4.675 13.012 5.471 12.744 6.358 C 12.34 7.696 11.535 8.235 10.428 7.906 C 10.003 7.78 9.5 7.18 9.409 6.688 C 9.263 5.893 9.914 4.209 10.527 3.797 C 10.761 3.64 10.976 3.56 11.206 3.556 L 11.206 3.556 Z M 3.411 8.889 C 3.038 8.887 2.64 9.011 2.259 9.264 C 1.791 9.574 0.878 10.652 0.636 11.182 C 0.177 12.186 0.938 13.737 2.082 14.125 C 2.484 14.261 2.49 14.261 2.854 14.085 C 3.287 13.876 3.499 13.596 4.25 12.238 C 4.757 11.32 4.892 10.977 4.929 10.51 C 4.97 9.982 4.943 9.889 4.649 9.51 C 4.332 9.102 3.892 8.891 3.411 8.889 L 3.411 8.889 Z M 7.109 11.556 C 6.246 11.556 5.633 12.098 5.234 13.21 C 4.888 14.174 4.849 14.993 5.135 15.279 C 5.634 15.779 7.481 16.182 8.045 15.915 C 8.28 15.803 8.353 15.637 8.465 14.96 C 8.572 14.312 8.423 12.864 8.192 12.306 C 7.987 11.807 7.622 11.556 7.109 11.556 L 7.109 11.556 Z M 11.157 11.556 C 11.08 11.555 10.99 11.559 10.883 11.567 C 10.244 11.616 9.898 11.833 9.59 12.381 C 9.384 12.747 9.365 12.88 9.407 13.621 C 9.46 14.544 9.603 15.017 9.852 15.086 C 10.12 15.16 11.323 15.052 11.852 14.905 C 12.501 14.726 12.944 14.372 12.944 14.035 C 12.944 13.676 12.008 11.967 11.678 11.725 C 11.513 11.603 11.389 11.557 11.157 11.555 L 11.157 11.556 Z"/>
</svg>
