<svg xmlns="http://www.w3.org/2000/svg" width="16" height="16" version="1.1">
 <defs>
   <style id="current-color-scheme" type="text/css">
   .ColorScheme-Text { color: #00aa00; } .ColorScheme-Highlight { color:#5294e2; }
  </style>
  <linearGradient id="arrongin" x1="0%" x2="0%" y1="0%" y2="100%">
   <stop offset="0%" style="stop-color:#dd9b44; stop-opacity:1"/>
   <stop offset="100%" style="stop-color:#ad6c16; stop-opacity:1"/>
  </linearGradient>
  <linearGradient id="aurora" x1="0%" x2="0%" y1="0%" y2="100%">
   <stop offset="0%" style="stop-color:#09D4DF; stop-opacity:1"/>
   <stop offset="100%" style="stop-color:#9269F4; stop-opacity:1"/>
  </linearGradient>
  <linearGradient id="cyberneon" x1="0%" x2="0%" y1="0%" y2="100%">
    <stop offset="0" style="stop-color:#0abdc6; stop-opacity:1"/>
    <stop offset="1" style="stop-color:#ea00d9; stop-opacity:1"/>
  </linearGradient>
  <linearGradient id="fitdance" x1="0%" x2="0%" y1="0%" y2="100%">
   <stop offset="0%" style="stop-color:#1AD6AB; stop-opacity:1"/>
   <stop offset="100%" style="stop-color:#329DB6; stop-opacity:1"/>
  </linearGradient>
  <linearGradient id="oomox" x1="0%" x2="0%" y1="0%" y2="100%">
   <stop offset="0%" style="stop-color:#00aa00; stop-opacity:1"/>
   <stop offset="100%" style="stop-color:#00cc00; stop-opacity:1"/>
  </linearGradient>
  <linearGradient id="rainblue" x1="0%" x2="0%" y1="0%" y2="100%">
   <stop offset="0%" style="stop-color:#00F260; stop-opacity:1"/>
   <stop offset="100%" style="stop-color:#0575E6; stop-opacity:1"/>
  </linearGradient>
  <linearGradient id="sunrise" x1="0%" x2="0%" y1="0%" y2="100%">
   <stop offset="0%" style="stop-color: #FF8501; stop-opacity:1"/>
   <stop offset="100%" style="stop-color: #FFCB01; stop-opacity:1"/>
  </linearGradient>
  <linearGradient id="telinkrin" x1="0%" x2="0%" y1="0%" y2="100%">
   <stop offset="0%" style="stop-color: #b2ced6; stop-opacity:1"/>
   <stop offset="100%" style="stop-color: #6da5b7; stop-opacity:1"/>
  </linearGradient>
  <linearGradient id="60spsycho" x1="0%" x2="0%" y1="0%" y2="100%">
   <stop offset="0%" style="stop-color: #df5940; stop-opacity:1"/>
   <stop offset="25%" style="stop-color: #d8d15f; stop-opacity:1"/>
   <stop offset="50%" style="stop-color: #e9882a; stop-opacity:1"/>
   <stop offset="100%" style="stop-color: #279362; stop-opacity:1"/>
  </linearGradient>
  <linearGradient id="90ssummer" x1="0%" x2="0%" y1="0%" y2="100%">
   <stop offset="0%" style="stop-color: #f618c7; stop-opacity:1"/>
   <stop offset="20%" style="stop-color: #94ffab; stop-opacity:1"/>
   <stop offset="50%" style="stop-color: #fbfd54; stop-opacity:1"/>
   <stop offset="100%" style="stop-color: #0f83ae; stop-opacity:1"/>
  </linearGradient>
 </defs>
 <path fill="url(#oomox)" class="ColorScheme-Text" d="M 3.994 1 C 2.736 1.014 1.815 0.969 1.063 1.385 C 0.686 1.592 0.389 1.944 0.225 2.383 C 0.06 2.821 0 3.342 0 4 L 0 12 C 0 12.658 0.06 13.179 0.225 13.617 C 0.389 14.056 0.686 14.408 1.063 14.615 C 1.815 15.031 2.736 14.985 3.994 15 L 3.998 15 L 5.496 15 C 4.478 14.262 3.698 13.217 3.299 12 L 1 12 L 1 4 C 1 3.408 1.063 2.994 1.16 2.734 C 1.258 2.474 1.362 2.363 1.545 2.262 C 1.911 2.06 2.741 2.015 4 2 L 12 2 C 13.259 2.015 14.087 2.06 14.453 2.262 C 14.637 2.363 14.742 2.474 14.84 2.734 C 14.937 2.994 15 3.408 15 4 L 15 10.146 L 15 12 L 14.631 12 C 14.482 12.389 14.304 12.765 14.094 13.119 L 15.307 14.332 C 15.506 14.138 15.67 13.898 15.775 13.617 C 15.94 13.179 16 12.658 16 12 L 16 4 C 16 3.342 15.94 2.821 15.775 2.383 C 15.611 1.944 15.314 1.592 14.938 1.385 C 14.185 0.969 13.264 1.015 12.006 1 L 12.002 1 L 3.998 1 L 3.994 1 Z M 6.695 12 C 7.234 12.672 8.055 13.105 9 13.105 C 9.946 13.105 10.766 12.673 11.305 12 L 10.053 12 L 6.959 12 L 6.695 12 Z"/>
 <path fill="url(#oomox)" class="ColorScheme-Text" d="M 6 2 L 3.037 7.926 L 1 12 L 3.299 12 C 3.107 11.415 3 10.793 3 10.146 C 3 7.748 4.432 5.671 6.48 4.713 C 6.847 4.28 7.388 4 8 4 C 8.277 4 8.541 4.056 8.781 4.158 C 8.854 4.155 8.926 4.147 9 4.147 C 10.258 4.147 11.427 4.542 12.395 5.211 L 14 2 L 6 2 Z M 9.559 7.24 C 9.192 7.7 8.634 8 8 8 C 7.705 8 7.426 7.933 7.174 7.818 C 6.485 8.357 6.039 9.188 6.039 10.146 C 6.039 10.857 6.29 11.494 6.695 12 L 9 12 L 11.014 7.973 C 10.617 7.605 10.119 7.344 9.559 7.24 L 9.559 7.24 Z"/>
 <path fill="url(#oomox)" class="ColorScheme-Text" d="M 9 5 C 6.245 5 4 7.245 4 10 C 4 12.755 6.245 15 9 15 C 11.755 15 14 12.755 14 10 C 14 7.245 11.755 5 9 5 Z M 9 6.039 C 11.193 6.039 12.961 7.807 12.961 10 C 12.961 12.193 11.193 13.961 9 13.961 C 6.807 13.961 5.039 12.193 5.039 10 C 5.039 7.807 6.807 6.039 9 6.039 Z"/>
 <path fill="url(#oomox)" class="ColorScheme-Text" fill-rule="evenodd" d="M 12.354 12.646 L 11.646 13.354 L 14.146 15.854 L 14.854 15.146 L 12.354 12.646 Z"/>
</svg>
