<svg xmlns="http://www.w3.org/2000/svg" width="16" height="16" version="1.1">
 <defs>
   <style id="current-color-scheme" type="text/css">
   .ColorScheme-Text { color: #00aa00; } .ColorScheme-Highlight { color:#5294e2; }
  </style>
  <linearGradient id="arrongin" x1="0%" x2="0%" y1="0%" y2="100%">
   <stop offset="0%" style="stop-color:#dd9b44; stop-opacity:1"/>
   <stop offset="100%" style="stop-color:#ad6c16; stop-opacity:1"/>
  </linearGradient>
  <linearGradient id="aurora" x1="0%" x2="0%" y1="0%" y2="100%">
   <stop offset="0%" style="stop-color:#09D4DF; stop-opacity:1"/>
   <stop offset="100%" style="stop-color:#9269F4; stop-opacity:1"/>
  </linearGradient>
  <linearGradient id="cyberneon" x1="0%" x2="0%" y1="0%" y2="100%">
    <stop offset="0" style="stop-color:#0abdc6; stop-opacity:1"/>
    <stop offset="1" style="stop-color:#ea00d9; stop-opacity:1"/>
  </linearGradient>
  <linearGradient id="fitdance" x1="0%" x2="0%" y1="0%" y2="100%">
   <stop offset="0%" style="stop-color:#1AD6AB; stop-opacity:1"/>
   <stop offset="100%" style="stop-color:#329DB6; stop-opacity:1"/>
  </linearGradient>
  <linearGradient id="oomox" x1="0%" x2="0%" y1="0%" y2="100%">
   <stop offset="0%" style="stop-color:#00aa00; stop-opacity:1"/>
   <stop offset="100%" style="stop-color:#00cc00; stop-opacity:1"/>
  </linearGradient>
  <linearGradient id="rainblue" x1="0%" x2="0%" y1="0%" y2="100%">
   <stop offset="0%" style="stop-color:#00F260; stop-opacity:1"/>
   <stop offset="100%" style="stop-color:#0575E6; stop-opacity:1"/>
  </linearGradient>
  <linearGradient id="sunrise" x1="0%" x2="0%" y1="0%" y2="100%">
   <stop offset="0%" style="stop-color: #FF8501; stop-opacity:1"/>
   <stop offset="100%" style="stop-color: #FFCB01; stop-opacity:1"/>
  </linearGradient>
  <linearGradient id="telinkrin" x1="0%" x2="0%" y1="0%" y2="100%">
   <stop offset="0%" style="stop-color: #b2ced6; stop-opacity:1"/>
   <stop offset="100%" style="stop-color: #6da5b7; stop-opacity:1"/>
  </linearGradient>
  <linearGradient id="60spsycho" x1="0%" x2="0%" y1="0%" y2="100%">
   <stop offset="0%" style="stop-color: #df5940; stop-opacity:1"/>
   <stop offset="25%" style="stop-color: #d8d15f; stop-opacity:1"/>
   <stop offset="50%" style="stop-color: #e9882a; stop-opacity:1"/>
   <stop offset="100%" style="stop-color: #279362; stop-opacity:1"/>
  </linearGradient>
  <linearGradient id="90ssummer" x1="0%" x2="0%" y1="0%" y2="100%">
   <stop offset="0%" style="stop-color: #f618c7; stop-opacity:1"/>
   <stop offset="20%" style="stop-color: #94ffab; stop-opacity:1"/>
   <stop offset="50%" style="stop-color: #fbfd54; stop-opacity:1"/>
   <stop offset="100%" style="stop-color: #0f83ae; stop-opacity:1"/>
  </linearGradient>
 </defs>
 <path fill="url(#oomox)" class="ColorScheme-Text" d="M 14.845 10.238 L 13.946 11.321 C 13.805 11.493 13.47 11.561 13.272 11.459 L 10.574 10.072 C 10.568 10.068 10.562 10.065 10.556 10.062 C 10.562 10.058 10.568 10.055 10.574 10.052 L 12.864 8.823 C 13.103 8.696 13.583 8.696 13.823 8.822 L 14.073 8.955 C 14.386 9.121 14.8 9.453 14.96 9.666 C 15.027 9.757 15.017 10.03 14.845 10.238 Z M 11.064 14.798 C 10.925 14.968 10.602 15.029 10.409 14.924 L 10.292 14.859 L 9.853 14.615 C 9.82 14.599 9.799 14.582 9.786 14.571 C 9.799 14.557 9.819 14.541 9.849 14.521 L 12.814 12.692 L 11.064 14.798 Z M 5.863 15.238 C 5.566 15.238 5.121 15.028 4.931 14.798 L 4.122 13.824 C 4.071 13.759 4.048 13.691 4.06 13.629 C 4.072 13.567 4.119 13.512 4.191 13.474 L 4.729 13.185 C 4.846 13.123 5.016 13.086 5.198 13.086 C 5.381 13.086 5.562 13.126 5.68 13.191 L 9.397 15.238 L 5.863 15.238 Z M 1.918 11.163 L 4.368 12.478 C 4.38 12.485 4.391 12.491 4.399 12.495 C 4.391 12.501 4.38 12.507 4.368 12.512 L 3.831 12.801 C 3.765 12.835 3.684 12.854 3.597 12.854 C 3.429 12.854 3.26 12.784 3.167 12.672 L 1.918 11.163 Z M 1.135 9.535 L 2.752 7.378 C 2.881 7.205 3.193 7.132 3.387 7.233 L 4.737 7.927 C 4.745 7.931 4.751 7.934 4.757 7.938 C 4.751 7.942 4.745 7.946 4.737 7.949 L 1.627 9.627 C 1.447 9.723 1.22 9.785 1.046 9.785 C 1.032 9.785 1.021 9.785 1.009 9.783 C 1.023 9.725 1.059 9.635 1.135 9.535 Z M 3.649 6.181 L 4.884 4.536 C 4.971 4.422 5.131 4.347 5.295 4.347 C 5.373 4.347 5.448 4.364 5.51 4.397 L 6.623 4.99 L 6.624 4.99 L 8.414 5.943 C 8.416 5.943 8.417 5.945 8.419 5.946 C 8.429 5.95 8.437 5.956 8.444 5.96 C 8.436 5.965 8.427 5.971 8.417 5.976 L 6.057 7.241 C 5.935 7.305 5.75 7.344 5.561 7.344 C 5.376 7.344 5.204 7.309 5.086 7.249 L 3.736 6.554 C 3.66 6.516 3.61 6.457 3.594 6.39 C 3.579 6.323 3.599 6.25 3.649 6.181 Z M 5.791 3.358 C 6.622 2.308 7.65 1.108 8.02 0.804 C 8.244 0.961 8.719 1.446 9.126 1.944 C 9.179 2.008 9.201 2.077 9.187 2.139 C 9.176 2.201 9.129 2.254 9.057 2.295 L 6.451 3.679 C 6.215 3.749 5.902 3.742 5.764 3.669 C 5.733 3.652 5.716 3.631 5.709 3.597 C 5.698 3.546 5.714 3.456 5.791 3.358 Z M 10.925 4.289 C 10.976 4.357 10.996 4.433 10.981 4.502 C 10.965 4.573 10.916 4.633 10.84 4.675 L 9.732 5.268 C 9.495 5.396 9.016 5.396 8.776 5.271 L 8.775 5.269 L 6.981 4.315 C 6.971 4.31 6.961 4.305 6.953 4.299 C 6.961 4.295 6.972 4.289 6.981 4.283 L 9.417 2.97 C 9.606 2.869 9.911 2.937 10.04 3.108 L 10.925 4.289 Z M 13.58 7.828 L 12.866 7.447 C 12.863 7.447 12.863 7.447 12.863 7.445 L 10.096 5.973 C 10.095 5.972 10.094 5.972 10.092 5.972 C 10.082 5.966 10.073 5.962 10.067 5.956 C 10.073 5.952 10.083 5.946 10.094 5.94 L 11.2 5.346 C 11.389 5.246 11.695 5.315 11.824 5.484 L 13.58 7.828 Z M 9.718 9.483 C 9.535 9.483 9.362 9.449 9.244 9.387 L 6.417 7.934 C 6.411 7.93 6.404 7.927 6.398 7.923 C 6.404 7.921 6.411 7.917 6.417 7.913 L 8.776 6.649 C 9.015 6.522 9.495 6.52 9.735 6.646 L 9.736 6.646 L 12.51 8.124 C 12.519 8.126 12.525 8.13 12.532 8.135 C 12.524 8.14 12.514 8.145 12.504 8.151 L 10.214 9.379 C 10.092 9.444 9.906 9.483 9.718 9.483 Z M 12.494 11.916 C 12.516 11.93 12.535 11.941 12.548 11.951 C 12.535 11.962 12.519 11.975 12.496 11.99 L 9.449 13.872 C 9.228 14.009 8.769 14.019 8.541 13.893 L 6.048 12.521 C 6.034 12.514 6.021 12.507 6.012 12.5 C 6.022 12.493 6.034 12.487 6.048 12.478 L 9.255 10.759 C 9.495 10.631 9.984 10.628 10.225 10.751 L 11.227 11.266 L 12.494 11.916 Z M 1.986 10.332 C 1.975 10.328 1.964 10.322 1.957 10.316 C 1.966 10.311 1.976 10.305 1.988 10.297 L 5.099 8.622 C 5.337 8.493 5.827 8.488 6.067 8.613 L 8.894 10.067 C 8.901 10.069 8.907 10.072 8.913 10.077 C 8.907 10.078 8.901 10.082 8.894 10.087 L 5.688 11.805 C 5.449 11.935 4.968 11.935 4.729 11.805 L 1.986 10.332 Z M 15.571 9.207 C 15.442 9.036 15.222 8.832 14.983 8.645 C 14.983 8.426 14.836 8.229 14.77 8.14 L 12.434 5.026 C 12.264 4.802 12.016 4.644 11.736 4.575 C 11.768 4.317 11.699 4.049 11.535 3.83 L 10.649 2.649 C 10.479 2.421 10.227 2.263 9.943 2.194 C 9.968 1.938 9.892 1.674 9.716 1.46 C 8.52 0.001 8.126 0.001 7.998 0.001 C 7.814 0.001 7.473 0.001 5.193 2.885 C 5.015 3.11 4.934 3.376 4.952 3.63 C 4.68 3.703 4.439 3.858 4.273 4.079 L 3.039 5.723 C 2.875 5.943 2.808 6.207 2.839 6.465 C 2.559 6.536 2.311 6.694 2.141 6.921 L 0.524 9.077 C 0.293 9.384 0.197 9.725 0.26 10.008 C 0.274 10.071 0.297 10.128 0.325 10.18 C 0.31 10.414 0.481 10.625 0.564 10.724 L 2.58 13.158 C 2.759 13.373 3.017 13.524 3.302 13.586 C 3.282 13.841 3.36 14.099 3.536 14.31 L 4.344 15.285 C 4.682 15.693 5.334 15.999 5.863 15.999 L 10.132 15.999 C 10.523 15.999 10.704 15.869 10.787 15.726 C 11.128 15.691 11.443 15.536 11.652 15.287 L 13.585 12.958 C 13.729 12.784 13.946 12.476 13.976 12.184 C 14.194 12.106 14.392 11.981 14.534 11.808 L 15.431 10.724 C 15.808 10.271 15.868 9.605 15.571 9.207 Z"/>
</svg>
