<svg xmlns="http://www.w3.org/2000/svg" width="16" height="16" version="1.1">
 <defs>
   <style id="current-color-scheme" type="text/css">
   .ColorScheme-Text { color: #00aa00; } .ColorScheme-Highlight { color:#5294e2; }
  </style>
  <linearGradient id="arrongin" x1="0%" x2="0%" y1="0%" y2="100%">
   <stop offset="0%" style="stop-color:#dd9b44; stop-opacity:1"/>
   <stop offset="100%" style="stop-color:#ad6c16; stop-opacity:1"/>
  </linearGradient>
  <linearGradient id="aurora" x1="0%" x2="0%" y1="0%" y2="100%">
   <stop offset="0%" style="stop-color:#09D4DF; stop-opacity:1"/>
   <stop offset="100%" style="stop-color:#9269F4; stop-opacity:1"/>
  </linearGradient>
  <linearGradient id="cyberneon" x1="0%" x2="0%" y1="0%" y2="100%">
    <stop offset="0" style="stop-color:#0abdc6; stop-opacity:1"/>
    <stop offset="1" style="stop-color:#ea00d9; stop-opacity:1"/>
  </linearGradient>
  <linearGradient id="fitdance" x1="0%" x2="0%" y1="0%" y2="100%">
   <stop offset="0%" style="stop-color:#1AD6AB; stop-opacity:1"/>
   <stop offset="100%" style="stop-color:#329DB6; stop-opacity:1"/>
  </linearGradient>
  <linearGradient id="oomox" x1="0%" x2="0%" y1="0%" y2="100%">
   <stop offset="0%" style="stop-color:#00aa00; stop-opacity:1"/>
   <stop offset="100%" style="stop-color:#00cc00; stop-opacity:1"/>
  </linearGradient>
  <linearGradient id="rainblue" x1="0%" x2="0%" y1="0%" y2="100%">
   <stop offset="0%" style="stop-color:#00F260; stop-opacity:1"/>
   <stop offset="100%" style="stop-color:#0575E6; stop-opacity:1"/>
  </linearGradient>
  <linearGradient id="sunrise" x1="0%" x2="0%" y1="0%" y2="100%">
   <stop offset="0%" style="stop-color: #FF8501; stop-opacity:1"/>
   <stop offset="100%" style="stop-color: #FFCB01; stop-opacity:1"/>
  </linearGradient>
  <linearGradient id="telinkrin" x1="0%" x2="0%" y1="0%" y2="100%">
   <stop offset="0%" style="stop-color: #b2ced6; stop-opacity:1"/>
   <stop offset="100%" style="stop-color: #6da5b7; stop-opacity:1"/>
  </linearGradient>
  <linearGradient id="60spsycho" x1="0%" x2="0%" y1="0%" y2="100%">
   <stop offset="0%" style="stop-color: #df5940; stop-opacity:1"/>
   <stop offset="25%" style="stop-color: #d8d15f; stop-opacity:1"/>
   <stop offset="50%" style="stop-color: #e9882a; stop-opacity:1"/>
   <stop offset="100%" style="stop-color: #279362; stop-opacity:1"/>
  </linearGradient>
  <linearGradient id="90ssummer" x1="0%" x2="0%" y1="0%" y2="100%">
   <stop offset="0%" style="stop-color: #f618c7; stop-opacity:1"/>
   <stop offset="20%" style="stop-color: #94ffab; stop-opacity:1"/>
   <stop offset="50%" style="stop-color: #fbfd54; stop-opacity:1"/>
   <stop offset="100%" style="stop-color: #0f83ae; stop-opacity:1"/>
  </linearGradient>
 </defs>
 <path fill="url(#oomox)" class="ColorScheme-Text" d="m 5.386887,-2.75e-4 c -0.333486,0 -0.603012,0.26809 -0.603012,0.59904 0,0.13022 0.04955,0.24955 0.120583,0.34792 l -1.507535,1.7198 c -0.06023,-0.0161 -0.115624,-0.0403 -0.180894,-0.0403 -0.405536,0 -0.743723,0.33179 -0.743723,0.7343 0,0.0161 0.01935,0.0242 0.02016,0.0403 l -1.326618,0.86956 c -0.0978,-0.0677 -0.213468,-0.11571 -0.34171,-0.11571 -0.333485,0 -0.603011,0.2681 -0.603011,0.59904 0,0.20158 0.107318,0.37453 0.261281,0.48306 l -0.241204,4.48311 c -0.146949,0.0794 -0.241205,0.24713 -0.241205,0.425 0,0.25922 0.221007,0.46374 0.482409,0.46374 0.01411,0 0.02661,0.002 0.04032,0 l 3.296473,3.343 c -2.94e-4,0.008 0,0.0121 0,0.0201 0,0.25963 0.200889,0.4831 0.462304,0.4831 0.09272,0 0.188271,-0.0323 0.261322,-0.0774 l 1.809043,0.94684 c -0.0037,0.0282 -0.02016,0.0492 -0.02016,0.077 0,0.33099 0.269546,0.59905 0.603016,0.59905 0.312199,0 0.551444,-0.23948 0.582906,-0.54107 l 4.824097,-1.4099 c 0.109577,0.15158 0.300226,0.25116 0.502506,0.25116 0.333486,0 0.603012,-0.26809 0.603012,-0.599 0,-0.13989 -0.05971,-0.26527 -0.140699,-0.36727 l 2.090441,-4.57966 c 0.333446,0 0.603012,-0.2681 0.603012,-0.599 0,-0.29027 -0.206131,-0.52474 -0.48241,-0.57973 l -0.663322,-2.18358 c 0.104053,-0.0859 0.180893,-0.20278 0.180893,-0.34792 0,-0.25963 -0.221007,-0.46378 -0.482409,-0.46378 -0.02218,0 -0.0387,0.0161 -0.06031,0.0201 l -3.035161,-3.67148 c 0.0045,-0.0242 0.02016,-0.0512 0.02016,-0.0774 0,-0.25963 -0.221007,-0.46378 -0.482409,-0.46378 -0.155656,0 -0.275553,0.0782 -0.361827,0.19311 L 5.949811,0.407315 C 5.867491,0.173485 5.650593,0.001505 5.387001,0.001505 Z m 0.562809,0.81162 4.602993,0.17376 c 0.03024,0.10482 0.09293,0.19029 0.180893,0.25116 l -0.120581,0.52176 c -0.215403,0.05 -0.38642,0.19432 -0.48241,0.38662 L 4.98489,2.762995 5.3266,1.178455 c 0.02257,0.002 0.03709,0.0202 0.06031,0.0202 0.256846,0 0.475559,-0.16207 0.562809,-0.38662 z m 5.246207,0.46374 2.954754,3.57486 c -0.03104,0.0625 -0.06031,0.11892 -0.06031,0.19351 0,0.12981 0.05499,0.2435 0.140699,0.32857 l -0.241206,0.67632 -2.572847,-3.24637 c 0.05648,-0.1032 0.100501,-0.22213 0.100501,-0.34791 0,-0.31487 -0.200405,-0.57461 -0.482408,-0.67637 l 0.100501,-0.48305 c 0.02056,-0.008 0.041,-0.008 0.06031,-0.0202 z m -6.110528,0.0964 -0.321593,1.41066 -0.984915,0.1157 c -0.0056,-0.008 -0.01411,-0.0121 -0.02016,-0.0201 l 1.326618,-1.50726 z m 5.065309,1.60389 -1.487434,5.75839 c -0.04656,0.0121 -0.09712,0.0201 -0.140699,0.0403 L 4.703467,4.464915 6.492405,4.271805 c 0.08035,0.14594 0.242857,0.25116 0.42211,0.25116 0.261402,0 0.462312,-0.22334 0.462312,-0.48305 0,-0.0363 -0.0125,-0.0629 -0.02016,-0.0964 l 2.572854,-0.94689 0.221088,-0.0201 z m -1.105525,0.1157 -1.788938,0.65701 c -0.0868,-0.1032 -0.195568,-0.17415 -0.34171,-0.17415 -0.261403,0 -0.48241,0.20439 -0.48241,0.46378 0,0.008 -2.41e-4,0.0121 0,0.0201 L 4.663269,4.270285 4.803968,3.574645 9.04515,3.091515 Z m 1.909539,0.0964 2.793955,3.55554 -0.582915,1.62316 -3.497463,0.81158 C 9.616635,9.083455 9.547854,9.016495 9.467264,8.945945 Z m -6.39193,0.42512 -0.120582,0.56038 -0.442215,-0.50241 0.562817,-0.0581 z m -1.90954,0.19311 c 0.03588,0.0431 0.07603,0.0822 0.120622,0.1157 l -0.100505,0.56038 -1.266326,0.15481 c -0.0012,-0.008 0.0012,-0.0121 0,-0.0202 z m 0.522611,0.27051 c 0.01371,7.6e-4 0.0262,0 0.04032,0 0.01371,0 0.02661,7.6e-4 0.04031,0 l 0.281398,0.30921 -0.422118,0.0581 0.06031,-0.36727 z m 0.542713,0.50245 0.522611,0.57969 -0.241205,1.06278 c -0.251444,0.0121 -0.442207,0.21165 -0.442207,0.46378 0,0.14635 0.07519,0.26165 0.180894,0.34792 l -1.587928,2.39616 0.924617,-4.77293 z m -1.085421,0.1157 -1.005017,5.19801 c -0.178192,0.0363 -0.318085,0.15522 -0.402021,0.30922 l -0.281399,-0.058 c 0,-0.19472 -0.111511,-0.37332 -0.281398,-0.44448 L 0.9045,5.331995 c 0.267047,-0.0363 0.465792,-0.23745 0.502515,-0.5024 l 1.226124,-0.13559 z m 1.768837,0.67632 3.577871,3.99998 c -0.0069,0.0242 -0.01532,0.0516 -0.02016,0.077 l -5.788918,0.61839 c -0.03749,-0.0363 -0.07446,-0.0702 -0.120582,-0.0968 l 1.84924,-2.84059 c 0.03951,0.0121 0.07753,0.0202 0.120583,0.0202 0.261402,0 0.482409,-0.2044 0.482409,-0.46375 0,-0.18544 -0.12409,-0.34872 -0.281399,-0.42516 l 0.180894,-0.88886 z m 10.01,0.11571 c 0.0125,0.004 0.02741,-0.002 0.04031,0 l 0.542716,1.85505 -0.844219,-1.10144 0.261281,-0.75361 z m -0.522616,1.44924 0.84422,1.06278 -1.326629,0.30922 z m 0.90452,1.66183 -1.909541,4.15458 0.04032,-2.58935 c 0.201776,-0.0411 0.361826,-0.21287 0.361826,-0.42513 0,-0.17214 -0.115986,-0.31445 -0.261322,-0.38662 l 0.140696,-0.36727 1.628133,-0.38662 z m -1.849237,0.44443 -0.100501,0.25116 c -0.244591,0 -0.442212,0.20158 -0.442212,0.44444 0,0.20278 0.133484,0.37452 0.321593,0.42511 l -0.06031,2.9565 c -0.147473,0.0452 -0.266362,0.15925 -0.34171,0.28987 L 9.68834,12.829165 c 0,-0.25922 -0.221007,-0.46374 -0.482414,-0.46374 -0.254468,0 -0.471596,0.19432 -0.482409,0.44443 l -0.643213,0.15481 0.804014,-2.43478 c 0.439828,-0.008 0.808041,-0.33664 0.884418,-0.75361 l 3.175863,-0.7343 z m -4.884396,1.00485 c 0.05519,0.10079 0.13316,0.19754 0.221087,0.27051 l -0.924616,2.82129 -1.929641,0.48305 -3.115563,-2.91783 c 0.0044,-0.0121 0.01613,-0.0282 0.02016,-0.0403 l 5.728616,-0.61835 z m -6.974837,0.5024 0.08039,0.0202 c 0.0037,0.0242 -0.0065,0.0544 0,0.0774 l -0.08039,-0.0964 z m 0.482405,0.4831 c 0.05717,0.0202 0.1178,0.0403 0.180893,0.0403 0.0133,0 0.02701,7.6e-4 0.04031,0 l 2.63315,2.45409 c -0.04144,-0.0121 -0.09547,-0.0201 -0.1407,-0.0201 -0.09272,0 -0.168193,0.0322 -0.241204,0.0774 l -2.472353,-2.55073 z m 7.195945,1.971 c 0.06769,0.17738 0.239874,0.28986 0.442211,0.28986 0.196052,0 0.370374,-0.10199 0.442207,-0.27051 l 2.291447,0.50241 -4.462293,1.29467 0.542713,-1.64251 z m -1.467325,0.36727 -0.482414,1.44928 c -0.02661,0.004 -0.05519,0.0121 -0.08039,0.0202 l -1.145719,-1.06283 z m -2.412054,0.57973 0.301515,0.28987 -0.42211,-0.23182 c 6.05e-4,-0.0121 0,-0.0242 0,-0.0403 z"/>
</svg>