<svg xmlns="http://www.w3.org/2000/svg" width="16" height="16" version="1.1">
 <defs>
   <style id="current-color-scheme" type="text/css">
   .ColorScheme-Text { color: #cc00cc; } .ColorScheme-Highlight { color:#5294e2; }
  </style>
  <linearGradient id="arrongin" x1="0%" x2="0%" y1="0%" y2="100%">
   <stop offset="0%" style="stop-color:#dd9b44; stop-opacity:1"/>
   <stop offset="100%" style="stop-color:#ad6c16; stop-opacity:1"/>
  </linearGradient>
  <linearGradient id="aurora" x1="0%" x2="0%" y1="0%" y2="100%">
   <stop offset="0%" style="stop-color:#09D4DF; stop-opacity:1"/>
   <stop offset="100%" style="stop-color:#9269F4; stop-opacity:1"/>
  </linearGradient>
  <linearGradient id="cyberneon" x1="0%" x2="0%" y1="0%" y2="100%">
    <stop offset="0" style="stop-color:#0abdc6; stop-opacity:1"/>
    <stop offset="1" style="stop-color:#ea00d9; stop-opacity:1"/>
  </linearGradient>
  <linearGradient id="fitdance" x1="0%" x2="0%" y1="0%" y2="100%">
   <stop offset="0%" style="stop-color:#1AD6AB; stop-opacity:1"/>
   <stop offset="100%" style="stop-color:#329DB6; stop-opacity:1"/>
  </linearGradient>
  <linearGradient id="oomox" x1="0%" x2="0%" y1="0%" y2="100%">
   <stop offset="0%" style="stop-color:#efefe7; stop-opacity:1"/>
   <stop offset="100%" style="stop-color:#8f8f8b; stop-opacity:1"/>
  </linearGradient>
  <linearGradient id="rainblue" x1="0%" x2="0%" y1="0%" y2="100%">
   <stop offset="0%" style="stop-color:#00F260; stop-opacity:1"/>
   <stop offset="100%" style="stop-color:#0575E6; stop-opacity:1"/>
  </linearGradient>
  <linearGradient id="sunrise" x1="0%" x2="0%" y1="0%" y2="100%">
   <stop offset="0%" style="stop-color: #FF8501; stop-opacity:1"/>
   <stop offset="100%" style="stop-color: #FFCB01; stop-opacity:1"/>
  </linearGradient>
  <linearGradient id="telinkrin" x1="0%" x2="0%" y1="0%" y2="100%">
   <stop offset="0%" style="stop-color: #b2ced6; stop-opacity:1"/>
   <stop offset="100%" style="stop-color: #6da5b7; stop-opacity:1"/>
  </linearGradient>
  <linearGradient id="60spsycho" x1="0%" x2="0%" y1="0%" y2="100%">
   <stop offset="0%" style="stop-color: #df5940; stop-opacity:1"/>
   <stop offset="25%" style="stop-color: #d8d15f; stop-opacity:1"/>
   <stop offset="50%" style="stop-color: #e9882a; stop-opacity:1"/>
   <stop offset="100%" style="stop-color: #279362; stop-opacity:1"/>
  </linearGradient>
  <linearGradient id="90ssummer" x1="0%" x2="0%" y1="0%" y2="100%">
   <stop offset="0%" style="stop-color: #f618c7; stop-opacity:1"/>
   <stop offset="20%" style="stop-color: #94ffab; stop-opacity:1"/>
   <stop offset="50%" style="stop-color: #fbfd54; stop-opacity:1"/>
   <stop offset="100%" style="stop-color: #0f83ae; stop-opacity:1"/>
  </linearGradient>
 </defs>
 <path fill="currentColor" class="ColorScheme-Text" d="M 8 0.001 C 7.314 0.001 6.758 0.524 6.758 1.126 L 9.242 1.126 C 9.242 0.563 8.686 0 8 0 L 8 0.001 Z M 3.011 0.194 C 2.356 0.245 1.706 0.549 1.167 1.088 C 0.092 2.164 -0.124 3.72 0.953 4.794 L 4.856 0.893 C 4.316 0.355 3.665 0.143 3.01 0.194 L 3.011 0.194 Z M 12.504 0.194 C 12.018 0.26 11.547 0.491 11.144 0.893 L 15.047 4.795 C 16.124 3.72 15.908 2.165 14.833 1.088 C 14.161 0.415 13.311 0.084 12.504 0.194 Z M 8 1.864 C 4.29 1.864 1.283 4.87 1.283 8.58 C 1.283 10.806 2.375 12.773 4.04 13.997 L 3.555 15.433 C 3.488 15.647 3.598 15.876 3.807 15.957 C 4.091 16.081 4.307 15.906 4.37 15.783 L 5.011 14.598 C 5.94 15.059 6.963 15.298 8 15.297 C 9.073 15.297 10.089 15.045 10.99 14.599 L 11.63 15.783 C 11.693 15.907 11.909 16.081 12.193 15.958 C 12.474 15.833 12.491 15.562 12.445 15.433 L 11.96 13.997 C 13.627 12.774 14.717 10.806 14.717 8.581 C 14.717 4.871 11.71 1.864 8 1.864 Z M 7.379 3.494 L 7.379 3.922 C 7.379 4.135 7.491 4.332 7.67 4.446 C 7.628 4.51 7.601 4.583 7.593 4.659 L 7.437 7.785 C 7.181 7.969 7.029 8.265 7.03 8.58 C 7.03 9.119 7.461 9.551 8 9.551 C 8.034 9.551 8.063 9.534 8.097 9.532 L 10 11.221 C 10.106 11.315 10.375 11.388 10.601 11.162 C 10.827 10.937 10.752 10.67 10.659 10.561 L 8.971 8.62 L 8.971 8.58 C 8.971 8.236 8.793 7.94 8.524 7.765 L 8.407 4.659 C 8.399 4.583 8.373 4.509 8.33 4.446 C 8.51 4.333 8.62 4.135 8.621 3.922 L 8.621 3.494 C 10.924 3.774 12.771 5.591 13.086 7.882 L 12.659 7.882 C 12.399 7.866 12.152 7.996 12.018 8.218 C 11.884 8.441 11.884 8.72 12.018 8.942 C 12.152 9.165 12.399 9.295 12.659 9.279 L 13.086 9.279 C 12.776 11.545 10.965 13.356 8.699 13.667 L 8.699 13.239 C 8.706 13.023 8.611 12.816 8.444 12.679 C 8.277 12.543 8.055 12.491 7.845 12.541 C 7.52 12.613 7.292 12.906 7.301 13.239 L 7.301 13.667 C 5.035 13.356 3.224 11.545 2.914 9.279 L 3.341 9.279 C 3.727 9.279 4.04 8.966 4.04 8.58 C 4.04 8.195 3.727 7.882 3.341 7.882 L 2.914 7.882 C 3.229 5.591 5.076 3.774 7.379 3.494 Z"/>
</svg>
