<svg xmlns="http://www.w3.org/2000/svg" width="16" height="16" version="1.1">
 <defs>
   <style id="current-color-scheme" type="text/css">
   .ColorScheme-Text { color: #cc00cc; } .ColorScheme-Highlight { color:#5294e2; }
  </style>
  <linearGradient id="arrongin" x1="0%" x2="0%" y1="0%" y2="100%">
   <stop offset="0%" style="stop-color:#dd9b44; stop-opacity:1"/>
   <stop offset="100%" style="stop-color:#ad6c16; stop-opacity:1"/>
  </linearGradient>
  <linearGradient id="aurora" x1="0%" x2="0%" y1="0%" y2="100%">
   <stop offset="0%" style="stop-color:#09D4DF; stop-opacity:1"/>
   <stop offset="100%" style="stop-color:#9269F4; stop-opacity:1"/>
  </linearGradient>
  <linearGradient id="cyberneon" x1="0%" x2="0%" y1="0%" y2="100%">
    <stop offset="0" style="stop-color:#0abdc6; stop-opacity:1"/>
    <stop offset="1" style="stop-color:#ea00d9; stop-opacity:1"/>
  </linearGradient>
  <linearGradient id="fitdance" x1="0%" x2="0%" y1="0%" y2="100%">
   <stop offset="0%" style="stop-color:#1AD6AB; stop-opacity:1"/>
   <stop offset="100%" style="stop-color:#329DB6; stop-opacity:1"/>
  </linearGradient>
  <linearGradient id="oomox" x1="0%" x2="0%" y1="0%" y2="100%">
   <stop offset="0%" style="stop-color:#efefe7; stop-opacity:1"/>
   <stop offset="100%" style="stop-color:#8f8f8b; stop-opacity:1"/>
  </linearGradient>
  <linearGradient id="rainblue" x1="0%" x2="0%" y1="0%" y2="100%">
   <stop offset="0%" style="stop-color:#00F260; stop-opacity:1"/>
   <stop offset="100%" style="stop-color:#0575E6; stop-opacity:1"/>
  </linearGradient>
  <linearGradient id="sunrise" x1="0%" x2="0%" y1="0%" y2="100%">
   <stop offset="0%" style="stop-color: #FF8501; stop-opacity:1"/>
   <stop offset="100%" style="stop-color: #FFCB01; stop-opacity:1"/>
  </linearGradient>
  <linearGradient id="telinkrin" x1="0%" x2="0%" y1="0%" y2="100%">
   <stop offset="0%" style="stop-color: #b2ced6; stop-opacity:1"/>
   <stop offset="100%" style="stop-color: #6da5b7; stop-opacity:1"/>
  </linearGradient>
  <linearGradient id="60spsycho" x1="0%" x2="0%" y1="0%" y2="100%">
   <stop offset="0%" style="stop-color: #df5940; stop-opacity:1"/>
   <stop offset="25%" style="stop-color: #d8d15f; stop-opacity:1"/>
   <stop offset="50%" style="stop-color: #e9882a; stop-opacity:1"/>
   <stop offset="100%" style="stop-color: #279362; stop-opacity:1"/>
  </linearGradient>
  <linearGradient id="90ssummer" x1="0%" x2="0%" y1="0%" y2="100%">
   <stop offset="0%" style="stop-color: #f618c7; stop-opacity:1"/>
   <stop offset="20%" style="stop-color: #94ffab; stop-opacity:1"/>
   <stop offset="50%" style="stop-color: #fbfd54; stop-opacity:1"/>
   <stop offset="100%" style="stop-color: #0f83ae; stop-opacity:1"/>
  </linearGradient>
 </defs>
 <path fill="currentColor" class="ColorScheme-Text" d="M 15.997 10.075 C 15.997 10.025 16 9.989 16 9.938 L 16 9.089 C 15.175 8.828 13.97 8.475 13.207 7.941 C 13.789 7.531 14.599 7.135 16 6.81 L 16 6.062 C 16 5.925 15.992 5.823 15.991 5.692 C 14.634 6.014 13.539 6.579 12.311 7.354 C 11.949 7.07 11.722 6.826 11.432 6.531 C 11.338 6.704 11.11 7.193 11.028 7.322 C 11.33 7.617 11.456 7.79 11.697 7.965 C 11.407 8.173 11.403 8.231 10.71 8.843 C 10.855 9.117 10.934 9.385 11.079 9.652 C 11.414 9.291 11.668 9.002 12.391 8.522 C 13.392 9.048 14.251 9.593 15.997 10.075 L 15.997 10.075 Z M 10.164 9.014 C 10.045 9.285 9.969 9.467 9.792 9.871 C 10.474 11.217 10.571 11.791 11.202 12.938 C 11.471 13.395 12.075 13.068 11.844 12.633 C 11.206 11.345 10.824 10.429 10.164 9.014 Z M 4.653 13.084 C 4.353 13.594 3.656 13.357 4.046 12.565 C 4.73 11.047 6.268 7.262 7.101 5.395 C 7.343 4.83 7.989 5.194 7.797 5.668 C 6.831 7.902 5.535 11.255 4.653 13.084 Z M 8.835 10.815 C 8.572 11.252 7.875 10.941 8.265 10.15 C 8.949 8.631 10.487 4.846 11.319 2.98 C 11.562 2.414 12.208 2.778 12.016 3.252 C 11.05 5.486 9.717 8.987 8.835 10.815 Z M 7.228 10.529 C 6.964 11.113 6.305 10.839 6.694 10.048 C 7.378 8.53 7.666 7.612 8.499 5.746 C 8.741 5.181 9.387 5.544 9.195 6.019 C 8.229 8.252 8.11 8.701 7.228 10.529 L 7.228 10.529 Z M 0.003 5.94 C 0.003 5.985 0 6.017 0 6.062 L 0 6.886 C 0.831 7.149 2.042 7.511 2.799 8.041 C 2.216 8.452 1.404 8.847 0 9.173 L 0 9.938 C 0 10.069 0.007 10.166 0.009 10.292 C 1.369 9.97 2.465 9.404 3.694 8.627 C 4.056 8.912 4.284 9.155 4.573 9.45 C 4.668 9.277 4.895 8.788 4.978 8.66 C 4.675 8.364 4.549 8.191 4.308 8.017 C 4.598 7.809 4.602 7.75 5.296 7.138 C 5.151 6.865 5.072 6.596 4.927 6.33 C 4.591 6.69 4.337 6.98 3.614 7.459 C 2.625 6.939 1.711 6.416 0.003 5.94 L 0.003 5.94 Z M 5.811 6.791 C 5.93 6.521 6.005 6.338 6.183 5.935 C 5.501 4.588 5.403 4.015 4.772 2.868 C 4.504 2.411 3.899 2.737 4.131 3.173 C 4.768 4.461 5.15 5.376 5.811 6.791 Z"/>
</svg>
