<svg xmlns="http://www.w3.org/2000/svg" width="16" height="16" version="1.1">
 <defs>
   <style id="current-color-scheme" type="text/css">
   .ColorScheme-Text { color: #cc00cc; } .ColorScheme-Highlight { color:#5294e2; }
  </style>
  <linearGradient id="arrongin" x1="0%" x2="0%" y1="0%" y2="100%">
   <stop offset="0%" style="stop-color:#dd9b44; stop-opacity:1"/>
   <stop offset="100%" style="stop-color:#ad6c16; stop-opacity:1"/>
  </linearGradient>
  <linearGradient id="aurora" x1="0%" x2="0%" y1="0%" y2="100%">
   <stop offset="0%" style="stop-color:#09D4DF; stop-opacity:1"/>
   <stop offset="100%" style="stop-color:#9269F4; stop-opacity:1"/>
  </linearGradient>
  <linearGradient id="cyberneon" x1="0%" x2="0%" y1="0%" y2="100%">
    <stop offset="0" style="stop-color:#0abdc6; stop-opacity:1"/>
    <stop offset="1" style="stop-color:#ea00d9; stop-opacity:1"/>
  </linearGradient>
  <linearGradient id="fitdance" x1="0%" x2="0%" y1="0%" y2="100%">
   <stop offset="0%" style="stop-color:#1AD6AB; stop-opacity:1"/>
   <stop offset="100%" style="stop-color:#329DB6; stop-opacity:1"/>
  </linearGradient>
  <linearGradient id="oomox" x1="0%" x2="0%" y1="0%" y2="100%">
   <stop offset="0%" style="stop-color:#efefe7; stop-opacity:1"/>
   <stop offset="100%" style="stop-color:#8f8f8b; stop-opacity:1"/>
  </linearGradient>
  <linearGradient id="rainblue" x1="0%" x2="0%" y1="0%" y2="100%">
   <stop offset="0%" style="stop-color:#00F260; stop-opacity:1"/>
   <stop offset="100%" style="stop-color:#0575E6; stop-opacity:1"/>
  </linearGradient>
  <linearGradient id="sunrise" x1="0%" x2="0%" y1="0%" y2="100%">
   <stop offset="0%" style="stop-color: #FF8501; stop-opacity:1"/>
   <stop offset="100%" style="stop-color: #FFCB01; stop-opacity:1"/>
  </linearGradient>
  <linearGradient id="telinkrin" x1="0%" x2="0%" y1="0%" y2="100%">
   <stop offset="0%" style="stop-color: #b2ced6; stop-opacity:1"/>
   <stop offset="100%" style="stop-color: #6da5b7; stop-opacity:1"/>
  </linearGradient>
  <linearGradient id="60spsycho" x1="0%" x2="0%" y1="0%" y2="100%">
   <stop offset="0%" style="stop-color: #df5940; stop-opacity:1"/>
   <stop offset="25%" style="stop-color: #d8d15f; stop-opacity:1"/>
   <stop offset="50%" style="stop-color: #e9882a; stop-opacity:1"/>
   <stop offset="100%" style="stop-color: #279362; stop-opacity:1"/>
  </linearGradient>
  <linearGradient id="90ssummer" x1="0%" x2="0%" y1="0%" y2="100%">
   <stop offset="0%" style="stop-color: #f618c7; stop-opacity:1"/>
   <stop offset="20%" style="stop-color: #94ffab; stop-opacity:1"/>
   <stop offset="50%" style="stop-color: #fbfd54; stop-opacity:1"/>
   <stop offset="100%" style="stop-color: #0f83ae; stop-opacity:1"/>
  </linearGradient>
 </defs>
 <path fill="currentColor" class="ColorScheme-Text" fill-rule="evenodd" d="M 3.237 1.864 L 3.303 2.106 L 7.349 2.106 C 7.466 2.106 7.541 2.065 7.566 1.973 C 7.308 1.731 6.891 1.389 6.891 1.389 L 6.515 1.864 L 5.597 1.864 L 5.597 1.072 C 5.781 1.039 5.856 0.964 5.873 0.855 L 5.055 0.772 L 5.055 1.864 L 3.237 1.864 Z M 3.921 2.273 C 4.096 2.674 4.313 3.283 4.346 3.766 C 4.847 4.234 5.414 3.191 4.029 2.24 L 3.921 2.273 Z M 0.859 7.353 L 0.859 5.301 L 2.561 5.301 L 2.561 7.353 L 0.859 7.353 Z M 2.786 4.726 L 2.478 5.059 L 1.994 5.059 L 1.994 3.508 L 3.454 3.508 C 3.562 3.508 3.645 3.466 3.67 3.374 C 3.404 3.124 2.97 2.774 2.97 2.774 L 2.594 3.258 L 1.994 3.258 L 1.994 1.681 C 2.403 1.564 2.778 1.439 3.07 1.314 C 3.27 1.372 3.412 1.364 3.479 1.289 L 2.778 0.755 C 2.194 1.172 1.026 1.681 0 1.931 L 0.05 2.065 C 0.517 2.015 0.993 1.931 1.452 1.823 L 1.452 3.258 L 0.008 3.258 L 0.067 3.508 L 1.452 3.508 L 1.452 5.059 L 0.901 5.059 L 0.334 4.801 L 0.334 8.271 L 0.417 8.271 C 0.642 8.271 0.859 8.146 0.859 8.096 L 0.859 7.595 L 2.561 7.595 L 2.561 8.046 L 2.644 8.046 C 2.82 8.046 3.087 7.921 3.095 7.862 L 3.095 5.41 C 3.27 5.368 3.404 5.301 3.462 5.243 L 2.786 4.726 Z M 7.533 4.309 C 7.641 4.309 7.725 4.267 7.75 4.175 C 7.491 3.933 7.066 3.6 7.066 3.6 L 6.699 4.067 L 5.731 4.067 C 6.123 3.633 6.498 3.057 6.724 2.624 C 6.899 2.632 6.991 2.565 7.024 2.482 L 6.156 2.215 C 6.031 2.774 5.789 3.533 5.547 4.067 L 3.145 4.067 L 3.212 4.309 L 5.055 4.309 L 5.055 5.718 L 3.437 5.718 L 3.495 5.969 L 5.055 5.969 L 5.055 8.388 L 5.147 8.388 C 5.422 8.388 5.597 8.254 5.597 8.213 L 5.597 5.969 L 7.333 5.969 C 7.458 5.969 7.533 5.927 7.558 5.835 C 7.299 5.585 6.874 5.251 6.874 5.251 L 6.498 5.718 L 5.597 5.718 L 5.597 4.309 L 7.533 4.309 Z M 10.252 14.553 L 10.252 13.86 L 14.056 13.86 L 14.056 14.553 L 10.252 14.553 Z M 14.056 12.959 L 14.056 13.618 L 10.252 13.618 L 10.252 12.959 L 14.056 12.959 Z M 13.973 12.726 L 10.302 12.726 L 9.718 12.459 L 9.718 15.245 L 9.785 15.245 C 10.019 15.245 10.252 15.12 10.252 15.07 L 10.252 14.803 L 14.056 14.803 L 14.056 15.228 L 14.14 15.228 C 14.315 15.228 14.59 15.103 14.599 15.053 L 14.599 13.068 C 14.765 13.034 14.899 12.968 14.957 12.901 L 14.273 12.384 L 13.973 12.726 Z M 12.371 10.106 L 12.371 9.439 L 13.998 9.439 L 13.998 10.106 L 12.371 10.106 Z M 12.371 8.555 L 13.998 8.555 L 13.998 9.205 L 12.371 9.205 L 12.371 8.555 Z M 14.073 10.674 C 14.257 10.674 14.523 10.548 14.532 10.49 L 14.532 9.439 L 15.791 9.439 C 15.908 9.439 15.975 9.406 16 9.314 C 15.758 9.08 15.341 8.747 15.341 8.747 L 14.991 9.205 L 14.532 9.205 L 14.532 8.647 C 14.69 8.613 14.815 8.546 14.874 8.488 L 14.215 7.979 L 13.914 8.304 L 12.371 8.304 L 12.371 7.937 C 12.571 7.904 12.647 7.821 12.672 7.704 L 11.829 7.612 L 11.829 8.304 L 9.385 8.304 L 9.46 8.555 L 11.829 8.555 L 11.829 9.205 L 8.359 9.205 L 8.425 9.439 L 11.829 9.439 L 11.829 10.106 L 9.335 10.106 L 9.41 10.357 L 11.829 10.357 L 11.829 10.991 L 9.084 10.991 L 9.143 11.241 L 11.829 11.241 L 11.829 11.9 L 8.417 11.9 L 8.492 12.142 L 15.708 12.142 C 15.825 12.142 15.908 12.1 15.933 12.008 C 15.65 11.758 15.233 11.441 15.233 11.441 L 14.849 11.9 L 12.371 11.9 L 12.371 11.241 L 15.199 11.241 C 15.299 11.241 15.383 11.199 15.408 11.107 C 15.149 10.865 14.732 10.557 14.732 10.557 L 14.373 10.991 L 12.371 10.991 L 12.371 10.357 L 13.998 10.357 L 13.998 10.674 L 14.073 10.674 Z"/>
</svg>
