/* XPM */
static char * shade_active_xpm[] = {
"44 38 157 2",
"  	c None",
". 	c #040302",
"+ 	c #040403",
"@ 	c #050403",
"# 	c #040402",
"$ 	c #040301",
"% 	c #010101",
"& 	c #020201",
"* 	c #030302",
"= 	c #050503",
"- 	c #070604",
"; 	c #090805",
"> 	c #0B0A06",
", 	c #0C0B06",
"' 	c #0A0906",
") 	c #080705",
"! 	c #060604",
"~ 	c #020101",
"{ 	c #121009",
"] 	c #18150D",
"^ 	c #1E1B10",
"/ 	c #221D12",
"( 	c #231F13",
"_ 	c #242013",
": 	c #241F13",
"< 	c #211D12",
"[ 	c #1E1A10",
"} 	c #18150C",
"| 	c #0B0906",
"1 	c #060503",
"2 	c #080704",
"3 	c #0E0C08",
"4 	c #16130C",
"5 	c #1D1A10",
"6 	c #242014",
"7 	c #2A2618",
"8 	c #2E2819",
"9 	c #302A1A",
"0 	c #302B1B",
"a 	c #302A1B",
"b 	c #2F2A1A",
"c 	c #2A2517",
"d 	c #15130C",
"e 	c #0E0C07",
"f 	c #070603",
"g 	c #201C12",
"h 	c #262115",
"i 	c #2B2618",
"j 	c #322C1C",
"k 	c #332D1C",
"l 	c #342E1D",
"m 	c #332E1D",
"n 	c #252115",
"o 	c #201C11",
"p 	c #16140D",
"q 	c #241F14",
"r 	c #282316",
"s 	c #2C2718",
"t 	c #312B1B",
"u 	c #312C1B",
"v 	c #312C1C",
"w 	c #2F291A",
"x 	c #272316",
"y 	c #16140C",
"z 	c #030201",
"A 	c #12100A",
"B 	c #1B180F",
"C 	c #211D13",
"D 	c #292517",
"E 	c #2C2719",
"F 	c #2D2719",
"G 	c #262215",
"H 	c #211E13",
"I 	c #13100A",
"J 	c #0A0905",
"K 	c #030202",
"L 	c #0C0B07",
"M 	c #15120C",
"N 	c #1D1910",
"O 	c #221E13",
"P 	c #252015",
"Q 	c #221F13",
"R 	c #0D0C07",
"S 	c #13110B",
"T 	c #19160E",
"U 	c #050402",
"V 	c #1C180F",
"W 	c #1E1A11",
"X 	c #1E1B11",
"Y 	c #1F1B11",
"Z 	c #1F1C11",
"` 	c #1F1C12",
" .	c #030301",
"..	c #0F0D08",
"+.	c #110F09",
"@.	c #17150D",
"#.	c #1A170F",
"$.	c #1C1910",
"%.	c #1D1A11",
"&.	c #1A170E",
"*.	c #18160E",
"=.	c #14120B",
"-.	c #0E0D07",
";.	c #110F0A",
">.	c #0E0D08",
",.	c #0C0A07",
"'.	c #100E09",
").	c #13110A",
"!.	c #17140D",
"~.	c #19160D",
"{.	c #18150E",
"].	c #11100A",
"^.	c #0F0E09",
"/.	c #0D0C08",
"(.	c #0B0A07",
"_.	c #0D0B07",
":.	c #0F0D09",
"<.	c #120F0A",
"[.	c #1C1810",
"}.	c #1C190F",
"|.	c #16130D",
"1.	c #100F09",
"2.	c #0E0D09",
"3.	c #201D12",
"4.	c #231F14",
"5.	c #15130B",
"6.	c #252014",
"7.	c #262216",
"8.	c #1B170F",
"9.	c #080805",
"0.	c #272215",
"a.	c #282416",
"b.	c #070704",
"c.	c #0F0D07",
"d.	c #272216",
"e.	c #2A2617",
"f.	c #2B2617",
"g.	c #282417",
"h.	c #17140C",
"i.	c #15120B",
"j.	c #1B190F",
"k.	c #252114",
"l.	c #2D2819",
"m.	c #0C0A06",
"n.	c #2A2518",
"o.	c #2E291A",
"p.	c #292417",
"q.	c #2C2819",
"r.	c #2D291A",
"s.	c #292416",
"t.	c #020202",
"u.	c #060603",
"v.	c #100E08",
"w.	c #16130B",
"x.	c #262114",
"y.	c #0F0E08",
"z.	c #120F09",
"                                                                                        ",
"                                                                                        ",
"                                                                                        ",
"                                                                                        ",
"                                                                                        ",
"                                    . + + @ @ + # $                                     ",
"                            % & * = - ; > , , ' ) ! = * ~ %                             ",
"                          + ! > { ] ^ / ( _ : ( < [ } { | 1 #                           ",
"                        # 2 3 4 5 6 7 8 9 0 a b 8 c 6 5 d e 2 #                         ",
"                      $ f e 4 g h i a j k l m k j a i n o p e f $                       ",
"                    . ! e 4 5 q r s b t u v j u 0 w i x 6 5 y e - .                     ",
"                  z @ ; A B C h x D s E E E F E E i D x G H B I J @ z                   ",
"                K . - L M N O P n n n 6 6 6 6 6 6 n n G n Q 5 4 L - . z                 ",
"                * = ) R S T [ g < C H O O O O O O O O < g [ T S R 2 U z                 ",
"              * . - ' 3 A y T V N W X Y Z ` g ` Y Y W 5 V T y A R J 1  .z               ",
"            z . @ ; , ..+.S d @.T #.$.$.5 5 %.5 N N B &.*.y =.+.-.> 2 U * &             ",
"            * # - | e ..+.A S y ] T #.B B B $.$.B B &.T @.d S ;.>.R ' - # *             ",
"            * @ ) ,.3 '.+.A ).4 !.~.&.#.B B B B B &.T {.!.d S ].^./.(.) @ *             ",
"            * = ; _.:.'.<.I =.y ] &.B B [.$.$.$.}.B &.*.!.|.=.A 1.2.L ; = *             ",
"            * = J e '.;.S M y *.#.}.5 W W X X X X 5 }.#.T !.4 S ;.'.e J = *             ",
"            . = ; R '.S d !.T #.$.X Z g g 3.< < < o Y N B T !.d S '.R ; = .             ",
"            . @ ; _.+.=.!.T B N X g < O O O 4.4.( O < Y 5 B T !.=.1.L ) @ .             ",
"            . @ 2 ,.+.5.{.B 5 Y g C O 6 6 6 n n 6 4.O < Y 5 B T 5.'.> - + *             ",
"            # # 1 J '.4 &.5 3.C O 4.6.n G G 7.G n n 4.Q H 3.X 8.d ..; U . .             ",
"              # @ 9...4 B Z O 4.6 n 0.x a.a.a.a.x x h P 6 ( < N y ..b.* .               ",
"                @ - c.y $.< 6 G d.a.D c e.e.f.e.c D g.x G n O W h.e 1 *                 ",
"                = = , i.j.< k.a.c i l.l.l.l.l.l.l.l.i c g.G O $.i.m.@ #                 ",
"                  # 2 ..h.X 6 a.n.s l.8 o.o.o.o.o.o.E i D n ` @...2 .                   ",
"                    = 2 +.#.H d.p.i l.o.w b b w o.l.s c x ( B +.2 @                     ",
"                      K ' =.$.( h p.q.r.o.o.o.o.l.s s.h ( N =.' t.                      ",
"                        u.J v.w.B < G D i i 7 c s.x.o &.i.y.J 1                         ",
"                          1 2 m.+.h.[ < ( ( ( O g N 4 v.' b.=                           ",
"                            - 2 ; _.z.i.y p y 4 =.'.,.) ! u.                            ",
"                                    m._._._._._.L '                                     ",
"                                                                                        ",
"                                                                                        ",
"                                                                                        ",
"                                                                                        "};
