/* XPM */
static char * title_4_inactive_xpm[] = {
"6 38 28 1",
" 	c None",
".	c #030302",
"+	c #1C1811",
"@	c #1E1A12",
"#	c #252016",
"$	c #1A160F",
"%	c #1B1710",
"&	c #19150F",
"*	c #18150E",
"=	c #18140E",
"-	c #16130D",
";	c #16120D",
">	c #15120C",
",	c #14110C",
"'	c #13100B",
")	c #12100B",
"!	c #120F0A",
"~	c #110E0A",
"{	c #100D09",
"]	c #0F0D09",
"^	c #0E0C08",
"/	c #0C0B07",
"(	c #0C0A07",
"_	c #0B0907",
":	c #0A0906",
"<	c #090805",
"[	c #090705",
"}	c #060503",
"......",
"+@@@@+",
"######",
"$%%%%$",
"&&&&&&",
"*&&&&*",
"******",
"======",
"-====-",
"------",
";;;;;;",
">;;;;>",
">>>>>>",
",,,,,,",
"',,,,'",
"''''''",
"))))))",
"!))))!",
"!!!!!!",
"~~~~~~",
"{{{{{{",
"{{{{{{",
"]]]]]]",
"^^^^^^",
"^^^^^^",
"^^^^^^",
"//////",
"(////(",
"((((((",
"______",
":____:",
"::::::",
"<<<<<<",
"[[[[[[",
"[[[[[[",
"]{{{{]",
"^]]]]^",
"}}}}}}"};
