/* XPM */
static char * title_1_inactive_xpm[] = {
"2 26 3 1",
" 	c None",
".	c #000900",
"+	c #000900",
"..",
"++",
"++",
"++",
"++",
"++",
"++",
"++",
"++",
"++",
"++",
"++",
"++",
"++",
"++",
"++",
"++",
"++",
"++",
"++",
"++",
"++",
"++",
"++",
"++",
"++"};
