<svg xmlns="http://www.w3.org/2000/svg" width="16" height="16" version="1.1">
 <defs>
   <style id="current-color-scheme" type="text/css">
   .ColorScheme-Text { color: #E7E7E7; } .ColorScheme-Highlight { color:#5294e2; }
  </style>
  <linearGradient id="arrongin" x1="0%" x2="0%" y1="0%" y2="100%">
   <stop offset="0%" style="stop-color:#dd9b44; stop-opacity:1"/>
   <stop offset="100%" style="stop-color:#ad6c16; stop-opacity:1"/>
  </linearGradient>
  <linearGradient id="aurora" x1="0%" x2="0%" y1="0%" y2="100%">
   <stop offset="0%" style="stop-color:#09D4DF; stop-opacity:1"/>
   <stop offset="100%" style="stop-color:#9269F4; stop-opacity:1"/>
  </linearGradient>
  <linearGradient id="cyberneon" x1="0%" x2="0%" y1="0%" y2="100%">
    <stop offset="0" style="stop-color:#0abdc6; stop-opacity:1"/>
    <stop offset="1" style="stop-color:#ea00d9; stop-opacity:1"/>
  </linearGradient>
  <linearGradient id="fitdance" x1="0%" x2="0%" y1="0%" y2="100%">
   <stop offset="0%" style="stop-color:#1AD6AB; stop-opacity:1"/>
   <stop offset="100%" style="stop-color:#329DB6; stop-opacity:1"/>
  </linearGradient>
  <linearGradient id="oomox" x1="0%" x2="0%" y1="0%" y2="100%">
   <stop offset="0%" style="stop-color:#efefe7; stop-opacity:1"/>
   <stop offset="100%" style="stop-color:#8f8f8b; stop-opacity:1"/>
  </linearGradient>
  <linearGradient id="rainblue" x1="0%" x2="0%" y1="0%" y2="100%">
   <stop offset="0%" style="stop-color:#00F260; stop-opacity:1"/>
   <stop offset="100%" style="stop-color:#0575E6; stop-opacity:1"/>
  </linearGradient>
  <linearGradient id="sunrise" x1="0%" x2="0%" y1="0%" y2="100%">
   <stop offset="0%" style="stop-color: #FF8501; stop-opacity:1"/>
   <stop offset="100%" style="stop-color: #FFCB01; stop-opacity:1"/>
  </linearGradient>
  <linearGradient id="telinkrin" x1="0%" x2="0%" y1="0%" y2="100%">
   <stop offset="0%" style="stop-color: #b2ced6; stop-opacity:1"/>
   <stop offset="100%" style="stop-color: #6da5b7; stop-opacity:1"/>
  </linearGradient>
  <linearGradient id="60spsycho" x1="0%" x2="0%" y1="0%" y2="100%">
   <stop offset="0%" style="stop-color: #df5940; stop-opacity:1"/>
   <stop offset="25%" style="stop-color: #d8d15f; stop-opacity:1"/>
   <stop offset="50%" style="stop-color: #e9882a; stop-opacity:1"/>
   <stop offset="100%" style="stop-color: #279362; stop-opacity:1"/>
  </linearGradient>
  <linearGradient id="90ssummer" x1="0%" x2="0%" y1="0%" y2="100%">
   <stop offset="0%" style="stop-color: #f618c7; stop-opacity:1"/>
   <stop offset="20%" style="stop-color: #94ffab; stop-opacity:1"/>
   <stop offset="50%" style="stop-color: #fbfd54; stop-opacity:1"/>
   <stop offset="100%" style="stop-color: #0f83ae; stop-opacity:1"/>
  </linearGradient>
 </defs>
 <path fill="currentColor" class="ColorScheme-Text" d="M 3.7746182,0.49998253 2.936894,1.3377008 3.0426492,1.4436306 C 1.890261,2.7986878 1.253268,4.5185335 1.25,6.2996376 c 0,3.9894214 3.107424,7.2524364 7.0337201,7.5025354 v 0.249401 c -2.2532778,0.06053 -4.3656835,0.543094 -4.3656835,1.448444 h 4.8506294 4.850792 c 0,-0.90535 -2.112237,-1.387971 -4.3655114,-1.448444 V 13.800136 C 10.861079,13.694497 12.395137,13.075652 13.6277,12.028664 l 0.07077,0.07072 0.83756,-0.837721 -1.645517,-1.6455204 A 5.3207804,5.320781 0 0 0 14.05714,6.2996966 5.3207804,5.320781 0 0 0 8.7365349,0.97893643 5.3207804,5.320781 0 0 0 5.4167451,2.1423597 Z m 0.144955,1.82039157 0.662678,0.6626723 A 5.3207804,5.320781 0 0 0 3.4156268,6.2996376 5.3207804,5.320781 0 0 0 8.7365699,11.620602 5.3207804,5.320781 0 0 0 12.056019,10.456829 l 0.688238,0.688398 c -1.119529,0.920891 -2.523739,1.42755 -3.9755706,1.429965 -3.465941,0 -6.2755334,-2.8096134 -6.2755334,-6.2755544 C 2.493397,4.8470031 2.9992063,3.4413964 3.9195732,2.3203741 Z M 8.610624,3.2243568 c 1.393411,0.00163 2.207475,0.7911266 2.207475,0.7911266 L 9.475756,5.2492166 c -0.9197091,-0.395346 -1.709145,0.313365 -1.6051592,1.312248 0.10398,0.998883 0.8134563,1.209957 1.6023014,1.105744 0.7888488,-0.104183 0.263835,-0.761879 0.263835,-0.761879 l -0.3154495,0.07857 -0.4989002,-0.526302 2.6562675,-0.837893 c 0.364955,2.628746 -0.63545,3.757393 -2.791293,3.755123 -2.155837,-0.0025 -2.9689295,-1.632977 -2.9671776,-3.052262 0.00169,-1.419284 1.397045,-3.0999007 2.7904523,-3.0981546 z"/>
</svg>
