<svg xmlns="http://www.w3.org/2000/svg" width="16" height="16" version="1.1">
 <defs>
   <style id="current-color-scheme" type="text/css">
   .ColorScheme-Text { color: #E7E7E7; } .ColorScheme-Highlight { color:#5294e2; }
  </style>
  <linearGradient id="arrongin" x1="0%" x2="0%" y1="0%" y2="100%">
   <stop offset="0%" style="stop-color:#dd9b44; stop-opacity:1"/>
   <stop offset="100%" style="stop-color:#ad6c16; stop-opacity:1"/>
  </linearGradient>
  <linearGradient id="aurora" x1="0%" x2="0%" y1="0%" y2="100%">
   <stop offset="0%" style="stop-color:#09D4DF; stop-opacity:1"/>
   <stop offset="100%" style="stop-color:#9269F4; stop-opacity:1"/>
  </linearGradient>
  <linearGradient id="cyberneon" x1="0%" x2="0%" y1="0%" y2="100%">
    <stop offset="0" style="stop-color:#0abdc6; stop-opacity:1"/>
    <stop offset="1" style="stop-color:#ea00d9; stop-opacity:1"/>
  </linearGradient>
  <linearGradient id="fitdance" x1="0%" x2="0%" y1="0%" y2="100%">
   <stop offset="0%" style="stop-color:#1AD6AB; stop-opacity:1"/>
   <stop offset="100%" style="stop-color:#329DB6; stop-opacity:1"/>
  </linearGradient>
  <linearGradient id="oomox" x1="0%" x2="0%" y1="0%" y2="100%">
   <stop offset="0%" style="stop-color:#efefe7; stop-opacity:1"/>
   <stop offset="100%" style="stop-color:#8f8f8b; stop-opacity:1"/>
  </linearGradient>
  <linearGradient id="rainblue" x1="0%" x2="0%" y1="0%" y2="100%">
   <stop offset="0%" style="stop-color:#00F260; stop-opacity:1"/>
   <stop offset="100%" style="stop-color:#0575E6; stop-opacity:1"/>
  </linearGradient>
  <linearGradient id="sunrise" x1="0%" x2="0%" y1="0%" y2="100%">
   <stop offset="0%" style="stop-color: #FF8501; stop-opacity:1"/>
   <stop offset="100%" style="stop-color: #FFCB01; stop-opacity:1"/>
  </linearGradient>
  <linearGradient id="telinkrin" x1="0%" x2="0%" y1="0%" y2="100%">
   <stop offset="0%" style="stop-color: #b2ced6; stop-opacity:1"/>
   <stop offset="100%" style="stop-color: #6da5b7; stop-opacity:1"/>
  </linearGradient>
  <linearGradient id="60spsycho" x1="0%" x2="0%" y1="0%" y2="100%">
   <stop offset="0%" style="stop-color: #df5940; stop-opacity:1"/>
   <stop offset="25%" style="stop-color: #d8d15f; stop-opacity:1"/>
   <stop offset="50%" style="stop-color: #e9882a; stop-opacity:1"/>
   <stop offset="100%" style="stop-color: #279362; stop-opacity:1"/>
  </linearGradient>
  <linearGradient id="90ssummer" x1="0%" x2="0%" y1="0%" y2="100%">
   <stop offset="0%" style="stop-color: #f618c7; stop-opacity:1"/>
   <stop offset="20%" style="stop-color: #94ffab; stop-opacity:1"/>
   <stop offset="50%" style="stop-color: #fbfd54; stop-opacity:1"/>
   <stop offset="100%" style="stop-color: #0f83ae; stop-opacity:1"/>
  </linearGradient>
 </defs>
 <path fill="currentColor" class="ColorScheme-Text" d="M 8.6006018,1.5915912 C 7.9377927,1.5970216 7.3907714,2.026702 6.8688701,2.6066062 6.3469689,3.1865105 5.8336345,3.9367928 5.2332345,4.6786784 4.0324344,6.1624494 2.5229488,7.5995994 1.125e-6,7.5995994 v 0.3923923 0.018018 0.3923924 c 0.995510155,0 1.829326975,0.2288802 2.552552575,0.5905907 v 0.01001 h 0.018018 c 1.1004643,0.5554882 1.9397429,1.4250412 2.6626627,2.3183182 0.6004,0.741886 1.1137344,1.492168 1.6356356,2.072072 0.5219013,0.579904 1.0689225,1.009588 1.7317317,1.015015 0.6634647,0.0049 1.1519231,-0.435028 1.5615623,-1.019019 0.409638,-0.58399 0.77368,-1.33443 1.223223,-2.076076 0.578638,-0.954622 1.284761,-1.879642 2.382382,-2.4224224 v 0.1121122 h 0.866867 V 8.5785783 C 15.044608,8.473015 15.48773,8.4024021 15.997999,8.4024021 v -0.002 h 0.002 V 7.9999998 h -0.002 v -0.00801 -0.3923923 c -0.510269,0 -0.953391,-0.070613 -1.363363,-0.1761762 V 7.3973972 H 14.526528 C 12.97646,6.9593771 12.086785,5.8458349 11.385387,4.6886883 10.935844,3.9470438 10.571802,3.1946019 10.162164,2.6106103 9.7525251,2.0266187 9.264066,1.5867429 8.6006018,1.5915912 Z m 0.004,0.4104105 c 0.4841561,-0.00354 0.8439098,0.3040849 1.2232231,0.8448448 0.3793141,0.5407599 0.7451941,1.2918368 1.2072071,2.0540541 0.300262,0.4953621 0.654537,0.9917995 1.077077,1.4434434 C 11.832393,6.1080435 11.58825,5.8545779 11.363365,5.5995993 10.916476,5.0929096 10.552744,4.5758682 10.138139,4.1701698 9.7235353,3.7644714 9.2360632,3.4688226 8.6006018,3.4734732 7.96575,3.4781192 7.4209277,3.7680674 6.8968982,4.1681678 6.3728687,4.5682683 5.8582376,5.0834984 5.2592605,5.5915913 4.9085301,5.8891045 4.5249837,6.1813927 4.1021033,6.4504501 4.6501606,5.9832752 5.1285464,5.4596254 5.5515528,4.9369366 6.164613,4.1794075 6.6818239,3.4290632 7.1751764,2.8808806 7.6685291,2.3326977 8.1197944,2.0059737 8.6046059,2.0020017 Z m 0,1.8818819 c 0.5121593,-0.00375 0.8729,0.2122726 1.2472471,0.5785785 0.3743471,0.366306 0.7405361,0.8825607 1.2052061,1.4094095 0.621678,0.7048686 1.445865,1.4152589 2.71071,1.8138139 V 7.9999998 H 8.9969983 V 7.3973972 H 8.1301314 V 7.9999998 H 3.4494506 V 7.3973972 H 3.1671684 C 4.1210837,6.9957899 4.880734,6.4491622 5.5235247,5.9039036 6.1380079,5.3826575 6.6559241,4.8695476 7.1471484,4.4944942 7.6383727,4.1194408 8.0918372,3.8876362 8.6046059,3.8838836 Z M 2.5525537,7.6276273 V 7.9999998 H 0.19819933 C 1.0905021,7.9812146 1.8710259,7.8460472 2.5525537,7.6276273 Z M 14.634636,7.8898896 c 0.359208,0.060777 0.745379,0.1010322 1.169169,0.1101102 H 14.634636 Z M 2.1901914,8.4004002 h 0.3623623 v 0.142142 C 2.4367291,8.4891382 2.3115366,8.447013 2.1901914,8.4004002 Z m 1.2592592,0 H 8.1301314 V 9.0030028 H 8.9969983 V 8.4004002 h 4.7707707 v 0.058058 c -1.282673,0.5796504 -2.111782,1.6182128 -2.732733,2.6426428 -0.462013,0.762219 -0.827893,1.513296 -1.2072071,2.054054 -0.379313,0.540758 -0.739067,0.846386 -1.223223,0.842843 -0.4848112,-0.004 -0.936077,-0.330697 -1.4294295,-0.878879 C 6.6818239,12.570937 6.164613,11.820593 5.5515528,11.063063 4.9528968,10.323331 4.25154,9.576381 3.3813826,9.0030028 h 0.068068 z"/>
</svg>
