<svg xmlns="http://www.w3.org/2000/svg" width="16" height="16" version="1.1">
 <defs>
   <style id="current-color-scheme" type="text/css">
   .ColorScheme-Text { color: #E7E7E7; } .ColorScheme-Highlight { color:#5294e2; }
  </style>
  <linearGradient id="arrongin" x1="0%" x2="0%" y1="0%" y2="100%">
   <stop offset="0%" style="stop-color:#dd9b44; stop-opacity:1"/>
   <stop offset="100%" style="stop-color:#ad6c16; stop-opacity:1"/>
  </linearGradient>
  <linearGradient id="aurora" x1="0%" x2="0%" y1="0%" y2="100%">
   <stop offset="0%" style="stop-color:#09D4DF; stop-opacity:1"/>
   <stop offset="100%" style="stop-color:#9269F4; stop-opacity:1"/>
  </linearGradient>
  <linearGradient id="cyberneon" x1="0%" x2="0%" y1="0%" y2="100%">
    <stop offset="0" style="stop-color:#0abdc6; stop-opacity:1"/>
    <stop offset="1" style="stop-color:#ea00d9; stop-opacity:1"/>
  </linearGradient>
  <linearGradient id="fitdance" x1="0%" x2="0%" y1="0%" y2="100%">
   <stop offset="0%" style="stop-color:#1AD6AB; stop-opacity:1"/>
   <stop offset="100%" style="stop-color:#329DB6; stop-opacity:1"/>
  </linearGradient>
  <linearGradient id="oomox" x1="0%" x2="0%" y1="0%" y2="100%">
   <stop offset="0%" style="stop-color:#efefe7; stop-opacity:1"/>
   <stop offset="100%" style="stop-color:#8f8f8b; stop-opacity:1"/>
  </linearGradient>
  <linearGradient id="rainblue" x1="0%" x2="0%" y1="0%" y2="100%">
   <stop offset="0%" style="stop-color:#00F260; stop-opacity:1"/>
   <stop offset="100%" style="stop-color:#0575E6; stop-opacity:1"/>
  </linearGradient>
  <linearGradient id="sunrise" x1="0%" x2="0%" y1="0%" y2="100%">
   <stop offset="0%" style="stop-color: #FF8501; stop-opacity:1"/>
   <stop offset="100%" style="stop-color: #FFCB01; stop-opacity:1"/>
  </linearGradient>
  <linearGradient id="telinkrin" x1="0%" x2="0%" y1="0%" y2="100%">
   <stop offset="0%" style="stop-color: #b2ced6; stop-opacity:1"/>
   <stop offset="100%" style="stop-color: #6da5b7; stop-opacity:1"/>
  </linearGradient>
  <linearGradient id="60spsycho" x1="0%" x2="0%" y1="0%" y2="100%">
   <stop offset="0%" style="stop-color: #df5940; stop-opacity:1"/>
   <stop offset="25%" style="stop-color: #d8d15f; stop-opacity:1"/>
   <stop offset="50%" style="stop-color: #e9882a; stop-opacity:1"/>
   <stop offset="100%" style="stop-color: #279362; stop-opacity:1"/>
  </linearGradient>
  <linearGradient id="90ssummer" x1="0%" x2="0%" y1="0%" y2="100%">
   <stop offset="0%" style="stop-color: #f618c7; stop-opacity:1"/>
   <stop offset="20%" style="stop-color: #94ffab; stop-opacity:1"/>
   <stop offset="50%" style="stop-color: #fbfd54; stop-opacity:1"/>
   <stop offset="100%" style="stop-color: #0f83ae; stop-opacity:1"/>
  </linearGradient>
 </defs>
 <path fill="currentColor" class="ColorScheme-Text" d="M 7.75 0.25 C 7.337 0.25 7 0.587 7 1 L 7 1.25 L 5.75 1.25 C 5.061 1.25 4.5 1.811 4.5 2.5 L 4.5 2.75 C 4.5 3.44 5.061 4 5.75 4 C 5.888 4 6 4.113 6 4.25 L 6 9.5 C 6 9.913 6.337 10.25 6.75 10.25 L 7 10.25 L 7 12.25 L 2.25 12.25 C 1.837 12.25 1.5 12.587 1.5 13 L 1.5 14.25 L 0.75 14.25 C 0.337 14.25 0 14.587 0 15 C 0 15.413 0.337 15.75 0.75 15.75 L 15.25 15.75 C 15.663 15.75 16 15.413 16 15 C 16 14.587 15.663 14.25 15.25 14.25 L 14.5 14.25 L 14.5 13 C 14.5 12.587 14.163 12.25 13.75 12.25 L 13 12.25 L 13 12 C 13 11.587 12.663 11.25 12.25 11.25 L 11.75 11.25 C 11.337 11.25 11 11.587 11 12 L 11 12.25 L 9 12.25 L 9 10.25 L 9.25 10.25 C 9.663 10.25 10 9.913 10 9.5 L 10 2 C 10 1.587 9.663 1.25 9.25 1.25 L 9 1.25 L 9 1 C 9 0.587 8.663 0.25 8.25 0.25 L 7.75 0.25 Z M 7.75 0.75 L 8.25 0.75 C 8.388 0.75 8.5 0.863 8.5 1 L 8.5 1.25 L 7.5 1.25 L 7.5 1 C 7.5 0.863 7.613 0.75 7.75 0.75 Z M 5.75 1.75 L 9.25 1.75 C 9.388 1.75 9.5 1.863 9.5 2 L 9.5 9.5 C 9.5 9.638 9.388 9.75 9.25 9.75 L 6.75 9.75 C 6.613 9.75 6.5 9.638 6.5 9.5 L 6.5 4.25 C 6.5 3.837 6.163 3.5 5.75 3.5 C 5.337 3.5 5 3.163 5 2.75 L 5 2.5 C 5 2.087 5.337 1.75 5.75 1.75 Z M 8.25 2.25 C 8.113 2.25 8 2.363 8 2.5 C 8 2.638 8.113 2.75 8.25 2.75 L 8.75 2.75 C 8.888 2.75 9 2.638 9 2.5 C 9 2.363 8.888 2.25 8.75 2.25 L 8.25 2.25 Z M 8.25 3.5 C 8.113 3.5 8 3.613 8 3.75 C 8 3.888 8.113 4 8.25 4 L 8.75 4 C 8.888 4 9 3.888 9 3.75 C 9 3.613 8.888 3.5 8.75 3.5 L 8.25 3.5 Z M 8.25 4.75 C 8.113 4.75 8 4.863 8 5 C 8 5.138 8.113 5.25 8.25 5.25 L 8.75 5.25 C 8.888 5.25 9 5.138 9 5 C 9 4.863 8.888 4.75 8.75 4.75 L 8.25 4.75 Z M 8.25 6 C 8.113 6 8 6.113 8 6.25 C 8 6.388 8.113 6.5 8.25 6.5 L 8.75 6.5 C 8.888 6.5 9 6.388 9 6.25 C 9 6.113 8.888 6 8.75 6 L 8.25 6 Z M 8.25 7.25 C 8.113 7.25 8 7.363 8 7.5 C 8 7.638 8.113 7.75 8.25 7.75 L 8.75 7.75 C 8.888 7.75 9 7.638 9 7.5 C 9 7.363 8.888 7.25 8.75 7.25 L 8.25 7.25 Z M 8.25 8.5 C 8.113 8.5 8 8.613 8 8.75 C 8 8.888 8.113 9 8.25 9 L 8.75 9 C 8.888 9 9 8.888 9 8.75 C 9 8.613 8.888 8.5 8.75 8.5 L 8.25 8.5 Z M 7.5 10.25 L 8.5 10.25 L 8.5 12.25 L 7.5 12.25 L 7.5 10.25 Z M 11.75 11.75 L 12.25 11.75 C 12.388 11.75 12.5 11.863 12.5 12 L 12.5 12.25 L 11.5 12.25 L 11.5 12 C 11.5 11.863 11.613 11.75 11.75 11.75 Z M 2.25 12.75 L 13.75 12.75 C 13.888 12.75 14 12.863 14 13 L 14 14.25 L 2 14.25 L 2 13 C 2 12.863 2.113 12.75 2.25 12.75 Z M 0.75 14.75 L 15.25 14.75 C 15.388 14.75 15.5 14.863 15.5 15 C 15.5 15.138 15.388 15.25 15.25 15.25 L 0.75 15.25 C 0.613 15.25 0.5 15.138 0.5 15 C 0.5 14.863 0.613 14.75 0.75 14.75 Z"/>
</svg>
