<svg xmlns="http://www.w3.org/2000/svg" width="16" height="16" version="1.1">
 <defs>
   <style id="current-color-scheme" type="text/css">
   .ColorScheme-Text { color: #E7E7E7; } .ColorScheme-Highlight { color:#5294e2; }
  </style>
  <linearGradient id="arrongin" x1="0%" x2="0%" y1="0%" y2="100%">
   <stop offset="0%" style="stop-color:#dd9b44; stop-opacity:1"/>
   <stop offset="100%" style="stop-color:#ad6c16; stop-opacity:1"/>
  </linearGradient>
  <linearGradient id="aurora" x1="0%" x2="0%" y1="0%" y2="100%">
   <stop offset="0%" style="stop-color:#09D4DF; stop-opacity:1"/>
   <stop offset="100%" style="stop-color:#9269F4; stop-opacity:1"/>
  </linearGradient>
  <linearGradient id="cyberneon" x1="0%" x2="0%" y1="0%" y2="100%">
    <stop offset="0" style="stop-color:#0abdc6; stop-opacity:1"/>
    <stop offset="1" style="stop-color:#ea00d9; stop-opacity:1"/>
  </linearGradient>
  <linearGradient id="fitdance" x1="0%" x2="0%" y1="0%" y2="100%">
   <stop offset="0%" style="stop-color:#1AD6AB; stop-opacity:1"/>
   <stop offset="100%" style="stop-color:#329DB6; stop-opacity:1"/>
  </linearGradient>
  <linearGradient id="oomox" x1="0%" x2="0%" y1="0%" y2="100%">
   <stop offset="0%" style="stop-color:#efefe7; stop-opacity:1"/>
   <stop offset="100%" style="stop-color:#8f8f8b; stop-opacity:1"/>
  </linearGradient>
  <linearGradient id="rainblue" x1="0%" x2="0%" y1="0%" y2="100%">
   <stop offset="0%" style="stop-color:#00F260; stop-opacity:1"/>
   <stop offset="100%" style="stop-color:#0575E6; stop-opacity:1"/>
  </linearGradient>
  <linearGradient id="sunrise" x1="0%" x2="0%" y1="0%" y2="100%">
   <stop offset="0%" style="stop-color: #FF8501; stop-opacity:1"/>
   <stop offset="100%" style="stop-color: #FFCB01; stop-opacity:1"/>
  </linearGradient>
  <linearGradient id="telinkrin" x1="0%" x2="0%" y1="0%" y2="100%">
   <stop offset="0%" style="stop-color: #b2ced6; stop-opacity:1"/>
   <stop offset="100%" style="stop-color: #6da5b7; stop-opacity:1"/>
  </linearGradient>
  <linearGradient id="60spsycho" x1="0%" x2="0%" y1="0%" y2="100%">
   <stop offset="0%" style="stop-color: #df5940; stop-opacity:1"/>
   <stop offset="25%" style="stop-color: #d8d15f; stop-opacity:1"/>
   <stop offset="50%" style="stop-color: #e9882a; stop-opacity:1"/>
   <stop offset="100%" style="stop-color: #279362; stop-opacity:1"/>
  </linearGradient>
  <linearGradient id="90ssummer" x1="0%" x2="0%" y1="0%" y2="100%">
   <stop offset="0%" style="stop-color: #f618c7; stop-opacity:1"/>
   <stop offset="20%" style="stop-color: #94ffab; stop-opacity:1"/>
   <stop offset="50%" style="stop-color: #fbfd54; stop-opacity:1"/>
   <stop offset="100%" style="stop-color: #0f83ae; stop-opacity:1"/>
  </linearGradient>
 </defs>
 <path fill="currentColor" class="ColorScheme-Text" fill-rule="evenodd" d="M 6.42 7.993 C 6.274 7.823 6.12 7.66 5.964 7.497 C 5.787 7.32 5.6 7.15 5.407 6.993 C 5.24 6.853 5.064 6.73 4.88 6.62 C 4.73 6.53 4.57 6.457 4.404 6.4 C 4.274 6.357 4.14 6.337 4.004 6.333 L 4 6.333 C 3.997 6.333 3.997 6.333 3.994 6.333 C 3.757 6.33 3.52 6.383 3.307 6.487 C 3.134 6.577 2.98 6.707 2.864 6.867 C 2.74 7.03 2.647 7.217 2.59 7.413 C 2.53 7.603 2.5 7.8 2.5 8 C 2.5 8.2 2.53 8.397 2.59 8.587 C 2.647 8.783 2.74 8.97 2.864 9.133 C 2.98 9.293 3.134 9.423 3.307 9.513 C 3.52 9.617 3.757 9.67 3.994 9.667 C 4.13 9.667 4.264 9.643 4.394 9.6 C 4.56 9.543 4.72 9.47 4.87 9.38 C 5.054 9.27 5.23 9.147 5.397 9.01 C 5.59 8.85 5.774 8.68 5.95 8.503 C 6.114 8.337 6.27 8.167 6.42 7.993 L 6.42 7.993 L 6.42 7.993 Z M 12.5 1.823 C 12.503 1.693 12.557 1.567 12.653 1.473 C 12.747 1.38 12.877 1.33 13.01 1.334 C 13.14 1.337 13.267 1.39 13.36 1.487 C 13.453 1.58 13.503 1.71 13.5 1.843 C 13.497 1.977 13.48 2.11 13.45 2.24 C 13.417 2.38 13.377 2.52 13.327 2.657 C 13.213 2.973 13.077 3.287 12.927 3.59 C 12.57 4.307 12.18 5.003 11.76 5.683 C 11.284 6.47 10.787 7.243 10.27 8.003 C 10.787 8.777 11.284 9.56 11.76 10.357 C 12.18 11.037 12.567 11.737 12.927 12.45 C 13.077 12.747 13.21 13.053 13.327 13.366 C 13.373 13.497 13.413 13.63 13.447 13.766 C 13.48 13.89 13.497 14.02 13.5 14.15 C 13.5 14.153 13.5 14.157 13.5 14.163 L 13.5 14.17 C 13.5 14.303 13.447 14.43 13.353 14.523 C 13.257 14.616 13.13 14.666 12.997 14.666 C 12.867 14.666 12.737 14.613 12.644 14.52 C 12.55 14.423 12.5 14.296 12.5 14.163 C 12.5 14.11 12.49 14.06 12.477 14.006 C 12.453 13.91 12.423 13.81 12.387 13.713 C 12.283 13.437 12.167 13.163 12.034 12.9 C 11.687 12.21 11.31 11.533 10.907 10.877 C 10.32 9.897 9.704 8.937 9.06 7.997 C 9.707 7.073 10.324 6.127 10.907 5.163 C 11.314 4.507 11.687 3.833 12.034 3.143 C 12.167 2.877 12.283 2.6 12.387 2.317 C 12.423 2.217 12.453 2.113 12.477 2.01 C 12.49 1.95 12.5 1.887 12.5 1.823 L 12.5 1.823 L 12.5 1.823 Z M 12.5 14.163 C 12.5 14.163 12.5 14.163 12.5 14.163 L 12.5 14.157 L 12.5 14.17 C 12.5 14.166 12.5 14.166 12.5 14.163 L 12.5 14.163 L 12.5 14.163 Z M 7.057 7.203 C 7.064 7.197 7.07 7.187 7.077 7.18 C 7.46 6.667 7.817 6.14 8.154 5.593 C 8.794 4.57 9.36 3.5 9.854 2.397 C 10.037 1.99 10.2 1.577 10.343 1.157 C 10.394 1.014 10.434 0.867 10.467 0.72 C 10.487 0.644 10.497 0.567 10.5 0.487 C 10.503 0.353 10.56 0.227 10.657 0.137 C 10.754 0.047 10.88 -0.003 11.013 0 C 11.147 0.004 11.273 0.06 11.364 0.157 C 11.454 0.254 11.504 0.38 11.5 0.513 C 11.497 0.664 11.477 0.814 11.44 0.957 C 11.397 1.134 11.35 1.307 11.29 1.477 C 11.14 1.93 10.964 2.373 10.767 2.807 C 10.257 3.95 9.667 5.057 9.004 6.123 C 8.654 6.69 8.28 7.24 7.88 7.777 C 7.827 7.847 7.77 7.92 7.717 7.993 C 7.777 8.07 7.834 8.147 7.89 8.227 C 8.29 8.76 8.664 9.31 9.014 9.88 C 9.674 10.943 10.26 12.05 10.77 13.193 C 10.967 13.63 11.14 14.073 11.294 14.523 C 11.35 14.693 11.4 14.867 11.44 15.043 C 11.477 15.19 11.497 15.336 11.5 15.487 C 11.504 15.62 11.454 15.746 11.364 15.843 C 11.273 15.94 11.147 15.996 11.013 16 C 10.88 16.003 10.754 15.953 10.657 15.863 C 10.56 15.773 10.503 15.647 10.5 15.513 C 10.497 15.433 10.487 15.356 10.467 15.28 C 10.434 15.13 10.394 14.986 10.343 14.843 C 10.204 14.42 10.04 14.006 9.857 13.603 C 9.367 12.5 8.8 11.43 8.164 10.403 C 7.827 9.86 7.47 9.333 7.087 8.82 C 7.08 8.807 7.07 8.793 7.06 8.78 C 6.93 8.923 6.797 9.067 6.664 9.203 C 6.464 9.407 6.254 9.6 6.03 9.78 C 5.827 9.95 5.61 10.1 5.384 10.237 C 5.17 10.367 4.947 10.47 4.71 10.547 C 4.484 10.623 4.247 10.663 4.007 10.667 C 3.607 10.673 3.214 10.583 2.857 10.407 C 2.544 10.243 2.27 10.013 2.06 9.733 C 1.867 9.473 1.724 9.183 1.63 8.877 C 1.544 8.593 1.5 8.297 1.5 8 C 1.5 7.703 1.544 7.407 1.63 7.123 C 1.724 6.817 1.867 6.527 2.06 6.267 C 2.27 5.987 2.544 5.757 2.857 5.593 C 3.214 5.417 3.607 5.327 4.004 5.333 L 4.004 5.333 C 4.007 5.333 4.01 5.333 4.01 5.333 C 4.25 5.337 4.49 5.377 4.72 5.453 C 4.954 5.53 5.18 5.633 5.394 5.763 C 5.62 5.897 5.837 6.05 6.044 6.22 C 6.264 6.4 6.474 6.593 6.677 6.797 C 6.807 6.93 6.934 7.067 7.057 7.203 L 7.057 7.203 L 7.057 7.203 Z M 14.487 11.39 C 14.517 11.517 14.493 11.653 14.423 11.767 C 14.353 11.877 14.24 11.957 14.11 11.987 C 13.983 12.017 13.847 11.993 13.733 11.923 C 13.623 11.853 13.543 11.74 13.513 11.61 C 13.49 11.51 13.457 11.41 13.41 11.317 C 13.34 11.153 13.26 10.997 13.177 10.84 C 12.97 10.453 12.747 10.073 12.514 9.703 C 12.157 9.123 11.78 8.557 11.394 8 C 11.78 7.443 12.157 6.877 12.514 6.297 C 12.747 5.927 12.97 5.547 13.177 5.16 C 13.26 5.003 13.34 4.847 13.41 4.683 C 13.457 4.59 13.49 4.49 13.513 4.39 C 13.543 4.26 13.623 4.147 13.733 4.077 C 13.847 4.007 13.983 3.983 14.11 4.013 C 14.24 4.043 14.353 4.123 14.423 4.233 C 14.493 4.347 14.517 4.483 14.487 4.61 C 14.45 4.78 14.393 4.94 14.323 5.097 C 14.24 5.28 14.153 5.46 14.057 5.637 C 13.84 6.04 13.607 6.437 13.36 6.827 C 13.117 7.223 12.863 7.613 12.603 8 C 12.863 8.387 13.117 8.777 13.36 9.173 C 13.607 9.563 13.84 9.96 14.057 10.363 C 14.153 10.54 14.24 10.72 14.323 10.903 C 14.393 11.06 14.45 11.22 14.487 11.39 Z"/>
</svg>
