<svg xmlns="http://www.w3.org/2000/svg" width="16" height="16" version="1.1">
 <defs>
   <style id="current-color-scheme" type="text/css">
   .ColorScheme-Text { color: #E7E7E7; } .ColorScheme-Highlight { color:#5294e2; }
  </style>
  <linearGradient id="arrongin" x1="0%" x2="0%" y1="0%" y2="100%">
   <stop offset="0%" style="stop-color:#dd9b44; stop-opacity:1"/>
   <stop offset="100%" style="stop-color:#ad6c16; stop-opacity:1"/>
  </linearGradient>
  <linearGradient id="aurora" x1="0%" x2="0%" y1="0%" y2="100%">
   <stop offset="0%" style="stop-color:#09D4DF; stop-opacity:1"/>
   <stop offset="100%" style="stop-color:#9269F4; stop-opacity:1"/>
  </linearGradient>
  <linearGradient id="cyberneon" x1="0%" x2="0%" y1="0%" y2="100%">
    <stop offset="0" style="stop-color:#0abdc6; stop-opacity:1"/>
    <stop offset="1" style="stop-color:#ea00d9; stop-opacity:1"/>
  </linearGradient>
  <linearGradient id="fitdance" x1="0%" x2="0%" y1="0%" y2="100%">
   <stop offset="0%" style="stop-color:#1AD6AB; stop-opacity:1"/>
   <stop offset="100%" style="stop-color:#329DB6; stop-opacity:1"/>
  </linearGradient>
  <linearGradient id="oomox" x1="0%" x2="0%" y1="0%" y2="100%">
   <stop offset="0%" style="stop-color:#efefe7; stop-opacity:1"/>
   <stop offset="100%" style="stop-color:#8f8f8b; stop-opacity:1"/>
  </linearGradient>
  <linearGradient id="rainblue" x1="0%" x2="0%" y1="0%" y2="100%">
   <stop offset="0%" style="stop-color:#00F260; stop-opacity:1"/>
   <stop offset="100%" style="stop-color:#0575E6; stop-opacity:1"/>
  </linearGradient>
  <linearGradient id="sunrise" x1="0%" x2="0%" y1="0%" y2="100%">
   <stop offset="0%" style="stop-color: #FF8501; stop-opacity:1"/>
   <stop offset="100%" style="stop-color: #FFCB01; stop-opacity:1"/>
  </linearGradient>
  <linearGradient id="telinkrin" x1="0%" x2="0%" y1="0%" y2="100%">
   <stop offset="0%" style="stop-color: #b2ced6; stop-opacity:1"/>
   <stop offset="100%" style="stop-color: #6da5b7; stop-opacity:1"/>
  </linearGradient>
  <linearGradient id="60spsycho" x1="0%" x2="0%" y1="0%" y2="100%">
   <stop offset="0%" style="stop-color: #df5940; stop-opacity:1"/>
   <stop offset="25%" style="stop-color: #d8d15f; stop-opacity:1"/>
   <stop offset="50%" style="stop-color: #e9882a; stop-opacity:1"/>
   <stop offset="100%" style="stop-color: #279362; stop-opacity:1"/>
  </linearGradient>
  <linearGradient id="90ssummer" x1="0%" x2="0%" y1="0%" y2="100%">
   <stop offset="0%" style="stop-color: #f618c7; stop-opacity:1"/>
   <stop offset="20%" style="stop-color: #94ffab; stop-opacity:1"/>
   <stop offset="50%" style="stop-color: #fbfd54; stop-opacity:1"/>
   <stop offset="100%" style="stop-color: #0f83ae; stop-opacity:1"/>
  </linearGradient>
 </defs>
 <path fill="currentColor" class="ColorScheme-Text" fill-rule="evenodd" d="M 5.187 12.675 C 4.219 12.433 3.68 11.663 3.678 10.521 C 3.677 10.156 3.704 9.981 3.795 9.746 C 4.018 9.171 4.61 8.737 5.388 8.577 C 5.775 8.497 5.895 8.412 5.895 8.214 C 5.895 8.152 5.941 7.967 5.997 7.804 C 6.253 7.06 6.727 6.44 7.233 6.186 C 7.763 5.921 8.03 5.861 8.671 5.864 C 9.582 5.869 10.036 6.066 10.671 6.734 L 11.021 7.1 L 11.334 6.992 C 12.848 6.468 14.359 7.36 14.48 8.852 L 14.514 9.26 L 14.812 9.367 C 15.664 9.672 16.064 10.313 15.992 11.255 C 15.944 11.871 15.656 12.363 15.2 12.607 L 14.985 12.722 L 10.217 12.731 C 6.553 12.738 5.388 12.725 5.187 12.675 L 5.187 12.675 Z M 1.613 12.016 C 1.048 11.882 0.449 11.383 0.168 10.812 C 0.008 10.488 0 10.44 0 9.867 C 0 9.322 0.014 9.235 0.14 8.964 C 0.408 8.394 0.92 7.982 1.563 7.82 C 1.698 7.786 1.826 7.731 1.846 7.699 C 1.866 7.666 1.889 7.489 1.896 7.305 C 1.941 6.164 2.689 5.159 3.735 4.836 C 4.3 4.661 5.01 4.704 5.624 4.95 C 5.819 5.028 5.797 5.045 6.209 4.504 C 6.453 4.185 6.945 3.787 7.348 3.585 C 7.783 3.366 8.235 3.266 8.776 3.267 C 10.288 3.271 11.591 4.217 12.073 5.66 C 12.227 6.121 12.219 6.25 12.038 6.254 C 11.959 6.256 11.732 6.299 11.533 6.351 L 11.173 6.445 L 10.844 6.116 C 9.916 5.189 8.403 4.988 7.116 5.622 C 6.602 5.876 6.189 6.239 5.877 6.713 C 5.654 7.051 5.371 7.682 5.371 7.839 C 5.371 7.95 5.281 8.005 4.897 8.131 C 3.708 8.521 3.014 9.421 3.014 10.574 C 3.014 10.993 3.122 11.506 3.272 11.8 C 3.329 11.911 3.36 12.016 3.342 12.034 C 3.296 12.08 1.817 12.065 1.613 12.016 L 1.613 12.016 Z"/>
</svg>
