<svg xmlns="http://www.w3.org/2000/svg" width="16" height="16" version="1.1">
 <defs>
   <style id="current-color-scheme" type="text/css">
   .ColorScheme-Text { color: #E7E7E7; } .ColorScheme-Highlight { color:#5294e2; }
  </style>
  <linearGradient id="arrongin" x1="0%" x2="0%" y1="0%" y2="100%">
   <stop offset="0%" style="stop-color:#dd9b44; stop-opacity:1"/>
   <stop offset="100%" style="stop-color:#ad6c16; stop-opacity:1"/>
  </linearGradient>
  <linearGradient id="aurora" x1="0%" x2="0%" y1="0%" y2="100%">
   <stop offset="0%" style="stop-color:#09D4DF; stop-opacity:1"/>
   <stop offset="100%" style="stop-color:#9269F4; stop-opacity:1"/>
  </linearGradient>
  <linearGradient id="cyberneon" x1="0%" x2="0%" y1="0%" y2="100%">
    <stop offset="0" style="stop-color:#0abdc6; stop-opacity:1"/>
    <stop offset="1" style="stop-color:#ea00d9; stop-opacity:1"/>
  </linearGradient>
  <linearGradient id="fitdance" x1="0%" x2="0%" y1="0%" y2="100%">
   <stop offset="0%" style="stop-color:#1AD6AB; stop-opacity:1"/>
   <stop offset="100%" style="stop-color:#329DB6; stop-opacity:1"/>
  </linearGradient>
  <linearGradient id="oomox" x1="0%" x2="0%" y1="0%" y2="100%">
   <stop offset="0%" style="stop-color:#efefe7; stop-opacity:1"/>
   <stop offset="100%" style="stop-color:#8f8f8b; stop-opacity:1"/>
  </linearGradient>
  <linearGradient id="rainblue" x1="0%" x2="0%" y1="0%" y2="100%">
   <stop offset="0%" style="stop-color:#00F260; stop-opacity:1"/>
   <stop offset="100%" style="stop-color:#0575E6; stop-opacity:1"/>
  </linearGradient>
  <linearGradient id="sunrise" x1="0%" x2="0%" y1="0%" y2="100%">
   <stop offset="0%" style="stop-color: #FF8501; stop-opacity:1"/>
   <stop offset="100%" style="stop-color: #FFCB01; stop-opacity:1"/>
  </linearGradient>
  <linearGradient id="telinkrin" x1="0%" x2="0%" y1="0%" y2="100%">
   <stop offset="0%" style="stop-color: #b2ced6; stop-opacity:1"/>
   <stop offset="100%" style="stop-color: #6da5b7; stop-opacity:1"/>
  </linearGradient>
  <linearGradient id="60spsycho" x1="0%" x2="0%" y1="0%" y2="100%">
   <stop offset="0%" style="stop-color: #df5940; stop-opacity:1"/>
   <stop offset="25%" style="stop-color: #d8d15f; stop-opacity:1"/>
   <stop offset="50%" style="stop-color: #e9882a; stop-opacity:1"/>
   <stop offset="100%" style="stop-color: #279362; stop-opacity:1"/>
  </linearGradient>
  <linearGradient id="90ssummer" x1="0%" x2="0%" y1="0%" y2="100%">
   <stop offset="0%" style="stop-color: #f618c7; stop-opacity:1"/>
   <stop offset="20%" style="stop-color: #94ffab; stop-opacity:1"/>
   <stop offset="50%" style="stop-color: #fbfd54; stop-opacity:1"/>
   <stop offset="100%" style="stop-color: #0f83ae; stop-opacity:1"/>
  </linearGradient>
 </defs>
 <path fill="currentColor" class="ColorScheme-Text" d="m 0.1812115,8.68815 c -0.03353,0 -0.05988,0.026 -0.0642,0.063 l -0.117013,0.8946 0.117013,0.8791 c 0.0045,0.037 0.0307,0.063 0.0642,0.063 0.03232,0 0.05867,-0.025 0.06384,-0.062 v 0 0 0 l 0.138667,-0.8794 -0.138667,-0.8948 c -0.0048,-0.037 -0.03152,-0.063 -0.06384,-0.063 z m 0.65799,-0.4888 c -0.0057,-0.038 -0.03273,-0.065 -0.0666,-0.065 -0.03394,0 -0.06194,0.027 -0.06658,0.065 0,0 -0.157297,1.4464 -0.157297,1.4464 l 0.157297,1.4142 c 0.0045,0.038 0.03271,0.065 0.06658,0.065 0.03353,0 0.06089,-0.027 0.06642,-0.065 l 0.17895,-1.4146 z m 2.47849,-1.3341 c -0.06452,0 -0.11785,0.053 -0.12096,0.1207 l -0.125263,2.6609 0.125263,1.7197 c 0.0041,0.067 0.05644,0.1201 0.12096,0.1201 0.06421,0 0.117387,-0.053 0.121137,-0.1205 v 0 l 0.141618,-1.7198 -0.141618,-2.6609 c -0.0041,-0.068 -0.05692,-0.1207 -0.121137,-0.1207 z m -1.282773,0.9249 c -0.04955,0 -0.08999,0.04 -0.09394,0.093 l -0.141101,1.7631 0.141101,1.7057 c 0.0041,0.053 0.04439,0.093 0.09394,0.093 0.04905,0 0.08949,-0.04 0.09378,-0.093 l 0.160357,-1.7057 -0.160357,-1.7635 c -0.0044,-0.053 -0.04473,-0.093 -0.09378,-0.093 z m 2.5863819,3.6964 c 0.080035,0 0.1450833,-0.065 0.14832,-0.148 L 4.8924819,9.64775 4.7698152,6.10515 c -0.00408,-0.083 -0.06832,-0.1481 -0.14832,-0.1481 -0.080728,0 -0.1459384,0.065 -0.1485148,0.1483 0,0 -0.108907,3.5422 -0.108907,3.5422 l 0.108907,1.6914 c 0.00408,0.082 0.067787,0.1476 0.14832,0.1476 z m 2.6688353,0.01 c 0.110115,0 0.2009766,-0.091 0.2030397,-0.2035 v 0 0 l 0.085688,-1.6422 -0.085688,-4.0915 c 0,-0.112 -0.092925,-0.2035 -0.2030397,-0.2035 -0.1102934,0 -0.2013334,0.091 -0.2030585,0.2037 l -0.076568,4.0899 c 0,0 0.076568,1.6446 0.076568,1.6446 0,0.1112 0.092925,0.2025 0.2030585,0.2025 z m -1.3445521,-0.01 c 0.09584,0 0.1730853,-0.077 0.1756636,-0.1761 v 0 L 6.2255304,9.64535 6.1210872,6.07705 c -0.00408,-0.099 -0.07984,-0.1759 -0.1757168,-0.1759 -0.096515,0 -0.1737766,0.077 -0.1758401,0.1759 l -0.092728,3.5685 0.092888,1.6647 c 0.00408,0.098 0.07936,0.1751 0.1758933,0.1751 z m -3.2717691,-0.016 c 0.05694,0 0.103077,-0.046 0.107361,-0.1063 l 0.151076,-1.72 -0.151076,-1.6361 c -0.0041,-0.061 -0.05022,-0.106 -0.107361,-0.106 -0.05781,0 -0.10391,0.046 -0.107554,0.1067 l -0.133014,1.6354 0.133014,1.7198 c 0.0041,0.061 0.04974,0.1065 0.107554,0.1065 z m -1.27264,-0.094 c 0.04165,0 0.07536,-0.033 0.0802,-0.079 l 0.169653,-1.6537 -0.169493,-1.7159 c -0.0048,-0.046 -0.03877,-0.079 -0.08036,-0.079 -0.04215,0 -0.07587,0.033 -0.08016,0.079 0,0 -0.149369,1.7159 -0.149369,1.7159 l 0.149369,1.6534 c 0.0041,0.046 0.03797,0.079 0.08016,0.079 z m 5.2140994,-5.3579 c -0.1041252,0 -0.1875569,0.083 -0.1896185,0.19 l -0.084675,3.438 0.084675,1.6544 c 0.00408,0.1053 0.085333,0.1886 0.1896185,0.1886 0.1039284,0 0.1868617,-0.083 0.1892617,-0.1899 v 0 l 0.094987,-1.6542 -0.094987,-3.4385 c -0.00408,-0.1063 -0.085333,-0.1896 -0.1892617,-0.1896 z m -2.6481604,5.4696 c 0.07191,0 0.13127,-0.059 0.134702,-0.1344 L 4.2339753,9.64565 4.1018155,6.37615 c -0.0041,-0.075 -0.06279,-0.1344 -0.134702,-0.1344 -0.07264,0 -0.13184,0.059 -0.134917,0.1344 0,0 -0.116995,3.2695 -0.116995,3.2695 l 0.117155,1.7089 c 0.0041,0.075 0.06212,0.1337 0.134757,0.1337 z m 1.47568,-0.1612 v 0 l 0.1135285,-1.68 -0.1135285,-3.662 c -0.00408,-0.091 -0.074026,-0.1622 -0.161938,-0.1622 -0.088445,0 -0.1596801,0.071 -0.1620985,0.1622 l -0.1008169,3.6619 0.1010137,1.6808 c 0.00408,0.09 0.073616,0.1612 0.1619017,0.1612 0.088125,0 0.1589865,-0.071 0.161938,-0.1618 v 0 z m 8.5894055,-3.7917 c -0.269601,0 -0.526864,0.055 -0.761246,0.1537 -0.156568,-1.7852 -1.643964,-3.1856 -3.4582572,-3.1856 -0.4439649,0 -0.8766933,0.088 -1.2588802,0.2368 -0.14848,0.058 -0.1880717,0.1173 -0.1894581,0.2329 v 6.2869 c 0,0.1212 0.095005,0.2222 0.2125331,0.2341 0.0048,0 5.4200364,0 5.4551484,0 1.08679,0 1.967962,-0.8869 1.967962,-1.981 0,-1.094 -0.881012,-1.9811 -1.967802,-1.9811 z M 7.962064,4.96775 c -0.1182216,0 -0.2152718,0.098 -0.2169785,0.2176 l -0.0888,4.4623 0.08896,1.6196 c 0,0.1183 0.098597,0.2158 0.2168185,0.2158 0.1178484,0 0.214915,-0.098 0.2166402,-0.2176 v 0 l 0.096533,-1.6197 -0.096533,-4.4626 c 0,-0.1197 -0.098792,-0.2173 -0.2166402,-0.2173 z"/>
</svg>
