<svg xmlns="http://www.w3.org/2000/svg" width="16" height="16" version="1.1">
 <defs>
   <style id="current-color-scheme" type="text/css">
   .ColorScheme-Text { color: #E7E7E7; } .ColorScheme-Highlight { color:#5294e2; }
  </style>
  <linearGradient id="arrongin" x1="0%" x2="0%" y1="0%" y2="100%">
   <stop offset="0%" style="stop-color:#dd9b44; stop-opacity:1"/>
   <stop offset="100%" style="stop-color:#ad6c16; stop-opacity:1"/>
  </linearGradient>
  <linearGradient id="aurora" x1="0%" x2="0%" y1="0%" y2="100%">
   <stop offset="0%" style="stop-color:#09D4DF; stop-opacity:1"/>
   <stop offset="100%" style="stop-color:#9269F4; stop-opacity:1"/>
  </linearGradient>
  <linearGradient id="cyberneon" x1="0%" x2="0%" y1="0%" y2="100%">
    <stop offset="0" style="stop-color:#0abdc6; stop-opacity:1"/>
    <stop offset="1" style="stop-color:#ea00d9; stop-opacity:1"/>
  </linearGradient>
  <linearGradient id="fitdance" x1="0%" x2="0%" y1="0%" y2="100%">
   <stop offset="0%" style="stop-color:#1AD6AB; stop-opacity:1"/>
   <stop offset="100%" style="stop-color:#329DB6; stop-opacity:1"/>
  </linearGradient>
  <linearGradient id="oomox" x1="0%" x2="0%" y1="0%" y2="100%">
   <stop offset="0%" style="stop-color:#efefe7; stop-opacity:1"/>
   <stop offset="100%" style="stop-color:#8f8f8b; stop-opacity:1"/>
  </linearGradient>
  <linearGradient id="rainblue" x1="0%" x2="0%" y1="0%" y2="100%">
   <stop offset="0%" style="stop-color:#00F260; stop-opacity:1"/>
   <stop offset="100%" style="stop-color:#0575E6; stop-opacity:1"/>
  </linearGradient>
  <linearGradient id="sunrise" x1="0%" x2="0%" y1="0%" y2="100%">
   <stop offset="0%" style="stop-color: #FF8501; stop-opacity:1"/>
   <stop offset="100%" style="stop-color: #FFCB01; stop-opacity:1"/>
  </linearGradient>
  <linearGradient id="telinkrin" x1="0%" x2="0%" y1="0%" y2="100%">
   <stop offset="0%" style="stop-color: #b2ced6; stop-opacity:1"/>
   <stop offset="100%" style="stop-color: #6da5b7; stop-opacity:1"/>
  </linearGradient>
  <linearGradient id="60spsycho" x1="0%" x2="0%" y1="0%" y2="100%">
   <stop offset="0%" style="stop-color: #df5940; stop-opacity:1"/>
   <stop offset="25%" style="stop-color: #d8d15f; stop-opacity:1"/>
   <stop offset="50%" style="stop-color: #e9882a; stop-opacity:1"/>
   <stop offset="100%" style="stop-color: #279362; stop-opacity:1"/>
  </linearGradient>
  <linearGradient id="90ssummer" x1="0%" x2="0%" y1="0%" y2="100%">
   <stop offset="0%" style="stop-color: #f618c7; stop-opacity:1"/>
   <stop offset="20%" style="stop-color: #94ffab; stop-opacity:1"/>
   <stop offset="50%" style="stop-color: #fbfd54; stop-opacity:1"/>
   <stop offset="100%" style="stop-color: #0f83ae; stop-opacity:1"/>
  </linearGradient>
 </defs>
 <path fill="currentColor" class="ColorScheme-Text" fill-rule="evenodd" d="M 8.711 7.035 C 8.731 7.178 8.748 7.323 8.763 7.467 C 8.806 7.879 8.767 8.292 8.738 8.703 C 8.724 9.065 8.737 9.429 8.741 9.792 C 8.749 10.075 8.722 10.356 8.699 10.638 C 8.684 10.829 8.707 11.021 8.705 11.213 C 8.698 11.396 8.672 11.576 8.641 11.756 C 8.982 11.725 9.323 11.691 9.664 11.664 C 9.908 11.626 10.153 11.588 10.398 11.556 C 10.467 11.557 10.534 11.549 10.602 11.54 C 10.665 11.511 11.069 12.418 11.006 12.447 L 11.006 12.447 C 10.916 12.473 10.827 12.502 10.735 12.522 C 10.511 12.537 10.293 12.604 10.07 12.633 C 9.707 12.729 9.334 12.786 8.961 12.826 C 8.814 12.832 8.669 12.847 8.524 12.864 C 8.526 12.952 8.529 13.04 8.532 13.127 C 8.553 13.467 8.551 13.808 8.55 14.148 C 8.55 14.432 8.543 14.718 8.521 15.002 C 8.503 15.127 8.506 15.253 8.507 15.379 C 8.507 15.449 7.52 15.456 7.519 15.385 L 7.519 15.385 C 7.518 15.255 7.518 15.125 7.501 14.996 C 7.484 14.714 7.486 14.43 7.491 14.147 C 7.49 13.817 7.472 13.487 7.462 13.158 C 7.46 13.106 7.458 13.055 7.457 13.003 C 7.304 13.052 7.156 13.126 6.994 13.146 C 6.595 13.225 6.192 13.311 5.784 13.3 C 5.72 13.332 5.279 12.425 5.342 12.393 C 5.734 12.214 6.167 12.169 6.589 12.122 C 6.866 12.13 7.123 12.039 7.387 11.97 C 7.435 11.959 7.483 11.948 7.531 11.937 C 7.545 11.82 7.558 11.704 7.579 11.588 C 7.642 11.236 7.583 11.591 7.647 11.277 C 7.656 11.231 7.662 11.185 7.67 11.14 C 7.704 10.978 7.717 10.807 7.703 10.642 C 7.677 10.361 7.639 10.08 7.642 9.797 C 7.641 9.416 7.654 9.035 7.688 8.655 C 7.701 8.289 7.656 7.927 7.615 7.564 C 7.595 7.364 7.579 7.163 7.57 6.962 C 7.552 7.024 7.544 7.086 7.538 7.155 C 7.506 7.364 7.424 7.558 7.329 7.746 C 7.265 7.842 7.247 7.955 7.201 8.064 C 7.136 8.206 7.051 8.338 6.985 8.48 C 6.921 8.636 6.857 8.792 6.797 8.949 C 6.72 9.202 6.583 9.423 6.426 9.633 C 6.356 9.703 6.31 9.781 6.274 9.872 C 6.184 10.059 6.084 10.24 5.98 10.419 C 5.894 10.561 5.799 10.695 5.72 10.841 C 5.63 11 5.553 11.164 5.464 11.323 C 5.373 11.488 5.273 11.647 5.182 11.812 C 5.063 12.013 4.914 12.195 4.764 12.372 C 4.678 12.481 4.589 12.593 4.535 12.722 C 4.447 12.937 4.31 13.124 4.163 13.302 C 4.041 13.468 3.897 13.614 3.764 13.77 C 3.674 13.896 3.554 14.001 3.477 14.136 C 3.389 14.314 3.258 14.461 3.132 14.611 C 3.019 14.756 2.893 14.888 2.763 15.017 C 2.636 15.139 2.51 15.261 2.385 15.385 C 2.262 15.51 2.141 15.635 2.018 15.76 C 1.939 15.841 1.862 15.923 1.775 15.996 C 1.732 16.052 0.953 15.438 0.996 15.383 L 0.996 15.383 C 1.068 15.297 1.149 15.222 1.227 15.142 C 1.35 15.018 1.472 14.893 1.592 14.767 C 1.721 14.635 1.851 14.503 1.987 14.379 C 2.093 14.282 2.204 14.188 2.292 14.072 C 2.388 13.944 2.497 13.827 2.582 13.69 C 2.686 13.521 2.794 13.358 2.924 13.209 C 3.057 13.045 3.195 12.885 3.326 12.72 C 3.425 12.613 3.533 12.508 3.602 12.378 C 3.691 12.178 3.78 11.973 3.919 11.802 C 4.044 11.651 4.17 11.501 4.287 11.345 C 4.327 11.29 4.379 11.232 4.41 11.171 C 4.43 11.132 4.469 11.029 4.484 10.998 C 4.498 10.967 4.515 10.938 4.531 10.908 C 4.62 10.736 4.742 10.586 4.823 10.41 C 4.912 10.27 4.989 10.123 5.06 9.974 C 5.15 9.819 5.227 9.648 5.361 9.526 C 5.43 9.401 5.47 9.259 5.548 9.137 C 5.654 8.962 5.757 8.785 5.852 8.604 C 5.924 8.457 5.992 8.311 6.038 8.153 C 6.1 7.996 6.184 7.853 6.28 7.716 C 6.289 7.699 6.295 7.68 6.306 7.663 C 6.308 7.659 6.316 7.66 6.318 7.655 C 6.365 7.554 6.361 7.429 6.43 7.336 C 6.491 7.249 6.503 7.141 6.55 7.047 C 6.585 6.861 6.589 6.665 6.701 6.503 C 6.754 6.391 6.817 6.285 6.856 6.167 C 6.885 6.083 6.913 5.998 6.942 5.914 C 6.814 5.949 6.685 5.978 6.552 5.968 C 6.357 5.993 6.166 6.046 5.968 6.045 C 5.836 6.062 5.706 6.092 5.574 6.112 C 5.439 6.133 5.301 6.134 5.169 6.175 C 4.876 6.214 4.584 6.258 4.292 6.301 C 4.057 6.317 3.823 6.36 3.593 6.409 C 3.426 6.432 3.259 6.484 3.09 6.496 C 2.943 6.506 2.796 6.507 2.649 6.511 C 2.602 6.512 2.556 6.51 2.509 6.509 C 2.279 6.504 2.05 6.491 1.821 6.495 C 1.595 6.494 1.371 6.504 1.146 6.513 C 0.86 6.52 0.57 6.534 0.287 6.48 C 0.22 6.462 0.464 5.503 0.531 5.52 L 0.531 5.52 C 0.82 5.467 1.115 5.48 1.407 5.487 C 1.629 5.496 1.85 5.506 2.072 5.505 C 2.304 5.509 2.536 5.495 2.768 5.49 C 3.13 5.487 2.78 5.493 2.768 5.483 C 2.735 5.456 2.851 5.478 2.892 5.475 C 3.012 5.466 3.131 5.456 3.25 5.445 C 3.474 5.419 3.694 5.365 3.915 5.32 C 4.21 5.264 4.507 5.22 4.805 5.184 C 5.069 5.15 5.333 5.108 5.597 5.07 C 5.803 5.047 6.008 5.044 6.214 5.022 C 6.39 5.01 6.502 5.007 6.67 4.952 C 6.902 4.878 7.141 4.833 7.383 4.806 C 7.381 4.727 7.383 4.648 7.389 4.569 C 7.384 4.294 7.341 4.026 7.311 3.753 C 7.288 3.321 7.294 2.886 7.238 2.456 C 7.194 2.046 7.151 1.637 7.132 1.225 C 7.113 0.862 7.044 0.504 7.037 0.14 C 7.029 0.07 8.013 -0.049 8.021 0.021 L 8.021 0.021 C 8.187 0.383 8.21 0.793 8.223 1.186 C 8.235 1.572 8.278 1.956 8.334 2.338 C 8.42 2.797 8.411 3.261 8.411 3.726 C 8.404 4.004 8.411 4.283 8.411 4.562 C 8.412 4.598 8.411 4.635 8.413 4.672 C 8.664 4.617 8.919 4.587 9.171 4.545 C 9.357 4.528 9.542 4.491 9.728 4.479 C 9.756 4.477 9.784 4.479 9.811 4.479 C 9.841 4.477 9.871 4.474 9.901 4.471 C 10.083 4.43 10.267 4.449 10.449 4.423 C 10.619 4.388 10.789 4.353 10.961 4.325 C 11.132 4.286 11.306 4.263 11.477 4.229 C 11.706 4.194 11.936 4.163 12.161 4.106 C 12.357 4.044 12.557 3.995 12.754 3.936 C 12.945 3.875 13.13 3.802 13.317 3.731 C 13.496 3.655 13.688 3.64 13.875 3.603 C 14.013 3.585 14.028 3.591 14.157 3.538 C 14.3 3.486 14.446 3.449 14.582 3.381 C 14.751 3.287 14.918 3.255 15.106 3.239 C 15.113 3.238 15.121 3.237 15.129 3.236 C 15.191 3.204 15.638 4.093 15.576 4.125 L 15.576 4.125 C 15.537 4.137 15.499 4.149 15.46 4.16 C 15.409 4.17 15.359 4.187 15.307 4.189 C 15.3 4.19 15.296 4.18 15.289 4.177 C 15.247 4.161 15.201 4.185 15.162 4.198 C 14.996 4.274 14.838 4.373 14.658 4.409 C 14.54 4.441 14.425 4.481 14.307 4.508 C 14.298 4.51 14.3 4.461 14.28 4.502 C 14.208 4.52 14.141 4.55 14.069 4.569 C 13.985 4.591 13.895 4.595 13.813 4.627 C 13.708 4.65 13.616 4.697 13.515 4.735 C 13.258 4.833 13.525 4.734 13.328 4.787 C 13.295 4.796 13.264 4.809 13.232 4.821 C 13.045 4.88 12.861 4.95 12.677 5.015 C 12.474 5.094 12.267 5.163 12.048 5.177 C 12.012 5.179 11.976 5.174 11.939 5.175 C 11.905 5.177 11.872 5.182 11.838 5.185 C 11.766 5.191 11.694 5.205 11.622 5.208 C 11.607 5.209 11.593 5.201 11.578 5.2 C 11.51 5.199 11.444 5.23 11.378 5.241 C 11.203 5.286 11.023 5.321 10.844 5.347 C 10.646 5.393 10.452 5.441 10.247 5.427 C 10.175 5.438 10.105 5.455 10.033 5.463 C 10.005 5.466 9.977 5.461 9.949 5.463 C 9.822 5.47 9.707 5.521 9.582 5.543 C 9.391 5.577 9.198 5.603 9.006 5.625 C 9.161 5.777 9.283 5.96 9.382 6.157 C 9.395 6.186 9.41 6.215 9.422 6.245 C 9.462 6.35 9.462 6.361 9.477 6.473 C 9.479 6.485 9.483 6.52 9.48 6.509 C 9.444 6.394 9.455 6.418 9.48 6.454 C 9.582 6.485 9.657 6.699 9.717 6.793 C 9.761 6.864 9.834 6.907 9.89 6.965 C 9.914 6.99 9.994 7.089 10.017 7.118 C 10.145 7.266 10.275 7.409 10.377 7.577 C 10.457 7.72 10.539 7.86 10.617 8.003 C 10.698 8.105 10.778 8.208 10.862 8.308 C 10.985 8.464 11.109 8.618 11.218 8.784 C 11.31 8.908 11.403 9.033 11.481 9.167 C 11.572 9.312 11.687 9.441 11.792 9.577 C 11.937 9.758 12.056 9.959 12.204 10.137 C 12.317 10.278 12.442 10.407 12.573 10.53 C 12.7 10.645 12.822 10.766 12.943 10.889 C 13.067 11.017 13.192 11.145 13.318 11.273 C 13.338 11.293 13.357 11.316 13.379 11.335 C 13.416 11.366 13.461 11.388 13.5 11.417 C 13.584 11.478 13.661 11.545 13.738 11.614 C 13.754 11.626 13.769 11.64 13.787 11.65 C 13.801 11.659 13.817 11.662 13.833 11.669 C 13.856 11.681 13.879 11.692 13.901 11.706 C 13.991 11.759 14.08 11.813 14.166 11.871 C 14.36 11.98 14.524 12.133 14.705 12.261 C 14.811 12.325 14.894 12.419 14.987 12.498 C 15.028 12.533 15.074 12.562 15.117 12.596 C 15.229 12.692 15.352 12.773 15.477 12.85 C 15.56 12.876 15.637 12.918 15.72 12.946 C 15.778 12.983 15.247 13.817 15.189 13.779 L 15.189 13.779 C 15.072 13.726 14.951 13.679 14.841 13.613 C 14.675 13.516 14.515 13.406 14.373 13.276 C 14.26 13.173 14.153 13.071 14.013 13.004 C 13.834 12.882 13.665 12.747 13.485 12.627 C 13.319 12.518 13.147 12.419 12.99 12.295 C 12.829 12.168 12.663 12.046 12.524 11.892 C 12.397 11.763 12.272 11.632 12.148 11.5 C 12.043 11.39 11.936 11.283 11.818 11.188 C 11.638 11.034 11.463 10.871 11.324 10.676 C 11.191 10.482 11.048 10.296 10.914 10.102 C 10.806 9.944 10.699 9.785 10.604 9.619 C 10.524 9.508 10.443 9.398 10.356 9.292 C 10.24 9.147 10.118 9.007 10.023 8.846 C 9.923 8.713 9.816 8.585 9.733 8.44 C 9.646 8.312 9.572 8.176 9.484 8.049 C 9.396 7.925 9.306 7.802 9.201 7.691 C 9.06 7.546 8.91 7.409 8.816 7.225 C 8.782 7.161 8.747 7.098 8.711 7.035 Z"/>
</svg>
