<svg xmlns="http://www.w3.org/2000/svg" width="16" height="16" version="1.1">
 <defs>
   <style id="current-color-scheme" type="text/css">
   .ColorScheme-Text { color: #E7E7E7; } .ColorScheme-Highlight { color:#5294e2; }
  </style>
  <linearGradient id="arrongin" x1="0%" x2="0%" y1="0%" y2="100%">
   <stop offset="0%" style="stop-color:#dd9b44; stop-opacity:1"/>
   <stop offset="100%" style="stop-color:#ad6c16; stop-opacity:1"/>
  </linearGradient>
  <linearGradient id="aurora" x1="0%" x2="0%" y1="0%" y2="100%">
   <stop offset="0%" style="stop-color:#09D4DF; stop-opacity:1"/>
   <stop offset="100%" style="stop-color:#9269F4; stop-opacity:1"/>
  </linearGradient>
  <linearGradient id="cyberneon" x1="0%" x2="0%" y1="0%" y2="100%">
    <stop offset="0" style="stop-color:#0abdc6; stop-opacity:1"/>
    <stop offset="1" style="stop-color:#ea00d9; stop-opacity:1"/>
  </linearGradient>
  <linearGradient id="fitdance" x1="0%" x2="0%" y1="0%" y2="100%">
   <stop offset="0%" style="stop-color:#1AD6AB; stop-opacity:1"/>
   <stop offset="100%" style="stop-color:#329DB6; stop-opacity:1"/>
  </linearGradient>
  <linearGradient id="oomox" x1="0%" x2="0%" y1="0%" y2="100%">
   <stop offset="0%" style="stop-color:#efefe7; stop-opacity:1"/>
   <stop offset="100%" style="stop-color:#8f8f8b; stop-opacity:1"/>
  </linearGradient>
  <linearGradient id="rainblue" x1="0%" x2="0%" y1="0%" y2="100%">
   <stop offset="0%" style="stop-color:#00F260; stop-opacity:1"/>
   <stop offset="100%" style="stop-color:#0575E6; stop-opacity:1"/>
  </linearGradient>
  <linearGradient id="sunrise" x1="0%" x2="0%" y1="0%" y2="100%">
   <stop offset="0%" style="stop-color: #FF8501; stop-opacity:1"/>
   <stop offset="100%" style="stop-color: #FFCB01; stop-opacity:1"/>
  </linearGradient>
  <linearGradient id="telinkrin" x1="0%" x2="0%" y1="0%" y2="100%">
   <stop offset="0%" style="stop-color: #b2ced6; stop-opacity:1"/>
   <stop offset="100%" style="stop-color: #6da5b7; stop-opacity:1"/>
  </linearGradient>
  <linearGradient id="60spsycho" x1="0%" x2="0%" y1="0%" y2="100%">
   <stop offset="0%" style="stop-color: #df5940; stop-opacity:1"/>
   <stop offset="25%" style="stop-color: #d8d15f; stop-opacity:1"/>
   <stop offset="50%" style="stop-color: #e9882a; stop-opacity:1"/>
   <stop offset="100%" style="stop-color: #279362; stop-opacity:1"/>
  </linearGradient>
  <linearGradient id="90ssummer" x1="0%" x2="0%" y1="0%" y2="100%">
   <stop offset="0%" style="stop-color: #f618c7; stop-opacity:1"/>
   <stop offset="20%" style="stop-color: #94ffab; stop-opacity:1"/>
   <stop offset="50%" style="stop-color: #fbfd54; stop-opacity:1"/>
   <stop offset="100%" style="stop-color: #0f83ae; stop-opacity:1"/>
  </linearGradient>
 </defs>
 <path fill="currentColor" class="ColorScheme-Text" fill-rule="evenodd" d="M 4.217 4.253 L 3.09 4.253 L 3.09 4.253 C 2.279 4.253 1.492 4.581 0.928 5.145 C 0.353 5.721 0.024 6.496 0.035 7.307 L 0.035 12.946 C 0.024 13.756 0.353 14.532 0.928 15.107 C 1.492 15.683 2.279 16 3.09 16 L 8.728 16 C 9.527 16 10.314 15.683 10.878 15.107 C 11.454 14.532 11.783 13.756 11.783 12.946 L 11.783 11.747 L 12.911 11.747 C 13.721 11.747 14.496 11.419 15.072 10.855 C 15.636 10.279 15.965 9.504 15.965 8.693 L 15.965 3.054 C 15.965 2.244 15.636 1.468 15.072 0.893 C 14.496 0.317 13.721 0 12.911 0 L 7.272 0 L 7.272 0 C 6.461 0 5.686 0.317 5.11 0.893 C 4.535 1.468 4.217 2.244 4.217 3.054 L 4.217 4.253 Z M 6.567 4.253 L 8.728 4.253 C 9.527 4.253 10.314 4.581 10.878 5.145 C 11.454 5.721 11.783 6.496 11.783 7.307 L 11.783 9.398 L 12.911 9.398 C 13.099 9.398 13.275 9.316 13.404 9.186 C 13.533 9.057 13.615 8.881 13.615 8.693 L 13.615 3.054 C 13.615 2.866 13.533 2.69 13.404 2.549 C 13.275 2.42 13.099 2.349 12.911 2.349 L 7.272 2.349 L 7.272 2.349 C 7.084 2.349 6.908 2.42 6.767 2.549 C 6.637 2.69 6.567 2.866 6.567 3.054 L 6.567 4.253 Z M 4.217 6.602 L 3.09 6.602 L 3.09 6.602 L 3.078 6.602 C 2.902 6.602 2.714 6.684 2.585 6.814 C 2.455 6.943 2.385 7.119 2.385 7.307 L 2.385 12.946 C 2.385 13.134 2.455 13.31 2.585 13.451 C 2.714 13.58 2.902 13.651 3.078 13.651 L 8.728 13.651 C 8.905 13.651 9.093 13.58 9.222 13.451 C 9.351 13.31 9.433 13.134 9.433 12.946 L 9.433 11.747 L 7.272 11.747 C 6.461 11.747 5.686 11.419 5.11 10.855 C 4.535 10.279 4.217 9.504 4.217 8.693 L 4.217 6.602 Z M 6.567 6.602 L 8.728 6.602 C 8.905 6.602 9.093 6.684 9.222 6.814 C 9.351 6.943 9.433 7.119 9.433 7.307 L 9.433 9.398 L 7.272 9.398 C 7.084 9.398 6.908 9.316 6.767 9.186 C 6.637 9.057 6.567 8.881 6.567 8.693 L 6.567 6.602 Z"/>
</svg>
