<svg xmlns="http://www.w3.org/2000/svg" width="16" height="16" version="1.1">
 <defs>
   <style id="current-color-scheme" type="text/css">
   .ColorScheme-Text { color: #E7E7E7; } .ColorScheme-Highlight { color:#5294e2; }
  </style>
  <linearGradient id="arrongin" x1="0%" x2="0%" y1="0%" y2="100%">
   <stop offset="0%" style="stop-color:#dd9b44; stop-opacity:1"/>
   <stop offset="100%" style="stop-color:#ad6c16; stop-opacity:1"/>
  </linearGradient>
  <linearGradient id="aurora" x1="0%" x2="0%" y1="0%" y2="100%">
   <stop offset="0%" style="stop-color:#09D4DF; stop-opacity:1"/>
   <stop offset="100%" style="stop-color:#9269F4; stop-opacity:1"/>
  </linearGradient>
  <linearGradient id="cyberneon" x1="0%" x2="0%" y1="0%" y2="100%">
    <stop offset="0" style="stop-color:#0abdc6; stop-opacity:1"/>
    <stop offset="1" style="stop-color:#ea00d9; stop-opacity:1"/>
  </linearGradient>
  <linearGradient id="fitdance" x1="0%" x2="0%" y1="0%" y2="100%">
   <stop offset="0%" style="stop-color:#1AD6AB; stop-opacity:1"/>
   <stop offset="100%" style="stop-color:#329DB6; stop-opacity:1"/>
  </linearGradient>
  <linearGradient id="oomox" x1="0%" x2="0%" y1="0%" y2="100%">
   <stop offset="0%" style="stop-color:#efefe7; stop-opacity:1"/>
   <stop offset="100%" style="stop-color:#8f8f8b; stop-opacity:1"/>
  </linearGradient>
  <linearGradient id="rainblue" x1="0%" x2="0%" y1="0%" y2="100%">
   <stop offset="0%" style="stop-color:#00F260; stop-opacity:1"/>
   <stop offset="100%" style="stop-color:#0575E6; stop-opacity:1"/>
  </linearGradient>
  <linearGradient id="sunrise" x1="0%" x2="0%" y1="0%" y2="100%">
   <stop offset="0%" style="stop-color: #FF8501; stop-opacity:1"/>
   <stop offset="100%" style="stop-color: #FFCB01; stop-opacity:1"/>
  </linearGradient>
  <linearGradient id="telinkrin" x1="0%" x2="0%" y1="0%" y2="100%">
   <stop offset="0%" style="stop-color: #b2ced6; stop-opacity:1"/>
   <stop offset="100%" style="stop-color: #6da5b7; stop-opacity:1"/>
  </linearGradient>
  <linearGradient id="60spsycho" x1="0%" x2="0%" y1="0%" y2="100%">
   <stop offset="0%" style="stop-color: #df5940; stop-opacity:1"/>
   <stop offset="25%" style="stop-color: #d8d15f; stop-opacity:1"/>
   <stop offset="50%" style="stop-color: #e9882a; stop-opacity:1"/>
   <stop offset="100%" style="stop-color: #279362; stop-opacity:1"/>
  </linearGradient>
  <linearGradient id="90ssummer" x1="0%" x2="0%" y1="0%" y2="100%">
   <stop offset="0%" style="stop-color: #f618c7; stop-opacity:1"/>
   <stop offset="20%" style="stop-color: #94ffab; stop-opacity:1"/>
   <stop offset="50%" style="stop-color: #fbfd54; stop-opacity:1"/>
   <stop offset="100%" style="stop-color: #0f83ae; stop-opacity:1"/>
  </linearGradient>
 </defs>
 <path fill="currentColor" class="ColorScheme-Text" fill-rule="evenodd" d="M 7.775 11.693 L 0 11.693 L 0 10.689 L 6.082 2.449 L 0.345 2.449 L 0.345 1.206 L 7.775 1.206 L 7.775 2.21 L 1.723 10.449 L 7.775 10.449 L 7.775 11.693 Z M 12.39 14.794 L 12.39 14.794 L 11.76 13.775 L 11.76 13.775 Q 13.423 13.685 14.06 13.198 L 14.06 13.198 L 14.06 13.198 Q 14.697 12.712 14.697 11.873 L 14.697 11.873 L 14.697 10.944 L 14.697 10.944 Q 14.023 11.873 12.719 11.873 L 12.719 11.873 L 12.719 11.873 Q 11.371 11.873 10.479 10.824 L 10.479 10.824 L 10.479 10.824 Q 9.588 9.775 9.588 7.858 L 9.588 7.858 L 9.588 7.858 Q 9.588 6 10.464 4.929 L 10.464 4.929 L 10.464 4.929 Q 11.341 3.858 12.764 3.858 L 12.764 3.858 L 12.764 3.858 Q 13.963 3.858 14.697 4.667 L 14.697 4.667 L 14.697 4.037 L 16 4.037 L 16 11.378 L 16 11.378 Q 16 13.131 15.064 13.91 L 15.064 13.91 L 15.064 13.91 Q 14.127 14.689 12.39 14.794 Z M 12.989 10.659 L 12.989 10.659 L 12.989 10.659 Q 13.468 10.659 13.94 10.367 L 13.94 10.367 L 13.94 10.367 Q 14.412 10.075 14.697 9.581 L 14.697 9.581 L 14.697 6.075 L 14.697 6.075 Q 14.427 5.625 13.933 5.341 L 13.933 5.341 L 13.933 5.341 Q 13.438 5.056 12.989 5.056 L 12.989 5.056 L 12.989 5.056 Q 11.97 5.056 11.438 5.783 L 11.438 5.783 L 11.438 5.783 Q 10.906 6.509 10.906 7.858 L 10.906 7.858 L 10.906 7.858 Q 10.906 9.161 11.483 9.91 L 11.483 9.91 L 11.483 9.91 Q 12.06 10.659 12.989 10.659 Z"/>
</svg>
