<svg xmlns="http://www.w3.org/2000/svg" width="24" height="24" version="1.1">
 <defs>
  <style id="current-color-scheme" type="text/css">
   .ColorScheme-Text { color: #c8dff1; } .ColorScheme-Highlight { color: #1AD6AB; }
  </style>
  <linearGradient id="arrongin" x1="0%" x2="0%" y1="0%" y2="100%">
   <stop offset="0%" style="stop-color:#dd9b44"/>
   <stop offset="100%" style="stop-color:#ad6c16"/>
  </linearGradient>
  <linearGradient id="aurora" x1="0%" x2="0%" y1="0%" y2="100%">
   <stop offset="0%" style="stop-color:#09D4DF"/>
   <stop offset="100%" style="stop-color:#9269F4"/>
  </linearGradient>
  <linearGradient id="cyberneon" x1="0%" x2="0%" y1="0%" y2="100%">
   <stop offset="0" style="stop-color:#0abdc6"/>
   <stop offset="1" style="stop-color:#ea00d9"/>
  </linearGradient>
  <linearGradient id="fitdance" x1="0%" x2="0%" y1="0%" y2="100%">
   <stop offset="0%" style="stop-color:#1AD6AB"/>
   <stop offset="100%" style="stop-color:#329DB6"/>
  </linearGradient>
  <linearGradient id="oomox" x1="0%" x2="0%" y1="0%" y2="100%">
   <stop offset="0%" style="stop-color:#efefe7"/>
   <stop offset="100%" style="stop-color:#8f8f8b"/>
  </linearGradient>
  <linearGradient id="rainblue" x1="0%" x2="0%" y1="0%" y2="100%">
   <stop offset="0%" style="stop-color:#00F260"/>
   <stop offset="100%" style="stop-color:#0575E6"/>
  </linearGradient>
  <linearGradient id="sunrise" x1="0%" x2="0%" y1="0%" y2="100%">
   <stop offset="0%" style="stop-color:#FF8501"/>
   <stop offset="100%" style="stop-color:#FFCB01"/>
  </linearGradient>
  <linearGradient id="telinkrin" x1="0%" x2="0%" y1="0%" y2="100%">
   <stop offset="0%" style="stop-color:#b2ced6"/>
   <stop offset="100%" style="stop-color:#6da5b7"/>
  </linearGradient>
  <linearGradient id="60spsycho" x1="0%" x2="0%" y1="0%" y2="100%">
   <stop offset="0%" style="stop-color:#df5940"/>
   <stop offset="25%" style="stop-color:#d8d15f"/>
   <stop offset="50%" style="stop-color:#e9882a"/>
   <stop offset="100%" style="stop-color:#279362"/>
  </linearGradient>
  <linearGradient id="90ssummer" x1="0%" x2="0%" y1="0%" y2="100%">
   <stop offset="0%" style="stop-color:#f618c7"/>
   <stop offset="20%" style="stop-color:#94ffab"/>
   <stop offset="50%" style="stop-color:#fbfd54"/>
   <stop offset="100%" style="stop-color:#0f83ae"/>
  </linearGradient>
 </defs>
 <path fill="currentColor" class="ColorScheme-Text" opacity="0.3" d="m 12,4 c 4.418278,0 8,3.581722 8,8 0,4.418278 -3.581722,8 -8,8 -0.338712,0 -0.670405,-0.0275 -0.998047,-0.06836 -0.05173,-0.0066 -0.102741,-0.01582 -0.154297,-0.02344 -0.299691,-0.04336 -0.592886,-0.104065 -0.880859,-0.179687 -0.02863,-0.0076 -0.05739,-0.01358 -0.08594,-0.02148 C 9.204829,19.521439 8.566429,19.250204 7.974607,18.904299 6.199149,17.866587 4.861544,16.168192 4.298826,14.14258 c -0.0058,-0.02073 -0.01,-0.04173 -0.01563,-0.0625 -0.07946,-0.295263 -0.142041,-0.596573 -0.1875,-0.904297 -0.0086,-0.05675 -0.01802,-0.112956 -0.02539,-0.169922 C 4.028791,12.675649 4,12.341472 4,12 4,7.581722 7.581722,4 12,4 Z m 2,3 C 13.3974,7 12.737475,7.065 12.171875,7.25 11.889075,7.3425 11.625444,7.4630031 11.402344,7.6582031 11.311744,7.7375031 11.305481,7.889 11.238281,8 H 10.5 C 10.223869,8.0000276 10.000028,8.2238691 10,8.5 V 9 C 9.798,9.0034 9.682828,9.0103 8.798828,9 8.422828,8.9956 8.193109,8.9985 7.912109,9 7.700489,8.4014455 7.134862,8.0009371 6.5,8 5.671573,8 5,8.6715729 5,9.5 5,10.328427 5.671573,11 6.5,11 c 0.05347,-4.12e-4 0.107035,-0.0037 0.160156,-0.0098 0.695,0.8638 1.640703,1.557516 2.345703,2.228516 L 9,13.488281 C 8.9932,13.771458 9.222622,14.003452 9.505859,14 c 0.447,-0.005 0.501375,0.09245 0.484375,0.06445 -0.016,-0.027 0.01688,0.0878 -0.07813,0.341797 -0.095,0.255 -0.275125,0.587734 -0.453125,0.927734 -0.178,0.34 -0.359312,0.680735 -0.445312,1.052735 C 8.941092,16.699741 9.178674,16.999276 9.5,17 h 3 c 0.0013,5e-6 0.0026,5e-6 0.0039,0 1.3257,-0.008 3.994141,0 3.994141,0 0.415933,0.0018 0.652096,-0.47505 0.398437,-0.804688 -0.2764,-0.359999 -0.535097,-1.041906 -0.716796,-1.753906 -0.130601,-0.511 -0.222129,-1.008937 -0.298829,-1.460937 0.0699,-0.013 0.14105,-0.03322 0.21875,-0.07422 0.1626,-0.085 0.339225,-0.3415 0.328125,-0.5625 -0.0073,-0.148 -0.024,-0.141156 -0.0293,-0.160156 -0.0052,-0.02 -0.0066,-0.02911 -0.0078,-0.03711 v -0.002 C 16.809625,11.558531 17,10.78265 17,10.09375 17,9.21625 16.584431,8.4454375 16.019531,7.8984375 15.454731,7.3515375 14.7344,7 14,7 Z m 0,1 c 0.3918,0 0.920619,0.2263875 1.324219,0.6171875 C 15.727819,9.007988 16,9.53515 16,10.09375 c 0,0.5009 -0.225744,1.247922 -0.464844,1.544922 -0.0327,0.03972 -0.059,0.08505 -0.07813,0.132812 -0.0267,0.069 -0.009,0.115688 -0.01953,0.179688 -0.1366,-0.019 -0.268541,-0.03105 -0.556641,-0.123047 -0.3417,-0.135 -0.643181,-0.285406 -0.925781,-0.441406 -0.0962,-0.054 -0.189356,-0.116782 -0.285156,-0.175781 -0.2095,-0.132 -0.411238,-0.267063 -0.585938,-0.414063 -0.321,-0.2901 -0.584881,-0.647494 -0.863281,-0.996094 -0.0964,-0.1595 -0.186165,-0.322494 -0.259765,-0.496094 C 11.882457,9.11976 11.700891,8.9997644 11.5,9 11.776131,8.9999724 11.999972,8.7761309 12,8.5 12,8.4728 11.9928,8.4711562 12.0625,8.4101562 12.1322,8.3490563 12.281022,8.2669719 12.482422,8.2011719 12.885322,8.0693719 13.4764,8 14,8 Z m -3.583984,2 c 0.02905,0.0052 0.05838,0.0078 0.08789,0.0078 l 0.511719,-0.0039 c 0.0864,0.0518 0.194784,0.140794 0.333984,0.308594 0.3124,0.3764 0.6995,1.007281 1.375,1.488281 0.631,0.449 1.156413,0.688516 1.570313,0.853516 0.08,0.035 0.145815,0.07833 0.228515,0.111328 0.0097,0.0033 0.01944,0.0071 0.0293,0.0098 0.0665,0.022 0.112529,0.02887 0.173829,0.04687 0.0289,0.01 0.108106,0.04378 0.128906,0.05078 0.0829,0.511 0.182569,1.139406 0.355469,1.816406 0.1219,0.478 0.355634,0.879547 0.552734,1.310547 -0.691,-0.002 -2.175878,-0.007 -3.267578,0 h -2.240235 c 0.038,-0.077 0.04489,-0.120172 0.08789,-0.201172 0.172,-0.329 0.368906,-0.680969 0.503906,-1.042969 0.135,-0.362 0.250047,-0.791984 -0.002,-1.208984 -0.157,-0.259 -0.525891,-0.263844 -0.837891,-0.339844 l 0.0039,-0.195312 c 0.0032,-0.136988 -0.04941,-0.268529 -0.146485,-0.365235 -0.762,-0.764 -1.616656,-1.477534 -2.222656,-2.177734 C 7.759891,10.330061 7.851568,10.171266 7.912109,10 c 0.28,-0.0015 0.52,-0.0041 0.875,0 1.179,0.0138 1.577907,0.0014 1.628907,0 z"/>
 <path fill="currentColor" class="ColorScheme-Text" d="M 12,4 V 7.3203125 C 11.784181,7.4042325 11.578242,7.5043018 11.402344,7.6582031 11.311744,7.7375031 11.305481,7.889 11.238281,8 H 10.5 C 10.223869,8.0000276 10.000028,8.2238691 10,8.5 V 9 C 9.798,9.0034 9.682828,9.0103 8.798828,9 8.422828,8.9956 8.193109,8.9985 7.912109,9 7.700489,8.4014455 7.134862,8.0009371 6.5,8 5.671573,8 5,8.6715729 5,9.5 5,10.328427 5.671573,11 6.5,11 c 0.05347,-4.12e-4 0.107035,-0.0037 0.160156,-0.0098 0.695,0.8638 1.640703,1.557516 2.345703,2.228516 L 9,13.488281 C 8.9932,13.771458 9.222622,14.003452 9.505859,14 c 0.447,-0.005 0.501375,0.09245 0.484375,0.06445 -0.016,-0.027 0.01688,0.0878 -0.07813,0.341797 -0.095,0.255 -0.275125,0.587734 -0.453125,0.927734 -0.178,0.34 -0.359312,0.680735 -0.445312,1.052735 C 8.941092,16.699741 9.178674,16.999276 9.5,17 h 3 c 0.0013,5e-6 0.0026,5e-6 0.0039,0 1.3257,-0.008 3.994141,0 3.994141,0 0.415933,0.0018 0.652096,-0.475049 0.398437,-0.804688 -0.2764,-0.359999 -0.535097,-1.041906 -0.716797,-1.753906 -0.1306,-0.511 -0.222128,-1.008937 -0.298828,-1.460937 0.0699,-0.013 0.14105,-0.03322 0.21875,-0.07422 0.1626,-0.085 0.339225,-0.3415 0.328125,-0.5625 -0.0073,-0.148 -0.024,-0.141156 -0.0293,-0.160156 -0.0052,-0.02 -0.0066,-0.02911 -0.0078,-0.03711 v -0.002 C 16.809625,11.558531 17,10.78265 17,10.09375 17,9.237663 16.600491,8.4875998 16.056641,7.9433594 L 17.65625,6.34375 C 19.103965,7.7914652 20,9.790861 20,12 c 0,4.418278 -3.581722,8 -8,8 -0.338712,0 -0.670405,-0.0275 -0.998047,-0.06836 -0.05173,-0.0066 -0.102741,-0.01582 -0.154297,-0.02344 -0.299691,-0.04336 -0.592886,-0.104065 -0.880859,-0.179687 -0.02863,-0.0076 -0.05739,-0.01358 -0.08594,-0.02148 C 9.204829,19.521439 8.566429,19.250204 7.974607,18.904299 6.199149,17.866587 4.861544,16.168192 4.298826,14.14258 c -0.0058,-0.02073 -0.01,-0.04173 -0.01563,-0.0625 -0.07946,-0.295263 -0.142041,-0.596573 -0.1875,-0.904297 -0.0086,-0.05675 -0.01802,-0.112956 -0.02539,-0.169922 C 4.028791,12.675649 4,12.341472 4,12 4,7.581722 7.581722,4 12,4 Z m 0,4.5 V 9.378906 C 11.98828,9.353356 11.97196,9.330686 11.96094,9.304686 11.882456,9.11976 11.700891,8.9997644 11.5,9 11.776131,8.9999724 11.999972,8.7761309 12,8.5 Z m 3.351563,0.1484375 C 15.738746,9.036086 16,9.548974 16,10.09375 c 0,0.5009 -0.225744,1.247922 -0.464844,1.544922 -0.0327,0.03972 -0.059,0.08505 -0.07813,0.132812 -0.0267,0.069 -0.009,0.115688 -0.01953,0.179688 -0.1366,-0.019 -0.26854,-0.03105 -0.55664,-0.123047 -0.3417,-0.135 -0.643182,-0.285406 -0.925782,-0.441406 -0.0962,-0.054 -0.189356,-0.116783 -0.285156,-0.175781 -0.184505,-0.116252 -0.356328,-0.238171 -0.515625,-0.365235 z M 10.416016,10 c 0.02905,0.0052 0.05838,0.0078 0.08789,0.0078 l 0.511719,-0.0039 c 0.0864,0.05181 0.194784,0.1408 0.333984,0.3086 0.17721,0.213513 0.386103,0.509023 0.650391,0.8125 V 12 l 0.439453,-0.439453 c 0.09253,0.08121 0.179272,0.164838 0.285156,0.240234 0.631001,0.449 1.156413,0.688516 1.570313,0.853516 0.08,0.035 0.145816,0.07833 0.228516,0.111328 0.0097,0.0033 0.01944,0.0071 0.0293,0.0098 0.0665,0.022 0.112528,0.02887 0.173828,0.04687 0.0289,0.01 0.108106,0.04378 0.128906,0.05078 0.0829,0.511 0.182569,1.139406 0.355469,1.816406 0.1219,0.478 0.355634,0.879547 0.552734,1.310547 -0.691,-0.002 -2.175878,-0.007 -3.267578,0 h -2.240235 c 0.038,-0.077 0.04489,-0.120172 0.08789,-0.201172 0.172,-0.329 0.368906,-0.680969 0.503906,-1.042969 0.135,-0.362 0.250047,-0.791984 -0.002,-1.208984 -0.157,-0.259 -0.52589,-0.263844 -0.837891,-0.339844 l 0.0039,-0.195312 c 0.0032,-0.136988 -0.04941,-0.268529 -0.146485,-0.365235 -0.762,-0.764 -1.616656,-1.477534 -2.222656,-2.177734 C 7.759891,10.330061 7.851568,10.171266 7.912109,10 c 0.28,-0.0015 0.52,-0.0041 0.875,0 1.179,0.0138 1.577907,0.0014 1.628907,0 z"/>
</svg>
