<svg xmlns="http://www.w3.org/2000/svg" width="24" height="24" version="1.1">
 <defs>
  <style id="current-color-scheme" type="text/css">
   .ColorScheme-Text { color: #c8dff1; } .ColorScheme-Highlight { color: #1AD6AB; }
  </style>
  <linearGradient id="arrongin" x1="0%" x2="0%" y1="0%" y2="100%">
   <stop offset="0%" style="stop-color:#dd9b44"/>
   <stop offset="100%" style="stop-color:#ad6c16"/>
  </linearGradient>
  <linearGradient id="aurora" x1="0%" x2="0%" y1="0%" y2="100%">
   <stop offset="0%" style="stop-color:#09D4DF"/>
   <stop offset="100%" style="stop-color:#9269F4"/>
  </linearGradient>
  <linearGradient id="cyberneon" x1="0%" x2="0%" y1="0%" y2="100%">
   <stop offset="0" style="stop-color:#0abdc6"/>
   <stop offset="1" style="stop-color:#ea00d9"/>
  </linearGradient>
  <linearGradient id="fitdance" x1="0%" x2="0%" y1="0%" y2="100%">
   <stop offset="0%" style="stop-color:#1AD6AB"/>
   <stop offset="100%" style="stop-color:#329DB6"/>
  </linearGradient>
  <linearGradient id="oomox" x1="0%" x2="0%" y1="0%" y2="100%">
   <stop offset="0%" style="stop-color:#efefe7"/>
   <stop offset="100%" style="stop-color:#8f8f8b"/>
  </linearGradient>
  <linearGradient id="rainblue" x1="0%" x2="0%" y1="0%" y2="100%">
   <stop offset="0%" style="stop-color:#00F260"/>
   <stop offset="100%" style="stop-color:#0575E6"/>
  </linearGradient>
  <linearGradient id="sunrise" x1="0%" x2="0%" y1="0%" y2="100%">
   <stop offset="0%" style="stop-color:#FF8501"/>
   <stop offset="100%" style="stop-color:#FFCB01"/>
  </linearGradient>
  <linearGradient id="telinkrin" x1="0%" x2="0%" y1="0%" y2="100%">
   <stop offset="0%" style="stop-color:#b2ced6"/>
   <stop offset="100%" style="stop-color:#6da5b7"/>
  </linearGradient>
  <linearGradient id="60spsycho" x1="0%" x2="0%" y1="0%" y2="100%">
   <stop offset="0%" style="stop-color:#df5940"/>
   <stop offset="25%" style="stop-color:#d8d15f"/>
   <stop offset="50%" style="stop-color:#e9882a"/>
   <stop offset="100%" style="stop-color:#279362"/>
  </linearGradient>
  <linearGradient id="90ssummer" x1="0%" x2="0%" y1="0%" y2="100%">
   <stop offset="0%" style="stop-color:#f618c7"/>
   <stop offset="20%" style="stop-color:#94ffab"/>
   <stop offset="50%" style="stop-color:#fbfd54"/>
   <stop offset="100%" style="stop-color:#0f83ae"/>
  </linearGradient>
 </defs>
 <path fill="currentColor" class="ColorScheme-Highlight" d="m 12,3.9999897 c -0.1926,0 -0.383066,0.010178 -0.572266,0.023437 -0.0237,0.00175 -0.04651,0.00194 -0.07031,0.00391 -2.8577999,0.2255199 -5.2791531,1.9428 -6.5019532,4.375 -0.079116,0.1574498 -0.1596856,0.3152656 -0.2285157,0.4785156 -0.37451,0.8457004 -0.5782944,1.7420417 -0.6152343,2.6816407 -0.00162,0.03035 -0.00262,0.06135 -0.00391,0.0918 -0.00247,0.08976 -0.00646,0.179011 -0.00586,0.269531 C 4.001721,11.949208 4,11.97455 4,11.99999 c 0,0.93022 0.1657181,1.819336 0.4550781,2.648438 0.11645,0.371679 0.2502294,0.746683 0.4121094,1.126953 0.013811,0.03244 0.020209,0.05115 0.033203,0.08203 C 5.4611046,15.307881 6.2148981,15.000052 7,14.99999 c 1.6568542,0 3,1.343146 3,3 -9.1e-4,0.579832 -0.1698321,1.146976 -0.4863281,1.632812 0.0926,0.02774 0.1584022,0.04387 0.2675781,0.07813 0.52453,0.1646 1.121575,0.252873 1.796875,0.277343 0.02825,0.0014 0.05761,0.0028 0.08594,0.0039 0.0924,0.003 0.181844,0.0078 0.277344,0.0078 0.0078,0 0.01373,5.7e-5 0.02149,0 0.01231,5.5e-5 0.02478,0 0.03711,0 0.22339,0 0.443449,-0.01152 0.662109,-0.0293 1.9778,-0.14065 3.566394,-0.871468 4.996094,-2.298828 1.178,-1.176 1.908766,-2.627283 2.197266,-4.146484 0.02658,-0.13883 0.04706,-0.280545 0.06641,-0.421875 0.0117,-0.08676 0.02438,-0.172726 0.0332,-0.259766 0.01939,-0.18667 0.03067,-0.376056 0.03711,-0.566406 0.0014,-0.04797 0.0034,-0.09459 0.0039,-0.142578 C 19.996788,12.090066 20,12.044839 20,11.99999 20,7.6419892 16.549603,4.1221491 12.220703,4.0058491 c -0.0336,-0.0015 -0.06786,-0.00142 -0.101562,-0.00195 -0.04,-5.86e-4 -0.07904,-0.00391 -0.119141,-0.00391 z m -2.5,4 c 0.828427,0 1.5,0.6715729 1.5,1.5 0,0.5 0,1.5000003 -1,1.5000003 0,1 2.031563,2.945724 3,3 0,-1 1,-1 1.5,-1 0.828427,0 1.5,0.671573 1.5,1.5 0,0.828427 -0.671573,1.5 -1.5,1.5 l -0.560547,0 C 13.643139,15.993498 13.297744,15.884041 12.8125,15.707021 11.189553,15.114961 10.062843,14.164523 8.9082031,12.414052 8.2356082,11.394369 8.0036,10.780715 8,10.017568 L 8,9.4999897 c 0,-0.8284271 0.6715729,-1.5 1.5,-1.5 z"/>
 <circle fill="currentColor" class="ColorScheme-Highlight" cx="7" cy="18" r="2"/>
</svg>
