<svg xmlns="http://www.w3.org/2000/svg" width="16" height="16" version="1.1">
 <defs>
   <style id="current-color-scheme" type="text/css">
   .ColorScheme-Text { color: #cc00cc; } .ColorScheme-Highlight { color:#5294e2; }
  </style>
  <linearGradient id="arrongin" x1="0%" x2="0%" y1="0%" y2="100%">
   <stop offset="0%" style="stop-color:#dd9b44; stop-opacity:1"/>
   <stop offset="100%" style="stop-color:#ad6c16; stop-opacity:1"/>
  </linearGradient>
  <linearGradient id="aurora" x1="0%" x2="0%" y1="0%" y2="100%">
   <stop offset="0%" style="stop-color:#09D4DF; stop-opacity:1"/>
   <stop offset="100%" style="stop-color:#9269F4; stop-opacity:1"/>
  </linearGradient>
  <linearGradient id="cyberneon" x1="0%" x2="0%" y1="0%" y2="100%">
    <stop offset="0" style="stop-color:#0abdc6; stop-opacity:1"/>
    <stop offset="1" style="stop-color:#ea00d9; stop-opacity:1"/>
  </linearGradient>
  <linearGradient id="fitdance" x1="0%" x2="0%" y1="0%" y2="100%">
   <stop offset="0%" style="stop-color:#1AD6AB; stop-opacity:1"/>
   <stop offset="100%" style="stop-color:#329DB6; stop-opacity:1"/>
  </linearGradient>
  <linearGradient id="oomox" x1="0%" x2="0%" y1="0%" y2="100%">
   <stop offset="0%" style="stop-color:#efefe7; stop-opacity:1"/>
   <stop offset="100%" style="stop-color:#8f8f8b; stop-opacity:1"/>
  </linearGradient>
  <linearGradient id="rainblue" x1="0%" x2="0%" y1="0%" y2="100%">
   <stop offset="0%" style="stop-color:#00F260; stop-opacity:1"/>
   <stop offset="100%" style="stop-color:#0575E6; stop-opacity:1"/>
  </linearGradient>
  <linearGradient id="sunrise" x1="0%" x2="0%" y1="0%" y2="100%">
   <stop offset="0%" style="stop-color: #FF8501; stop-opacity:1"/>
   <stop offset="100%" style="stop-color: #FFCB01; stop-opacity:1"/>
  </linearGradient>
  <linearGradient id="telinkrin" x1="0%" x2="0%" y1="0%" y2="100%">
   <stop offset="0%" style="stop-color: #b2ced6; stop-opacity:1"/>
   <stop offset="100%" style="stop-color: #6da5b7; stop-opacity:1"/>
  </linearGradient>
  <linearGradient id="60spsycho" x1="0%" x2="0%" y1="0%" y2="100%">
   <stop offset="0%" style="stop-color: #df5940; stop-opacity:1"/>
   <stop offset="25%" style="stop-color: #d8d15f; stop-opacity:1"/>
   <stop offset="50%" style="stop-color: #e9882a; stop-opacity:1"/>
   <stop offset="100%" style="stop-color: #279362; stop-opacity:1"/>
  </linearGradient>
  <linearGradient id="90ssummer" x1="0%" x2="0%" y1="0%" y2="100%">
   <stop offset="0%" style="stop-color: #f618c7; stop-opacity:1"/>
   <stop offset="20%" style="stop-color: #94ffab; stop-opacity:1"/>
   <stop offset="50%" style="stop-color: #fbfd54; stop-opacity:1"/>
   <stop offset="100%" style="stop-color: #0f83ae; stop-opacity:1"/>
  </linearGradient>
 </defs>
 <path fill="currentColor" class="ColorScheme-Text" fill-rule="evenodd" d="M 14.656 7.387 L 14.176 7.387 C 13.773 7.386 13.446 7.059 13.446 6.656 L 13.446 4.896 C 13.446 4.492 13.773 4.165 14.176 4.165 L 14.656 4.165 C 15.059 4.165 15.386 4.492 15.387 4.896 L 15.387 6.656 C 15.387 7.038 15.039 7.387 14.656 7.387 L 14.656 7.387 L 14.656 7.387 L 14.656 7.387 Z M 1.824 7.387 L 1.344 7.387 C 0.955 7.387 0.613 7.03 0.613 6.624 L 0.613 4.864 C 0.613 4.482 0.961 4.133 1.344 4.133 L 1.856 4.133 C 2.245 4.133 2.587 4.49 2.587 4.896 L 2.587 6.656 C 2.587 7.045 2.231 7.387 1.824 7.387 L 1.824 7.387 L 1.824 7.387 L 1.824 7.387 Z M 0.96 12.8 L 15.04 12.8 L 15.04 14.4 L 0.96 14.4 L 0.96 12.8 L 0.96 12.8 L 0.96 12.8 Z M 1.92 16 L 3.2 16 C 3.729 16 4.16 15.569 4.16 15.04 L 0.96 15.04 C 0.96 15.569 1.391 16 1.92 16 L 1.92 16 L 1.92 16 Z M 12.8 16 L 14.08 16 C 14.609 16 15.04 15.569 15.04 15.04 L 11.84 15.04 C 11.84 15.569 12.271 16 12.8 16 L 12.8 16 L 12.8 16 Z M 4.096 4.275 C 4.104 4.138 4.767 3.584 7.68 3.584 C 10.377 3.584 11.786 4.057 11.907 4.298 L 12.231 6.761 C 11.757 6.841 10.35 7.04 8 7.04 C 5.651 7.04 4.243 6.841 3.769 6.76 L 4.096 4.275 L 4.096 4.275 L 4.096 4.275 Z M 4.48 10.976 C 4.48 11.104 4.384 11.2 4.256 11.2 L 2.784 11.2 C 2.656 11.2 2.56 11.104 2.56 10.976 L 2.56 10.144 C 2.56 10.016 2.656 9.92 2.784 9.92 L 4.256 9.92 C 4.384 9.92 4.48 10.016 4.48 10.144 L 4.48 10.976 L 4.48 10.976 L 4.48 10.976 Z M 10.24 10.688 C 10.24 10.976 10.016 11.2 9.728 11.2 L 6.272 11.2 C 5.984 11.2 5.76 10.976 5.76 10.688 L 5.76 9.152 C 5.76 9.084 5.774 9.019 5.797 8.96 C 5.871 8.771 6.053 8.64 6.272 8.64 L 9.728 8.64 C 9.948 8.64 10.129 8.771 10.203 8.96 C 10.227 9.019 10.24 9.084 10.24 9.152 L 10.24 10.688 L 10.24 10.688 L 10.24 10.688 Z M 13.44 10.976 C 13.44 11.104 13.344 11.2 13.216 11.2 L 11.744 11.2 C 11.616 11.2 11.52 11.104 11.52 10.976 L 11.52 10.144 C 11.52 10.016 11.616 9.92 11.744 9.92 L 13.216 9.92 C 13.344 9.92 13.44 10.016 13.44 10.144 L 13.44 10.976 L 13.44 10.976 L 13.44 10.976 Z M 15.011 9.683 C 15.007 9.662 15.004 9.642 15 9.621 C 14.973 9.503 14.934 9.387 14.882 9.276 C 14.859 9.227 14.833 9.179 14.805 9.132 C 14.658 8.883 14.447 8.678 14.195 8.537 L 14.151 8.514 C 14.088 8.481 14.023 8.452 13.957 8.427 C 13.918 8.413 13.877 8.402 13.837 8.39 C 13.786 8.376 13.736 8.36 13.684 8.35 C 13.582 8.331 13.479 8.321 13.376 8.32 L 13.081 8.32 L 12.938 7.234 L 12.806 6.228 L 12.544 4.237 C 12.471 3.006 8.48 2.944 7.68 2.944 C 6.131 2.944 3.523 3.112 3.459 4.214 L 3.227 5.979 L 3.055 7.29 L 2.92 8.32 L 2.624 8.32 C 2.518 8.32 2.416 8.332 2.317 8.35 C 2.264 8.36 2.214 8.376 2.163 8.39 C 2.123 8.402 2.082 8.412 2.043 8.427 C 1.977 8.451 1.912 8.48 1.849 8.514 L 1.806 8.537 C 1.734 8.578 1.665 8.622 1.6 8.673 C 1.511 8.742 1.43 8.82 1.357 8.906 C 1.343 8.922 1.329 8.939 1.317 8.955 C 1.272 9.011 1.232 9.07 1.196 9.132 C 1.149 9.209 1.108 9.291 1.075 9.376 C 1.044 9.456 1.019 9.538 1.001 9.621 C 0.996 9.642 0.994 9.662 0.99 9.683 C 0.971 9.782 0.961 9.883 0.96 9.984 L 0.96 12.16 L 15.04 12.16 L 15.04 9.984 C 15.039 9.883 15.029 9.782 15.011 9.683 L 15.011 9.683 L 15.011 9.683 L 15.011 9.683 Z M 2.853 3.95 C 3.099 2.844 4.682 2.304 7.68 2.304 C 11.058 2.304 12.894 2.874 13.15 3.997 C 13.408 3.699 13.782 3.527 14.176 3.525 L 14.4 3.525 L 14.4 1.024 C 14.4 0.46 13.927 0 13.344 0 L 2.624 0 C 2.059 0.001 1.601 0.459 1.6 1.024 L 1.6 3.493 L 1.856 3.493 C 2.246 3.493 2.6 3.673 2.853 3.95 Z"/>
</svg>
