<svg xmlns="http://www.w3.org/2000/svg" width="16" height="16" version="1.1">
 <defs>
   <style id="current-color-scheme" type="text/css">
   .ColorScheme-Text { color: #cc00cc; } .ColorScheme-Highlight { color:#5294e2; }
  </style>
  <linearGradient id="arrongin" x1="0%" x2="0%" y1="0%" y2="100%">
   <stop offset="0%" style="stop-color:#dd9b44; stop-opacity:1"/>
   <stop offset="100%" style="stop-color:#ad6c16; stop-opacity:1"/>
  </linearGradient>
  <linearGradient id="aurora" x1="0%" x2="0%" y1="0%" y2="100%">
   <stop offset="0%" style="stop-color:#09D4DF; stop-opacity:1"/>
   <stop offset="100%" style="stop-color:#9269F4; stop-opacity:1"/>
  </linearGradient>
  <linearGradient id="cyberneon" x1="0%" x2="0%" y1="0%" y2="100%">
    <stop offset="0" style="stop-color:#0abdc6; stop-opacity:1"/>
    <stop offset="1" style="stop-color:#ea00d9; stop-opacity:1"/>
  </linearGradient>
  <linearGradient id="fitdance" x1="0%" x2="0%" y1="0%" y2="100%">
   <stop offset="0%" style="stop-color:#1AD6AB; stop-opacity:1"/>
   <stop offset="100%" style="stop-color:#329DB6; stop-opacity:1"/>
  </linearGradient>
  <linearGradient id="oomox" x1="0%" x2="0%" y1="0%" y2="100%">
   <stop offset="0%" style="stop-color:#efefe7; stop-opacity:1"/>
   <stop offset="100%" style="stop-color:#8f8f8b; stop-opacity:1"/>
  </linearGradient>
  <linearGradient id="rainblue" x1="0%" x2="0%" y1="0%" y2="100%">
   <stop offset="0%" style="stop-color:#00F260; stop-opacity:1"/>
   <stop offset="100%" style="stop-color:#0575E6; stop-opacity:1"/>
  </linearGradient>
  <linearGradient id="sunrise" x1="0%" x2="0%" y1="0%" y2="100%">
   <stop offset="0%" style="stop-color: #FF8501; stop-opacity:1"/>
   <stop offset="100%" style="stop-color: #FFCB01; stop-opacity:1"/>
  </linearGradient>
  <linearGradient id="telinkrin" x1="0%" x2="0%" y1="0%" y2="100%">
   <stop offset="0%" style="stop-color: #b2ced6; stop-opacity:1"/>
   <stop offset="100%" style="stop-color: #6da5b7; stop-opacity:1"/>
  </linearGradient>
  <linearGradient id="60spsycho" x1="0%" x2="0%" y1="0%" y2="100%">
   <stop offset="0%" style="stop-color: #df5940; stop-opacity:1"/>
   <stop offset="25%" style="stop-color: #d8d15f; stop-opacity:1"/>
   <stop offset="50%" style="stop-color: #e9882a; stop-opacity:1"/>
   <stop offset="100%" style="stop-color: #279362; stop-opacity:1"/>
  </linearGradient>
  <linearGradient id="90ssummer" x1="0%" x2="0%" y1="0%" y2="100%">
   <stop offset="0%" style="stop-color: #f618c7; stop-opacity:1"/>
   <stop offset="20%" style="stop-color: #94ffab; stop-opacity:1"/>
   <stop offset="50%" style="stop-color: #fbfd54; stop-opacity:1"/>
   <stop offset="100%" style="stop-color: #0f83ae; stop-opacity:1"/>
  </linearGradient>
 </defs>
 <path fill="currentColor" class="ColorScheme-Text" d="M 3.31 0 C 2.855 0 2.483 0.372 2.483 0.828 L 2.483 15.172 C 2.483 15.628 2.855 16 3.31 16 L 11.586 16 C 12.651 16 13.517 15.134 13.517 14.069 L 13.517 0.828 C 13.517 0.372 13.145 0 12.69 0 L 3.31 0 Z M 3.31 0.552 L 12.69 0.552 C 12.841 0.552 12.966 0.676 12.966 0.828 L 12.966 14.069 C 12.966 14.83 12.347 15.448 11.586 15.448 L 3.31 15.448 C 3.159 15.448 3.034 15.324 3.034 15.172 L 3.034 0.828 C 3.034 0.676 3.159 0.552 3.31 0.552 Z M 4.414 1.655 C 4.262 1.655 4.138 1.779 4.138 1.931 L 4.138 8 C 4.138 8.152 4.262 8.276 4.414 8.276 L 10.483 8.276 C 11.244 8.276 11.862 7.657 11.862 6.897 L 11.862 1.931 C 11.862 1.779 11.738 1.655 11.586 1.655 L 4.414 1.655 Z M 4.69 2.207 L 11.31 2.207 L 11.31 6.897 C 11.31 7.352 10.938 7.724 10.483 7.724 L 4.69 7.724 L 4.69 2.207 Z M 5.793 4.414 C 5.641 4.414 5.517 4.538 5.517 4.69 L 5.517 5.241 C 5.517 5.393 5.641 5.517 5.793 5.517 C 5.945 5.517 6.069 5.393 6.069 5.241 L 6.069 4.69 C 6.069 4.538 5.945 4.414 5.793 4.414 Z M 7.172 4.414 C 7.021 4.414 6.897 4.538 6.897 4.69 L 6.897 5.241 C 6.897 5.393 7.021 5.517 7.172 5.517 C 7.324 5.517 7.448 5.393 7.448 5.241 L 7.448 4.69 C 7.448 4.538 7.324 4.414 7.172 4.414 Z M 8.552 4.414 C 8.4 4.414 8.276 4.538 8.276 4.69 L 8.276 5.241 C 8.276 5.393 8.4 5.517 8.552 5.517 C 8.703 5.517 8.828 5.393 8.828 5.241 L 8.828 4.69 C 8.828 4.538 8.703 4.414 8.552 4.414 Z M 9.931 4.414 C 9.779 4.414 9.655 4.538 9.655 4.69 L 9.655 5.241 C 9.655 5.393 9.779 5.517 9.931 5.517 C 10.083 5.517 10.207 5.393 10.207 5.241 L 10.207 4.69 C 10.207 4.538 10.083 4.414 9.931 4.414 Z M 5.793 8.828 C 5.489 8.828 5.241 9.075 5.241 9.379 L 5.241 9.931 L 4.69 9.931 C 4.386 9.931 4.138 10.179 4.138 10.483 L 4.138 11.034 C 4.138 11.338 4.386 11.586 4.69 11.586 L 5.241 11.586 L 5.241 12.138 C 5.241 12.442 5.489 12.69 5.793 12.69 L 6.345 12.69 C 6.649 12.69 6.897 12.442 6.897 12.138 L 6.897 11.586 L 7.448 11.586 C 7.752 11.586 8 11.338 8 11.034 L 8 10.483 C 8 10.179 7.752 9.931 7.448 9.931 L 6.897 9.931 L 6.897 9.379 C 6.897 9.075 6.649 8.828 6.345 8.828 L 5.793 8.828 Z M 10.897 8.828 C 10.212 8.828 9.655 9.385 9.655 10.069 C 9.655 10.753 10.212 11.31 10.897 11.31 C 11.581 11.31 12.138 10.753 12.138 10.069 C 12.138 9.385 11.581 8.828 10.897 8.828 Z M 5.793 9.379 L 6.345 9.379 L 6.345 10.207 C 6.345 10.359 6.469 10.483 6.621 10.483 L 7.448 10.483 L 7.448 11.034 L 6.621 11.034 C 6.469 11.034 6.345 11.159 6.345 11.31 L 6.345 12.138 L 5.793 12.138 L 5.793 11.31 C 5.793 11.159 5.669 11.034 5.517 11.034 L 4.69 11.034 L 4.69 10.483 L 5.517 10.483 C 5.669 10.483 5.793 10.359 5.793 10.207 L 5.793 9.379 Z M 10.897 9.379 C 11.277 9.379 11.586 9.689 11.586 10.069 C 11.586 10.449 11.277 10.759 10.897 10.759 C 10.516 10.758 10.207 10.45 10.207 10.069 C 10.207 9.689 10.516 9.379 10.897 9.379 Z M 9.379 11.31 C 8.924 11.31 8.552 11.682 8.552 12.138 C 8.552 12.594 8.924 12.966 9.379 12.966 C 9.835 12.966 10.207 12.594 10.207 12.138 C 10.207 11.682 9.835 11.31 9.379 11.31 Z M 9.379 11.862 C 9.531 11.862 9.655 11.986 9.655 12.138 C 9.655 12.29 9.531 12.414 9.379 12.414 C 9.228 12.414 9.103 12.29 9.103 12.138 C 9.103 11.986 9.228 11.862 9.379 11.862 Z M 3.862 14.345 C 3.71 14.345 3.586 14.469 3.586 14.621 C 3.586 14.772 3.71 14.897 3.862 14.897 L 9.655 14.897 C 9.807 14.897 9.931 14.772 9.931 14.621 C 9.931 14.469 9.807 14.345 9.655 14.345 L 3.862 14.345 Z M 10.759 14.345 C 10.607 14.345 10.483 14.469 10.483 14.621 C 10.483 14.772 10.607 14.897 10.759 14.897 L 11.862 14.897 C 12.014 14.897 12.138 14.772 12.138 14.621 C 12.138 14.469 12.014 14.345 11.862 14.345 L 10.759 14.345 Z"/>
</svg>
