<svg xmlns="http://www.w3.org/2000/svg" width="16" height="16" version="1.1">
 <defs>
   <style id="current-color-scheme" type="text/css">
   .ColorScheme-Text { color: #cc00cc; } .ColorScheme-Highlight { color:#5294e2; }
  </style>
  <linearGradient id="arrongin" x1="0%" x2="0%" y1="0%" y2="100%">
   <stop offset="0%" style="stop-color:#dd9b44; stop-opacity:1"/>
   <stop offset="100%" style="stop-color:#ad6c16; stop-opacity:1"/>
  </linearGradient>
  <linearGradient id="aurora" x1="0%" x2="0%" y1="0%" y2="100%">
   <stop offset="0%" style="stop-color:#09D4DF; stop-opacity:1"/>
   <stop offset="100%" style="stop-color:#9269F4; stop-opacity:1"/>
  </linearGradient>
  <linearGradient id="cyberneon" x1="0%" x2="0%" y1="0%" y2="100%">
    <stop offset="0" style="stop-color:#0abdc6; stop-opacity:1"/>
    <stop offset="1" style="stop-color:#ea00d9; stop-opacity:1"/>
  </linearGradient>
  <linearGradient id="fitdance" x1="0%" x2="0%" y1="0%" y2="100%">
   <stop offset="0%" style="stop-color:#1AD6AB; stop-opacity:1"/>
   <stop offset="100%" style="stop-color:#329DB6; stop-opacity:1"/>
  </linearGradient>
  <linearGradient id="oomox" x1="0%" x2="0%" y1="0%" y2="100%">
   <stop offset="0%" style="stop-color:#efefe7; stop-opacity:1"/>
   <stop offset="100%" style="stop-color:#8f8f8b; stop-opacity:1"/>
  </linearGradient>
  <linearGradient id="rainblue" x1="0%" x2="0%" y1="0%" y2="100%">
   <stop offset="0%" style="stop-color:#00F260; stop-opacity:1"/>
   <stop offset="100%" style="stop-color:#0575E6; stop-opacity:1"/>
  </linearGradient>
  <linearGradient id="sunrise" x1="0%" x2="0%" y1="0%" y2="100%">
   <stop offset="0%" style="stop-color: #FF8501; stop-opacity:1"/>
   <stop offset="100%" style="stop-color: #FFCB01; stop-opacity:1"/>
  </linearGradient>
  <linearGradient id="telinkrin" x1="0%" x2="0%" y1="0%" y2="100%">
   <stop offset="0%" style="stop-color: #b2ced6; stop-opacity:1"/>
   <stop offset="100%" style="stop-color: #6da5b7; stop-opacity:1"/>
  </linearGradient>
  <linearGradient id="60spsycho" x1="0%" x2="0%" y1="0%" y2="100%">
   <stop offset="0%" style="stop-color: #df5940; stop-opacity:1"/>
   <stop offset="25%" style="stop-color: #d8d15f; stop-opacity:1"/>
   <stop offset="50%" style="stop-color: #e9882a; stop-opacity:1"/>
   <stop offset="100%" style="stop-color: #279362; stop-opacity:1"/>
  </linearGradient>
  <linearGradient id="90ssummer" x1="0%" x2="0%" y1="0%" y2="100%">
   <stop offset="0%" style="stop-color: #f618c7; stop-opacity:1"/>
   <stop offset="20%" style="stop-color: #94ffab; stop-opacity:1"/>
   <stop offset="50%" style="stop-color: #fbfd54; stop-opacity:1"/>
   <stop offset="100%" style="stop-color: #0f83ae; stop-opacity:1"/>
  </linearGradient>
 </defs>
 <path fill="currentColor" class="ColorScheme-Text" d="m 14.734934,9.2189165 c 0,2.0668725 -0.521034,3.6320505 -1.563061,4.6954955 C 12.130246,14.971017 10.570231,15.5 8.493154,15.5 7.031524,15.5 5.769305,15.181764 4.706944,14.54616 3.65164,13.904245 2.853101,13.014394 2.311775,11.877474 1.770444,10.733486 1.5,9.4059655 1.5,7.8940405 1.5,6.4625826 1.78388,5.1883149 2.352272,4.0712755 2.920653,2.9541984 3.739434,2.0812787 4.808546,1.4525165 5.877967,0.81717799 7.115921,0.49999999 8.523727,0.49999999 c 1.54956,0 2.818265,0.3908787 3.806199,1.17350551 0.99442,0.7826268 1.799573,1.9138015 2.185164,3.2382614 H 11.868007 C 11.617878,4.2963086 11.111826,3.7104062 10.523289,3.3089448 9.934314,2.9074834 9.254457,2.7058456 8.48327,2.7058456 c -1.245055,0 -2.314166,0.4926992 -3.207337,1.4759811 -0.89317,0.9765921 -1.339778,2.2107212 -1.339778,3.7023878 l 8.3e-5,2.26e-4 c 0,1.003352 0.179301,1.913084 0.537933,2.7291215 0.365404,0.809348 0.89317,1.458217 1.583395,1.946495 0.696937,0.488314 1.498783,0.734135 2.405541,0.734135 0.710475,0 1.339774,-0.08882 1.887855,-0.262677 0.554872,-0.180662 1.00823,-0.468208 1.36007,-0.862904 0.358677,-0.401462 0.577947,-0.952932 0.598243,-1.5216 H 9.88278 V 8.4410895 h 4.852985"/>
</svg>
