<svg xmlns="http://www.w3.org/2000/svg" width="16" height="16" version="1.1">
 <defs>
   <style id="current-color-scheme" type="text/css">
   .ColorScheme-Text { color: #cc00cc; } .ColorScheme-Highlight { color:#5294e2; }
  </style>
  <linearGradient id="arrongin" x1="0%" x2="0%" y1="0%" y2="100%">
   <stop offset="0%" style="stop-color:#dd9b44; stop-opacity:1"/>
   <stop offset="100%" style="stop-color:#ad6c16; stop-opacity:1"/>
  </linearGradient>
  <linearGradient id="aurora" x1="0%" x2="0%" y1="0%" y2="100%">
   <stop offset="0%" style="stop-color:#09D4DF; stop-opacity:1"/>
   <stop offset="100%" style="stop-color:#9269F4; stop-opacity:1"/>
  </linearGradient>
  <linearGradient id="cyberneon" x1="0%" x2="0%" y1="0%" y2="100%">
    <stop offset="0" style="stop-color:#0abdc6; stop-opacity:1"/>
    <stop offset="1" style="stop-color:#ea00d9; stop-opacity:1"/>
  </linearGradient>
  <linearGradient id="fitdance" x1="0%" x2="0%" y1="0%" y2="100%">
   <stop offset="0%" style="stop-color:#1AD6AB; stop-opacity:1"/>
   <stop offset="100%" style="stop-color:#329DB6; stop-opacity:1"/>
  </linearGradient>
  <linearGradient id="oomox" x1="0%" x2="0%" y1="0%" y2="100%">
   <stop offset="0%" style="stop-color:#efefe7; stop-opacity:1"/>
   <stop offset="100%" style="stop-color:#8f8f8b; stop-opacity:1"/>
  </linearGradient>
  <linearGradient id="rainblue" x1="0%" x2="0%" y1="0%" y2="100%">
   <stop offset="0%" style="stop-color:#00F260; stop-opacity:1"/>
   <stop offset="100%" style="stop-color:#0575E6; stop-opacity:1"/>
  </linearGradient>
  <linearGradient id="sunrise" x1="0%" x2="0%" y1="0%" y2="100%">
   <stop offset="0%" style="stop-color: #FF8501; stop-opacity:1"/>
   <stop offset="100%" style="stop-color: #FFCB01; stop-opacity:1"/>
  </linearGradient>
  <linearGradient id="telinkrin" x1="0%" x2="0%" y1="0%" y2="100%">
   <stop offset="0%" style="stop-color: #b2ced6; stop-opacity:1"/>
   <stop offset="100%" style="stop-color: #6da5b7; stop-opacity:1"/>
  </linearGradient>
  <linearGradient id="60spsycho" x1="0%" x2="0%" y1="0%" y2="100%">
   <stop offset="0%" style="stop-color: #df5940; stop-opacity:1"/>
   <stop offset="25%" style="stop-color: #d8d15f; stop-opacity:1"/>
   <stop offset="50%" style="stop-color: #e9882a; stop-opacity:1"/>
   <stop offset="100%" style="stop-color: #279362; stop-opacity:1"/>
  </linearGradient>
  <linearGradient id="90ssummer" x1="0%" x2="0%" y1="0%" y2="100%">
   <stop offset="0%" style="stop-color: #f618c7; stop-opacity:1"/>
   <stop offset="20%" style="stop-color: #94ffab; stop-opacity:1"/>
   <stop offset="50%" style="stop-color: #fbfd54; stop-opacity:1"/>
   <stop offset="100%" style="stop-color: #0f83ae; stop-opacity:1"/>
  </linearGradient>
 </defs>
 <path fill="currentColor" class="ColorScheme-Text" fill-rule="evenodd" d="M 4.836 12.106 C 4.836 12.147 4.823 12.168 4.801 12.168 C 4.733 12.168 4.64 12.162 4.521 12.153 C 4.394 12.145 4.29 12.141 4.211 12.141 C 4.127 12.141 4.018 12.145 3.881 12.153 C 3.735 12.162 3.614 12.168 3.516 12.168 C 3.495 12.168 3.485 12.147 3.485 12.106 C 3.485 12.07 3.497 12.051 3.52 12.048 C 3.716 12.023 3.815 11.978 3.815 11.916 C 3.815 11.867 3.779 11.792 3.71 11.691 L 3.155 10.888 L 2.562 11.691 C 2.512 11.751 2.488 11.808 2.488 11.862 C 2.488 11.914 2.513 11.954 2.565 11.982 C 2.619 12.008 2.71 12.03 2.837 12.048 C 2.855 12.051 2.864 12.07 2.864 12.106 C 2.864 12.147 2.852 12.168 2.829 12.168 C 2.73 12.168 2.618 12.162 2.492 12.153 C 2.383 12.145 2.291 12.141 2.216 12.141 C 2.151 12.141 2.074 12.145 1.983 12.153 C 1.877 12.162 1.781 12.168 1.696 12.168 C 1.673 12.168 1.661 12.147 1.661 12.106 C 1.661 12.07 1.677 12.051 1.708 12.048 C 1.854 12.035 1.969 12.005 2.049 11.959 C 2.132 11.913 2.228 11.822 2.336 11.687 L 3.074 10.771 L 2.294 9.685 C 2.193 9.538 2.102 9.444 2.022 9.405 C 1.945 9.367 1.826 9.339 1.669 9.324 C 1.676 9.324 1.681 9.303 1.681 9.262 C 1.681 9.224 1.69 9.203 1.712 9.203 C 1.779 9.203 1.873 9.208 1.995 9.215 C 2.129 9.226 2.234 9.23 2.309 9.23 C 2.397 9.23 2.507 9.226 2.639 9.215 C 2.781 9.208 2.9 9.203 2.996 9.203 C 3.018 9.203 3.031 9.224 3.031 9.262 C 3.031 9.303 3.015 9.324 2.985 9.324 C 2.855 9.339 2.766 9.358 2.721 9.378 C 2.676 9.396 2.655 9.424 2.655 9.459 C 2.655 9.506 2.693 9.582 2.771 9.685 L 3.33 10.437 L 3.85 9.685 C 3.901 9.605 3.928 9.547 3.928 9.51 C 3.928 9.461 3.898 9.423 3.842 9.393 C 3.785 9.363 3.693 9.339 3.567 9.324 C 3.548 9.324 3.539 9.303 3.539 9.262 C 3.539 9.224 3.551 9.203 3.574 9.203 C 3.667 9.203 3.77 9.208 3.885 9.215 C 3.993 9.226 4.091 9.23 4.18 9.23 C 4.244 9.23 4.321 9.227 4.413 9.219 C 4.523 9.209 4.628 9.203 4.727 9.203 C 4.749 9.203 4.762 9.224 4.762 9.262 C 4.762 9.277 4.756 9.292 4.746 9.304 C 4.736 9.318 4.725 9.324 4.715 9.324 C 4.562 9.339 4.445 9.372 4.362 9.421 C 4.282 9.467 4.19 9.555 4.091 9.685 L 3.408 10.558 L 4.191 11.691 C 4.297 11.838 4.385 11.93 4.455 11.966 C 4.524 12.003 4.64 12.03 4.801 12.048 C 4.823 12.051 4.836 12.07 4.836 12.106 L 4.836 12.106 L 4.836 12.106 L 4.836 12.106 L 4.836 12.106 L 4.836 12.106 Z M 4.36 12.351 C 4.471 12.599 4.564 12.838 4.635 13.065 C 5.171 13.047 5.553 13.037 5.78 13.037 C 6.008 13.037 6.39 13.047 6.925 13.065 C 6.948 13.065 6.96 13.044 6.96 13.002 C 6.96 12.967 6.948 12.947 6.925 12.944 C 6.81 12.932 6.719 12.913 6.657 12.89 C 6.593 12.868 6.549 12.836 6.525 12.797 C 6.5 12.756 6.486 12.687 6.486 12.591 L 6.486 10.593 C 6.486 10.495 6.499 10.426 6.521 10.387 C 6.545 10.346 6.589 10.313 6.653 10.29 C 6.715 10.265 6.807 10.245 6.925 10.232 C 6.948 10.232 6.96 10.211 6.96 10.17 C 6.96 10.132 6.948 10.111 6.925 10.111 C 6.566 10.13 6.198 10.139 5.823 10.139 C 5.444 10.139 5.074 10.13 4.717 10.111 C 4.689 10.324 4.643 10.535 4.581 10.744 C 4.581 10.773 4.607 10.787 4.659 10.787 C 4.682 10.787 4.697 10.777 4.701 10.756 C 4.808 10.435 5.033 10.274 5.377 10.274 L 5.807 10.274 C 5.97 10.274 6.052 10.357 6.052 10.519 L 6.052 11.423 L 5.505 11.423 C 5.358 11.423 5.258 11.392 5.206 11.33 C 5.154 11.269 5.119 11.158 5.097 11 C 5.097 10.98 5.078 10.969 5.039 10.969 C 5.001 10.969 4.981 10.982 4.981 11.004 C 4.981 11.077 4.99 11.166 5.004 11.272 C 5.02 11.376 5.027 11.461 5.027 11.528 C 5.027 11.593 5.02 11.677 5.004 11.78 C 4.99 11.892 4.981 11.984 4.981 12.056 C 4.981 12.079 5.001 12.091 5.039 12.091 C 5.078 12.091 5.097 12.079 5.097 12.056 C 5.12 11.872 5.16 11.744 5.214 11.671 C 5.268 11.597 5.366 11.559 5.505 11.559 L 6.052 11.559 L 6.052 12.642 C 6.052 12.815 5.97 12.902 5.807 12.902 L 5.342 12.902 C 5.174 12.902 5.007 12.846 4.841 12.735 C 4.673 12.624 4.55 12.484 4.472 12.316 C 4.468 12.303 4.456 12.296 4.437 12.296 C 4.417 12.296 4.399 12.302 4.383 12.312 C 4.369 12.322 4.36 12.336 4.36 12.351 L 4.36 12.351 L 4.36 12.351 L 4.36 12.351 L 4.36 12.351 Z M 9.398 9.906 C 9.398 9.932 9.372 9.945 9.321 9.945 C 9.299 9.945 9.285 9.935 9.278 9.913 C 9.218 9.715 9.131 9.574 9.018 9.49 C 8.903 9.408 8.736 9.366 8.513 9.366 L 8.312 9.366 C 8.242 9.366 8.193 9.379 8.168 9.401 C 8.142 9.423 8.129 9.464 8.129 9.525 L 8.129 11.691 C 8.129 11.787 8.142 11.856 8.168 11.896 C 8.193 11.938 8.238 11.971 8.3 11.994 C 8.364 12.017 8.455 12.035 8.572 12.048 C 8.594 12.051 8.607 12.07 8.607 12.106 C 8.607 12.147 8.594 12.168 8.572 12.168 C 8.476 12.168 8.361 12.162 8.23 12.153 C 8.106 12.145 8.002 12.141 7.92 12.141 C 7.831 12.141 7.724 12.145 7.598 12.153 C 7.466 12.162 7.351 12.168 7.256 12.168 C 7.235 12.168 7.225 12.147 7.225 12.106 C 7.225 12.07 7.235 12.051 7.256 12.048 C 7.429 12.03 7.547 11.999 7.609 11.955 C 7.67 11.911 7.702 11.823 7.702 11.691 L 7.702 9.525 C 7.702 9.464 7.689 9.423 7.664 9.401 C 7.637 9.379 7.588 9.366 7.516 9.366 L 7.353 9.366 C 7.151 9.366 6.968 9.418 6.806 9.518 C 6.643 9.619 6.536 9.751 6.488 9.913 C 6.48 9.935 6.463 9.945 6.441 9.945 C 6.392 9.945 6.367 9.929 6.367 9.898 C 6.447 9.684 6.523 9.44 6.593 9.168 C 6.786 9.21 7.229 9.23 7.92 9.23 C 8.628 9.23 9.078 9.21 9.27 9.168 C 9.291 9.355 9.333 9.601 9.398 9.906 L 9.398 9.906 L 9.398 9.906 L 9.398 9.906 Z M 11.423 12.351 C 11.311 12.599 11.219 12.838 11.147 13.065 C 10.612 13.047 10.229 13.037 10.002 13.037 C 9.774 13.037 9.392 13.047 8.858 13.065 C 8.834 13.065 8.823 13.044 8.823 13.002 C 8.823 12.967 8.834 12.947 8.858 12.944 C 8.973 12.932 9.063 12.913 9.125 12.89 C 9.189 12.868 9.234 12.836 9.257 12.797 C 9.283 12.756 9.296 12.687 9.296 12.591 L 9.296 10.593 C 9.296 10.495 9.284 10.426 9.261 10.387 C 9.238 10.346 9.193 10.313 9.129 10.29 C 9.067 10.265 8.976 10.245 8.858 10.232 C 8.834 10.232 8.823 10.211 8.823 10.17 C 8.823 10.132 8.834 10.111 8.858 10.111 C 9.217 10.13 9.584 10.139 9.96 10.139 C 10.339 10.139 10.709 10.13 11.066 10.111 C 11.094 10.324 11.139 10.535 11.202 10.744 C 11.202 10.773 11.175 10.787 11.124 10.787 C 11.101 10.787 11.086 10.777 11.081 10.756 C 10.975 10.435 10.749 10.274 10.406 10.274 L 9.975 10.274 C 9.812 10.274 9.731 10.357 9.731 10.519 L 9.731 11.423 L 10.278 11.423 C 10.424 11.423 10.524 11.392 10.577 11.33 C 10.628 11.269 10.664 11.158 10.685 11 C 10.685 10.98 10.705 10.969 10.744 10.969 C 10.781 10.969 10.802 10.982 10.802 11.004 C 10.802 11.077 10.793 11.166 10.779 11.272 C 10.763 11.376 10.755 11.461 10.755 11.528 C 10.755 11.593 10.763 11.677 10.779 11.78 C 10.793 11.892 10.802 11.984 10.802 12.056 C 10.802 12.079 10.781 12.091 10.744 12.091 C 10.705 12.091 10.685 12.079 10.685 12.056 C 10.662 11.872 10.622 11.744 10.569 11.671 C 10.515 11.597 10.417 11.559 10.278 11.559 L 9.731 11.559 L 9.731 12.642 C 9.731 12.815 9.812 12.902 9.975 12.902 L 10.441 12.902 C 10.609 12.902 10.776 12.846 10.942 12.735 C 11.109 12.624 11.233 12.484 11.31 12.316 C 11.315 12.303 11.327 12.296 11.345 12.296 C 11.366 12.296 11.384 12.302 11.399 12.312 C 11.414 12.322 11.423 12.336 11.423 12.351 L 11.423 12.351 L 11.423 12.351 Z M 14.219 12.106 C 14.219 12.147 14.206 12.168 14.184 12.168 C 14.116 12.168 14.023 12.162 13.905 12.153 C 13.778 12.145 13.674 12.141 13.594 12.141 C 13.511 12.141 13.401 12.145 13.264 12.153 C 13.119 12.162 12.998 12.168 12.9 12.168 C 12.878 12.168 12.868 12.147 12.868 12.106 C 12.868 12.07 12.88 12.051 12.903 12.048 C 13.099 12.023 13.198 11.978 13.198 11.916 C 13.198 11.867 13.162 11.792 13.094 11.691 L 12.539 10.888 L 11.945 11.691 C 11.895 11.751 11.871 11.808 11.871 11.862 C 11.871 11.914 11.896 11.954 11.949 11.982 C 12.002 12.008 12.093 12.03 12.22 12.048 C 12.238 12.051 12.248 12.07 12.248 12.106 C 12.248 12.147 12.235 12.168 12.213 12.168 C 12.114 12.168 12.001 12.162 11.875 12.153 C 11.766 12.145 11.674 12.141 11.599 12.141 C 11.534 12.141 11.457 12.145 11.367 12.153 C 11.26 12.162 11.164 12.168 11.079 12.168 C 11.056 12.168 11.045 12.147 11.045 12.106 C 11.045 12.07 11.06 12.051 11.091 12.048 C 11.238 12.035 11.352 12.005 11.433 11.959 C 11.515 11.913 11.611 11.822 11.72 11.687 L 12.457 10.771 L 11.677 9.685 C 11.576 9.538 11.485 9.444 11.405 9.405 C 11.328 9.367 11.209 9.339 11.052 9.324 C 11.059 9.324 11.064 9.303 11.064 9.262 C 11.064 9.224 11.074 9.203 11.095 9.203 C 11.162 9.203 11.256 9.208 11.378 9.215 C 11.512 9.226 11.617 9.23 11.693 9.23 C 11.78 9.23 11.891 9.226 12.022 9.215 C 12.164 9.208 12.283 9.203 12.38 9.203 C 12.402 9.203 12.414 9.224 12.414 9.262 C 12.414 9.303 12.398 9.324 12.368 9.324 C 12.238 9.339 12.15 9.358 12.104 9.378 C 12.059 9.396 12.038 9.424 12.038 9.459 C 12.038 9.506 12.077 9.582 12.154 9.685 L 12.713 10.437 L 13.233 9.685 C 13.285 9.605 13.311 9.547 13.311 9.51 C 13.311 9.461 13.282 9.423 13.225 9.393 C 13.168 9.363 13.076 9.339 12.95 9.324 C 12.932 9.324 12.923 9.303 12.923 9.262 C 12.923 9.224 12.934 9.203 12.958 9.203 C 13.05 9.203 13.154 9.208 13.268 9.215 C 13.376 9.226 13.475 9.23 13.563 9.23 C 13.627 9.23 13.705 9.227 13.796 9.219 C 13.907 9.209 14.011 9.203 14.11 9.203 C 14.133 9.203 14.145 9.224 14.145 9.262 C 14.145 9.277 14.139 9.292 14.13 9.304 C 14.119 9.318 14.108 9.324 14.099 9.324 C 13.945 9.339 13.828 9.372 13.745 9.421 C 13.665 9.467 13.574 9.555 13.474 9.685 L 12.791 10.558 L 13.575 11.691 C 13.68 11.838 13.769 11.93 13.839 11.966 C 13.908 12.003 14.023 12.03 14.184 12.048 C 14.206 12.051 14.219 12.07 14.219 12.106 L 14.219 12.106 L 14.219 12.106 Z M 2.355 5.249 L 3.696 7.637 L 2.376 7.637 L 1.521 5.983 L 1.175 6.19 L 1.175 7.637 L 0 7.637 L 0 3.311 L 1.175 3.311 L 1.175 5.19 L 1.175 5.19 Q 1.264 5.016 1.533 4.637 L 1.533 4.637 L 2.441 3.311 L 3.72 3.311 L 2.355 5.249 L 2.355 5.249 Z M 5.738 6.782 L 5.738 6.782 L 5.738 6.782 Q 5.972 6.782 6.297 6.667 L 6.297 6.667 L 6.297 7.51 L 6.297 7.51 Q 6.063 7.611 5.852 7.654 L 5.852 7.654 L 5.852 7.654 Q 5.64 7.697 5.356 7.697 L 5.356 7.697 L 5.356 7.697 Q 4.773 7.697 4.516 7.411 L 4.516 7.411 L 4.516 7.411 Q 4.258 7.126 4.258 6.534 L 4.258 6.534 L 4.258 5.152 L 3.853 5.152 L 3.853 4.681 L 4.368 4.317 L 4.667 3.613 L 5.424 3.613 L 5.424 4.285 L 6.247 4.285 L 6.247 5.152 L 5.424 5.152 L 5.424 6.457 L 5.424 6.457 Q 5.424 6.782 5.738 6.782 L 5.738 6.782 Z M 8.046 4.285 L 8.046 7.637 L 6.889 7.637 L 6.889 4.285 L 8.046 4.285 L 8.046 4.285 Z M 6.859 3.45 L 6.859 3.45 L 6.859 3.45 Q 6.859 3.19 7.004 3.063 L 7.004 3.063 L 7.004 3.063 Q 7.149 2.935 7.472 2.935 L 7.472 2.935 L 7.472 2.935 Q 7.794 2.935 7.942 3.066 L 7.942 3.066 L 7.942 3.066 Q 8.09 3.196 8.09 3.45 L 8.09 3.45 L 8.09 3.45 Q 8.09 3.959 7.472 3.959 L 7.472 3.959 L 7.472 3.959 Q 6.859 3.959 6.859 3.45 L 6.859 3.45 Z M 9.952 5.753 L 9.975 5.753 L 9.975 5.753 Q 10.185 5.418 10.333 5.232 L 10.333 5.232 L 11.085 4.285 L 12.375 4.285 L 11.212 5.711 L 12.449 7.637 L 11.126 7.637 L 10.392 6.436 L 10.017 6.723 L 10.017 7.637 L 8.854 7.637 L 8.854 3.033 L 10.017 3.033 L 10.017 4.844 L 10.017 4.844 Q 10.017 5.309 9.952 5.753 L 9.952 5.753 L 9.952 5.753 Z M 16 6.694 L 16 7.637 L 12.63 7.637 L 12.63 6.915 L 14.503 4.255 L 12.674 4.255 L 12.674 3.311 L 15.953 3.311 L 15.953 4.03 L 14.08 6.694 L 16 6.694 L 16 6.694 Z"/>
</svg>
