<svg xmlns="http://www.w3.org/2000/svg" width="16" height="16" version="1.1">
 <defs>
   <style id="current-color-scheme" type="text/css">
   .ColorScheme-Text { color: #cc00cc; } .ColorScheme-Highlight { color:#5294e2; }
  </style>
  <linearGradient id="arrongin" x1="0%" x2="0%" y1="0%" y2="100%">
   <stop offset="0%" style="stop-color:#dd9b44; stop-opacity:1"/>
   <stop offset="100%" style="stop-color:#ad6c16; stop-opacity:1"/>
  </linearGradient>
  <linearGradient id="aurora" x1="0%" x2="0%" y1="0%" y2="100%">
   <stop offset="0%" style="stop-color:#09D4DF; stop-opacity:1"/>
   <stop offset="100%" style="stop-color:#9269F4; stop-opacity:1"/>
  </linearGradient>
  <linearGradient id="cyberneon" x1="0%" x2="0%" y1="0%" y2="100%">
    <stop offset="0" style="stop-color:#0abdc6; stop-opacity:1"/>
    <stop offset="1" style="stop-color:#ea00d9; stop-opacity:1"/>
  </linearGradient>
  <linearGradient id="fitdance" x1="0%" x2="0%" y1="0%" y2="100%">
   <stop offset="0%" style="stop-color:#1AD6AB; stop-opacity:1"/>
   <stop offset="100%" style="stop-color:#329DB6; stop-opacity:1"/>
  </linearGradient>
  <linearGradient id="oomox" x1="0%" x2="0%" y1="0%" y2="100%">
   <stop offset="0%" style="stop-color:#efefe7; stop-opacity:1"/>
   <stop offset="100%" style="stop-color:#8f8f8b; stop-opacity:1"/>
  </linearGradient>
  <linearGradient id="rainblue" x1="0%" x2="0%" y1="0%" y2="100%">
   <stop offset="0%" style="stop-color:#00F260; stop-opacity:1"/>
   <stop offset="100%" style="stop-color:#0575E6; stop-opacity:1"/>
  </linearGradient>
  <linearGradient id="sunrise" x1="0%" x2="0%" y1="0%" y2="100%">
   <stop offset="0%" style="stop-color: #FF8501; stop-opacity:1"/>
   <stop offset="100%" style="stop-color: #FFCB01; stop-opacity:1"/>
  </linearGradient>
  <linearGradient id="telinkrin" x1="0%" x2="0%" y1="0%" y2="100%">
   <stop offset="0%" style="stop-color: #b2ced6; stop-opacity:1"/>
   <stop offset="100%" style="stop-color: #6da5b7; stop-opacity:1"/>
  </linearGradient>
  <linearGradient id="60spsycho" x1="0%" x2="0%" y1="0%" y2="100%">
   <stop offset="0%" style="stop-color: #df5940; stop-opacity:1"/>
   <stop offset="25%" style="stop-color: #d8d15f; stop-opacity:1"/>
   <stop offset="50%" style="stop-color: #e9882a; stop-opacity:1"/>
   <stop offset="100%" style="stop-color: #279362; stop-opacity:1"/>
  </linearGradient>
  <linearGradient id="90ssummer" x1="0%" x2="0%" y1="0%" y2="100%">
   <stop offset="0%" style="stop-color: #f618c7; stop-opacity:1"/>
   <stop offset="20%" style="stop-color: #94ffab; stop-opacity:1"/>
   <stop offset="50%" style="stop-color: #fbfd54; stop-opacity:1"/>
   <stop offset="100%" style="stop-color: #0f83ae; stop-opacity:1"/>
  </linearGradient>
 </defs>
 <path fill="currentColor" class="ColorScheme-Text" fill-rule="evenodd" d="M 8 6.4 C 7.434 6.4 6.892 6.625 6.491 7.025 C 6.091 7.425 5.867 7.967 5.867 8.533 C 5.867 9.099 6.091 9.642 6.491 10.042 C 6.892 10.442 7.434 10.667 8 10.667 C 8.566 10.667 9.108 10.442 9.509 10.042 C 9.909 9.642 10.133 9.099 10.133 8.533 C 10.133 7.967 9.909 7.425 9.509 7.025 C 9.108 6.625 8.566 6.4 8 6.4 L 8 6.4 L 8 6.4 L 8 6.4 Z M 8 5.333 C 9.767 5.333 11.2 6.766 11.2 8.533 C 11.2 10.301 9.767 11.733 8 11.733 C 6.233 11.733 4.8 10.301 4.8 8.533 C 4.8 6.766 6.233 5.333 8 5.333 L 8 5.333 L 8 5.333 L 8 5.333 L 8 5.333 L 8 5.333 L 8 5.333 Z M 8 4.267 C 5.644 4.267 3.733 6.177 3.733 8.533 C 3.733 10.89 5.644 12.8 8 12.8 C 10.356 12.8 12.267 10.89 12.267 8.533 C 12.267 6.177 10.356 4.267 8 4.267 L 8 4.267 L 8 4.267 L 8 4.267 L 8 4.267 L 8 4.267 L 8 4.267 Z M 6.909 1.6 C 5.463 1.6 4.075 2.162 3.052 3.162 C 2.029 4.162 1.454 5.519 1.454 6.933 C 1.455 7.391 1.517 7.847 1.637 8.29 C 0.667 8.756 0 9.737 0 10.881 L 0 11.519 C 0 13.115 1.296 14.4 2.906 14.4 L 13.094 14.4 C 14.703 14.4 16 13.115 16 11.519 L 16 10.881 C 16 9.671 15.255 8.642 14.194 8.214 C 14.656 7.648 14.908 6.946 14.909 6.222 C 14.909 5.374 14.564 4.56 13.95 3.96 C 13.337 3.36 12.504 3.022 11.636 3.022 C 11.334 3.023 11.033 3.064 10.742 3.145 C 9.722 2.157 8.345 1.602 6.909 1.6 L 6.909 1.6 L 6.909 1.6 L 6.909 1.6 L 6.909 1.6 L 6.909 1.6 Z M 3.733 4 C 3.733 3.558 4.092 3.2 4.533 3.2 C 4.975 3.2 5.333 3.558 5.333 4 C 5.333 4.441 4.975 4.8 4.533 4.8 C 4.092 4.8 3.733 4.441 3.733 4 Z"/>
</svg>
