<svg xmlns="http://www.w3.org/2000/svg" width="16" height="16" version="1.1">
 <defs>
   <style id="current-color-scheme" type="text/css">
   .ColorScheme-Text { color: #cc00cc; } .ColorScheme-Highlight { color:#5294e2; }
  </style>
  <linearGradient id="arrongin" x1="0%" x2="0%" y1="0%" y2="100%">
   <stop offset="0%" style="stop-color:#dd9b44; stop-opacity:1"/>
   <stop offset="100%" style="stop-color:#ad6c16; stop-opacity:1"/>
  </linearGradient>
  <linearGradient id="aurora" x1="0%" x2="0%" y1="0%" y2="100%">
   <stop offset="0%" style="stop-color:#09D4DF; stop-opacity:1"/>
   <stop offset="100%" style="stop-color:#9269F4; stop-opacity:1"/>
  </linearGradient>
  <linearGradient id="cyberneon" x1="0%" x2="0%" y1="0%" y2="100%">
    <stop offset="0" style="stop-color:#0abdc6; stop-opacity:1"/>
    <stop offset="1" style="stop-color:#ea00d9; stop-opacity:1"/>
  </linearGradient>
  <linearGradient id="fitdance" x1="0%" x2="0%" y1="0%" y2="100%">
   <stop offset="0%" style="stop-color:#1AD6AB; stop-opacity:1"/>
   <stop offset="100%" style="stop-color:#329DB6; stop-opacity:1"/>
  </linearGradient>
  <linearGradient id="oomox" x1="0%" x2="0%" y1="0%" y2="100%">
   <stop offset="0%" style="stop-color:#efefe7; stop-opacity:1"/>
   <stop offset="100%" style="stop-color:#8f8f8b; stop-opacity:1"/>
  </linearGradient>
  <linearGradient id="rainblue" x1="0%" x2="0%" y1="0%" y2="100%">
   <stop offset="0%" style="stop-color:#00F260; stop-opacity:1"/>
   <stop offset="100%" style="stop-color:#0575E6; stop-opacity:1"/>
  </linearGradient>
  <linearGradient id="sunrise" x1="0%" x2="0%" y1="0%" y2="100%">
   <stop offset="0%" style="stop-color: #FF8501; stop-opacity:1"/>
   <stop offset="100%" style="stop-color: #FFCB01; stop-opacity:1"/>
  </linearGradient>
  <linearGradient id="telinkrin" x1="0%" x2="0%" y1="0%" y2="100%">
   <stop offset="0%" style="stop-color: #b2ced6; stop-opacity:1"/>
   <stop offset="100%" style="stop-color: #6da5b7; stop-opacity:1"/>
  </linearGradient>
  <linearGradient id="60spsycho" x1="0%" x2="0%" y1="0%" y2="100%">
   <stop offset="0%" style="stop-color: #df5940; stop-opacity:1"/>
   <stop offset="25%" style="stop-color: #d8d15f; stop-opacity:1"/>
   <stop offset="50%" style="stop-color: #e9882a; stop-opacity:1"/>
   <stop offset="100%" style="stop-color: #279362; stop-opacity:1"/>
  </linearGradient>
  <linearGradient id="90ssummer" x1="0%" x2="0%" y1="0%" y2="100%">
   <stop offset="0%" style="stop-color: #f618c7; stop-opacity:1"/>
   <stop offset="20%" style="stop-color: #94ffab; stop-opacity:1"/>
   <stop offset="50%" style="stop-color: #fbfd54; stop-opacity:1"/>
   <stop offset="100%" style="stop-color: #0f83ae; stop-opacity:1"/>
  </linearGradient>
 </defs>
 <path fill="currentColor" class="ColorScheme-Text" fill-rule="evenodd" d="M 5.714 11.714 C 5.714 11.241 6.099 10.857 6.572 10.857 C 7.045 10.857 7.429 11.241 7.429 11.714 C 7.429 12.187 7.045 12.571 6.572 12.571 C 6.099 12.571 5.714 12.187 5.714 11.714 L 5.714 11.714 L 5.714 11.714 Z M 1.716 8.998 C 1.693 7.343 1.976 5.769 2.556 4.324 C 3.281 2.492 4.34 0.624 6.214 0.119 C 6.645 0.009 7.945 -0.041 8.026 0.041 C 8.047 0.061 7.89 0.27 7.677 0.503 C 7.218 1.006 6.564 1.681 6.401 2.321 C 6.251 2.907 6.253 3.073 6.418 3.181 C 6.777 3.415 9.75 3.584 10.123 3.38 C 10.198 3.339 10.444 3.2 10.672 2.972 C 11.193 2.451 12.129 1.878 12.819 1.771 C 13.315 1.695 14.246 1.758 14.285 1.876 C 14.297 1.913 14.134 2.068 13.921 2.219 C 13.494 2.524 13 2.938 12.859 3.235 C 12.774 3.415 12.778 3.469 12.916 3.999 C 13.134 4.835 13.218 5.994 13.131 7.015 C 13.035 8.127 12.725 10.202 12.482 11.346 C 11.871 14.235 10.753 15.62 9.13 15.961 C 8.737 16.044 7.655 15.969 7.655 15.969 C 3.77 15.754 1.788 12.429 1.716 8.998 L 1.716 8.998 L 1.716 8.998 L 1.716 8.998 Z M 10.286 12.286 C 10.286 11.813 10.67 11.429 11.143 11.429 C 11.616 11.429 12 11.813 12 12.286 C 12 12.759 11.616 13.143 11.143 13.143 C 10.67 13.143 10.286 12.759 10.286 12.286 Z"/>
</svg>
