<svg xmlns="http://www.w3.org/2000/svg" width="24" height="24" version="1.1">
 <defs>
   <style id="current-color-scheme" type="text/css">
   .ColorScheme-Text { color: #00aa00; } .ColorScheme-Highlight { color: #1AD6AB; }
  </style>
  <linearGradient id="arrongin" x1="0%" x2="0%" y1="0%" y2="100%">
   <stop offset="0%"    stop-color= "#dd9b44" stop-opacity="1"/>
   <stop offset="100%"  stop-color= "#ad6c16" stop-opacity="1"/>
  </linearGradient>
  <linearGradient id="aurora" x1="0%" x2="0%" y1="0%" y2="100%">
   <stop offset="0%"    stop-color= "#09D4DF" stop-opacity="1"/>
   <stop offset="100%"  stop-color= "#9269F4" stop-opacity="1"/>
  </linearGradient> 
  <linearGradient id="cyberblue" x1="0%" x2="0%" y1="0%" y2="100%">
   <stop offset="0%"    stop-color= "#07B3FF" stop-opacity="1"/>
   <stop offset="100%"  stop-color= "#007DE8" stop-opacity="1"/>
  </linearGradient>
  <linearGradient id="cyberneon" x1="0%" x2="0%" y1="0%" y2="100%">
    <stop offset="0%"   stop-color= "#0abdc6" stop-opacity="1"/>
    <stop offset="100%" stop-color= "#ea00d9" stop-opacity="1"/>
  </linearGradient>
  <linearGradient id="fitdance" x1="0%" x2="0%" y1="0%" y2="100%">
   <stop offset="0%"    stop-color= "#1AD6AB" stop-opacity="1"/>
   <stop offset="100%"  stop-color= "#329DB6" stop-opacity="1"/>
  </linearGradient>
  <linearGradient id="oomox" x1="0%" x2="0%" y1="0%" y2="100%">
   <stop offset="0%"    stop-color= "#00aa00" stop-opacity="1"/>
   <stop offset="100%"  stop-color= "#00cc00" stop-opacity="1"/>
  </linearGradient>
  <linearGradient id="rainblue" x1="0%" x2="0%" y1="0%" y2="100%">
   <stop offset="0%"    stop-color= "#00F260" stop-opacity="1"/>
   <stop offset="100%"  stop-color= "#0575E6" stop-opacity="1"/>
  </linearGradient>
  <linearGradient id="redcarbon" x1="0%" x2="0%" y1="0%" y2="100%">
   <stop offset="0%"    stop-color= "#FF6D57" stop-opacity="1"/>
   <stop offset="50%"   stop-color= "#FF5160" stop-opacity="1"/>
   <stop offset="100%"  stop-color= "#F50F22" stop-opacity="1"/>
  </linearGradient>
  <linearGradient id="sunrise" x1="0%" x2="0%" y1="0%" y2="100%">
   <stop offset="0%"    stop-color= "#FF8501" stop-opacity="1"/>
   <stop offset="100%"  stop-color= "#FFCB01" stop-opacity="1"/>
  </linearGradient>
  <linearGradient id="telinkrin" x1="0%" x2="0%" y1="0%" y2="100%">
   <stop offset="0%"    stop-color= "#b2ced6" stop-opacity="1"/>
   <stop offset="100%"  stop-color= "#6da5b7" stop-opacity="1"/>
  </linearGradient>
  <linearGradient id="60spsycho" x1="0%" x2="0%" y1="0%" y2="100%">
   <stop offset="0%"    stop-color= "#df5940" stop-opacity="1"/>
   <stop offset="25%"   stop-color= "#d8d15f" stop-opacity="1"/>
   <stop offset="50%"   stop-color= "#e9882a" stop-opacity="1"/>
   <stop offset="100%"  stop-color= "#279362" stop-opacity="1"/>
  </linearGradient>
  <linearGradient id="90ssummer" x1="0%" x2="0%" y1="0%" y2="100%">
   <stop offset="0%"    stop-color= "#f618c7" stop-opacity="1"/>
   <stop offset="20%"   stop-color= "#94ffab" stop-opacity="1"/>
   <stop offset="50%"   stop-color= "#fbfd54" stop-opacity="1"/>
   <stop offset="100%"  stop-color= "#0f83ae" stop-opacity="1"/>
  </linearGradient>
 </defs>
 <path fill="url(#oomox)" class="ColorScheme-Text" d="M 12.613281 0.20507812 A 0.50005 0.50005 0 0 0 12.142578 0.77929688 L 12.425781 2.8652344 L 11.388672 3.9023438 L 11.085938 1.671875 A 0.50005 0.50005 0 0 0 10.564453 1.2324219 A 0.50005 0.50005 0 0 0 10.095703 1.8066406 L 10.5 4.7910156 L 8.7910156 6.5 L 6.5 6.5 L 6.5 7.90625 L 5.2695312 8.2578125 L 5.0097656 6.3359375 A 0.50005 0.50005 0 0 0 4.4882812 5.8964844 A 0.50005 0.50005 0 0 0 4.0175781 6.46875 L 4.2988281 8.5351562 L 2.6113281 9.0175781 L 2.3710938 7.2519531 A 0.50005 0.50005 0 0 0 1.8496094 6.8125 A 0.50005 0.50005 0 0 0 1.3789062 7.3867188 L 1.6386719 9.296875 L 0.86328125 9.5175781 A 0.50005 0.50005 0 1 0 1.1367188 10.478516 L 1.7734375 10.296875 L 2.1601562 13.130859 L 0.64648438 14.644531 A 0.50005 0.50005 0 1 0 1.3535156 15.351562 L 2.328125 14.376953 L 2.4257812 15.089844 A 0.50005 0.50005 0 1 0 3.4160156 14.957031 L 3.2167969 13.488281 L 4.7617188 11.943359 L 5.0644531 14.173828 A 0.50005 0.50005 0 1 0 6.0546875 14.039062 L 5.6503906 11.054688 L 7.2050781 9.5 L 9.5 9.5 L 9.5 8.0898438 L 10.894531 7.6914062 L 11.140625 9.5097656 A 0.50052 0.50052 0 0 0 12.132812 9.3769531 L 11.865234 7.4140625 L 13 7.0898438 L 13.189453 8.484375 A 0.50006301 0.50006301 0 1 0 14.179688 8.3496094 L 13.970703 6.8125 L 15.136719 6.4785156 A 0.50005 0.50005 0 0 0 14.996094 5.4960938 A 0.50005 0.50005 0 0 0 14.863281 5.5175781 L 13.835938 5.8105469 L 13.484375 3.2207031 L 15.353516 1.3515625 A 0.50005 0.50005 0 0 0 14.990234 0.49414062 A 0.50005 0.50005 0 0 0 14.646484 0.64453125 L 13.314453 1.9765625 L 13.134766 0.64453125 A 0.50005 0.50005 0 0 0 12.613281 0.20507812 z M 12.595703 4.109375 L 12.863281 6.0898438 L 11.730469 6.4121094 L 11.558594 5.1464844 L 12.595703 4.109375 z M 10.669922 6.0351562 L 10.757812 6.6914062 L 9.7167969 6.9882812 L 10.669922 6.0351562 z M 6.2832031 9.0078125 L 5.4804688 9.8105469 L 5.40625 9.2578125 L 6.2832031 9.0078125 z M 4.4335938 9.5371094 L 4.5917969 10.699219 L 3.0488281 12.242188 L 2.7460938 10.017578 L 4.4335938 9.5371094 z" transform="translate(4 4)"/>
</svg>
