<svg xmlns="http://www.w3.org/2000/svg" width="16" height="16" version="1.1">
 <defs>
   <style id="current-color-scheme" type="text/css">
   .ColorScheme-Text { color: #cc00cc; } .ColorScheme-Highlight { color:#5294e2; }
  </style>
  <linearGradient id="arrongin" x1="0%" x2="0%" y1="0%" y2="100%">
   <stop offset="0%" style="stop-color:#dd9b44; stop-opacity:1"/>
   <stop offset="100%" style="stop-color:#ad6c16; stop-opacity:1"/>
  </linearGradient>
  <linearGradient id="aurora" x1="0%" x2="0%" y1="0%" y2="100%">
   <stop offset="0%" style="stop-color:#09D4DF; stop-opacity:1"/>
   <stop offset="100%" style="stop-color:#9269F4; stop-opacity:1"/>
  </linearGradient>
  <linearGradient id="cyberneon" x1="0%" x2="0%" y1="0%" y2="100%">
    <stop offset="0" style="stop-color:#0abdc6; stop-opacity:1"/>
    <stop offset="1" style="stop-color:#ea00d9; stop-opacity:1"/>
  </linearGradient>
  <linearGradient id="fitdance" x1="0%" x2="0%" y1="0%" y2="100%">
   <stop offset="0%" style="stop-color:#1AD6AB; stop-opacity:1"/>
   <stop offset="100%" style="stop-color:#329DB6; stop-opacity:1"/>
  </linearGradient>
  <linearGradient id="oomox" x1="0%" x2="0%" y1="0%" y2="100%">
   <stop offset="0%" style="stop-color:#efefe7; stop-opacity:1"/>
   <stop offset="100%" style="stop-color:#8f8f8b; stop-opacity:1"/>
  </linearGradient>
  <linearGradient id="rainblue" x1="0%" x2="0%" y1="0%" y2="100%">
   <stop offset="0%" style="stop-color:#00F260; stop-opacity:1"/>
   <stop offset="100%" style="stop-color:#0575E6; stop-opacity:1"/>
  </linearGradient>
  <linearGradient id="sunrise" x1="0%" x2="0%" y1="0%" y2="100%">
   <stop offset="0%" style="stop-color: #FF8501; stop-opacity:1"/>
   <stop offset="100%" style="stop-color: #FFCB01; stop-opacity:1"/>
  </linearGradient>
  <linearGradient id="telinkrin" x1="0%" x2="0%" y1="0%" y2="100%">
   <stop offset="0%" style="stop-color: #b2ced6; stop-opacity:1"/>
   <stop offset="100%" style="stop-color: #6da5b7; stop-opacity:1"/>
  </linearGradient>
  <linearGradient id="60spsycho" x1="0%" x2="0%" y1="0%" y2="100%">
   <stop offset="0%" style="stop-color: #df5940; stop-opacity:1"/>
   <stop offset="25%" style="stop-color: #d8d15f; stop-opacity:1"/>
   <stop offset="50%" style="stop-color: #e9882a; stop-opacity:1"/>
   <stop offset="100%" style="stop-color: #279362; stop-opacity:1"/>
  </linearGradient>
  <linearGradient id="90ssummer" x1="0%" x2="0%" y1="0%" y2="100%">
   <stop offset="0%" style="stop-color: #f618c7; stop-opacity:1"/>
   <stop offset="20%" style="stop-color: #94ffab; stop-opacity:1"/>
   <stop offset="50%" style="stop-color: #fbfd54; stop-opacity:1"/>
   <stop offset="100%" style="stop-color: #0f83ae; stop-opacity:1"/>
  </linearGradient>
 </defs>
 <path fill="currentColor" class="ColorScheme-Text" d="M 2.14 14.081 C 1.811 14.037 1.581 13.927 1.273 13.81 C 1.13 13.756 1.068 12.83 1.031 12.271 C 0.995 11.713 0.985 11.259 1.009 10.711 C 1.033 10.163 1.127 9.644 1.185 9.065 C 1.242 8.486 1.283 7.968 1.338 7.375 C 1.394 6.781 1.529 6.575 1.624 6.172 Q 1.719 5.769 1.866 5.121 Q 2.042 4.727 1.844 4.569 C 1.613 4.385 1.47 4.72 1.097 4.72 Q 0.855 4.72 0.767 4.233 Q 0.731 3.641 0.844 3.345 Q 0.938 3.098 1.262 2.727 L 2.107 1.914 Q 2.506 1.624 2.744 1.503 C 3.127 1.307 3.493 1.243 3.908 1.134 C 4.673 0.934 5.344 0.879 6.126 0.766 C 6.908 0.653 7.488 0.535 8.234 0.506 C 8.981 0.478 9.66 0.555 10.431 0.614 C 11.201 0.674 11.199 0.714 11.298 0.723 C 11.397 0.732 11.469 0.907 11.617 0.939 C 11.968 0.874 12.537 1.028 12.868 1.254 C 13.2 1.48 13.556 1.771 13.923 2.088 C 14.289 2.404 14.423 2.499 14.625 2.781 C 14.828 3.064 14.845 3.281 14.955 3.594 C 15.065 3.906 15.225 4.18 15.24 4.493 C 15.256 4.806 15.117 5.164 14.988 5.522 C 14.859 5.88 14.766 6.019 14.614 6.259 C 14.463 6.499 14.167 6.943 13.747 7.212 C 13.327 7.481 13.188 7.515 12.89 7.678 C 12.592 7.841 12.296 8.219 11.869 8.447 C 11.442 8.675 10.516 8.878 10.09 9.054 C 9.664 9.23 9.643 9.349 9.157 9.53 Q 8.671 9.712 7.191 9.899 L 6.258 10.115 Q 5.924 10.322 5.896 10.484 Q 5.863 10.668 6.258 10.971 L 7.576 11.881 Q 8.615 12.401 9.179 12.683 C 9.742 12.965 10.255 13.231 10.87 13.485 C 11.485 13.739 11.746 13.835 12.231 13.983 C 12.717 14.131 12.441 14.145 12.956 14.265 C 13.472 14.384 13.873 14.893 13.846 15.207 C 13.826 15.43 13.452 15.505 13.373 15.5 C 13.295 15.495 13.013 15.43 12.868 15.413 C 12.404 15.358 12.156 15.329 11.957 15.305 C 11.696 15.273 11.216 15.215 10.782 15.066 C 10.348 14.918 9.173 14.448 8.366 13.983 C 7.56 13.518 7.415 13.4 6.939 13.03 C 6.463 12.659 6.624 12.674 6.39 12.575 C 6.155 12.475 6.184 12.535 6.082 12.488 C 5.98 12.441 5.78 12.167 5.599 12.011 Q 5.418 11.856 4.589 11.34 Q 3.963 10.917 3.644 10.581 C 3.326 10.245 3.685 9.358 3.809 9.379 C 3.933 9.4 4.252 9.329 4.962 9.162 L 6.423 8.805 L 8.125 8.436 L 9.179 8.111 Q 9.234 8.09 9.508 8.068 Q 9.783 8.046 11.551 6.963 Q 12.48 6.403 12.89 5.988 C 13.301 5.573 13.472 5.395 13.659 4.991 C 13.846 4.588 13.835 4.624 13.857 4.406 C 13.878 4.189 13.695 3.624 13.439 3.28 C 13.184 2.935 13.075 2.872 12.824 2.716 C 12.573 2.56 11.891 2.232 11.77 2.185 C 11.649 2.139 11.467 2.188 11.309 2.153 C 11.151 2.118 11.016 2 10.804 1.958 C 10.592 1.916 10.04 1.998 9.53 1.979 C 9.021 1.961 8.122 1.912 8.048 1.969 C 7.806 2.153 7.323 2.01 6.939 2.088 Q 6.468 2.184 5.643 2.51 L 4.567 2.911 Q 3.901 3.068 3.633 3.312 Q 3.312 3.606 3.139 4.406 Q 3.028 5.002 2.986 5.327 C 2.923 5.801 2.962 6.211 2.876 6.681 C 2.838 6.885 2.768 7.049 2.744 7.255 Q 2.705 7.595 2.81 8.22 L 2.766 9.065 L 2.678 9.606 Q 2.472 10.137 2.426 10.44 Q 2.381 10.731 2.415 11.275 L 2.502 12.011 Q 2.557 12.319 2.568 12.488 Q 2.594 12.863 2.48 13.55 Q 2.348 13.972 2.14 14.081 Z"/>
</svg>
