<svg xmlns="http://www.w3.org/2000/svg" width="16" height="16" version="1.1">
 <defs>
   <style id="current-color-scheme" type="text/css">
   .ColorScheme-Text { color: #cc00cc; } .ColorScheme-Highlight { color:#5294e2; }
  </style>
  <linearGradient id="arrongin" x1="0%" x2="0%" y1="0%" y2="100%">
   <stop offset="0%" style="stop-color:#dd9b44; stop-opacity:1"/>
   <stop offset="100%" style="stop-color:#ad6c16; stop-opacity:1"/>
  </linearGradient>
  <linearGradient id="aurora" x1="0%" x2="0%" y1="0%" y2="100%">
   <stop offset="0%" style="stop-color:#09D4DF; stop-opacity:1"/>
   <stop offset="100%" style="stop-color:#9269F4; stop-opacity:1"/>
  </linearGradient>
  <linearGradient id="cyberneon" x1="0%" x2="0%" y1="0%" y2="100%">
    <stop offset="0" style="stop-color:#0abdc6; stop-opacity:1"/>
    <stop offset="1" style="stop-color:#ea00d9; stop-opacity:1"/>
  </linearGradient>
  <linearGradient id="fitdance" x1="0%" x2="0%" y1="0%" y2="100%">
   <stop offset="0%" style="stop-color:#1AD6AB; stop-opacity:1"/>
   <stop offset="100%" style="stop-color:#329DB6; stop-opacity:1"/>
  </linearGradient>
  <linearGradient id="oomox" x1="0%" x2="0%" y1="0%" y2="100%">
   <stop offset="0%" style="stop-color:#efefe7; stop-opacity:1"/>
   <stop offset="100%" style="stop-color:#8f8f8b; stop-opacity:1"/>
  </linearGradient>
  <linearGradient id="rainblue" x1="0%" x2="0%" y1="0%" y2="100%">
   <stop offset="0%" style="stop-color:#00F260; stop-opacity:1"/>
   <stop offset="100%" style="stop-color:#0575E6; stop-opacity:1"/>
  </linearGradient>
  <linearGradient id="sunrise" x1="0%" x2="0%" y1="0%" y2="100%">
   <stop offset="0%" style="stop-color: #FF8501; stop-opacity:1"/>
   <stop offset="100%" style="stop-color: #FFCB01; stop-opacity:1"/>
  </linearGradient>
  <linearGradient id="telinkrin" x1="0%" x2="0%" y1="0%" y2="100%">
   <stop offset="0%" style="stop-color: #b2ced6; stop-opacity:1"/>
   <stop offset="100%" style="stop-color: #6da5b7; stop-opacity:1"/>
  </linearGradient>
  <linearGradient id="60spsycho" x1="0%" x2="0%" y1="0%" y2="100%">
   <stop offset="0%" style="stop-color: #df5940; stop-opacity:1"/>
   <stop offset="25%" style="stop-color: #d8d15f; stop-opacity:1"/>
   <stop offset="50%" style="stop-color: #e9882a; stop-opacity:1"/>
   <stop offset="100%" style="stop-color: #279362; stop-opacity:1"/>
  </linearGradient>
  <linearGradient id="90ssummer" x1="0%" x2="0%" y1="0%" y2="100%">
   <stop offset="0%" style="stop-color: #f618c7; stop-opacity:1"/>
   <stop offset="20%" style="stop-color: #94ffab; stop-opacity:1"/>
   <stop offset="50%" style="stop-color: #fbfd54; stop-opacity:1"/>
   <stop offset="100%" style="stop-color: #0f83ae; stop-opacity:1"/>
  </linearGradient>
 </defs>
 <path fill="currentColor" class="ColorScheme-Text" d="M 13.194 15.709 C 13.588 14.922 13.844 14.03 13.912 13.214 C 13.967 12.545 13.942 11.527 13.868 11.453 C 13.86 11.445 13.71 11.578 13.533 11.749 C 13.174 12.096 12.908 12.257 12.498 12.376 C 12.29 12.436 12.198 12.444 11.741 12.443 C 11.315 12.442 11.172 12.43 10.953 12.378 C 9.249 11.972 9.31 11.981 8.135 11.962 C 7.064 11.945 6.839 11.963 6.223 12.115 C 5.622 12.263 5.155 12.431 4.647 12.681 C 4.11 12.945 3.804 13.134 2.973 13.718 C 2.625 13.962 2.335 14.157 2.329 14.151 C 2.316 14.137 2.442 13.708 2.711 12.85 C 2.82 12.5 2.905 12.209 2.898 12.203 C 2.883 12.188 2.065 13.026 1.823 13.303 L 1.645 13.506 L 1.728 13.823 C 1.89 14.44 2.118 14.961 2.502 15.594 C 2.61 15.772 2.699 15.929 2.699 15.943 C 2.699 15.957 2.459 15.969 2.166 15.969 L 1.633 15.969 L 1.529 15.783 C 1.401 15.553 1.031 14.73 0.961 14.519 C 0.933 14.433 0.899 14.363 0.886 14.363 C 0.873 14.363 0.684 14.561 0.465 14.804 L 0.066 15.246 L 0.047 14.99 C -0.079 13.31 0.051 11.554 0.382 10.481 C 0.726 9.362 1.321 8.376 2.191 7.481 C 2.823 6.832 3.459 6.366 4.26 5.967 C 4.457 5.869 4.623 5.784 4.629 5.778 C 4.636 5.772 4.606 5.65 4.563 5.507 C 4.474 5.214 4.41 4.86 4.379 4.495 C 4.364 4.319 4.347 4.25 4.318 4.25 C 4.296 4.25 4.14 4.235 3.971 4.218 C 3.293 4.147 2.985 4.002 2.755 3.647 C 2.549 3.328 2.535 3.242 2.575 2.549 C 2.611 1.926 2.657 1.627 2.747 1.432 C 2.776 1.371 2.901 1.218 3.025 1.093 C 3.211 0.905 3.279 0.857 3.413 0.816 C 3.651 0.745 3.996 0.729 4.477 0.767 C 5.02 0.81 5.139 0.837 5.424 0.98 C 5.552 1.044 5.674 1.097 5.694 1.097 C 5.734 1.097 6.05 0.699 6.347 0.273 L 6.538 0 L 6.916 0.22 C 7.123 0.341 7.298 0.453 7.303 0.469 C 7.308 0.486 7.266 0.623 7.209 0.776 C 7.104 1.057 7.012 1.441 7.012 1.597 L 7.012 1.683 L 7.331 1.721 C 8.107 1.813 8.683 2.064 9.162 2.521 C 9.529 2.873 9.77 3.251 9.925 3.722 C 10.055 4.117 10.056 4.905 9.927 5.366 C 9.892 5.491 9.867 5.597 9.873 5.601 C 9.878 5.605 9.956 5.632 10.046 5.66 C 10.295 5.738 11.187 6.185 11.489 6.383 C 12.055 6.756 12.846 7.478 13.306 8.042 C 13.898 8.768 14.409 9.78 14.641 10.687 C 14.796 11.29 14.845 11.7 14.846 12.385 C 14.847 13.584 14.637 14.691 14.215 15.701 L 14.097 15.984 L 13.573 15.992 L 13.049 16 L 13.194 15.709 Z M 3.009 10.704 C 4.69 8.925 5.049 8.553 5.068 8.572 C 5.088 8.592 5.022 8.812 4.558 10.273 C 4.066 11.826 4.063 11.835 4.1 11.835 C 4.117 11.835 4.354 11.749 4.628 11.644 C 5.907 11.153 6.694 10.999 7.923 10.999 C 8.856 10.999 9.521 11.084 10.597 11.34 C 11.334 11.515 11.464 11.537 11.771 11.537 C 12.067 11.537 12.266 11.486 12.549 11.338 C 12.924 11.143 13.136 10.837 13.204 10.399 C 13.282 9.887 13.109 9.369 12.655 8.754 C 12.452 8.48 11.726 7.756 11.429 7.531 C 10.866 7.107 10.36 6.816 9.789 6.589 C 9.434 6.447 9.346 6.448 9.206 6.592 L 9.098 6.703 L 9.439 7.12 C 9.981 7.779 10.277 8.18 10.331 8.324 C 10.406 8.525 10.401 8.926 10.322 9.102 C 10.242 9.28 10.055 9.461 9.842 9.565 C 9.69 9.64 9.643 9.648 9.347 9.649 L 9.019 9.65 L 8.818 9.773 C 8.316 10.077 7.943 10.008 7.493 9.528 C 7.162 9.174 7.079 9.005 7.027 8.582 C 7.003 8.395 6.955 8.17 6.919 8.083 C 6.869 7.959 6.853 7.852 6.848 7.611 L 6.841 7.3 L 6.651 7.252 C 6.252 7.151 5.893 6.987 5.507 6.73 C 5.375 6.642 5.247 6.569 5.223 6.569 C 5.139 6.569 4.35 6.98 4.037 7.186 C 2.852 7.968 2.001 8.996 1.494 10.258 C 1.252 10.861 1.124 11.398 1.048 12.136 C 1.022 12.387 0.993 12.646 0.985 12.712 L 0.969 12.831 L 1.336 12.459 C 1.537 12.254 2.29 11.464 3.009 10.704 L 3.009 10.704 Z M 8.408 9.095 C 8.464 9.06 8.612 8.956 8.735 8.862 C 9.08 8.6 9.072 8.602 9.19 8.74 C 9.355 8.933 9.529 8.952 9.605 8.786 C 9.636 8.718 9.625 8.69 9.502 8.51 C 9.35 8.288 8.249 6.925 7.858 6.474 C 7.72 6.315 7.565 6.163 7.515 6.137 C 7.431 6.094 7.417 6.094 7.349 6.139 C 7.289 6.178 7.278 6.204 7.294 6.266 C 7.321 6.373 7.472 6.593 7.768 6.952 L 8.021 7.259 L 7.844 7.406 C 7.619 7.593 7.587 7.651 7.651 7.748 C 7.677 7.789 7.732 7.837 7.771 7.855 C 7.835 7.884 7.869 7.872 8.052 7.75 C 8.167 7.674 8.271 7.611 8.284 7.611 C 8.324 7.611 8.523 7.83 8.534 7.886 C 8.54 7.92 8.423 8.052 8.191 8.274 L 7.838 8.611 L 7.897 8.728 C 7.987 8.903 8.2 9.158 8.256 9.158 C 8.283 9.158 8.352 9.13 8.408 9.095 L 8.408 9.095 Z M 6.537 5.883 C 6.717 5.511 7.021 5.295 7.402 5.268 C 7.594 5.254 7.624 5.261 7.823 5.36 C 8.039 5.467 8.23 5.625 8.4 5.836 L 8.492 5.95 L 8.661 5.734 C 8.754 5.615 8.863 5.462 8.902 5.394 C 9.281 4.748 9.146 3.823 8.592 3.271 C 8.237 2.917 7.785 2.738 7.017 2.645 C 6.705 2.607 6.565 2.545 6.349 2.347 C 6.185 2.197 6.174 2.192 6.134 2.246 C 6.054 2.349 5.799 2.864 5.649 3.224 C 5.411 3.793 5.392 3.878 5.395 4.354 C 5.399 4.824 5.461 5.128 5.604 5.372 C 5.701 5.536 6.025 5.888 6.191 6.009 C 6.374 6.143 6.419 6.127 6.537 5.883 L 6.537 5.883 Z M 4.574 3.223 C 4.586 3.216 4.632 3.119 4.676 3.008 C 4.72 2.898 4.828 2.645 4.917 2.447 C 5.09 2.06 5.112 1.934 5.02 1.842 C 4.918 1.74 4.503 1.665 4.032 1.663 C 3.798 1.662 3.766 1.669 3.683 1.739 C 3.568 1.836 3.544 1.932 3.502 2.468 C 3.461 2.99 3.485 3.091 3.672 3.169 C 3.851 3.244 4.479 3.281 4.574 3.223 Z M 4.021 2.572 C 3.997 2.374 4.024 2.236 4.097 2.197 C 4.127 2.181 4.254 2.168 4.377 2.168 L 4.602 2.168 L 4.602 2.45 L 4.602 2.733 L 4.322 2.733 L 4.042 2.733 L 4.021 2.572 Z M 5.495 14.924 C 5.4 14.887 5.263 14.758 5.209 14.654 C 5.156 14.552 5.155 14.213 5.207 14.086 C 5.262 13.955 5.441 13.805 5.57 13.781 C 6.022 13.696 6.358 13.946 6.356 14.365 C 6.354 14.741 6.118 14.961 5.721 14.956 C 5.637 14.955 5.535 14.941 5.494 14.924 L 5.495 14.924 Z M 9.466 14.903 C 8.984 14.674 9.023 13.963 9.527 13.797 C 9.587 13.777 9.719 13.767 9.822 13.773 C 10.15 13.794 10.313 13.976 10.336 14.348 C 10.352 14.609 10.323 14.684 10.148 14.827 C 10.018 14.933 9.991 14.943 9.796 14.951 C 9.636 14.958 9.555 14.946 9.466 14.903 L 9.466 14.903 Z"/>
</svg>
