<svg xmlns="http://www.w3.org/2000/svg" width="16" height="16" version="1.1">
 <defs>
   <style id="current-color-scheme" type="text/css">
   .ColorScheme-Text { color: #cc00cc; } .ColorScheme-Highlight { color:#5294e2; }
  </style>
  <linearGradient id="arrongin" x1="0%" x2="0%" y1="0%" y2="100%">
   <stop offset="0%" style="stop-color:#dd9b44; stop-opacity:1"/>
   <stop offset="100%" style="stop-color:#ad6c16; stop-opacity:1"/>
  </linearGradient>
  <linearGradient id="aurora" x1="0%" x2="0%" y1="0%" y2="100%">
   <stop offset="0%" style="stop-color:#09D4DF; stop-opacity:1"/>
   <stop offset="100%" style="stop-color:#9269F4; stop-opacity:1"/>
  </linearGradient>
  <linearGradient id="cyberneon" x1="0%" x2="0%" y1="0%" y2="100%">
    <stop offset="0" style="stop-color:#0abdc6; stop-opacity:1"/>
    <stop offset="1" style="stop-color:#ea00d9; stop-opacity:1"/>
  </linearGradient>
  <linearGradient id="fitdance" x1="0%" x2="0%" y1="0%" y2="100%">
   <stop offset="0%" style="stop-color:#1AD6AB; stop-opacity:1"/>
   <stop offset="100%" style="stop-color:#329DB6; stop-opacity:1"/>
  </linearGradient>
  <linearGradient id="oomox" x1="0%" x2="0%" y1="0%" y2="100%">
   <stop offset="0%" style="stop-color:#efefe7; stop-opacity:1"/>
   <stop offset="100%" style="stop-color:#8f8f8b; stop-opacity:1"/>
  </linearGradient>
  <linearGradient id="rainblue" x1="0%" x2="0%" y1="0%" y2="100%">
   <stop offset="0%" style="stop-color:#00F260; stop-opacity:1"/>
   <stop offset="100%" style="stop-color:#0575E6; stop-opacity:1"/>
  </linearGradient>
  <linearGradient id="sunrise" x1="0%" x2="0%" y1="0%" y2="100%">
   <stop offset="0%" style="stop-color: #FF8501; stop-opacity:1"/>
   <stop offset="100%" style="stop-color: #FFCB01; stop-opacity:1"/>
  </linearGradient>
  <linearGradient id="telinkrin" x1="0%" x2="0%" y1="0%" y2="100%">
   <stop offset="0%" style="stop-color: #b2ced6; stop-opacity:1"/>
   <stop offset="100%" style="stop-color: #6da5b7; stop-opacity:1"/>
  </linearGradient>
  <linearGradient id="60spsycho" x1="0%" x2="0%" y1="0%" y2="100%">
   <stop offset="0%" style="stop-color: #df5940; stop-opacity:1"/>
   <stop offset="25%" style="stop-color: #d8d15f; stop-opacity:1"/>
   <stop offset="50%" style="stop-color: #e9882a; stop-opacity:1"/>
   <stop offset="100%" style="stop-color: #279362; stop-opacity:1"/>
  </linearGradient>
  <linearGradient id="90ssummer" x1="0%" x2="0%" y1="0%" y2="100%">
   <stop offset="0%" style="stop-color: #f618c7; stop-opacity:1"/>
   <stop offset="20%" style="stop-color: #94ffab; stop-opacity:1"/>
   <stop offset="50%" style="stop-color: #fbfd54; stop-opacity:1"/>
   <stop offset="100%" style="stop-color: #0f83ae; stop-opacity:1"/>
  </linearGradient>
 </defs>
 <path fill="currentColor" class="ColorScheme-Text" fill-rule="evenodd" d="M 7.834 0 C 7.467 0 7.172 0.295 7.172 0.662 L 7.172 1.162 C 6.861 1.198 6.553 1.255 6.249 1.333 L 6.067 0.873 C 5.932 0.532 5.549 0.366 5.208 0.501 L 4.9 0.623 C 4.559 0.758 4.393 1.141 4.528 1.482 L 4.711 1.945 C 4.372 2.128 4.049 2.339 3.746 2.575 L 3.397 2.226 C 3.137 1.967 2.72 1.967 2.46 2.226 L 2.226 2.46 C 1.967 2.72 1.967 3.137 2.226 3.397 L 2.579 3.749 C 2.339 4.051 2.125 4.372 1.94 4.709 L 1.482 4.528 C 1.141 4.393 0.758 4.559 0.623 4.9 L 0.501 5.208 C 0.366 5.549 0.532 5.932 0.873 6.067 L 1.338 6.251 C 1.258 6.554 1.198 6.862 1.159 7.172 L 0.662 7.172 C 0.295 7.172 0 7.467 0 7.834 L 0 8.166 C 0 8.533 0.295 8.828 0.662 8.828 L 1.162 8.828 C 1.198 9.139 1.255 9.447 1.333 9.751 L 0.873 9.933 C 0.532 10.068 0.366 10.451 0.501 10.792 L 0.623 11.1 C 0.758 11.441 1.141 11.607 1.482 11.472 L 1.945 11.289 C 2.128 11.628 2.339 11.951 2.575 12.254 L 2.226 12.603 C 1.967 12.863 1.967 13.28 2.226 13.54 L 2.46 13.774 C 2.72 14.033 3.137 14.033 3.397 13.774 L 3.749 13.421 C 4.051 13.661 4.372 13.875 4.709 14.06 L 4.528 14.518 C 4.393 14.859 4.559 15.242 4.9 15.377 L 5.208 15.499 C 5.549 15.634 5.932 15.468 6.067 15.127 L 6.251 14.662 C 6.554 14.742 6.862 14.802 7.172 14.841 L 7.172 15.338 C 7.172 15.705 7.467 16 7.834 16 L 8.166 16 C 8.533 16 8.828 15.705 8.828 15.338 L 8.828 14.838 C 9.139 14.802 9.447 14.745 9.751 14.667 L 9.933 15.127 C 10.068 15.468 10.451 15.634 10.792 15.499 L 11.1 15.377 C 11.441 15.242 11.607 14.859 11.472 14.518 L 11.289 14.055 C 11.628 13.872 11.951 13.661 12.254 13.425 L 12.603 13.774 C 12.863 14.033 13.28 14.033 13.54 13.774 L 13.774 13.54 C 14.033 13.28 14.033 12.863 13.774 12.603 L 13.421 12.251 C 13.661 11.949 13.875 11.628 14.06 11.291 L 14.518 11.472 C 14.859 11.607 15.242 11.441 15.377 11.1 L 15.499 10.792 C 15.634 10.451 15.468 10.068 15.127 9.933 L 14.662 9.749 C 14.742 9.446 14.802 9.138 14.841 8.828 L 15.338 8.828 C 15.705 8.828 16 8.533 16 8.166 L 16 7.834 C 16 7.467 15.705 7.172 15.338 7.172 L 14.838 7.172 C 14.802 6.861 14.745 6.553 14.667 6.249 L 15.127 6.067 C 15.468 5.932 15.634 5.549 15.499 5.208 L 15.377 4.9 C 15.242 4.559 14.859 4.393 14.518 4.528 L 14.055 4.711 C 13.872 4.372 13.661 4.049 13.425 3.746 L 13.774 3.397 C 14.033 3.137 14.033 2.72 13.774 2.46 L 13.54 2.226 C 13.28 1.967 12.863 1.967 12.603 2.226 L 12.251 2.579 C 11.949 2.339 11.628 2.125 11.291 1.94 L 11.472 1.482 C 11.607 1.141 11.441 0.758 11.1 0.623 L 10.792 0.501 C 10.451 0.366 10.068 0.532 9.933 0.873 L 9.749 1.338 C 9.446 1.258 9.138 1.198 8.828 1.159 L 8.828 0.662 C 8.828 0.295 8.533 0 8.166 0 L 7.834 0 Z M 11.034 3.31 L 11.034 6.595 C 11.034 6.595 9.352 6.595 9.352 7.374 C 9.352 8.622 10.578 8.71 10.49 9.939 C 10.267 13.034 6.841 12.764 4.97 12.602 L 4.966 9.774 C 4.966 9.774 5.543 9.977 6.115 9.932 C 6.483 9.938 6.936 9.48 6.862 9.159 C 6.936 8.31 5.52 7.497 5.517 6.467 C 5.541 3.31 9.897 3.31 11.034 3.31 L 11.034 3.31 Z"/>
</svg>
