<svg xmlns="http://www.w3.org/2000/svg" width="16" height="16" version="1.1">
 <defs>
   <style id="current-color-scheme" type="text/css">
   .ColorScheme-Text { color: #cc00cc; } .ColorScheme-Highlight { color:#5294e2; }
  </style>
  <linearGradient id="arrongin" x1="0%" x2="0%" y1="0%" y2="100%">
   <stop offset="0%" style="stop-color:#dd9b44; stop-opacity:1"/>
   <stop offset="100%" style="stop-color:#ad6c16; stop-opacity:1"/>
  </linearGradient>
  <linearGradient id="aurora" x1="0%" x2="0%" y1="0%" y2="100%">
   <stop offset="0%" style="stop-color:#09D4DF; stop-opacity:1"/>
   <stop offset="100%" style="stop-color:#9269F4; stop-opacity:1"/>
  </linearGradient>
  <linearGradient id="cyberneon" x1="0%" x2="0%" y1="0%" y2="100%">
    <stop offset="0" style="stop-color:#0abdc6; stop-opacity:1"/>
    <stop offset="1" style="stop-color:#ea00d9; stop-opacity:1"/>
  </linearGradient>
  <linearGradient id="fitdance" x1="0%" x2="0%" y1="0%" y2="100%">
   <stop offset="0%" style="stop-color:#1AD6AB; stop-opacity:1"/>
   <stop offset="100%" style="stop-color:#329DB6; stop-opacity:1"/>
  </linearGradient>
  <linearGradient id="oomox" x1="0%" x2="0%" y1="0%" y2="100%">
   <stop offset="0%" style="stop-color:#efefe7; stop-opacity:1"/>
   <stop offset="100%" style="stop-color:#8f8f8b; stop-opacity:1"/>
  </linearGradient>
  <linearGradient id="rainblue" x1="0%" x2="0%" y1="0%" y2="100%">
   <stop offset="0%" style="stop-color:#00F260; stop-opacity:1"/>
   <stop offset="100%" style="stop-color:#0575E6; stop-opacity:1"/>
  </linearGradient>
  <linearGradient id="sunrise" x1="0%" x2="0%" y1="0%" y2="100%">
   <stop offset="0%" style="stop-color: #FF8501; stop-opacity:1"/>
   <stop offset="100%" style="stop-color: #FFCB01; stop-opacity:1"/>
  </linearGradient>
  <linearGradient id="telinkrin" x1="0%" x2="0%" y1="0%" y2="100%">
   <stop offset="0%" style="stop-color: #b2ced6; stop-opacity:1"/>
   <stop offset="100%" style="stop-color: #6da5b7; stop-opacity:1"/>
  </linearGradient>
  <linearGradient id="60spsycho" x1="0%" x2="0%" y1="0%" y2="100%">
   <stop offset="0%" style="stop-color: #df5940; stop-opacity:1"/>
   <stop offset="25%" style="stop-color: #d8d15f; stop-opacity:1"/>
   <stop offset="50%" style="stop-color: #e9882a; stop-opacity:1"/>
   <stop offset="100%" style="stop-color: #279362; stop-opacity:1"/>
  </linearGradient>
  <linearGradient id="90ssummer" x1="0%" x2="0%" y1="0%" y2="100%">
   <stop offset="0%" style="stop-color: #f618c7; stop-opacity:1"/>
   <stop offset="20%" style="stop-color: #94ffab; stop-opacity:1"/>
   <stop offset="50%" style="stop-color: #fbfd54; stop-opacity:1"/>
   <stop offset="100%" style="stop-color: #0f83ae; stop-opacity:1"/>
  </linearGradient>
 </defs>
 <path fill="currentColor" class="ColorScheme-Text" fill-rule="evenodd" d="M14.6912 0.315637C14.3984 0.0673447 13.8264 0.00277152 13.3285 5.63264e-06C12.8299 -0.000526269 12.2954 0.0359625 11.7957 0.356274C10.3965 1.07062 9.21028 1.89166 8.14913 2.77547C8.60337 3.62472 9.1692 4.38839 9.83746 5.07352L8.52304 6.50252L1.23877 0.957429C1.19505 0.833709 1.13239 0.728711 1.05611 0.651585C0.991965 0.611799 0.923456 0.590949 0.854096 0.590098C0.715588 0.499355 0.55889 0.499355 0.419319 0.590098C0.279854 0.68084 0.169325 0.854666 0.112837 1.07221C-0.0354571 1.37912 -0.0377972 1.79826 0.107093 2.10495C0.216026 2.17676 0.337194 2.19272 0.453148 2.15059L1.98661 3.31794C1.96302 3.35611 1.95891 3.42251 1.98417 3.52471C2.13513 3.77928 2.61044 4.22618 3.47073 4.88255C3.50586 4.90936 3.55039 4.94244 3.60025 4.97948C3.80345 5.13045 4.09514 5.34716 4.19944 5.47264C4.42975 5.74944 4.61635 6.0089 4.72698 6.23783L7.04508 8.10933L0.626228 15.0877C0.53155 15.192 0.480487 15.3292 0.48687 15.4707C0.492189 15.6111 0.55389 15.7441 0.658143 15.8398C0.761332 15.9356 0.899626 15.9856 1.04005 15.9792C1.18153 15.9739 1.31451 15.9122 1.40919 15.8079L7.63859 9.03548C7.65522 9.20721 7.70974 9.37569 7.79595 9.52552C7.92563 9.74062 8.09945 9.92828 8.3036 10.0744C8.47455 10.2097 8.66221 10.3172 8.86635 10.3944C9.03188 10.4552 9.20836 10.4883 9.38772 10.4883C9.5375 10.4856 9.68728 10.4648 9.83211 10.4282L10.471 11.0807L10.6834 12.0213L12.8566 15.6587C12.9919 15.8853 13.0604 15.9753 13.3338 15.9947C13.501 16.0107 13.6601 15.9879 13.8074 15.9599C14.265 15.8735 14.6656 15.5563 15.0506 15.2378L15.1063 15.1957C15.3667 14.9998 15.3857 14.9855 15.3057 14.6267C15.2534 14.3525 15.1722 14.1136 14.8791 13.9633L12.147 11.9708L11.6009 10.2138L11.4552 9.60105C11.5765 8.6292 11.3843 8.52734 10.7513 8.1917L10.7305 8.18066L10.7297 8.18232L9.37318 7.14968L10.6163 5.79825C11.2278 6.31576 11.9064 6.78175 12.6472 7.20015C13.5618 5.91667 14.4353 4.61277 15.1053 3.20674C15.3185 2.74345 15.437 2.33389 15.2711 1.7672C15.185 1.22902 15.0171 0.592013 14.6912 0.315637ZM7.90903 8.92415C7.90994 8.88712 7.91232 8.84981 7.91618 8.81259L9.51016 10.0994L9.60283 10.1941C9.53177 10.2051 9.45975 10.2109 9.38772 10.2124C9.24155 10.2124 9.09805 10.1848 8.96284 10.1352C8.78635 10.0661 8.61806 9.97243 8.46912 9.85381C8.29253 9.72967 8.14637 9.56967 8.03318 9.38478C7.95318 9.24414 7.90903 9.08692 7.90903 8.92415Z" clip-rule="evenodd"/>
</svg>
