<svg xmlns="http://www.w3.org/2000/svg" width="16" height="16" version="1.1">
 <defs>
   <style id="current-color-scheme" type="text/css">
   .ColorScheme-Text { color: #00aa00; } .ColorScheme-Highlight { color: #5294e2; }
  </style>
  <linearGradient id="arrongin" x1="0%" x2="0%" y1="0%" y2="100%">
   <stop offset="0%" style="stop-color: #dd9b44; stop-opacity: 1"/>
   <stop offset="100%" style="stop-color: #ad6c16; stop-opacity: 1"/>
  </linearGradient>
  <linearGradient id="aurora" x1="0%" x2="0%" y1="0%" y2="100%">
   <stop offset="0%" style="stop-color: #09D4DF; stop-opacity: 1"/>
   <stop offset="100%" style="stop-color: #9269F4; stop-opacity: 1"/>
  </linearGradient>
  <linearGradient id="cyberneon" x1="0%" x2="0%" y1="0%" y2="100%">
    <stop offset="0" style="stop-color: #0abdc6; stop-opacity: 1"/>
    <stop offset="1" style="stop-color: #ea00d9; stop-opacity: 1"/>
  </linearGradient>
  <linearGradient id="fitdance" x1="0%" x2="0%" y1="0%" y2="100%">
   <stop offset="0%" style="stop-color: #1AD6AB; stop-opacity: 1"/>
   <stop offset="100%" style="stop-color: #329DB6; stop-opacity: 1"/>
  </linearGradient>
  <linearGradient id="oomox" x1="0%" x2="0%" y1="0%" y2="100%">
   <stop offset="0%" style="stop-color: #00aa00; stop-opacity: 1"/>
   <stop offset="100%" style="stop-color: #00cc00; stop-opacity: 1"/>
  </linearGradient>
  <linearGradient id="rainblue" x1="0%" x2="0%" y1="0%" y2="100%">
   <stop offset="0%" style="stop-color: #00F260; stop-opacity: 1"/>
   <stop offset="100%" style="stop-color: #0575E6; stop-opacity: 1"/>
  </linearGradient>
  <linearGradient id="sunrise" x1="0%" x2="0%" y1="0%" y2="100%">
   <stop offset="0%" style="stop-color: #FF8501; stop-opacity: 1"/>
   <stop offset="100%" style="stop-color: #FFCB01; stop-opacity: 1"/>
  </linearGradient>
  <linearGradient id="telinkrin" x1="0%" x2="0%" y1="0%" y2="100%">
   <stop offset="0%" style="stop-color: #b2ced6; stop-opacity: 1"/>
   <stop offset="100%" style="stop-color: #6da5b7; stop-opacity: 1"/>
  </linearGradient>
  <linearGradient id="60spsycho" x1="0%" x2="0%" y1="0%" y2="100%">
   <stop offset="0%" style="stop-color: #df5940; stop-opacity: 1"/>
   <stop offset="25%" style="stop-color: #d8d15f; stop-opacity: 1"/>
   <stop offset="50%" style="stop-color: #e9882a; stop-opacity: 1"/>
   <stop offset="100%" style="stop-color: #279362; stop-opacity: 1"/>
  </linearGradient>
  <linearGradient id="90ssummer" x1="0%" x2="0%" y1="0%" y2="100%">
   <stop offset="0%" style="stop-color: #f618c7; stop-opacity: 1"/>
   <stop offset="20%" style="stop-color: #94ffab; stop-opacity: 1"/>
   <stop offset="50%" style="stop-color: #fbfd54; stop-opacity: 1"/>
   <stop offset="100%" style="stop-color: #0f83ae; stop-opacity: 1"/>
  </linearGradient>
 </defs>
 <path fill="url(#oomox)" class="ColorScheme-Text" d="M 5.8457031 0 L 7.0761719 1.8457031 L 7.6953125 2.7714844 L 7.7167969 16 L 8.9238281 16 L 8.9238281 2.7695312 L 9.5390625 1.8457031 L 10.769531 0 L 8.3085938 0 L 5.8457031 0 z M 5.2304688 3.0761719 L 5.2304688 4 L 6.4609375 4 L 6.4609375 3.0761719 L 5.2304688 3.0761719 z M 10.632812 4.7382812 C 10.406189 4.7505033 10.16154 4.9510781 10.162109 5.171875 L 10.154297 11.689453 C 10.154297 11.983872 10.588049 12.241311 10.835938 12.066406 L 15.505859 8.7949219 C 15.755366 8.6221786 15.754798 8.2164783 15.505859 8.0429688 L 10.84375 4.7949219 C 10.78153 4.7515799 10.708386 4.7342452 10.632812 4.7382812 z M 4 4.9238281 L 4 5.8457031 L 6.4609375 5.8457031 L 6.4609375 4.9238281 L 4 4.9238281 z M 1.5390625 6.7695312 L 1.5390625 7.6914062 L 6.4609375 7.6914062 L 6.4609375 6.7695312 L 1.5390625 6.7695312 z M 0.30859375 8.6152344 L 0.30859375 9.5390625 L 6.4609375 9.5390625 L 6.4609375 8.6152344 L 0.30859375 8.6152344 z M 1.5390625 10.460938 L 1.5390625 11.384766 L 6.4609375 11.384766 L 6.4609375 10.460938 L 1.5390625 10.460938 z M 4 12.308594 L 4 13.230469 L 6.4609375 13.230469 L 6.4609375 12.308594 L 4 12.308594 z"/>
</svg>
