<svg xmlns="http://www.w3.org/2000/svg" width="16" height="16" version="1.1">
 <defs>
   <style id="current-color-scheme" type="text/css">
   .ColorScheme-Text { color: #00aa00; } .ColorScheme-Highlight { color:#5294e2; }
  </style>
  <linearGradient id="arrongin" x1="0%" x2="0%" y1="0%" y2="100%">
   <stop offset="0%" style="stop-color:#dd9b44; stop-opacity:1"/>
   <stop offset="100%" style="stop-color:#ad6c16; stop-opacity:1"/>
  </linearGradient>
  <linearGradient id="aurora" x1="0%" x2="0%" y1="0%" y2="100%">
   <stop offset="0%" style="stop-color:#09D4DF; stop-opacity:1"/>
   <stop offset="100%" style="stop-color:#9269F4; stop-opacity:1"/>
  </linearGradient>
  <linearGradient id="cyberneon" x1="0%" x2="0%" y1="0%" y2="100%">
    <stop offset="0" style="stop-color:#0abdc6; stop-opacity:1"/>
    <stop offset="1" style="stop-color:#ea00d9; stop-opacity:1"/>
  </linearGradient>
  <linearGradient id="fitdance" x1="0%" x2="0%" y1="0%" y2="100%">
   <stop offset="0%" style="stop-color:#1AD6AB; stop-opacity:1"/>
   <stop offset="100%" style="stop-color:#329DB6; stop-opacity:1"/>
  </linearGradient>
  <linearGradient id="oomox" x1="0%" x2="0%" y1="0%" y2="100%">
   <stop offset="0%" style="stop-color:#00aa00; stop-opacity:1"/>
   <stop offset="100%" style="stop-color:#00cc00; stop-opacity:1"/>
  </linearGradient>
  <linearGradient id="rainblue" x1="0%" x2="0%" y1="0%" y2="100%">
   <stop offset="0%" style="stop-color:#00F260; stop-opacity:1"/>
   <stop offset="100%" style="stop-color:#0575E6; stop-opacity:1"/>
  </linearGradient>
  <linearGradient id="sunrise" x1="0%" x2="0%" y1="0%" y2="100%">
   <stop offset="0%" style="stop-color: #FF8501; stop-opacity:1"/>
   <stop offset="100%" style="stop-color: #FFCB01; stop-opacity:1"/>
  </linearGradient>
  <linearGradient id="telinkrin" x1="0%" x2="0%" y1="0%" y2="100%">
   <stop offset="0%" style="stop-color: #b2ced6; stop-opacity:1"/>
   <stop offset="100%" style="stop-color: #6da5b7; stop-opacity:1"/>
  </linearGradient>
  <linearGradient id="60spsycho" x1="0%" x2="0%" y1="0%" y2="100%">
   <stop offset="0%" style="stop-color: #df5940; stop-opacity:1"/>
   <stop offset="25%" style="stop-color: #d8d15f; stop-opacity:1"/>
   <stop offset="50%" style="stop-color: #e9882a; stop-opacity:1"/>
   <stop offset="100%" style="stop-color: #279362; stop-opacity:1"/>
  </linearGradient>
  <linearGradient id="90ssummer" x1="0%" x2="0%" y1="0%" y2="100%">
   <stop offset="0%" style="stop-color: #f618c7; stop-opacity:1"/>
   <stop offset="20%" style="stop-color: #94ffab; stop-opacity:1"/>
   <stop offset="50%" style="stop-color: #fbfd54; stop-opacity:1"/>
   <stop offset="100%" style="stop-color: #0f83ae; stop-opacity:1"/>
  </linearGradient>
 </defs>
 <path fill="url(#oomox)" class="ColorScheme-Text" d="m7.05659 15.9421c-0.04842-0.032-0.1248-0.0584-0.16961-0.0585-0.10869-2e-4 -0.12537-0.0586-0.05581-0.1953 0.14033-0.2759 0.23309-0.6363 0.26607-1.0339 0.04084-0.491 0.04254-1.5269 0.00294-1.7374-0.04662-0.2479-0.1591-0.4528-0.27148-0.4944-0.05211-0.0193-0.11769-0.0473-0.14573-0.0621-0.08869-0.0468-0.26664-0.0286-0.42034 0.043-0.20041 0.0932-0.37314 0.2472-0.35505 0.3163 0.02047 0.0785-0.09759 0.2358-0.22807 0.3038-0.12082 0.063-0.15597 0.1053-0.31298 0.3771-0.05467 0.0946-0.14911 0.2266-0.20979 0.2933l-0.11033 0.1212 0.06104-0.1613c0.03358-0.0888 0.07485-0.1984 0.09172-0.2436 0.01688-0.0452 0.02354-0.0893 0.01485-0.098-0.00872-0.0088-0.19409 0.0288-0.41196 0.0832-0.21786 0.0545-0.38958 0.0886-0.38161 0.0756 0.03187-0.0516 0.26266-0.1468 0.45083-0.186 0.10949-0.0229 0.22354-0.0502 0.25343-0.0608 0.18156-0.0642 0.36263-0.3074 0.27176-0.3649-0.02274-0.0143-0.08348-0.0263-0.13502-0.0265-0.24498-0.0011-0.10702-0.1386 0.30757-0.3064 0.59289-0.2399 1.03293-0.4884 1.03293-0.5836 0-0.0688-0.51755-0.8237-0.66158-0.9648-0.07751-0.076-0.17824-0.1464-0.22381-0.1564-0.09855-0.0217-0.30133 0.0667-0.30568 0.1331-0.00152 0.0243-0.00484 0.0608-0.0074 0.0811-0.00615 0.0507-0.18024 0.1534-0.26045 0.1536-0.08417 0-0.16141 0.118-0.16934 0.2586-0.00665 0.1171-0.39117 0.8179-0.44223 0.8058-0.01496-0.0038-0.03377-0.0559-0.04186-0.1164l-0.0147-0.11-0.04711 0.0724c-0.02595 0.0399-0.05743 0.1054-0.07005 0.1458-0.01259 0.0404-0.06846 0.1708-0.12411 0.29s-0.11579 0.2954-0.13364 0.3914c-0.03156 0.1697-0.03825 0.179-0.23949 0.333-0.11387 0.0873-0.25984 0.2008-0.32438 0.2524l-0.11735 0.0939 0.09023-0.101c0.28167-0.3151 0.4497-0.6166 0.52747-0.9464 0.02912-0.1235 0.0443-0.2331 0.03378-0.2437-0.01053-0.0106-0.09379 0.0388-0.185 0.1096-0.30141 0.2341-0.28851 0.2275-0.26544 0.1357 0.02897-0.1154-0.0477-0.1063-0.34103 0.0408-0.19067 0.0956-0.22916 0.1074-0.18322 0.0562 0.13518-0.1508 0.32803-0.2601 0.57258-0.3245 0.29908-0.0789 0.40118-0.1363 0.53467-0.3005 0.09911-0.122 0.3161-0.4889 0.3161-0.5345 0-0.0481-0.38214 0.0083-0.51973 0.0767-0.11621 0.0578-0.14304 0.0867-0.15975 0.1722-0.0224 0.1146-0.16307 0.2511-0.2869 0.2783-0.04233 0.0093-0.13593 0.0559-0.20802 0.1037-0.15023 0.0994-0.17882 0.0744-0.08616-0.0755 0.03545-0.0573 0.05762-0.1111 0.04928-0.1195-0.00836-0.0083-0.06596 0.0111-0.12804 0.0432-0.11692 0.0603-0.16923 0.0991-0.55205 0.4091-0.12542 0.1016-0.23436 0.1784-0.24209 0.1707-0.00772-0.0077 0.02029-0.0591 0.06225-0.1141 0.04197-0.0551 0.07631-0.1102 0.07631-0.1227 0-0.0124-0.07261-0.0136-0.16136-0.0026-0.09535 0.0119-0.16135 0.0089-0.16135-0.0075 0-0.0151 0.10988-0.069 0.24418-0.1197 0.25276-0.0954 0.54933-0.2583 0.64939-0.3569 0.05707-0.0563 0.05707-0.0569 0-0.0989-0.05334-0.0392-0.04645-0.0437 0.09595-0.0627 0.09556-0.0128 0.20801-0.0558 0.29819-0.1139 0.11653-0.075 0.23542-0.1118 0.60934-0.1885 0.25552-0.0524 0.50661-0.1086 0.55798-0.1247 0.09952-0.0313 0.30265-0.2338 0.30265-0.3017 0-0.0547-0.20921-0.1493-0.4254-0.1926-0.09681-0.0193-0.27325-0.0562-0.3921-0.082-0.18666-0.0406-0.23457-0.0415-0.35204-0.0073-0.07478 0.0219-0.19215 0.0418-0.26082 0.0442-0.09333 0.0035-0.1526 0.0279-0.23469 0.0971-0.06042 0.0509-0.22866 0.1653-0.37387 0.2542-0.14522 0.089-0.34882 0.2145-0.45244 0.279-0.20587 0.1281-0.27845 0.1296-0.12697 0.0025 0.15359-0.1288 0.12848-0.1578-0.11735-0.1361-0.2702 0.0239-0.21769-0.0114 0.16869-0.1136 0.27447-0.0725 0.5134-0.1886 0.5134-0.2494 0-0.0146-0.08912-0.036-0.19803-0.0475-0.31791-0.0337-0.34603-0.0678-0.05751-0.0699 0.20272-0.0015 0.2841-0.0152 0.38047-0.0644 0.15142-0.0772 0.31511-0.2056 0.31512-0.2471 0-0.0558-0.53477-0.2711-0.7921-0.3189-0.13715-0.0254-0.36588-0.068-0.5083-0.09463-0.22743-0.04255-0.29433-0.04378-0.54985-0.00995-0.2333 0.03088-0.32291 0.03128-0.45248 0.00228-0.168725-0.03781-0.208086-0.08017-0.095564-0.10291 0.036282-0.00739 0.118814-0.02359 0.183354-0.0362 0.06454-0.0126 0.26586-0.01933 0.44739-0.01497 0.18152 0.00436 0.33004-0.00388 0.33004-0.0181 0-0.03392-0.20094-0.177-0.44006-0.31335-0.26455-0.15085-0.10894-0.10992 0.34823 0.09172 0.71541 0.31544 1.16554 0.44341 1.09245 0.31042-0.0155-0.02814-0.11605-0.14696-0.22342-0.26399-0.10734-0.11693-0.18293-0.21263-0.16796-0.21263 0.01498 0 0.15796 0.12072 0.31774 0.26825 0.61422 0.56696 0.70665 0.60966 1.20711 0.55746 0.4052-0.0423 1.13234-0.1454 1.19526-0.1695 0.06813-0.0262 0.05629-0.0518-0.10603-0.22934-0.17803-0.19481-0.32951-0.28625-1.23454-0.74525-0.85255-0.43237-0.84219-0.42867-1.02131-0.36509-0.12136 0.04311-0.15506 0.04444-0.25789 0.01052-0.14027-0.04624-0.3139-0.03042-0.62154 0.05685-0.14272 0.04046-0.34369 0.06785-0.57206 0.07789-0.19871 0.00872-0.40449 0.03449-0.472472 0.05922-0.134117 0.04861-0.279576 0.04312-0.297447-0.01137-0.006405-0.01952 0.018961-0.04141 0.056418-0.04861 0.288407-0.05515 0.394111-0.08414 0.433441-0.11873 0.03202-0.02804 0.17068-0.04396 0.47075-0.05363 0.32107-0.01042 0.46076-0.02748 0.56963-0.06936 0.07933-0.03051 0.14902-0.06974 0.15485-0.08727 0.00581-0.01753-0.04587-0.05581-0.11491-0.08519-0.06902-0.02927-0.23771-0.10337-0.37486-0.16449-0.25281-0.11285-0.46553-0.15786-1.097275-0.23225-0.371944-0.04377-0.395917-0.05277-0.311319-0.11654l0.065362-0.04937-0.09846-0.06557-0.09847-0.06557 0.088009 0.01298c0.04841 0.00729 0.319041 0.074 0.601412 0.14857 0.572991 0.15133 0.704081 0.16639 0.704081 0.08121 0-0.0921-0.21475-0.33278-0.33253-0.37267-0.0404-0.01365-0.04927-0.03629-0.0356-0.09087 0.039-0.1554-0.17886-0.36889-0.711949-0.69788-0.150311-0.09276-0.267022-0.17492-0.259356-0.18259 0.007656-0.00758 0.110599 0.02672 0.228731 0.07637 0.217056 0.09116 0.289733 0.1084 0.288662 0.06823-3.41e-4 -0.01213-0.072952-0.11959-0.161368-0.23879-0.088426-0.1192-0.160772-0.22808-0.160772-0.242 0-0.03506 0.080486-0.03184 0.102678 0.00407 0.009977 0.01611 0.041436 0.02938 0.069929 0.02938 0.033733 0 0.111423 0.09636 0.222855 0.27649 0.09408 0.15208 0.25417 0.37324 0.35576 0.4914 0.1016 0.11826 0.30264 0.36671 0.44677 0.55224 0.19574 0.25205 0.30197 0.3614 0.41983 0.43208 0.1892 0.11361 0.76822 0.33657 0.88736 0.34169 0.20264 0.00881 0.0812-0.15786-0.28819-0.39551-0.14635-0.09419-0.29249-0.19084-0.32476-0.21471-0.05794-0.04302-0.05784-0.04359 0.0073-0.04482 0.03629-9.5e-4 0.06602-0.011 0.06602-0.02284s-0.1417-0.16364-0.31487-0.33742c-0.31386-0.31478-0.35521-0.3832-0.14575-0.24078 0.06483 0.04406 0.13219 0.06813 0.16315 0.05828 0.06287-0.02 0.26338 0.18212 0.68505 0.69057 0.42038 0.50685 0.58688 0.64624 0.92813 0.77681 0.33111 0.12669 0.41262 0.17227 0.71007 0.39684 0.2926 0.22078 0.41002 0.29052 0.48986 0.29061 0.08323 1.9e-4 0.08423-0.05392 0.00417-0.21377-0.09399-0.18714-0.27941-0.41673-0.40118-0.4968-0.05989-0.03932-0.20241-0.10707-0.31672-0.15047-0.12899-0.04909-0.27927-0.13778-0.39605-0.23376-0.25582-0.21017-0.41467-0.31601-0.65929-0.43891-0.24795-0.1246-0.3639-0.23215-0.14677-0.13616 0.1075 0.04756 0.14632 0.05325 0.17901 0.02615 0.03356-0.02786 0.08144-0.00531 0.24387 0.11522 0.11118 0.08234 0.21043 0.14981 0.22055 0.14981s0.01843-0.02852 0.01843-0.06349c0-0.05259 0.03397-0.03089 0.19803 0.1265 0.30943 0.29687 0.65441 0.50372 0.74575 0.44734 0.04252-0.02634-0.3829-0.45227-0.65782-0.65864-0.12511-0.09391-0.30993-0.24362-0.41074-0.3326-0.10082-0.08897-0.28007-0.22845-0.39833-0.30984-0.20673-0.14233-0.22278-0.14811-0.41496-0.14811-0.25747 0-0.45608-0.06254-1.1675-0.36755-0.57824-0.24788-0.688979-0.3072-0.57371-0.3072 0.08271 0 0.23234 0.05496 0.63066 0.23168 0.40067 0.17766 0.72845 0.26702 0.98005 0.26702 0.20662 0 0.2764-0.01839 0.2764-0.07297 0-0.02056-0.12491-0.15682-0.2776-0.30283-0.26581-0.25414-0.28823-0.26864-0.52814-0.34179-0.16118-0.04917-0.28714-0.10859-0.35315-0.16648-0.12277-0.10783-0.13383-0.16004-0.02192-0.10347 0.13372 0.06756 0.47237 0.17122 0.52577 0.16098 0.07641-0.01478-0.10472-0.2059-0.35529-0.37513-0.29055-0.19615-0.64363-0.48145-0.60974-0.49282 0.01564-0.00531 0.1468 0.05486 0.29149 0.13351 0.29706 0.16136 0.36046 0.18941 0.36046 0.15928 0-0.01166-0.1252-0.17293-0.27822-0.35846-0.28016-0.33977-0.35722-0.46566-0.18741-0.30623 0.11347 0.10652 0.6933 0.75575 1.00649 1.127 0.12804 0.1517 0.2378 0.26096 0.24389 0.24267 0.00608-0.01829-0.05738-0.2023-0.14106-0.40896-0.18638-0.46042-0.21645-0.55499-0.16209-0.50988 0.05007 0.04159 0.20102 0.34945 0.42872 0.87449 0.22121 0.51007 0.37092 0.72706 0.76547 1.10959 0.35611 0.34519 0.62155 0.53906 0.63718 0.46534 0.0056-0.02596-0.09126-0.25034-0.21503-0.4986-0.19773-0.39655-0.25702-0.48685-0.4885-0.74421-0.23979-0.26645-0.7308-0.98726-0.72836-1.06922 0.00182-0.05647 0.36485 0.34463 0.42264 0.46686 0.09272 0.19605 0.19872 0.33828 0.28564 0.38329 0.07589 0.03923 0.08284 0.03847 0.08282-0.00929-2e-5 -0.0886-0.17172-0.42052-0.32308-0.62472-0.07931-0.10698-0.36249-0.40271-0.6293-0.65723-0.26681-0.25449-0.48511-0.47463-0.48511-0.48921s0.03978-0.0265 0.08843-0.0265c0.06178 0 0.11547 0.02871 0.1782 0.09534l0.08977 0.09535-0.01701-0.08801c-0.04904-0.25322-0.05266-0.2924-0.02444-0.26403 0.01608 0.01616 0.0647 0.12389 0.10808 0.23947 0.1012 0.26961 0.27176 0.50677 0.44906 0.62445 0.1154 0.07657 0.14176 0.08462 0.14981 0.04577 0.00541-0.02596-0.01114-0.07903-0.03666-0.11797-0.02553-0.03904-0.04644-0.08557-0.04644-0.10357 0-0.0397 0.0944 0.07618 0.24595 0.30199 0.06228 0.09276 0.12483 0.16866 0.139 0.16866 0.05086 0 0.02181-0.10887-0.13306-0.49872-0.08652-0.21783-0.15206-0.40169-0.14563-0.40857 0.04238-0.04543 0.3338 0.52969 0.3338 0.65875 0 0.05316 0.02867 0.1716 0.06375 0.26323 0.05532 0.1446 0.11245 0.21187 0.43172 0.50865 0.20237 0.18818 0.57963 0.5474 0.83834 0.79831 0.44154 0.4282 0.67122 0.61421 0.71036 0.57517 0.02435-0.02445-0.11902-0.28768-0.31734-0.58265-0.21647-0.32198-0.47493-0.59943-0.76187-0.81784-0.24616-0.18743-0.49558-0.42536-0.49558-0.47283 0-0.03108 0.09892 0.0379 0.37464 0.26115 0.14019 0.11351 0.30117 0.21405 0.34266 0.21405 0.03324 0 0.01419-0.094-0.04032-0.19918-0.083-0.16004-1.39753-1.48116-1.55074-1.55847-0.35249-0.17786-0.94513-0.60628-0.94513-0.68324 0-0.04539 0.04729-0.02189 0.24242 0.12035 0.15689 0.11439 0.37527 0.23107 0.37329 0.19945-2.1e-4 -0.00334-0.1133-0.12334-0.25132-0.26699-0.32366-0.33686-0.54922-0.66293-0.45857-0.66293 0.01274 0 0.14146 0.13175 0.28603 0.29276 0.14458 0.16102 0.28535 0.29304 0.31282 0.29337 0.02761 3.4e-4 0.17739 0.15479 0.33488 0.34531 0.15673 0.1896 0.38711 0.44431 0.51197 0.56604 0.23578 0.22986 0.70902 0.58541 0.77916 0.58541 0.1236 0-0.02942-0.38404-0.29148-0.73164-0.32755-0.43441-0.93568-1.03592-1.26199-1.24827-0.05888-0.03831-0.07844-0.07077-0.06762-0.11214 0.01012-0.03867-0.0201-0.10138-0.08999-0.18664-0.11968-0.14606-0.11239-0.19216 0.01594-0.10078 0.17368 0.12368 0.16491 0.08697-0.06886-0.28796-0.10488-0.1682-0.19068-0.31762-0.19068-0.33203 0-0.04512 0.1846 0.09721 0.32876 0.25348 0.15701 0.1702 0.17238 0.14982 0.0669-0.08868-0.04054-0.09169-0.068-0.17242-0.06103-0.17939 0.01838-0.01841 0.38028 0.53044 0.64927 0.98466 0.23043 0.3891 0.514 0.74469 0.55899 0.70097 0.02767-0.02686-0.00553-0.16092-0.16824-0.68114l-0.1194-0.3814-0.26348-0.26642c-0.28384-0.28702-0.31593-0.3268-0.31662-0.39257-2.5e-4 -0.02391 0.0635 0.02008 0.14398 0.09935 0.09403 0.09262 0.16036 0.13615 0.19008 0.12474 0.03047-0.01169 0.07208 0.01863 0.12521 0.09134 0.04377 0.05987 0.11598 0.14847 0.1605 0.19687 0.08095 0.08802 0.32129 0.74424 0.7199 1.96558 0.08953 0.27429 0.22855 0.6439 0.30894 0.82147 0.08039 0.17748 0.15976 0.35571 0.17637 0.39598l0.03017 0.07334 0.02609-0.08803c0.05532-0.18685-0.04443-0.92521-0.16651-1.23213-0.0573-0.1441-0.06606-0.20261-0.04824-0.32271l0.02172-0.14668 0.1133 0.3163c0.10795 0.30134 0.12525 0.32917 0.36579 0.58842 0.13891 0.14963 0.34339 0.37988 0.45444 0.51169 0.30597 0.363 0.46165 0.43815 0.29867 0.14412-0.09182-0.16563-0.55669-0.85462-1.00819-1.49416-0.3955-0.56024-0.66004-1.03543-0.84078-1.51026-0.23989-0.63023-0.24263-0.63435-0.48216-0.72588-0.11225-0.04289-0.21988-0.09701-0.23917-0.12025-0.05703-0.06872 0.16634-0.05391 0.28402 0.01882 0.08913 0.05509 0.10062 0.05634 0.11733 0.01279 0.01021-0.02655 0.00379-0.08105-0.01471-0.12112-0.0477-0.1047-0.042-0.14327 0.01429-0.09657 0.02613 0.02168 0.13774 0.22461 0.24808 0.45098 0.19038 0.39056 0.2007 0.40536 0.20191 0.28959 9.1e-4 -0.0671-0.04554-0.2831-0.10276-0.47999-0.05721-0.19689-0.09901-0.37303-0.09287-0.39139 0.01366-0.04084 0.11383 0.26093 0.19737 0.59447 0.19993 0.79822 0.73338 1.96785 1.02403 2.2453l0.0903 0.08616v-0.07305c0-0.20501-0.31572-0.93188-0.43744-1.00711-0.01739-0.01073-0.04558-0.04563-0.06266-0.07753-0.02799-0.05226-0.02361-0.05612 0.04387-0.03918 0.04878 0.01222 0.07487 0.00667 0.07487-0.01604 0-0.04791-0.261-0.74027-0.42651-1.13141-0.24491-0.57879-0.25736-0.64898-0.06587-0.37147 0.12109 0.17547 0.14263 0.10814 0.04182-0.1307-0.03982-0.09433-0.06822-0.17572-0.06314-0.18088 0.00517-0.00517 0.03737 0.00806 0.07169 0.02935 0.05258 0.0326 0.06665 0.0319 0.08927-0.00443 0.03438-0.05528 0.03553-0.05374 0.14164 0.18984 0.16749 0.3845 0.46322 0.91647 0.49297 0.88675 0.01403-0.0141-0.08082-0.29346-0.27794-0.81842-0.17942-0.47779-0.18946-0.55509-0.05186-0.39942 0.07093 0.08023 0.12496 0.20069 0.20487 0.45672 0.06145 0.19668 0.16624 0.44884 0.24139 0.58045 0.07305 0.12798 0.16752 0.34835 0.20997 0.48969 0.07164 0.23892 0.09343 0.27502 0.3091 0.5134 0.12763 0.14102 0.32586 0.39372 0.44061 0.56154 0.11465 0.16782 0.21386 0.28923 0.22031 0.2698 0.04586-0.1374-0.54665-1.52481-0.86133-2.01714-0.05325-0.08326-0.21642-0.28128-0.36254-0.44005-0.25551-0.27754-0.37021-0.44678-0.34799-0.51345 0.00582-0.01728 0.06885 0.04424 0.14019 0.1367 0.1519 0.19694 0.37865 0.38126 0.41911 0.34078 0.04633-0.04637-0.05865-0.30235-0.18819-0.45882-0.11001-0.13275-0.11541-0.146765-0.06035-0.155075 0.03581-0.005448 0.06471-0.035372 0.07068-0.07335 0.00863-0.0551 0.01886-0.04751 0.07211 0.053499 0.03421 0.064737 0.09172 0.216556 0.12792 0.337376 0.0361 0.12082 0.10423 0.30548 0.15142 0.41036 0.07344 0.16366 0.08992 0.18307 0.11608 0.13686 0.02132-0.03767 0.0199-0.10978-0.00484-0.24034-0.01933-0.1026-0.02918-0.20379-0.0217-0.22488 0.00749-0.02109 0.02966 0.04086 0.04947 0.13767 0.11768 0.57432 0.28549 1.11366 0.32321 1.03848 0.03449-0.06904-0.01981-0.67323-0.08168-0.90646-0.08585-0.3239-0.17994-0.55739-0.22457-0.55739-0.10082 0-0.26607-0.310271-0.33923-0.636561-0.04036-0.179979-0.01317-0.194173 0.05724-0.029914 0.04453 0.103804 0.06964 0.130734 0.1119 0.119704 0.04217-0.01102 0.06178-0.060653 0.08699-0.220628 0.04813-0.306051 0.09712-0.32504 0.09769-0.037922 9.5e-4 0.255205 0.05477 0.556916 0.12877 0.717337 0.02625 0.056844 0.04207 0.073786 0.03554 0.037987-0.01327-0.072033 0.05249-0.182593 0.08765-0.147439 0.0289 0.028938 0.0577 0.259936 0.11418 0.916176 0.05514 0.64094 0.07836 0.77758 0.1896 1.11571l0.08651 0.26312-0.01535-0.2347c-0.00853-0.1291-0.02776-0.33997-0.04273-0.46863-0.01497-0.12867-0.02634-0.26728-0.0253-0.30804 0.0018-0.07186 0.00341-0.07129 0.04823 0.01889 0.02549 0.05117 0.06917 0.09901 0.09712 0.10632 0.03677 0.00959 0.05989 0.06572 0.08377 0.20274 0.01819 0.1042 0.03316 0.21478 0.03345 0.24572 1.9e-4 0.03096 0.01279 0.07586 0.02795 0.09979 0.03771 0.05973 0.15075-0.19643 0.15284-0.34647 8.5e-4 -0.06055-0.06586-0.30759-0.1482-0.54898-0.08244-0.24136-0.17539-0.57299-0.20666-0.73693-0.06784-0.355284-0.1138-0.453773-0.28863-0.61841-0.10877-0.102431-0.12583-0.132033-0.09646-0.167405 0.04454-0.053688 0.01583-0.104221-0.05912-0.104221-0.07268 0-0.07249-0.0356 8.5e-4 -0.101768 0.05619-0.0508836 0.06045-0.0476805 0.16866 0.12685 0.08045 0.129672 0.12442 0.174861 0.15967 0.163888 0.05334-0.016639 0.08547 0.064159 0.2022 0.507785 0.03497 0.133111 0.07372 0.242021 0.08595 0.242021 0.01232 0 0.03079-0.0891 0.04112-0.198016 0.0145-0.153371 0.00228-0.276923-0.05458-0.547933-0.04036-0.192448-0.06784-0.3553898-0.06111-0.3620985 0.02075-0.0207325 0.09636 0.1467575 0.14942 0.3310185 0.02786 0.096594 0.09135 0.254845 0.14119 0.351647 0.12328 0.239797 0.13408 0.147383 0.0361-0.309101-0.08329-0.3873607-0.08878-0.4389836-0.04747-0.4389836 0.01545 0 0.05581 0.0957126 0.08973 0.2126876 0.16554 0.571726 0.36178 1.183889 0.38793 1.210149 0.06017 0.0604-0.01374-0.472496-0.1137-0.820183-0.13882-0.482598-0.13996-0.489648-0.0542-0.329739 0.05874 0.109509 0.08755 0.137083 0.12962 0.123741 0.04776-0.015161 0.0596 0.014507 0.10196 0.255157 0.09674 0.548674 0.19084 1.339554 0.21045 1.768474 0.02407 0.52626 0.04207 0.50118 0.14412-0.20056 0.09571-0.65803 0.09343-0.79716-0.02009-1.255884-0.0686-0.27734-0.0848-0.386536-0.06083-0.41049s0.04207 0.015341 0.06813 0.147781c0.05524 0.281035 0.09134 0.265751 0.13143-0.055726 0.01108-0.088738 0.02804-0.174416 0.03761-0.190392 0.02805-0.046838 0.0578 0.102118 0.06141 0.307747 0.00483 0.263524 0.04074 0.307664 0.10432 0.127853 0.02777-0.078391 0.06529-0.175525 0.08339-0.215872 0.03259-0.072734 0.03297-0.072497 0.04358 0.02874 0.01384 0.132923-0.09854 0.556483-0.20429 0.769873-0.07779 0.15699-0.11257 0.37488-0.05969 0.37488 0.03449 0 0.363-0.24488 0.43123-0.32149 0.05316-0.05967 0.06007-0.11933 0.07334-0.632587 0.00805-0.311698 0.02454-0.576577 0.03667-0.58864 0.04918-0.048998 0.06642 0.039229 0.07571 0.386262 0.00805 0.303455 0.01724 0.364355 0.05467 0.364355 0.05145 0 0.04833 0.02826-0.0452 0.41072-0.09617 0.39328-0.12763 0.65067-0.14895 1.21948-0.01867 0.49909-0.02454 0.53891-0.09912 0.68154-0.11095 0.21228-0.10603 0.27672 0.0127 0.16538l0.09191-0.08617-0.02037 0.13203c-0.01118 0.07262-0.03004 0.22442-0.04198 0.33736-0.01449 0.13859-0.05249 0.2684-0.11654 0.39921-0.15209 0.31043-0.19179 0.83517-0.16924 2.24115 0.02843 1.78226 0.04861 2.23386 0.09665 2.1682 0.10783-0.14754 0.27034-0.8474 0.33307-1.43479 0.01895-0.17748 0.09835-0.64614 0.17653-1.04146 0.24172-1.22234 0.26872-1.60325 0.23262-3.28796-0.03961-1.84898-0.04122-2.520347-0.00654-2.555169 0.04321-0.043171 0.05544 0.017767 0.09694 0.482845 0.04709 0.526864 0.07097 0.547984 0.14564 0.128824 0.01961-0.1101 0.04624-0.189306 0.05922-0.176031 0.06083 0.062198 0.02975 0.600681-0.07419 1.285631-0.04937 0.32515-0.05942 0.94377-0.0164 1.01175 0.02113 0.03333 0.05146-0.00817 0.12897-0.17602 0.20069-0.43468 0.34074-1.08355 0.34111-1.58045 1e-4 -0.22336 0.00692-0.25214 0.07211-0.31271 0.05003-0.04635 0.07808-0.112296 0.09182-0.216053 0.02085-0.157389 0.07107-0.206179 0.07069-0.068679-8.5e-4 0.189283-0.06756 0.648042-0.17473 1.195482-0.06311 0.32271-0.12915 0.66834-0.14687 0.76808-0.01762 0.09974-0.06936 0.26475-0.11484 0.36671-0.09609 0.21505-0.12537 0.31739-0.09059 0.31739 0.04406 0 0.14697-0.16986 0.31573-0.52089 0.13805-0.28749 0.16724-0.33096 0.17596-0.26245 0.01345 0.10616-0.07988 0.39302-0.26039 0.80058-0.07931 0.1789-0.14299 0.36373-0.14176 0.41072l0.00266 0.08544 0.04074-0.09311c0.04634-0.10581 0.0885-0.14165 0.11551-0.09806 0.01014 0.01641 0.02937 0.0298 0.04273 0.0298 0.01346 0 0.12129-0.15512 0.23973-0.34471 0.38728-0.62006 0.49988-1.06024 0.39198-1.53286-0.0734-0.32173-0.0837-0.41072-0.0475-0.41072 0.0173 0 0.05-0.03531 0.0726-0.07843 0.0383-0.07302 0.0425-0.05638 0.0613 0.24204 0.0112 0.17625 0.028 0.36555 0.0375 0.42066 0.0156 0.09142 0.0204 0.09556 0.0558 0.04721 0.0214-0.02916 0.0607-0.15345 0.0875-0.27623 0.0669-0.30561 0.0786-0.31975 0.1433-0.17311l0.055 0.12451-0.1005 0.29292c-0.0551 0.16109-0.2571 0.61686-0.4487 1.01281-0.1917 0.39595-0.40066 0.83804-0.46443 0.98241l-0.11589 0.26251-0.00606 0.43424c-0.00455 0.32449 0.00294 0.43422 0.02966 0.43422 0.01961 0 0.09921-0.08092 0.1769-0.17994 0.18962-0.24149 0.20032-0.16324 0.02796 0.2042-0.07315 0.15606-0.14119 0.32586-0.15114 0.37731-0.01251 0.0651-0.09362 0.16961-0.26721 0.34434-0.19557 0.1969-0.271 0.2982-0.35069 0.47065-0.10745 0.23253-0.16013 0.4193-0.10954 0.38803 0.01611-0.00995 0.11333-0.14564 0.21614-0.30142 0.10272-0.15578 0.19084-0.27119 0.19577-0.25641 0.00492 0.01478-0.01772 0.10423-0.05022 0.1987-0.08074 0.23481-0.07581 0.28787 0.01658 0.17739 0.35979-0.43019 1.11077-2.01882 1.25707-2.65918 0.0235-0.10257 0.0842-0.45711 0.135-0.78788 0.1137-0.74066 0.1784-1.06077 0.2757-1.36417 0.1342-0.41855 0.1798-0.40153 0.0786 0.02934-0.0788 0.33525-0.1009 0.5134-0.064 0.5134 0.0169 0 0.0831-0.10232 0.147-0.22737 0.0639-0.12504 0.1169-0.215 0.1178-0.19989 8e-4 0.01509-0.0262 0.1258-0.0599 0.24599-0.048 0.17079-0.0533 0.22349-0.0247 0.24124 0.0284 0.01751 0.0215 0.05869-0.0297 0.17939-0.0366 0.08618-0.0907 0.18309-0.1202 0.21536-0.0294 0.03227-0.0683 0.09761-0.0864 0.14521-0.04 0.10551-0.147 0.72091-0.147 0.84503 0 0.08928 1e-4 0.08942 0.0616 0.03377 0.0341-0.03073 0.1956-0.21793 0.3592-0.41601 0.1635-0.19807 0.3016-0.34739 0.3068-0.33182 0.0121 0.03621-0.0532 0.13905-0.2623 0.41325-0.1983 0.26014-0.3726 0.5429-0.3978 0.64541-0.0098 0.04035-0.0888 0.15028-0.1754 0.24433-0.1838 0.19969-0.2121 0.25171-0.4333 0.79716-0.0916 0.22589-0.2608 0.5889-0.37579 0.80674-0.37192 0.70442-0.43256 0.83366-0.46146 0.98281-0.01564 0.08063-0.03686 0.17634-0.04719 0.21263s-0.00692 0.06604 0.00796 0.06604c0.06187 0 0.34851-0.19879 0.42602-0.29554 0.08526-0.10641 0.31776-0.64718 0.42786-0.99531 0.0332-0.1048 0.1276-0.40461 0.2099-0.66604s0.1643-0.48441 0.1823-0.49553c0.0557-0.03439 0 0.2377-0.1258 0.61493-0.0638 0.1915-0.1122 0.3595-0.1073 0.37333 0.0048 0.01393 0.1066-0.14933 0.2262-0.36272 0.759-1.3526 0.8936-1.63248 1.0753-2.23633 0.0726-0.24111 0.0792-0.30336 0.0761-0.7187-0.0034-0.44629 0.0298-0.6532 0.0714-0.44678 0.029 0.14435 0.0567 0.13825 0.1257-0.02776 0.0344-0.08291 0.0685-0.14483 0.0758-0.13761 0.0117 0.01173-0.0132 0.33111-0.058 0.74417l-0.0159 0.14668 0.1024-0.17602c0.0564-0.09681 0.1574-0.30144 0.2245-0.45473 0.067-0.15328 0.1325-0.29022 0.1454-0.30431 0.0128-0.0141 0.0393 0.02751 0.0588 0.09238 0.0325 0.10855 0.0296 0.12586-0.0367 0.21631-0.0732 0.10008-0.2876 0.55509-0.2876 0.61056 0 0.05268 0.0754 0.03322 0.1375-0.03553 0.0329-0.03628 0.1261-0.1654 0.2071-0.28689 0.1564-0.23462 0.2728-0.3597 0.2313-0.24851-0.0603 0.16115-0.3026 0.56341-0.417 0.69234-0.0713 0.08015-0.1295 0.16874-0.1295 0.19689 0 0.07665-0.0796 0.17549-0.2049 0.25465-0.0921 0.05813-0.1466 0.13874-0.3073 0.45475-0.1074 0.21127-0.3224 0.57828-0.4778 0.81558-0.1928 0.29449-0.3416 0.56649-0.4686 0.85682-0.1025 0.23404-0.287 0.6268-0.41 0.87298-0.123 0.24617-0.2157 0.45568-0.2059 0.46544 0.0307 0.0307 0.2184-0.10347 0.3497-0.25006 0.0692-0.07732 0.2834-0.3704 0.4759-0.65116 0.1926-0.28076 0.4004-0.56844 0.462-0.63913 0.225-0.25873 0.5261-0.73633 0.5986-0.94921 0.0816-0.23994 0.1296-0.31013 0.1296-0.18952 0 0.04358 0.0123 0.07922 0.0273 0.07922 0.0304 0 0.4034-0.48701 0.4949-0.64614 0.0323-0.05608 0.0801-0.17787 0.1064-0.27065 0.0469-0.16529 0.1049-0.22616 0.1049-0.11001 0 0.06535 0.0575 0.07746 0.1114 0.02348 0.0275-0.0274 0.0353-0.02445 0.0353 0.01323 0 0.0266 0.0217 0.06064 0.0486 0.07559 0.0441 0.02472 0.0427 0.03531-0.0152 0.11665-0.0351 0.04919-0.1266 0.13561-0.2034 0.19202-0.1917 0.14071-0.478 0.48828-0.7797 0.94646-0.3111 0.47261-0.3203 0.51999-0.0751 0.38938 0.2049-0.10923 0.5179-0.38863 0.7006-0.62537 0.0693-0.08982 0.1352-0.1633 0.1466-0.1633s0.0147 0.04144 0.0073 0.0921l-0.0136 0.0921 0.1287-0.07009c0.0707-0.03856 0.239-0.17953 0.3738-0.31328 0.2182-0.21632 0.2493-0.23773 0.2815-0.1937 0.059 0.08063 0.1813 0.02644 0.3918-0.17348 0.1052-0.09996 0.1811-0.15533 0.1688-0.12306-0.0124 0.03227-0.0355 0.09457-0.0514 0.13843-0.0159 0.04388-0.0921 0.12516-0.1694 0.18065-0.1282 0.09216-0.1401 0.11087-0.1374 0.21587 0.0041 0.15091-0.0724 0.26249-0.2249 0.32909-0.1594 0.06953-0.2746 0.19452-0.456 0.4948-0.1451 0.24-0.2915 0.60784-0.2563 0.64318 0.01 0.00995 0.0707-0.01156 0.135-0.04775 0.0645-0.0362 0.1171-0.05364 0.1171-0.03876 0 0.01478-0.0463 0.08755-0.1029 0.16156-0.1126 0.14772-0.1611 0.25385-0.1611 0.35296 0 0.03554-0.033 0.11323-0.0734 0.17255-0.0924 0.13588-0.0918 0.15142 0.0047 0.12726 0.1157-0.02909 0.3052-0.16924 0.4163-0.30786 0.084-0.1049 0.103-0.11608 0.132-0.07751 0.0296 0.03942 0.0663 0.02899 0.2918-0.08272 0.1418-0.07031 0.2824-0.1501 0.3124-0.1772 0.0388-0.03515 0.0829-0.04434 0.1528-0.03193 0.2176 0.03885 0.377-0.16213 0.5577-0.70313 0.0703-0.21006 0.1242-0.32603 0.1543-0.3322 0.0702-0.01436 0.0585 0.07584-0.0563 0.43087-0.1235 0.38216-0.1243 0.39192-0.0293 0.36805 0.1035-0.02597 0.0907 0.01156-0.0596 0.17321-0.0721 0.0776-0.1311 0.15682-0.1311 0.17596 0 0.01924-0.0391 0.10745-0.0869 0.19624-0.0477 0.08869-0.0874 0.17928-0.088 0.20116-9e-4 0.02189 0.1563-0.12318 0.3488-0.32235 0.3388-0.35088 0.4698-0.43692 0.3185-0.20941-0.0404 0.06083-0.1347 0.17852-0.2096 0.26152-0.2123 0.23547-0.1701 0.25063 0.1579 0.05686l0.2194-0.12954 0.0694 0.07325c0.0382 0.04037 0.058 0.08395 0.044 0.09684-0.0139 0.01289-0.1113 0.038-0.2161 0.05581-0.2485 0.04226-0.4862 0.20145-0.5762 0.38585-0.0733 0.15066-0.1984 0.26834-0.26 0.24465-0.028-0.0107-0.1079 0.05401-0.2269 0.18392-0.1011 0.11021-0.3124 0.32445-0.4698 0.47606-0.1573 0.15151-0.286 0.2853-0.286 0.29715 0 0.01194 0.1112 0.0307 0.2471 0.04169 0.2757 0.02236 0.3584 0 0.5906-0.15976 0.1121-0.07703 0.1327-0.08338 0.1249-0.03828-0.0081 0.04795 0.0103 0.05344 0.1625 0.04814 0.2122-0.00749 0.4007-0.06832 0.6202-0.2005 0.0928-0.05591 0.1737-0.10158 0.1798-0.10158 0.0062 0 0.0112 0.02805 0.0112 0.06244 0 0.05828 0.0102 0.06112 0.1516 0.04236 0.1331-0.01763 0.1471-0.01478 0.1149 0.02407-0.0754 0.09096-0.2854 0.16146-0.5746 0.19301-0.1614 0.01753-0.3429 0.0453-0.4034 0.06159-0.231 0.06207-0.082 0.13077 0.2787 0.12849 0.188-0.00114 0.2273 0.00673 0.2273 0.04482 0 0.02549 0.0212 0.07647 0.047 0.11333 0.0259 0.03695 0.0387 0.07552 0.0285 0.08566-0.0102 0.01023-0.127-0.01706-0.2597-0.06055-0.2628-0.08632-0.6023-0.14877-0.819-0.15085-0.104-0.00114-0.1522 0.01412-0.196 0.06121-0.052 0.05581-0.0731 0.05951-0.1996 0.03468-0.1958-0.03828-0.3623-0.01099-0.544 0.08916-0.1839 0.1013-0.3088 0.13465-0.3564 0.09514-0.0535-0.04435-0.2723 0.06481-0.2975 0.1482-0.0254 0.0848-0.2171 0.28872-0.2712 0.28872-0.0287 0-0.0373 0.03477-0.0308 0.12356 0.0114 0.15615 0.034 0.16317 0.537 0.16658 0.243 0.00151 0.4568 0.02009 0.5889 0.05098 0.2691 0.06301 0.4246 0.03904 0.7115-0.10945l0.2241-0.11598-0.1169 0.11977-0.1167 0.11968 0.1174 0.00227c0.0645 0.00114 0.4077 0.00408 0.7627 0.00597 0.4322 0.00228 0.6645 0.01469 0.7033 0.03753 0.0529 0.03127 0.0493 0.03572-0.0441 0.05211-0.056 0.00986-0.28 0.01431-0.4978 0.00986l-0.396-0.00806-0.1761 0.12404c-0.1297 0.09144-0.2822 0.15805-0.5794 0.25328-0.2218 0.07107-0.4034 0.1247-0.4034 0.1193 0-0.04312 0.3059-0.22685 0.464-0.27877 0.2019-0.06624 0.2694-0.10338 0.2694-0.14811 0-0.01421-0.2216-0.02577-0.4924-0.02577-0.2709 0-0.6505-0.01971-0.8435-0.04378-0.1931-0.02407-0.4199-0.04387-0.5042-0.04396-0.1415-1.9e-4 -0.1569 0.00672-0.1999 0.08982-0.0256 0.04956-0.0919 0.11684-0.1474 0.14953-0.1377 0.0813-0.142 0.20704-0.0092 0.27564 0.1025 0.05306 0.6494 0.17435 0.9225 0.20477 0.1578 0.01753 0.1961 0.01061 0.3374-0.06027l0.1593-0.08006-0.0697 0.07542c-0.0899 0.09713-0.0662 0.15313 0.0745 0.17644 0.2669 0.04406 0.4014 0.02416 0.5837-0.08671 0.0959-0.05837 0.2292-0.1299 0.2963-0.15918 0.1267-0.05525 0.3914-0.1067 0.3914-0.07609 0 0.00966-0.0694 0.05259-0.1541 0.09551-0.1668 0.08452-0.3447 0.21055-0.3447 0.24437 0 0.02682 0.4738 0.11011 0.7628 0.13418 0.2884 0.02397 0.3103 0.03136 0.2629 0.0885-0.0299 0.0361-0.0296 0.05865 0.0016 0.11702 0.0212 0.0397 0.0327 0.07819 0.0255 0.08539-0.0073 0.0074-0.1316-0.03526-0.2764-0.09448-0.2368-0.09703-0.2928-0.10831-0.5615-0.1139-0.1641-0.00341-0.3744-0.02028-0.4674-0.03743-0.093-0.01724-0.2736-0.03127-0.4014-0.03127-0.1513 0-0.4504-0.04216-0.8583-0.121-0.3674-0.07097-0.6573-0.11304-0.7017-0.10186-0.1363 0.03411-0.4949 0.40726-0.6427 0.66864-0.0747 0.132-0.1359 0.2504-0.1359 0.2628 0 0.0418 0.2168 0.0804 0.8068 0.1436 0.5934 0.0634 0.8244 0.0621 1.1603-0.0068 0.1417-0.0291 0.1817-0.0261 0.308 0.0227l0.1453 0.056-0.3961 0.0161c-0.2178 0.0088-0.4224 0.031-0.4547 0.0493-0.0563 0.0318-0.0555 0.0344 0.0213 0.0635 0.17 0.0647 1.0223 0.2378 1.1705 0.2378 0.0141 0 0.0257 0.0122 0.0257 0.0272 0 0.0149-0.0727 0.0363-0.1614 0.0474-0.0888 0.011-0.1613 0.0321-0.1613 0.0467s0.096 0.0889 0.2134 0.1652c0.1573 0.1024 0.2846 0.1571 0.484 0.2083 0.1922 0.0494 0.2707 0.0824 0.2707 0.1141 0 0.0361-0.0271 0.0414-0.1425 0.0277-0.1483-0.0175-0.4434-0.1387-1.053-0.4321-0.3181-0.1533-0.3594-0.1665-0.3594-0.1155 0 0.0724-0.0147 0.0721-0.1197-3e-3 -0.4712-0.3354-1.4226-0.4844-1.9589-0.3065-0.2336 0.0774-0.2977 0.1164-0.2977 0.1813 0 0.023 0.0841 0.1589 0.1868 0.3019 0.1027 0.1431 0.2337 0.3441 0.2911 0.4467 0.1211 0.2164 0.1717 0.2681 0.327 0.333 0.1418 0.0592 0.3722 0.06 0.8256 0.0025 0.3434-0.0434 0.4818-0.0393 0.4818 0.0144 0 0.0143-0.0323 0.0259-0.0716 0.0259-0.1033 0-0.1156 0.0446-0.0282 0.1019 0.0614 0.0402 0.072 0.0643 0.0561 0.1278-0.0108 0.043-0.0239 0.0824-0.029 0.0876-0.0052 0.0051-0.0799-0.028-0.1663-0.0734-0.1342-0.0705-0.1912-0.0825-0.3918-0.0825-0.2463 0-0.396 0.0271-0.396 0.0716 0 0.0146 0.0429 0.0826 0.0954 0.1513 0.07 0.0917 0.1763 0.1682 0.4005 0.2884 0.2902 0.1554 0.625 0.4153 0.5862 0.455-0.0101 0.0101-0.1266-0.0619-0.2591-0.1601-0.1325-0.0983-0.2737-0.1912-0.3138-0.2064-0.087-0.0331-0.2248-0.0368-0.2107-0.0058 0.0055 0.012 0.0584 0.124 0.1176 0.2488 0.1411 0.2972 0.1556 0.3452 0.1042 0.3452-0.0459 0-0.0693-0.0278-0.5771-0.6894-0.3764-0.4903-0.5228-0.6601-0.569-0.6601-0.0159 0-0.0213 0.0867-0.0128 0.2055 0.0166 0.2315 0.1493 0.5314 0.4466 1.0096 0.0894 0.1438 0.1625 0.2758 0.1623 0.2933-2e-4 0.0176-0.1532-0.1224-0.3401-0.3108-0.1868-0.1884-0.3563-0.3489-0.3767-0.3568-0.0263-0.0101-0.042-0.1403-0.0545-0.4494-0.0195-0.4828-0.0702-0.7386-0.1899-0.9584-0.1706-0.3135-0.4099-0.3381-0.7005-0.0718-0.20449 0.1873-0.5675 0.633-0.5675 0.6969 0 0.0312 0.07021 0.1166 0.159 0.1932 0.0956 0.0825 0.15284 0.1535 0.14355 0.1779-0.02066 0.0536 0.35235 0.4224 0.64345 0.6363 0.1251 0.092 0.2274 0.1736 0.2274 0.1816 0 0.0464-0.1586 2e-4 -0.3024-0.0882-0.0918-0.0565-0.2421-0.149-0.3339-0.2055-0.0918-0.0564-0.19257-0.1026-0.22394-0.1026-0.0956 0-0.04576 0.1891 0.16784 0.6369 0.1065 0.2233 0.1938 0.4223 0.1938 0.442 0 0.0735-0.0554 0.0316-0.1475-0.1119-0.0867-0.135-0.1485-0.2671-0.48106-1.0285-0.14138-0.3235-0.21794-0.4225-0.3053-0.3948-0.20856 0.0662-0.61601 1.1236-0.69684 1.98-0.05211 0.553 0.02426 0.9433 0.24239 1.2383 0.07315 0.099 0.05534 0.149-0.07562 0.2111-0.08793 0.0418-0.22021 0.0486-0.9341 0.0484-0.78059-2e-4 -0.76117-0.0039-0.84379-0.0585l-1.9e-4 6e-4zm1.62809-3.5826c0.11569-0.1789 0.1679-0.3391 0.13692-0.42-9e-3 -0.0234-0.04918-0.064-0.08926-0.0903-0.05771-0.0378-0.08604-0.0408-0.13503-0.0146-0.08784 0.047-0.11787 0.148-0.11787 0.3959 0 0.3667 0.03676 0.3898 0.20524 0.129zm-1.70873-1.0164c-0.0216-0.3164-0.07552-0.4342-0.21784-0.4769-0.06178-0.0184-0.15313-0.0292-0.20297-0.0238l-0.09077 0.0097 0.03202 0.1255c0.02189 0.0854 0.09637 0.2001 0.23348 0.3593 0.11077 0.1287 0.215 0.2339 0.23158 0.2339 0.01943 0 0.02464-0.0813 0.0145-0.2278v1e-4zm2.03156 0.1104c0-0.0989-0.04198-0.1155-0.08566-0.0338-0.01999 0.0372-0.01848 0.0647 0.00483 0.088 0.05562 0.0558 0.08073 0.0389 0.08073-0.0542h1e-4zm0.87052-0.4006c0.37937-0.2876 1.04247-0.8799 1.20497-1.07641 0.1591-0.19236 0.1636-0.24153 0.0162-0.17994-0.0596 0.02492-0.1246 0.03904-0.1445 0.03146-0.0488-0.01877-0.4772 0.19119-0.7217 0.35379-0.1355 0.0901-0.1987 0.1509-0.1987 0.191 0 0.0325-0.05782 0.1337-0.12832 0.2251-0.16165 0.2093-0.28512 0.5623-0.19671 0.5623 0.01497 0 0.09087-0.0484 0.16876-0.1073zm-1.11944-0.1177c0.06424-0.043 0.22551-0.1637 0.35836-0.2683 0.2042-0.1607 0.25025-0.2134 0.29744-0.3398 0.07495-0.2007 0.12109-0.51634 0.12109-0.82733v-0.25555l-0.06206 0.05581c-0.09551 0.08604-0.47643 0.60056-0.59753 0.80717-0.10783 0.1841-0.25574 0.5873-0.29203 0.7963-0.0235 0.1352 0.01099 0.1414 0.17473 0.0317zm-3.30972-0.2747c0.07751-0.0167 0.16061-0.0426 0.18487-0.0576 0.03913-0.0243 0.03913-0.0321 0-0.0698-0.02426-0.0234-0.12754-0.0773-0.22969-0.1198l-0.18558-0.0772-0.34083 0.0472c-0.18746 0.0258-0.35328 0.0547-0.36847 0.0641-0.03429 0.0212 0.1919 0.1112 0.46446 0.1847 0.24274 0.0656 0.28962 0.0683 0.47524 0.0284zm1.2666-0.0761c0.17501-0.0349 0.10973-0.1895-0.27858-0.6588-0.21017-0.25413-0.41295-0.43511-0.683-0.60956-0.19747-0.12754-0.29507-0.14943-0.35344-0.07921-0.04747 0.05723 0.01242 0.18619 0.33458 0.72052 0.33913 0.56255 0.37637 0.60975 0.49283 0.62425 0.16553 0.0205 0.39266 0.0219 0.48761 0.0029v-1e-4zm0.57118-0.3574c-0.01222-0.51535-0.49206-1.4685-1.01843-2.02263-0.11219-0.11806-0.36604-0.33202-0.56427-0.47539-0.20135-0.14564-0.61395-0.49784-0.93507-0.79803-0.67223-0.62832-0.86605-0.7751-0.86605-0.6557 0 0.13038 0.53227 1.29966 0.78709 1.729 0.27127 0.457 0.4645 0.68157 0.6099 0.70886 0.0561 0.01052 0.10916 0.01185 0.11807 0.00294 0.01923-0.01923-0.09703-0.19245-0.40322-0.60056-0.24003-0.31989-0.43576-0.66291-0.39918-0.69948 0.05444-0.05449 0.50946 0.50807 0.85726 1.05983 0.06102 0.09675 0.29715 0.36737 0.52466 0.60142 0.48269 0.49633 0.71882 0.76145 1.01417 1.13874 0.24693 0.3154 0.28228 0.3168 0.27507 0.011zm2.72585-0.1999c0.0523-0.0268 0.2734-0.16138 0.4911-0.29887 0.4508-0.28455 0.7925-0.45559 1.0269-0.51386 0.1411-0.03515 0.1679-0.05382 0.2137-0.14915 0.0288-0.05998 0.0553-0.15767 0.0587-0.21717l0.0062-0.10822-0.2376-0.02558c-0.2299-0.02473-0.2438-0.02265-0.4262 0.06443-0.1037 0.04947-0.246 0.10291-0.3162 0.11864-0.1427 0.03212-0.3023 0.16942-0.4525 0.38954-0.0511 0.07504-0.2084 0.25783-0.3496 0.4064-0.20062 0.21093-0.25671 0.28853-0.25671 0.35434 0 0.0779 0.00559 0.0822 0.07353 0.0563 0.04036-0.0153 0.11636-0.0499 0.16868-0.0768zm-0.98462-0.98651c0.19368-0.20382 0.51462-0.65779 0.63098-0.8926 0.10138-0.20467 0.12479-0.28521 0.13891-0.47719 0.01478-0.20069 0.01118-0.2275-0.02729-0.20486-0.08234 0.04852-0.17625 0.13901-0.17625 0.1698 0 0.01678-0.08025 0.12025-0.17842 0.22998-0.2729 0.30511-0.35912 0.50779-0.51225 1.20424-0.02018 0.09154 0.018 0.08244 0.12432-0.02937zm-1.6875-0.26352c-0.01819-0.16572-0.04046-0.39134-0.04946-0.50144-0.02227-0.27167-0.13522-0.6126-0.26579-0.8022-0.18326-0.26608-0.62302-0.50694-1.05965-0.58038l-0.12299-0.02066 0.05448 0.14924c0.07277 0.19909 1.42086 2.1122 1.46047 2.07259 0.00881-0.00881 0.00113-0.15151-0.01706-0.31715zm4.53782-0.26778c0.0723-0.09001 0.415-1.26953 0.415-1.42843 0-0.11381-0.0306-0.12357-0.1521-0.04833-0.1439 0.08907-0.3543 0.34756-0.4821 0.59241-0.059 0.11286-0.192 0.32947-0.2957 0.48126-0.2155 0.31563-0.2153 0.31696 0.0645 0.39352 0.2836 0.07761 0.3938 0.07998 0.4504 0.00957zm-1.1641-0.19443c0.2316-3.8e-4 0.2626-0.0074 0.3462-0.07751 0.0562-0.04729 0.1562-0.20903 0.2583-0.41731 0.1425-0.2908 0.1683-0.36888 0.1778-0.53887 0.0112-0.19662 0.0105-0.1988-0.0636-0.1988-0.1431 0-0.7656 0.62368-0.8748 0.87668-0.0306 0.07069-0.095 0.17823-0.143 0.23888-0.1047 0.13218-0.1088 0.15852-0.0214 0.13502 0.0363-0.00976 0.1805-0.0179 0.3205-0.01809zm-0.4745-0.53243c0.1921-0.11674 0.852-0.67845 1.0725-0.91288 0.159-0.16904 0.254-0.3036 0.344-0.48714 0.0684-0.13938 0.1814-0.3287 0.251-0.42062 0.075-0.09883 0.1839-0.30909 0.267-0.51509 0.0772-0.1914 0.1558-0.37693 0.1748-0.41228 0.0573-0.10724-0.0291-0.07953-0.2341 0.07505-0.1016 0.07656-0.2535 0.1789-0.3376 0.22732-0.1401 0.08073-0.1934 0.14857-0.643 0.82077-0.3001 0.44848-0.5231 0.75274-0.5751 0.78429-0.0466 0.02843-0.0848 0.07078-0.0848 0.09428 0 0.02341-0.055 0.10613-0.1222 0.18373-0.1283 0.1481-0.2406 0.36879-0.2698 0.52987-0.0207 0.11447 0.0118 0.1212 0.1573 0.0327zm2.6044-0.35155c0.1174-0.13521 0.2262-0.25025 0.242-0.25565 0.0464-0.01582 0.0329 0.07704-0.0288 0.19804-0.0316 0.06188-0.0494 0.12053-0.0396 0.13029 0.0439 0.04397 0.3289-0.16288 0.5656-0.41048 0.2585-0.27034 0.5996-0.74497 0.6938-0.96537 0.0581-0.13616 0.1319-0.43057 0.1127-0.4498-0.0371-0.03705-0.5243 0.13076-0.747 0.25745-0.1372 0.07798-0.3418 0.19017-0.4548 0.24939-0.2639 0.13816-0.3281 0.1934-0.3848 0.3307-0.0255 0.06169-0.1123 0.22021-0.1928 0.35221-0.1316 0.21547-0.1523 0.27346-0.2025 0.56758-0.0307 0.18023-0.0481 0.34017-0.0387 0.35552 0.0347 0.05591 0.2662-0.11958 0.4749-0.35988zm-5.36442-0.41654c0.0813-0.42157 0.0776-0.50893-0.03364-0.79159-0.11305-0.28692-0.71465-1.50425-0.83773-1.69494-0.09258-0.14344-0.49681-0.4682-0.69579-0.55903-0.06453-0.02945-0.16848-0.05383-0.23102-0.0542-0.11238-8.3e-4 -0.11351 3.7e-4 -0.09617 0.09471 0.02501 0.13642 0.30416 0.6789 0.68764 1.3365 0.18212 0.31241 0.49054 0.88691 0.68536 1.27692 0.19482 0.38992 0.36822 0.7263 0.38537 0.74753 0.04662 0.05752 0.06595 0.00711 0.13598-0.3559zm-0.87772-0.30919c0-0.10878-1.30829-1.58839-1.40448-1.58839-0.04098 0-0.05938 0.30294-0.03174 0.52306 0.03043 0.24247 0.15882 0.64784 0.24552 0.77538 0.0939 0.13806 0.2384 0.19434 0.65125 0.25375 0.44365 0.06387 0.53945 0.07022 0.53945 0.0362zm1.38977-0.12517c0.02881-0.14393 0.02151-0.81007-0.0125-1.14474-0.06813-0.67039-0.17644-1.01731-0.58483-1.87334-0.15777-0.33078-0.2963-0.64562-0.30796-0.69965-0.01241-0.0582-0.03184-0.08749-0.04747-0.07184-0.05903 0.05904-0.14261 0.56863-0.14877 0.90686l-0.00635 0.34869 0.22647 0.60141c0.23376 0.62072 0.26863 0.69956 0.29734 0.67084 0.00929-0.00928 0.02521-0.12479 0.03535-0.25678 0.01023-0.13204 0.02918-0.24663 0.04216-0.25467 0.0507-0.0313 0.20771 0.36629 0.25925 0.65653 0.0163 0.09172 0.04359 0.3179 0.06074 0.50248 0.03184 0.34406 0.1067 0.70584 0.14611 0.70584 0.01213 0 0.03042-0.04122 0.04046-0.09163zm4.35737-0.8618c0.1821-0.29952 0.2669-0.46857 0.2669-0.53205 0-0.04302-0.0101-0.04084-0.0703 0.01582-0.0717 0.06737-0.4058 0.69077-0.4417 0.82428l-0.0198 0.07334 0.0611-0.07334c0.0336-0.04037 0.1253-0.179 0.2038-0.30805zm1.1596-1.53488c0.0816-0.10693 0.032-0.10923-0.1289-0.00604-0.1436 0.09214-0.4118 0.36197-0.4118 0.41432 0 0.03573 0.4766-0.32418 0.5407-0.40833v5e-5zm-5.39236-0.12624c0.08177-0.46041 0.06879-1.88375-0.01668-1.83092-0.04321 0.0267-0.08623 0.37343-0.10196 0.82236-0.00852 0.24203-0.036 0.53681-0.06111 0.65506-0.04643 0.21894-0.02985 0.4409 0.04804 0.64594 0.02511 0.06596 0.03364 0.07059 0.05628 0.03025 0.01459-0.02616 0.04861-0.17139 0.07543-0.3227v1e-5zm-1.95443-0.22103c0-0.01057-0.13048-0.19211-0.28985-0.40338-0.15938-0.21128-0.38907-0.53597-0.51045-0.72152-0.12138-0.18556-0.26124-0.38358-0.31084-0.44005l-0.09017-0.10269-9.1e-4 0.09878c-9.1e-4 0.10442 0.25123 0.73734 0.29361 0.73734 0.01365 0 0.03298-0.01323 0.04302-0.02935 0.00995-0.01616 0.029-0.02934 0.04217-0.02934 0.02814 0 0.31866 0.43103 0.40527 0.60141 0.06614 0.13001 0.12536 0.18981 0.25659 0.25918 0.09305 0.04913 0.16137 0.06167 0.16137 0.0296l1.9e-4 2e-5zm1.35501-1.04422c0.01279-0.4619-0.01829-0.75903-0.10973-1.0488-0.11949-0.3786-0.3524-0.785326-0.41427-0.72345-0.02862 0.02863-0.0182 0.61759 0.01345 0.75279 0.01895 0.08135 0.03667 0.10089 0.085 0.09409 0.05647-0.00795 0.06377 0.01386 0.0976 0.29337 0.04728 0.39157 0.2222 0.96204 0.29488 0.96204 0.01317 0 0.02795-0.14852 0.03307-0.33004zm0.91818-0.67651c0.0397-0.19526 0.04434-0.26674 0.01876-0.2923-0.02559-0.02557-0.05231-0.01538-0.10935 0.04162-0.06927 0.06932-0.07287 0.08476-0.04378 0.18962 0.01744 0.06279 0.03174 0.1729 0.03184 0.24471 2.8e-4 0.18885 0.04179 0.11452 0.10243-0.18365h1e-4zm-4.64951 11.4551c0-0.039 0.11551-0.1335 0.1369-0.1121 0.01053 0.0105-0.00478 0.0456-0.03407 0.078-0.05534 0.0612-0.10284 0.0769-0.10284 0.0341h1e-5zm7.33931-0.4347c0.0123-0.0641 0.0976-0.0732 0.0976-0.0104 0 0.0241-0.0243 0.0483-0.054 0.054-0.0392 0.0076-0.0512-0.0043-0.0436-0.0436zm2.2596-1.6151c-0.069-0.0131-0.1492-0.1387-0.1122-0.1757 0.0112-0.0112 0.0692 0.0284 0.1289 0.0881 0.0597 0.0598 0.0956 0.1068 0.0797 0.1046-0.0158-0.0023-0.0592-0.0099-0.0964-0.017zm1.5932-0.258c-0.473-0.1367-0.4567-0.1824 0.0217-0.0611 0.2552 0.0648 0.5665 0.1924 0.4623 0.1896-0.0243-1e-3 -0.242-0.0585-0.4841-0.1285h1e-4zm0.5861-1.45288c-0.0114-0.01838-0.0071-0.04728 0.01-0.06415 0.0394-0.03942 0.1313-0.00521 0.1153 0.04311-0.0164 0.04899-0.0994 0.06302-0.1253 0.02104zm-14.896917-0.22315c-0.010328-0.01033-0.012517-0.0289-0.004851-0.04131 0.01806-0.02919 0.131198 2.8e-4 0.131198 0.03411 0 0.02975-0.098185 0.03534-0.126328 0.00729l-1.9e-5 -9e-5zm14.435417-0.2836c-0.0928-0.01649-0.1687-0.03923-0.1687-0.0506 0-0.0272 0.2872-0.08282 0.5281-0.10215l0.1906-0.01535-0.1173 0.04482c-0.0645 0.02464-0.1393 0.07106-0.166 0.10319-0.0268 0.03212-0.0598 0.05657-0.0733 0.0542-0.0136-0.00228-0.1006-0.01772-0.1934-0.03411zm-14.485106-0.70082c-0.170683-0.03723-0.202341-0.06974-0.089885-0.09219 0.102402-0.02047 0.299465 0.03572 0.317449 0.09058 0.013825 0.04226-0.039503 0.04255-0.227564 0.00152v9e-5zm14.187106-0.01932c-0.0241-0.03904 0.1196-0.0923 0.249-0.0923 0.1106 0 0.3204 0.06624 0.3204 0.1012 0 0.02672-0.5528 0.0182-0.5694-0.0089zm0.6721-0.64974c-0.0101-0.01611 0.0025-0.02928 0.0275-0.02928 0.0253 0 0.0458 0.01317 0.0458 0.02928 0 0.0162-0.0124 0.02937-0.0276 0.02937s-0.0358-0.01317-0.0457-0.02937zm-13.45103-0.29337c-0.11078-0.09324-0.07974-0.1156 0.06013-0.0432 0.0476 0.02463 0.08655 0.06424 0.08655 0.08802 0 0.06226-0.03069 0.05288-0.14668-0.04482zm-1.078911-0.11645c-0.20632-0.07429-0.389899-0.18752-0.324348-0.20022 0.050116-0.00966 0.544789 0.1824 0.595029 0.23101 0.04754 0.04606-0.10561 0.02862-0.270681-0.03079zm-0.609173-0.35486c-0.031971-0.05174 0.001857-0.05894 0.062018-0.01336 0.049642 0.03752 0.050485 0.04283 0.006936 0.04368-0.02728 3.8e-4 -0.058313-0.01317-0.068944-0.03032h-1e-5zm1.108674-1.40873c-0.06757-0.02549-0.08591-0.06974-0.04059-0.09779 0.02601-0.01601 0.14044 0.09173 0.11864 0.11172-0.00663 0.00616-0.04175-1.9e-4 -0.07805-0.01393zm12.16624-0.40091c0.0618-0.1734 0.1325-0.36155 0.1572-0.41802l0.0447-0.10268 0.0025 0.09534c0.0026 0.10101 0.0288 0.11466 0.1232 0.06416 0.032-0.01712 0.0784-0.02706 0.1029-0.02199 0.0645 0.01327-0.1544 0.28787-0.2295 0.28787-0.0363 0-0.0546 0.01838-0.0513 0.05135 0.0029 0.02824 0.0038 0.06785 0.0018 0.08794-0.0041 0.04368-0.2052 0.27147-0.2398 0.27147-0.0132 0 0.0265-0.14194 0.0884-0.31544h-1e-4zm-1.2598-1.64284c8e-4 -0.03698 0.1153-0.39095 0.1422-0.43908 0.0432-0.07727 0.0623 0.00568 0.029 0.12646-0.0488 0.17733-0.1728 0.40376-0.1712 0.31262zm-8.65114-1.47975c-0.0483-0.12813-0.07009-0.2667-0.0389-0.24742 0.04621 0.02855 0.12331 0.27881 0.09188 0.29824-0.0151 0.00934-0.03893-0.01355-0.05298-0.05082zm9.03254-0.33914c9e-4 -0.04015 0.0547-0.1086 0.072-0.09136 0.0231 0.02312-0.0137 0.11336-0.0463 0.11336-0.0144 0-0.0259-0.00989-0.0257-0.022zm-7.47927-1.111423c-0.06396-0.081347-0.08131-0.144217-0.03124-0.113261 0.03248 0.020069 0.12676 0.190553 0.10534 0.190553-0.00739 0-0.04065-0.034784-0.0741-0.077292z"/>
</svg>
