<svg xmlns="http://www.w3.org/2000/svg" width="16" height="16" version="1.1">
 <defs>
   <style id="current-color-scheme" type="text/css">
   .ColorScheme-Text { color: #00aa00; } .ColorScheme-Highlight { color:#5294e2; }
  </style>
  <linearGradient id="arrongin" x1="0%" x2="0%" y1="0%" y2="100%">
   <stop offset="0%" style="stop-color:#dd9b44; stop-opacity:1"/>
   <stop offset="100%" style="stop-color:#ad6c16; stop-opacity:1"/>
  </linearGradient>
  <linearGradient id="aurora" x1="0%" x2="0%" y1="0%" y2="100%">
   <stop offset="0%" style="stop-color:#09D4DF; stop-opacity:1"/>
   <stop offset="100%" style="stop-color:#9269F4; stop-opacity:1"/>
  </linearGradient>
  <linearGradient id="cyberneon" x1="0%" x2="0%" y1="0%" y2="100%">
    <stop offset="0" style="stop-color:#0abdc6; stop-opacity:1"/>
    <stop offset="1" style="stop-color:#ea00d9; stop-opacity:1"/>
  </linearGradient>
  <linearGradient id="fitdance" x1="0%" x2="0%" y1="0%" y2="100%">
   <stop offset="0%" style="stop-color:#1AD6AB; stop-opacity:1"/>
   <stop offset="100%" style="stop-color:#329DB6; stop-opacity:1"/>
  </linearGradient>
  <linearGradient id="oomox" x1="0%" x2="0%" y1="0%" y2="100%">
   <stop offset="0%" style="stop-color:#00aa00; stop-opacity:1"/>
   <stop offset="100%" style="stop-color:#00cc00; stop-opacity:1"/>
  </linearGradient>
  <linearGradient id="rainblue" x1="0%" x2="0%" y1="0%" y2="100%">
   <stop offset="0%" style="stop-color:#00F260; stop-opacity:1"/>
   <stop offset="100%" style="stop-color:#0575E6; stop-opacity:1"/>
  </linearGradient>
  <linearGradient id="sunrise" x1="0%" x2="0%" y1="0%" y2="100%">
   <stop offset="0%" style="stop-color: #FF8501; stop-opacity:1"/>
   <stop offset="100%" style="stop-color: #FFCB01; stop-opacity:1"/>
  </linearGradient>
  <linearGradient id="telinkrin" x1="0%" x2="0%" y1="0%" y2="100%">
   <stop offset="0%" style="stop-color: #b2ced6; stop-opacity:1"/>
   <stop offset="100%" style="stop-color: #6da5b7; stop-opacity:1"/>
  </linearGradient>
  <linearGradient id="60spsycho" x1="0%" x2="0%" y1="0%" y2="100%">
   <stop offset="0%" style="stop-color: #df5940; stop-opacity:1"/>
   <stop offset="25%" style="stop-color: #d8d15f; stop-opacity:1"/>
   <stop offset="50%" style="stop-color: #e9882a; stop-opacity:1"/>
   <stop offset="100%" style="stop-color: #279362; stop-opacity:1"/>
  </linearGradient>
  <linearGradient id="90ssummer" x1="0%" x2="0%" y1="0%" y2="100%">
   <stop offset="0%" style="stop-color: #f618c7; stop-opacity:1"/>
   <stop offset="20%" style="stop-color: #94ffab; stop-opacity:1"/>
   <stop offset="50%" style="stop-color: #fbfd54; stop-opacity:1"/>
   <stop offset="100%" style="stop-color: #0f83ae; stop-opacity:1"/>
  </linearGradient>
 </defs>
 <path fill="url(#oomox)" class="ColorScheme-Text" d="M 8.2109375 0.54492188 A 1.5 1.5 0 0 0 6.7207031 1.8769531 C 6.1403525 2.0703982 5.5666486 2.3202361 5.0117188 2.640625 C 3.4283884 3.5547612 2.2209131 4.8628422 1.5078125 6.3046875 A 1.5 1.5 0 0 0 0.234375 7.7871094 A 1.5 1.5 0 0 0 0.7890625 8.9511719 C 0.72938334 10.021807 0.95195458 11.081624 1.5058594 12.041016 C 2.0175282 12.927252 2.7490563 13.609008 3.6113281 14.089844 A 1.5 1.5 0 0 0 5.0742188 15.265625 A 1.5 1.5 0 0 0 6.0917969 14.867188 C 7.8015563 15.065251 9.6893665 14.694891 11.400391 13.707031 C 11.752601 13.503682 12.078766 13.274583 12.392578 13.035156 A 1.5 1.5 0 0 0 13.103516 13.214844 A 1.5 1.5 0 0 0 14.603516 11.714844 A 1.5 1.5 0 0 0 14.382812 10.931641 C 15.449953 9.3325017 15.876916 7.4819627 15.478516 5.7792969 A 1.5 1.5 0 0 0 16.1875 4.5058594 A 1.5 1.5 0 0 0 14.6875 3.0058594 A 1.5 1.5 0 0 0 14.015625 3.1640625 C 12.883242 2.0473496 11.294234 1.461295 9.578125 1.4296875 A 1.5 1.5 0 0 0 8.2109375 0.54492188 z M 9.6015625 2.6015625 C 11.049438 2.6418443 12.358182 3.1472335 13.253906 4.0605469 A 1.5 1.5 0 0 0 13.1875 4.5058594 A 1.5 1.5 0 0 0 14.316406 5.9570312 C 14.663737 7.3292637 14.332465 8.8815766 13.431641 10.251953 A 1.5 1.5 0 0 0 13.103516 10.214844 A 1.5 1.5 0 0 0 11.603516 11.714844 A 1.5 1.5 0 0 0 11.660156 12.123047 C 11.393545 12.324299 11.115666 12.517501 10.814453 12.691406 C 9.4176308 13.497862 7.9274697 13.828207 6.5742188 13.742188 A 1.5 1.5 0 0 0 5.0742188 12.265625 A 1.5 1.5 0 0 0 3.8710938 12.873047 C 3.3188098 12.506244 2.8546792 12.032188 2.5214844 11.455078 C 2.1366149 10.788465 1.9607479 10.041439 1.9628906 9.2695312 A 1.5 1.5 0 0 0 3.234375 7.7871094 A 1.5 1.5 0 0 0 2.6699219 6.6171875 C 3.2829202 5.474433 4.2730783 4.4209954 5.5976562 3.65625 C 6.0753462 3.3804556 6.5643591 3.1669022 7.0546875 3 A 1.5 1.5 0 0 0 8.2109375 3.5449219 A 1.5 1.5 0 0 0 9.6015625 2.6015625 z"/>
</svg>
