<svg xmlns="http://www.w3.org/2000/svg" width="16" height="16" version="1.1">
 <defs>
   <style id="current-color-scheme" type="text/css">
   .ColorScheme-Text { color: #00aa00; } .ColorScheme-Highlight { color:#5294e2; }
  </style>
  <linearGradient id="arrongin" x1="0%" x2="0%" y1="0%" y2="100%">
   <stop offset="0%" style="stop-color:#dd9b44; stop-opacity:1"/>
   <stop offset="100%" style="stop-color:#ad6c16; stop-opacity:1"/>
  </linearGradient>
  <linearGradient id="aurora" x1="0%" x2="0%" y1="0%" y2="100%">
   <stop offset="0%" style="stop-color:#09D4DF; stop-opacity:1"/>
   <stop offset="100%" style="stop-color:#9269F4; stop-opacity:1"/>
  </linearGradient>
  <linearGradient id="cyberneon" x1="0%" x2="0%" y1="0%" y2="100%">
    <stop offset="0" style="stop-color:#0abdc6; stop-opacity:1"/>
    <stop offset="1" style="stop-color:#ea00d9; stop-opacity:1"/>
  </linearGradient>
  <linearGradient id="fitdance" x1="0%" x2="0%" y1="0%" y2="100%">
   <stop offset="0%" style="stop-color:#1AD6AB; stop-opacity:1"/>
   <stop offset="100%" style="stop-color:#329DB6; stop-opacity:1"/>
  </linearGradient>
  <linearGradient id="oomox" x1="0%" x2="0%" y1="0%" y2="100%">
   <stop offset="0%" style="stop-color:#00aa00; stop-opacity:1"/>
   <stop offset="100%" style="stop-color:#00cc00; stop-opacity:1"/>
  </linearGradient>
  <linearGradient id="rainblue" x1="0%" x2="0%" y1="0%" y2="100%">
   <stop offset="0%" style="stop-color:#00F260; stop-opacity:1"/>
   <stop offset="100%" style="stop-color:#0575E6; stop-opacity:1"/>
  </linearGradient>
  <linearGradient id="sunrise" x1="0%" x2="0%" y1="0%" y2="100%">
   <stop offset="0%" style="stop-color: #FF8501; stop-opacity:1"/>
   <stop offset="100%" style="stop-color: #FFCB01; stop-opacity:1"/>
  </linearGradient>
  <linearGradient id="telinkrin" x1="0%" x2="0%" y1="0%" y2="100%">
   <stop offset="0%" style="stop-color: #b2ced6; stop-opacity:1"/>
   <stop offset="100%" style="stop-color: #6da5b7; stop-opacity:1"/>
  </linearGradient>
  <linearGradient id="60spsycho" x1="0%" x2="0%" y1="0%" y2="100%">
   <stop offset="0%" style="stop-color: #df5940; stop-opacity:1"/>
   <stop offset="25%" style="stop-color: #d8d15f; stop-opacity:1"/>
   <stop offset="50%" style="stop-color: #e9882a; stop-opacity:1"/>
   <stop offset="100%" style="stop-color: #279362; stop-opacity:1"/>
  </linearGradient>
  <linearGradient id="90ssummer" x1="0%" x2="0%" y1="0%" y2="100%">
   <stop offset="0%" style="stop-color: #f618c7; stop-opacity:1"/>
   <stop offset="20%" style="stop-color: #94ffab; stop-opacity:1"/>
   <stop offset="50%" style="stop-color: #fbfd54; stop-opacity:1"/>
   <stop offset="100%" style="stop-color: #0f83ae; stop-opacity:1"/>
  </linearGradient>
 </defs>
 <path fill="url(#oomox)" class="ColorScheme-Text" d="M 10.122 6.039 L 6.413 6.039 C 5.832 6.065 5.277 6.284 4.833 6.663 C 4.392 7.042 4.088 7.558 3.971 8.126 C 3.935 8.299 3.918 8.475 3.918 8.651 C 3.918 9.654 4.493 10.571 5.398 11.009 C 5.75 11.179 6.139 11.267 6.531 11.267 C 7.308 11.267 8.042 10.924 8.539 10.33 C 8.872 9.931 9.352 9.68 9.868 9.634 C 10.387 9.589 10.903 9.749 11.301 10.082 C 11.7 10.415 11.948 10.895 11.993 11.411 C 12.039 11.93 11.879 12.446 11.546 12.844 C 10.305 14.327 8.467 15.185 6.531 15.185 C 5.551 15.185 4.581 14.963 3.696 14.536 C 2.589 14.003 1.656 13.167 0.999 12.129 C 0.346 11.087 0 9.882 0 8.651 C 0 8.211 0.042 7.773 0.131 7.342 C 0.424 5.915 1.182 4.629 2.289 3.685 C 3.393 2.738 4.784 2.189 6.237 2.124 C 6.259 2.123 6.28 2.123 6.302 2.122 L 6.302 2.121 L 10.122 2.121 L 10.122 1.796 C 10.123 1.532 10.228 1.279 10.416 1.094 C 10.604 0.909 10.858 0.809 11.12 0.815 C 11.283 0.819 11.443 0.864 11.584 0.946 L 13.549 2.088 L 15.513 3.23 C 15.814 3.406 16 3.729 16 4.08 C 16 4.43 15.814 4.754 15.513 4.93 L 13.549 6.072 L 11.584 7.214 C 11.283 7.389 10.911 7.389 10.61 7.214 C 10.308 7.039 10.123 6.715 10.122 6.364 L 10.122 6.039 Z"/>
</svg>
