<svg xmlns="http://www.w3.org/2000/svg" width="16" height="16" version="1.1">
 <defs>
   <style id="current-color-scheme" type="text/css">
   .ColorScheme-Text { color: #00aa00; } .ColorScheme-Highlight { color:#5294e2; }
  </style>
  <linearGradient id="arrongin" x1="0%" x2="0%" y1="0%" y2="100%">
   <stop offset="0%" style="stop-color:#dd9b44; stop-opacity:1"/>
   <stop offset="100%" style="stop-color:#ad6c16; stop-opacity:1"/>
  </linearGradient>
  <linearGradient id="aurora" x1="0%" x2="0%" y1="0%" y2="100%">
   <stop offset="0%" style="stop-color:#09D4DF; stop-opacity:1"/>
   <stop offset="100%" style="stop-color:#9269F4; stop-opacity:1"/>
  </linearGradient>
  <linearGradient id="cyberneon" x1="0%" x2="0%" y1="0%" y2="100%">
    <stop offset="0" style="stop-color:#0abdc6; stop-opacity:1"/>
    <stop offset="1" style="stop-color:#ea00d9; stop-opacity:1"/>
  </linearGradient>
  <linearGradient id="fitdance" x1="0%" x2="0%" y1="0%" y2="100%">
   <stop offset="0%" style="stop-color:#1AD6AB; stop-opacity:1"/>
   <stop offset="100%" style="stop-color:#329DB6; stop-opacity:1"/>
  </linearGradient>
  <linearGradient id="oomox" x1="0%" x2="0%" y1="0%" y2="100%">
   <stop offset="0%" style="stop-color:#00aa00; stop-opacity:1"/>
   <stop offset="100%" style="stop-color:#00cc00; stop-opacity:1"/>
  </linearGradient>
  <linearGradient id="rainblue" x1="0%" x2="0%" y1="0%" y2="100%">
   <stop offset="0%" style="stop-color:#00F260; stop-opacity:1"/>
   <stop offset="100%" style="stop-color:#0575E6; stop-opacity:1"/>
  </linearGradient>
  <linearGradient id="sunrise" x1="0%" x2="0%" y1="0%" y2="100%">
   <stop offset="0%" style="stop-color: #FF8501; stop-opacity:1"/>
   <stop offset="100%" style="stop-color: #FFCB01; stop-opacity:1"/>
  </linearGradient>
  <linearGradient id="telinkrin" x1="0%" x2="0%" y1="0%" y2="100%">
   <stop offset="0%" style="stop-color: #b2ced6; stop-opacity:1"/>
   <stop offset="100%" style="stop-color: #6da5b7; stop-opacity:1"/>
  </linearGradient>
  <linearGradient id="60spsycho" x1="0%" x2="0%" y1="0%" y2="100%">
   <stop offset="0%" style="stop-color: #df5940; stop-opacity:1"/>
   <stop offset="25%" style="stop-color: #d8d15f; stop-opacity:1"/>
   <stop offset="50%" style="stop-color: #e9882a; stop-opacity:1"/>
   <stop offset="100%" style="stop-color: #279362; stop-opacity:1"/>
  </linearGradient>
  <linearGradient id="90ssummer" x1="0%" x2="0%" y1="0%" y2="100%">
   <stop offset="0%" style="stop-color: #f618c7; stop-opacity:1"/>
   <stop offset="20%" style="stop-color: #94ffab; stop-opacity:1"/>
   <stop offset="50%" style="stop-color: #fbfd54; stop-opacity:1"/>
   <stop offset="100%" style="stop-color: #0f83ae; stop-opacity:1"/>
  </linearGradient>
 </defs>
 <path fill="url(#oomox)" class="ColorScheme-Text" fill-rule="evenodd" d="M 9.2 9.958 C 9.201 9.976 9.201 9.993 9.202 10.011 L 9.2 10.013 L 9.2 9.958 L 9.2 9.958 L 9.2 9.958 Z M 9.2 2.8 C 9.2 1.255 10.455 0 12 0 C 13.545 0 14.8 1.255 14.8 2.8 C 14.8 4.345 13.545 5.6 12 5.6 C 10.455 5.6 9.2 4.345 9.2 2.8 L 9.2 2.8 L 9.2 2.8 L 9.2 2.8 L 9.2 2.8 Z M 4.4 2.8 L 4.4 2.8 C 4.4 1.475 5.475 0.4 6.8 0.4 C 8.125 0.4 9.2 1.475 9.2 2.8 C 9.2 4.125 8.125 5.2 6.8 5.2 C 5.475 5.2 4.4 4.125 4.4 2.8 L 4.4 2.8 L 4.4 2.8 Z M 1.2 2.8 C 1.2 1.917 1.917 1.2 2.8 1.2 C 3.683 1.2 4.4 1.917 4.4 2.8 C 4.4 3.683 3.683 4.4 2.8 4.4 C 1.917 4.4 1.2 3.683 1.2 2.8 L 1.2 2.8 Z M 9.2 9.915 C 9.209 9.199 9.503 8.513 10.02 8.005 C 10.545 7.49 11.257 7.2 12 7.2 L 12 7.2 L 12 7.2 L 12 7.2 C 12.742 7.2 13.455 7.49 13.98 8.006 C 14.505 8.522 14.8 9.221 14.8 9.951 C 14.799 9.96 14.799 9.97 14.799 9.98 L 14.8 9.982 L 14.8 16 L 9.2 16 L 9.2 14.4 L 4.4 14.4 L 4.4 8.957 L 4.402 8.956 C 4.401 8.937 4.4 8.919 4.4 8.9 L 4.4 8.9 C 4.4 7.519 5.475 6.4 6.8 6.4 L 6.8 6.4 C 8.126 6.4 9.2 7.519 9.2 8.9 C 9.2 8.909 9.2 8.918 9.199 8.927 L 9.2 8.929 L 9.2 9.915 L 9.2 9.915 L 9.2 9.915 Z M 2.8 5.6 C 1.916 5.6 1.2 6.383 1.2 7.35 C 1.2 7.363 1.201 7.376 1.201 7.389 L 1.2 7.391 L 1.2 11.2 L 4.4 11.2 L 4.4 8.9 L 4.4 7.371 L 4.399 7.369 C 4.4 7.363 4.4 7.357 4.4 7.351 C 4.4 6.887 4.232 6.441 3.932 6.113 C 3.632 5.785 3.225 5.6 2.8 5.6 L 2.8 5.6 Z"/>
</svg>
