<svg xmlns="http://www.w3.org/2000/svg" width="16" height="16" version="1.1">
 <defs>
   <style id="current-color-scheme" type="text/css">
   .ColorScheme-Text { color: #00aa00; } .ColorScheme-Highlight { color:#5294e2; }
  </style>
  <linearGradient id="arrongin" x1="0%" x2="0%" y1="0%" y2="100%">
   <stop offset="0%" style="stop-color:#dd9b44; stop-opacity:1"/>
   <stop offset="100%" style="stop-color:#ad6c16; stop-opacity:1"/>
  </linearGradient>
  <linearGradient id="aurora" x1="0%" x2="0%" y1="0%" y2="100%">
   <stop offset="0%" style="stop-color:#09D4DF; stop-opacity:1"/>
   <stop offset="100%" style="stop-color:#9269F4; stop-opacity:1"/>
  </linearGradient>
  <linearGradient id="cyberneon" x1="0%" x2="0%" y1="0%" y2="100%">
    <stop offset="0" style="stop-color:#0abdc6; stop-opacity:1"/>
    <stop offset="1" style="stop-color:#ea00d9; stop-opacity:1"/>
  </linearGradient>
  <linearGradient id="fitdance" x1="0%" x2="0%" y1="0%" y2="100%">
   <stop offset="0%" style="stop-color:#1AD6AB; stop-opacity:1"/>
   <stop offset="100%" style="stop-color:#329DB6; stop-opacity:1"/>
  </linearGradient>
  <linearGradient id="oomox" x1="0%" x2="0%" y1="0%" y2="100%">
   <stop offset="0%" style="stop-color:#00aa00; stop-opacity:1"/>
   <stop offset="100%" style="stop-color:#00cc00; stop-opacity:1"/>
  </linearGradient>
  <linearGradient id="rainblue" x1="0%" x2="0%" y1="0%" y2="100%">
   <stop offset="0%" style="stop-color:#00F260; stop-opacity:1"/>
   <stop offset="100%" style="stop-color:#0575E6; stop-opacity:1"/>
  </linearGradient>
  <linearGradient id="sunrise" x1="0%" x2="0%" y1="0%" y2="100%">
   <stop offset="0%" style="stop-color: #FF8501; stop-opacity:1"/>
   <stop offset="100%" style="stop-color: #FFCB01; stop-opacity:1"/>
  </linearGradient>
  <linearGradient id="telinkrin" x1="0%" x2="0%" y1="0%" y2="100%">
   <stop offset="0%" style="stop-color: #b2ced6; stop-opacity:1"/>
   <stop offset="100%" style="stop-color: #6da5b7; stop-opacity:1"/>
  </linearGradient>
  <linearGradient id="60spsycho" x1="0%" x2="0%" y1="0%" y2="100%">
   <stop offset="0%" style="stop-color: #df5940; stop-opacity:1"/>
   <stop offset="25%" style="stop-color: #d8d15f; stop-opacity:1"/>
   <stop offset="50%" style="stop-color: #e9882a; stop-opacity:1"/>
   <stop offset="100%" style="stop-color: #279362; stop-opacity:1"/>
  </linearGradient>
  <linearGradient id="90ssummer" x1="0%" x2="0%" y1="0%" y2="100%">
   <stop offset="0%" style="stop-color: #f618c7; stop-opacity:1"/>
   <stop offset="20%" style="stop-color: #94ffab; stop-opacity:1"/>
   <stop offset="50%" style="stop-color: #fbfd54; stop-opacity:1"/>
   <stop offset="100%" style="stop-color: #0f83ae; stop-opacity:1"/>
  </linearGradient>
 </defs>
 <path fill="url(#oomox)" class="ColorScheme-Text" d="M 7.174804,-5.4999998e-5 C 6.872725,-1.95e-4 6.644298,0.190395 6.510738,0.369085 c -0.13356,0.17869 -0.222433,0.37947 -0.302735,0.61329 -0.160605,0.46762 -0.278468,1.07386 -0.375002,1.79492 -0.03444,0.25727 -0.04801,0.58797 -0.07617,0.8711 C 5.305754,3.434065 4.831901,3.196635 4.430654,3.031205 3.758077,2.753915 3.173686,2.551975 2.688459,2.456985 c -0.242613,-0.0475 -0.458148,-0.0711 -0.67969,-0.0449 -0.221541,0.0262 -0.501303,0.12902 -0.652347,0.39063 l -1.12500397,1.94727 c -0.151043,0.2616 -0.09979,0.5548 -0.01172,0.75977 0.08807,0.20496 0.216473,0.382 0.378908,0.56836 0.324869,0.37272 0.79271697,0.77689 1.36914597,1.22071 0.321328,0.2474 0.7385,0.52112 1.119145,0.78516 -0.176733,0.12857 -0.399729,0.26875 -0.560549,0.39258 -0.576314,0.44373 -1.042382,0.84805 -1.367193,1.2207 -0.16240597,0.18633 -0.29279997,0.36343 -0.38086097,0.56837 -0.08806,0.20493 -0.139321,0.49817 0.01172,0.75976 l 1.12500497,1.94728 c 0.151031,0.26159 0.430832,0.36442 0.652346,0.39063 0.221515,0.0262 0.439073,3.7e-4 0.681644,-0.0469 0.485141,-0.095 1.067798,-0.29503 1.740241,-0.57227 0.231505,-0.0954 0.516099,-0.24287 0.765628,-0.35547 0.02686,0.26925 0.03966,0.58646 0.07227,0.83204 0.09576,0.72116 0.2149,1.32713 0.375002,1.79493 0.08005,0.23389 0.165459,0.43445 0.298829,0.61328 0.13337,0.17883 0.361985,0.36897 0.664065,0.36914 l 2.250009,0.002 c 0.302077,1.4e-4 0.530504,-0.19046 0.664065,-0.36914 0.133562,-0.17868 0.222433,-0.37947 0.302736,-0.61329 0.160606,-0.46762 0.278466,-1.07191 0.375001,-1.79297 0.03118,-0.23289 0.04428,-0.53476 0.07031,-0.78907 0.05724,0.0242 0.129456,0.0628 0.185548,0.0859 0.672576,0.27729 1.255015,0.47728 1.740241,0.57227 0.242613,0.0475 0.460102,0.0731 0.681643,0.0469 0.221542,-0.0262 0.501304,-0.12902 0.652347,-0.39062 l 1.125004,-1.94923 c 0.151046,-0.26161 0.09979,-0.5548 0.01172,-0.75977 -0.08807,-0.20496 -0.216473,-0.38005 -0.378908,-0.56641 -0.32487,-0.37272 -0.792718,-0.77884 -1.369147,-1.22266 -0.06957,-0.0536 -0.169525,-0.1154 -0.242188,-0.16992 0.260767,-0.18571 0.569511,-0.38203 0.798832,-0.5586 0.576314,-0.44373 1.04238,-0.85 1.367192,-1.22266 0.162407,-0.18633 0.2928,-0.36147 0.380862,-0.56641 0.08806,-0.20494 0.139309,-0.49817 -0.01172,-0.75976 l -1.125004,-1.94728 c -0.151038,-0.26159 -0.430834,-0.36442 -0.652347,-0.39062 -0.221513,-0.0262 -0.439074,-0.003 -0.681643,0.0449 -0.485139,0.095 -1.067799,0.29698 -1.740241,0.57422 -0.222152,0.0916 -0.495557,0.23437 -0.734379,0.3418 -0.02652,-0.26448 -0.04019,-0.5768 -0.07227,-0.81837 -0.09576,-0.72116 -0.214899,-1.32713 -0.375001,-1.79492 -0.08005,-0.2339 -0.165459,-0.43446 -0.29883,-0.61329 C 9.955504,0.192225 9.726888,0.002085 9.424811,0.001915 Z M 7.295898,0.999955 l 2.005867,0.002 c 0.03329,0.0509 0.08609,0.1473 0.140626,0.30664 0.120681,0.35261 0.237157,0.91844 0.328126,1.60352 0.04371,0.32921 0.06427,0.75568 0.09766,1.13477 -0.542347,0.26562 -1.087232,0.55282 -1.660162,0.86329 -0.499863,-0.27657 -1.003893,-0.56137 -1.488288,-0.8086 0.03495,-0.40021 0.0592,-0.8458 0.10547,-1.19141 0.09171,-0.685 0.209017,-1.25104 0.330079,-1.60352 0.05471,-0.1593 0.107275,-0.2558 0.140626,-0.30664 z m -5.134787,2.40821 c 0.06061,-0.003 0.170442,-10e-4 0.335939,0.0312 0.365754,0.0716 0.913807,0.25221 1.552741,0.51563 0.479733,0.19779 1.048793,0.47612 1.613287,0.75196 -0.03722,0.55549 -0.05878,1.12183 -0.07617,1.71876 C 5.008892,6.781495 4.473191,7.122325 3.956043,7.472595 3.467702,7.141755 2.966052,6.805235 2.57713,6.505785 2.029536,6.084165 1.599348,5.700795 1.35447,5.419845 1.243746,5.292815 1.186506,5.198705 1.159156,5.144455 Z m 11.677781,0.22461 1.001957,1.73633 c -0.02734,0.0542 -0.08268,0.1484 -0.19336,0.27539 -0.244821,0.28089 -0.677133,0.66441 -1.224613,1.08594 -0.299022,0.23024 -0.700126,0.49188 -1.060552,0.7422 -0.436279,-0.30272 -0.86268,-0.59678 -1.353521,-0.90821 -0.01696,-0.66457 -0.0406,-1.29391 -0.08203,-1.90821 0.341638,-0.15875 0.719224,-0.35114 1.023443,-0.47657 0.6388,-0.26336 1.187073,-0.44404 1.55274,-0.51562 0.165125,-0.0323 0.275203,-0.0347 0.335938,-0.0313 z m -3.876968,1.47461 c 0.01551,0.27163 0.02032,0.55323 0.03125,0.83594 -0.25395,-0.15308 -0.491469,-0.30867 -0.750003,-0.45898 0.243428,-0.12792 0.482345,-0.25809 0.718754,-0.37696 z m -3.337904,0.0801 c 0.176758,0.0921 0.357764,0.19666 0.537111,0.29297 -0.08593,0.049 -0.170112,0.0892 -0.25586,0.13867 -0.104633,0.0604 -0.198607,0.12455 -0.302736,0.18555 0.0088,-0.20566 0.01029,-0.41751 0.02148,-0.61719 z m 1.582038,0.86133 c 0.131539,0.0745 0.259523,0.1372 0.390626,0.21289 0.492631,0.28442 0.953673,0.57839 1.425787,0.8711 0.0046,0.29413 0.02165,0.57319 0.02149,0.86914 -1.8e-4,0.33544 -0.01911,0.65166 -0.02539,0.98438 C 9.725758,9.162835 9.45386,9.343245 9.155286,9.515625 8.8369,9.699455 8.525022,9.855575 8.206063,10.031255 7.751647,9.786245 7.302834,9.554375 6.846683,9.291015 6.752363,9.236515 6.66717,9.179975 6.573244,9.125005 c -0.0078,-0.3793 -0.02755,-0.74166 -0.02735,-1.12501 1.83e-4,-0.3425 0.01884,-0.66625 0.02539,-1.00586 0.282855,-0.17021 0.545855,-0.34341 0.833988,-0.50977 0.268843,-0.15522 0.53116,-0.2859 0.800784,-0.43555 z m -2.650402,1.56641 c -9.45e-4,0.13009 -0.0097,0.25255 -0.0098,0.38282 -9.4e-5,0.17213 0.01027,0.33411 0.01172,0.50586 -0.236624,-0.14573 -0.481403,-0.29008 -0.708987,-0.43555 0.230604,-0.1524 0.46349,-0.29877 0.707034,-0.45313 z m 5.482444,0.1504 c 0.168263,0.11033 0.292865,0.20784 0.453127,0.3164 -0.14381,0.0937 -0.308604,0.18699 -0.457033,0.28126 8.69e-4,-0.12282 0.0097,-0.23837 0.0098,-0.36134 4.3e-5,-0.0804 -0.0056,-0.15595 -0.0059,-0.23632 z m -7.082059,0.92773 c 0.513309,0.33443 1.075272,0.66532 1.630865,0.99806 0.01731,0.56951 0.04063,1.10637 0.07617,1.63672 -0.353208,0.16455 -0.741062,0.36289 -1.054691,0.49219 -0.638801,0.26337 -1.185122,0.44405 -1.550788,0.51563 -0.165461,0.0324 -0.277312,0.0347 -0.337892,0.0312 l -1.001957,-1.73633 c 0.02734,-0.0542 0.08462,-0.14839 0.195313,-0.27539 0.244821,-0.28088 0.675181,-0.66441 1.222662,-1.08594 0.231457,-0.17821 0.550894,-0.38529 0.820316,-0.57618 z m 8.408236,0 c 0.156377,0.11412 0.360362,0.24255 0.501955,0.35157 0.547596,0.42162 0.977783,0.80499 1.222661,1.08594 0.110724,0.12703 0.167964,0.22114 0.195314,0.27539 l -1.001957,1.73829 c -0.06061,0.003 -0.170439,10e-4 -0.335939,-0.0313 -0.365754,-0.0716 -0.913807,-0.25416 -1.55274,-0.51758 -0.141123,-0.0582 -0.324757,-0.15498 -0.474612,-0.2207 0.04067,-0.58736 0.06573,-1.18549 0.08399,-1.82032 0.473068,-0.29163 0.927292,-0.57238 1.361333,-0.86133 z m -2.376962,1.48243 c -0.01075,0.25501 -0.01675,0.50439 -0.03125,0.75 -0.242857,-0.117 -0.449475,-0.19732 -0.703128,-0.32617 0.134814,-0.0764 0.265962,-0.14113 0.400392,-0.21875 0.115381,-0.0666 0.219232,-0.13776 0.333986,-0.20508 z m -3.38478,0.1211 c 0.186962,0.10665 0.369626,0.19885 0.556643,0.30273 -0.179543,0.0935 -0.355708,0.19088 -0.531252,0.2793 -0.01085,-0.19118 -0.0168,-0.38512 -0.02539,-0.58203 z m 1.603523,0.8711 c 0.583198,0.30685 1.117228,0.56602 1.656256,0.81835 -0.03317,0.36784 -0.05476,0.78507 -0.09766,1.10548 -0.09171,0.685 -0.209017,1.24908 -0.33008,1.60157 -0.05471,0.1593 -0.107274,0.2558 -0.140625,0.30664 H 7.288081 c -0.03325,-0.0507 -0.08594,-0.14882 -0.140626,-0.30859 -0.12068,-0.35262 -0.237158,-0.91648 -0.328126,-1.60157 -0.04435,-0.33404 -0.06589,-0.76705 -0.09961,-1.15235 0.486973,-0.23905 0.973929,-0.49394 1.486335,-0.76953 z"/>
</svg>