<svg xmlns="http://www.w3.org/2000/svg" width="16" height="16" version="1.1">
 <defs>
   <style id="current-color-scheme" type="text/css">
   .ColorScheme-Text { color: #00aa00; } .ColorScheme-Highlight { color:#5294e2; }
  </style>
  <linearGradient id="arrongin" x1="0%" x2="0%" y1="0%" y2="100%">
   <stop offset="0%" style="stop-color:#dd9b44; stop-opacity:1"/>
   <stop offset="100%" style="stop-color:#ad6c16; stop-opacity:1"/>
  </linearGradient>
  <linearGradient id="aurora" x1="0%" x2="0%" y1="0%" y2="100%">
   <stop offset="0%" style="stop-color:#09D4DF; stop-opacity:1"/>
   <stop offset="100%" style="stop-color:#9269F4; stop-opacity:1"/>
  </linearGradient>
  <linearGradient id="cyberneon" x1="0%" x2="0%" y1="0%" y2="100%">
    <stop offset="0" style="stop-color:#0abdc6; stop-opacity:1"/>
    <stop offset="1" style="stop-color:#ea00d9; stop-opacity:1"/>
  </linearGradient>
  <linearGradient id="fitdance" x1="0%" x2="0%" y1="0%" y2="100%">
   <stop offset="0%" style="stop-color:#1AD6AB; stop-opacity:1"/>
   <stop offset="100%" style="stop-color:#329DB6; stop-opacity:1"/>
  </linearGradient>
  <linearGradient id="oomox" x1="0%" x2="0%" y1="0%" y2="100%">
   <stop offset="0%" style="stop-color:#00aa00; stop-opacity:1"/>
   <stop offset="100%" style="stop-color:#00cc00; stop-opacity:1"/>
  </linearGradient>
  <linearGradient id="rainblue" x1="0%" x2="0%" y1="0%" y2="100%">
   <stop offset="0%" style="stop-color:#00F260; stop-opacity:1"/>
   <stop offset="100%" style="stop-color:#0575E6; stop-opacity:1"/>
  </linearGradient>
  <linearGradient id="sunrise" x1="0%" x2="0%" y1="0%" y2="100%">
   <stop offset="0%" style="stop-color: #FF8501; stop-opacity:1"/>
   <stop offset="100%" style="stop-color: #FFCB01; stop-opacity:1"/>
  </linearGradient>
  <linearGradient id="telinkrin" x1="0%" x2="0%" y1="0%" y2="100%">
   <stop offset="0%" style="stop-color: #b2ced6; stop-opacity:1"/>
   <stop offset="100%" style="stop-color: #6da5b7; stop-opacity:1"/>
  </linearGradient>
  <linearGradient id="60spsycho" x1="0%" x2="0%" y1="0%" y2="100%">
   <stop offset="0%" style="stop-color: #df5940; stop-opacity:1"/>
   <stop offset="25%" style="stop-color: #d8d15f; stop-opacity:1"/>
   <stop offset="50%" style="stop-color: #e9882a; stop-opacity:1"/>
   <stop offset="100%" style="stop-color: #279362; stop-opacity:1"/>
  </linearGradient>
  <linearGradient id="90ssummer" x1="0%" x2="0%" y1="0%" y2="100%">
   <stop offset="0%" style="stop-color: #f618c7; stop-opacity:1"/>
   <stop offset="20%" style="stop-color: #94ffab; stop-opacity:1"/>
   <stop offset="50%" style="stop-color: #fbfd54; stop-opacity:1"/>
   <stop offset="100%" style="stop-color: #0f83ae; stop-opacity:1"/>
  </linearGradient>
 </defs>
 <path fill="url(#oomox)" class="ColorScheme-Text" fill-rule="evenodd" d="M 0.896 0.039 L 6.954 0.039 L 6.969 0.008 L 6.969 0.008 L 9.047 0.008 L 9.061 0.039 L 15.182 0.039 C 15.251 0.039 15.318 0.047 15.382 0.061 C 15.408 0.069 15.433 0.076 15.454 0.092 C 15.712 0.17 15.912 0.371 15.988 0.63 C 16.003 0.649 16.01 0.672 16.016 0.696 C 16.031 0.76 16.039 0.827 16.039 0.896 L 16.039 1.182 L 15.704 1.182 L 11.516 5.37 L 16.008 15.127 L 16.008 15.151 C 16.008 15.167 16.007 15.183 16.007 15.198 L 16.034 15.226 C 16.012 15.665 15.665 16.012 15.226 16.034 L 15.198 16.006 C 15.184 16.007 15.17 16.008 15.155 16.008 L 15.117 15.925 L 8.61 9.418 L 8.61 16.039 L 7.468 16.039 L 7.468 9.418 L 0.852 16.034 C 0.676 16.025 0.516 15.964 0.385 15.867 C 0.158 15.71 0.008 15.449 0.008 15.151 L 0.008 15.127 L 4.52 5.328 L 0.374 1.182 L 0.039 1.182 L 0.039 0.896 C 0.055 0.523 0.25 0.047 0.896 0.039 Z M 1.99 1.182 L 6.428 1.182 L 5.029 4.221 L 5.029 4.221 L 1.99 1.182 Z M 7.468 1.659 L 7.468 6.66 L 5.891 5.083 L 5.891 5.083 L 7.468 1.659 Z M 8.61 6.659 L 8.61 1.794 L 10.144 5.125 L 8.61 6.659 Z M 9.587 1.182 L 14.088 1.182 L 11.006 4.264 L 9.587 1.182 Z M 2.225 13.045 L 5.381 6.19 L 7.231 8.039 L 2.225 13.045 L 2.225 13.045 Z M 10.654 6.232 L 13.738 12.93 L 8.847 8.039 L 10.654 6.232 L 10.654 6.232 Z"/>
</svg>
