<svg xmlns="http://www.w3.org/2000/svg" width="16" height="16" version="1.1">
 <defs>
   <style id="current-color-scheme" type="text/css">
   .ColorScheme-Text { color: #00aa00; } .ColorScheme-Highlight { color:#5294e2; }
  </style>
  <linearGradient id="arrongin" x1="0%" x2="0%" y1="0%" y2="100%">
   <stop offset="0%" style="stop-color:#dd9b44; stop-opacity:1"/>
   <stop offset="100%" style="stop-color:#ad6c16; stop-opacity:1"/>
  </linearGradient>
  <linearGradient id="aurora" x1="0%" x2="0%" y1="0%" y2="100%">
   <stop offset="0%" style="stop-color:#09D4DF; stop-opacity:1"/>
   <stop offset="100%" style="stop-color:#9269F4; stop-opacity:1"/>
  </linearGradient>
  <linearGradient id="cyberneon" x1="0%" x2="0%" y1="0%" y2="100%">
    <stop offset="0" style="stop-color:#0abdc6; stop-opacity:1"/>
    <stop offset="1" style="stop-color:#ea00d9; stop-opacity:1"/>
  </linearGradient>
  <linearGradient id="fitdance" x1="0%" x2="0%" y1="0%" y2="100%">
   <stop offset="0%" style="stop-color:#1AD6AB; stop-opacity:1"/>
   <stop offset="100%" style="stop-color:#329DB6; stop-opacity:1"/>
  </linearGradient>
  <linearGradient id="oomox" x1="0%" x2="0%" y1="0%" y2="100%">
   <stop offset="0%" style="stop-color:#00aa00; stop-opacity:1"/>
   <stop offset="100%" style="stop-color:#00cc00; stop-opacity:1"/>
  </linearGradient>
  <linearGradient id="rainblue" x1="0%" x2="0%" y1="0%" y2="100%">
   <stop offset="0%" style="stop-color:#00F260; stop-opacity:1"/>
   <stop offset="100%" style="stop-color:#0575E6; stop-opacity:1"/>
  </linearGradient>
  <linearGradient id="sunrise" x1="0%" x2="0%" y1="0%" y2="100%">
   <stop offset="0%" style="stop-color: #FF8501; stop-opacity:1"/>
   <stop offset="100%" style="stop-color: #FFCB01; stop-opacity:1"/>
  </linearGradient>
  <linearGradient id="telinkrin" x1="0%" x2="0%" y1="0%" y2="100%">
   <stop offset="0%" style="stop-color: #b2ced6; stop-opacity:1"/>
   <stop offset="100%" style="stop-color: #6da5b7; stop-opacity:1"/>
  </linearGradient>
  <linearGradient id="60spsycho" x1="0%" x2="0%" y1="0%" y2="100%">
   <stop offset="0%" style="stop-color: #df5940; stop-opacity:1"/>
   <stop offset="25%" style="stop-color: #d8d15f; stop-opacity:1"/>
   <stop offset="50%" style="stop-color: #e9882a; stop-opacity:1"/>
   <stop offset="100%" style="stop-color: #279362; stop-opacity:1"/>
  </linearGradient>
  <linearGradient id="90ssummer" x1="0%" x2="0%" y1="0%" y2="100%">
   <stop offset="0%" style="stop-color: #f618c7; stop-opacity:1"/>
   <stop offset="20%" style="stop-color: #94ffab; stop-opacity:1"/>
   <stop offset="50%" style="stop-color: #fbfd54; stop-opacity:1"/>
   <stop offset="100%" style="stop-color: #0f83ae; stop-opacity:1"/>
  </linearGradient>
 </defs>
 <path fill="url(#oomox)" class="ColorScheme-Text" fill-rule="evenodd" d="M 11.144 2.412 L 11.144 1.709 L 15.143 0 L 15.143 0 L 15.143 8.698 C 15.143 8.71 15.142 8.722 15.141 8.734 L 15.141 8.888 C 15.141 9.937 14.999 10.9 14.713 11.775 C 14.428 12.65 13.991 13.402 13.404 14.027 C 12.814 14.654 12.069 15.139 11.161 15.481 C 10.253 15.826 9.179 15.995 7.934 15.995 L 7.936 16 C 6.712 16 5.653 15.823 4.762 15.471 C 4.659 15.43 4.566 15.385 4.48 15.336 L 4.371 15.302 C 3.655 14.968 3.049 14.536 2.558 14.004 C 1.978 13.377 1.55 12.631 1.274 11.763 C 0.996 10.896 0.857 9.937 0.857 8.89 L 0.857 6.452 L 4.857 4.674 L 4.857 4.674 L 4.857 8.442 L 4.857 9.429 C 4.857 11.202 6.241 12.571 8 12.571 C 8.893 12.571 9.697 12.26 10.272 11.666 C 10.249 11.689 10.223 11.71 10.2 11.734 C 10.8 11.153 11.143 10.338 11.143 9.429 L 11.143 2.8 C 11.143 2.795 11.142 2.79 11.142 2.784 L 11.142 2.412 L 11.142 2.412 C 11.143 2.412 11.143 2.412 11.144 2.412 Z M 10.176 11.899 L 10.177 11.899 L 10.205 11.83 L 10.176 11.899 Z M 10.174 11.758 C 10.097 11.831 10.017 11.9 9.933 11.965 C 10.017 11.9 10.097 11.831 10.174 11.758 L 10.174 11.758 Z"/>
</svg>
