<svg xmlns="http://www.w3.org/2000/svg" width="16" height="16" version="1.1">
 <defs>
   <style id="current-color-scheme" type="text/css">
   .ColorScheme-Text { color: #cc00cc; } .ColorScheme-Highlight { color:#5294e2; }
  </style>
  <linearGradient id="arrongin" x1="0%" x2="0%" y1="0%" y2="100%">
   <stop offset="0%" style="stop-color:#dd9b44; stop-opacity:1"/>
   <stop offset="100%" style="stop-color:#ad6c16; stop-opacity:1"/>
  </linearGradient>
  <linearGradient id="aurora" x1="0%" x2="0%" y1="0%" y2="100%">
   <stop offset="0%" style="stop-color:#09D4DF; stop-opacity:1"/>
   <stop offset="100%" style="stop-color:#9269F4; stop-opacity:1"/>
  </linearGradient>
  <linearGradient id="cyberneon" x1="0%" x2="0%" y1="0%" y2="100%">
    <stop offset="0" style="stop-color:#0abdc6; stop-opacity:1"/>
    <stop offset="1" style="stop-color:#ea00d9; stop-opacity:1"/>
  </linearGradient>
  <linearGradient id="fitdance" x1="0%" x2="0%" y1="0%" y2="100%">
   <stop offset="0%" style="stop-color:#1AD6AB; stop-opacity:1"/>
   <stop offset="100%" style="stop-color:#329DB6; stop-opacity:1"/>
  </linearGradient>
  <linearGradient id="oomox" x1="0%" x2="0%" y1="0%" y2="100%">
   <stop offset="0%" style="stop-color:#efefe7; stop-opacity:1"/>
   <stop offset="100%" style="stop-color:#8f8f8b; stop-opacity:1"/>
  </linearGradient>
  <linearGradient id="rainblue" x1="0%" x2="0%" y1="0%" y2="100%">
   <stop offset="0%" style="stop-color:#00F260; stop-opacity:1"/>
   <stop offset="100%" style="stop-color:#0575E6; stop-opacity:1"/>
  </linearGradient>
  <linearGradient id="sunrise" x1="0%" x2="0%" y1="0%" y2="100%">
   <stop offset="0%" style="stop-color: #FF8501; stop-opacity:1"/>
   <stop offset="100%" style="stop-color: #FFCB01; stop-opacity:1"/>
  </linearGradient>
  <linearGradient id="telinkrin" x1="0%" x2="0%" y1="0%" y2="100%">
   <stop offset="0%" style="stop-color: #b2ced6; stop-opacity:1"/>
   <stop offset="100%" style="stop-color: #6da5b7; stop-opacity:1"/>
  </linearGradient>
  <linearGradient id="60spsycho" x1="0%" x2="0%" y1="0%" y2="100%">
   <stop offset="0%" style="stop-color: #df5940; stop-opacity:1"/>
   <stop offset="25%" style="stop-color: #d8d15f; stop-opacity:1"/>
   <stop offset="50%" style="stop-color: #e9882a; stop-opacity:1"/>
   <stop offset="100%" style="stop-color: #279362; stop-opacity:1"/>
  </linearGradient>
  <linearGradient id="90ssummer" x1="0%" x2="0%" y1="0%" y2="100%">
   <stop offset="0%" style="stop-color: #f618c7; stop-opacity:1"/>
   <stop offset="20%" style="stop-color: #94ffab; stop-opacity:1"/>
   <stop offset="50%" style="stop-color: #fbfd54; stop-opacity:1"/>
   <stop offset="100%" style="stop-color: #0f83ae; stop-opacity:1"/>
  </linearGradient>
 </defs>
 <path fill="currentColor" class="ColorScheme-Text" fill-rule="evenodd" d="M 10.07 11.896 C 9.455 11.772 8.91 11.405 8.571 10.857 L 8.571 10.857 L 8.571 10.857 L 10.016 10.079 C 10.31 10.679 10.362 11.319 10.07 11.896 Z M 10.097 11.902 C 10.687 12.071 11.342 12.004 11.918 11.693 C 13.089 11.062 13.491 9.665 12.814 8.571 L 10.826 9.643 L 10.826 9.643 L 10.826 9.714 C 10.948 10.338 10.711 11.083 10.097 11.902 Z M 5.93 11.896 C 6.544 11.772 7.09 11.405 7.428 10.857 L 7.428 10.857 L 7.428 10.857 L 7.428 10.857 L 5.984 10.079 C 5.69 10.679 5.637 11.319 5.93 11.896 L 5.93 11.896 Z M 5.903 11.902 C 5.313 12.071 4.658 12.004 4.082 11.693 C 2.911 11.062 2.509 9.665 3.186 8.571 L 5.174 9.643 L 5.174 9.643 L 5.174 9.714 C 5.052 10.338 5.289 11.083 5.903 11.902 L 5.903 11.902 Z M 13.631 0 C 13.416 1.324 12.764 2.532 11.786 3.422 C 10.702 2.705 9.402 2.286 8 2.286 C 6.597 2.286 5.296 2.705 4.212 3.423 C 3.241 2.542 2.591 1.348 2.369 0.038 C 2.316 0.354 2.288 0.675 2.286 0.996 C 2.287 2.14 2.615 3.26 3.23 4.215 C 1.944 5.461 1.143 7.203 1.143 9.143 C 1.143 12.942 4.201 16 8 16 C 11.799 16 14.857 12.942 14.857 9.143 C 14.857 7.203 14.057 5.462 12.771 4.217 C 13.386 3.26 13.713 2.141 13.714 0.996 C 13.714 0.662 13.686 0.329 13.631 0 L 13.631 0 L 13.631 0 L 13.631 0 L 13.631 0 L 13.631 0 Z"/>
</svg>
