<svg xmlns="http://www.w3.org/2000/svg" width="16" height="16" version="1.1">
 <defs>
   <style id="current-color-scheme" type="text/css">
   .ColorScheme-Text { color: #cc00cc; } .ColorScheme-Highlight { color:#5294e2; }
  </style>
  <linearGradient id="arrongin" x1="0%" x2="0%" y1="0%" y2="100%">
   <stop offset="0%" style="stop-color:#dd9b44; stop-opacity:1"/>
   <stop offset="100%" style="stop-color:#ad6c16; stop-opacity:1"/>
  </linearGradient>
  <linearGradient id="aurora" x1="0%" x2="0%" y1="0%" y2="100%">
   <stop offset="0%" style="stop-color:#09D4DF; stop-opacity:1"/>
   <stop offset="100%" style="stop-color:#9269F4; stop-opacity:1"/>
  </linearGradient>
  <linearGradient id="cyberneon" x1="0%" x2="0%" y1="0%" y2="100%">
    <stop offset="0" style="stop-color:#0abdc6; stop-opacity:1"/>
    <stop offset="1" style="stop-color:#ea00d9; stop-opacity:1"/>
  </linearGradient>
  <linearGradient id="fitdance" x1="0%" x2="0%" y1="0%" y2="100%">
   <stop offset="0%" style="stop-color:#1AD6AB; stop-opacity:1"/>
   <stop offset="100%" style="stop-color:#329DB6; stop-opacity:1"/>
  </linearGradient>
  <linearGradient id="oomox" x1="0%" x2="0%" y1="0%" y2="100%">
   <stop offset="0%" style="stop-color:#efefe7; stop-opacity:1"/>
   <stop offset="100%" style="stop-color:#8f8f8b; stop-opacity:1"/>
  </linearGradient>
  <linearGradient id="rainblue" x1="0%" x2="0%" y1="0%" y2="100%">
   <stop offset="0%" style="stop-color:#00F260; stop-opacity:1"/>
   <stop offset="100%" style="stop-color:#0575E6; stop-opacity:1"/>
  </linearGradient>
  <linearGradient id="sunrise" x1="0%" x2="0%" y1="0%" y2="100%">
   <stop offset="0%" style="stop-color: #FF8501; stop-opacity:1"/>
   <stop offset="100%" style="stop-color: #FFCB01; stop-opacity:1"/>
  </linearGradient>
  <linearGradient id="telinkrin" x1="0%" x2="0%" y1="0%" y2="100%">
   <stop offset="0%" style="stop-color: #b2ced6; stop-opacity:1"/>
   <stop offset="100%" style="stop-color: #6da5b7; stop-opacity:1"/>
  </linearGradient>
  <linearGradient id="60spsycho" x1="0%" x2="0%" y1="0%" y2="100%">
   <stop offset="0%" style="stop-color: #df5940; stop-opacity:1"/>
   <stop offset="25%" style="stop-color: #d8d15f; stop-opacity:1"/>
   <stop offset="50%" style="stop-color: #e9882a; stop-opacity:1"/>
   <stop offset="100%" style="stop-color: #279362; stop-opacity:1"/>
  </linearGradient>
  <linearGradient id="90ssummer" x1="0%" x2="0%" y1="0%" y2="100%">
   <stop offset="0%" style="stop-color: #f618c7; stop-opacity:1"/>
   <stop offset="20%" style="stop-color: #94ffab; stop-opacity:1"/>
   <stop offset="50%" style="stop-color: #fbfd54; stop-opacity:1"/>
   <stop offset="100%" style="stop-color: #0f83ae; stop-opacity:1"/>
  </linearGradient>
 </defs>
 <path fill="currentColor" class="ColorScheme-Text" d="M 5.675 15.988 C 5.551 15.949 5.475 15.878 5.442 15.772 C 5.421 15.707 5.419 15.685 5.42 15.442 C 5.42 15.176 5.423 15.129 5.474 14.706 C 5.505 14.445 5.537 14.226 5.581 13.965 C 5.678 13.389 5.694 13.248 5.679 13.102 C 5.653 12.852 5.59 12.721 5.478 12.684 C 5.416 12.664 5.318 12.677 5.236 12.716 C 5.114 12.774 4.96 12.906 4.808 13.082 C 4.654 13.261 4.528 13.469 4.357 13.823 C 4.183 14.184 4.022 14.499 3.959 14.6 C 3.741 14.953 3.463 15.325 3.306 15.474 C 3.198 15.577 3.057 15.624 2.88 15.617 C 2.796 15.613 2.769 15.608 2.718 15.585 C 2.505 15.488 2.456 15.211 2.585 14.84 C 2.603 14.787 2.673 14.634 2.74 14.501 C 2.893 14.194 2.99 13.952 3.148 13.479 C 3.359 12.845 3.416 12.662 3.613 11.974 C 3.937 10.846 4.171 9.66 4.256 8.724 C 4.29 8.345 4.3 8.117 4.3 7.65 C 4.3 7.181 4.291 6.967 4.246 6.433 C 4.202 5.909 4.196 5.798 4.191 5.334 C 4.187 4.935 4.188 4.83 4.202 4.686 C 4.249 4.195 4.367 3.761 4.547 3.422 C 4.613 3.295 4.744 3.098 4.833 2.99 L 4.899 2.909 L 4.732 2.74 C 4.564 2.569 4.467 2.453 4.331 2.257 C 4.289 2.198 4.248 2.139 4.239 2.127 L 4.222 2.104 L 4.149 2.12 C 4.016 2.149 3.84 2.125 3.701 2.06 C 3.383 1.91 3.213 1.548 3.3 1.206 C 3.347 1.018 3.498 0.826 3.666 0.737 C 3.788 0.674 3.861 0.657 4.021 0.657 C 4.183 0.657 4.246 0.67 4.361 0.727 C 4.538 0.815 4.686 1.003 4.737 1.206 C 4.751 1.261 4.757 1.316 4.757 1.393 C 4.757 1.6 4.698 1.752 4.558 1.905 C 4.501 1.967 4.499 1.958 4.601 2.072 C 4.768 2.257 4.979 2.415 5.202 2.523 L 5.269 2.555 L 5.354 2.49 C 5.612 2.294 5.915 2.13 6.308 1.975 C 6.574 1.87 6.802 1.804 7.112 1.743 C 7.504 1.665 7.683 1.649 8.108 1.649 C 8.412 1.649 8.488 1.652 8.648 1.671 C 9.347 1.754 9.859 1.919 10.369 2.225 C 10.45 2.274 10.452 2.274 10.482 2.259 C 10.56 2.222 10.769 2.049 10.896 1.917 C 11.042 1.765 11.163 1.585 11.247 1.396 L 11.285 1.311 L 11.235 1.261 C 11.094 1.12 11.019 0.937 11.018 0.734 C 11.018 0.616 11.039 0.519 11.087 0.419 C 11.187 0.21 11.343 0.081 11.578 0.013 C 11.646 -0.006 11.873 -0.004 11.951 0.017 C 12.202 0.086 12.393 0.272 12.472 0.525 C 12.492 0.588 12.495 0.618 12.495 0.741 C 12.494 0.866 12.491 0.892 12.469 0.958 C 12.429 1.078 12.379 1.159 12.285 1.252 C 12.197 1.34 12.122 1.39 12.024 1.427 C 11.897 1.475 11.74 1.489 11.62 1.464 L 11.56 1.451 L 11.514 1.574 C 11.379 1.93 11.187 2.273 10.977 2.53 L 10.899 2.625 L 10.989 2.721 C 11.275 3.025 11.53 3.475 11.649 3.886 C 11.741 4.203 11.794 4.555 11.809 4.951 C 11.814 5.083 11.811 5.148 11.78 5.442 C 11.729 5.94 11.671 6.676 11.642 7.218 C 11.634 7.366 11.625 7.514 11.622 7.547 C 11.609 7.694 11.587 8.42 11.582 8.916 C 11.564 10.388 11.671 11.443 11.901 12.059 C 11.921 12.114 11.999 12.294 12.073 12.459 C 12.148 12.623 12.321 13.021 12.458 13.342 C 12.595 13.663 12.74 13.988 12.779 14.063 C 12.943 14.379 13.143 14.664 13.33 14.848 C 13.437 14.954 13.486 15.049 13.486 15.151 C 13.485 15.278 13.412 15.388 13.269 15.478 C 13.157 15.547 13.074 15.57 12.928 15.57 C 12.833 15.57 12.787 15.565 12.715 15.546 C 12.552 15.505 12.342 15.413 12.198 15.321 C 11.867 15.108 11.59 14.737 11.368 14.207 C 11.279 13.997 11.102 13.442 11.048 13.209 C 11.008 13.036 10.932 12.826 10.871 12.723 C 10.725 12.476 10.543 12.382 10.378 12.47 C 10.275 12.525 10.164 12.65 10.056 12.831 C 9.809 13.247 9.651 13.733 9.615 14.183 C 9.595 14.433 9.63 14.725 9.714 15.005 C 9.788 15.255 9.794 15.287 9.789 15.413 C 9.782 15.591 9.737 15.704 9.637 15.797 C 9.577 15.853 9.515 15.885 9.402 15.919 C 9.328 15.942 9.297 15.946 9.183 15.947 C 9.034 15.948 8.968 15.934 8.86 15.881 C 8.748 15.826 8.636 15.701 8.556 15.543 C 8.483 15.397 8.373 15.016 8.33 14.76 C 8.287 14.505 8.278 14.363 8.275 13.965 C 8.274 13.656 8.27 13.566 8.257 13.495 C 8.236 13.384 8.209 13.304 8.165 13.224 C 8.065 13.04 7.945 12.967 7.74 12.965 C 7.619 12.964 7.538 12.985 7.437 13.045 C 7.319 13.114 7.165 13.291 7.063 13.476 C 6.889 13.791 6.734 14.272 6.651 14.757 C 6.612 14.986 6.549 15.196 6.461 15.391 C 6.306 15.733 6.123 15.922 5.89 15.982 C 5.804 16.004 5.732 16.006 5.675 15.988 L 5.675 15.988 Z M 6.406 11.106 C 6.43 11.091 6.473 11.053 6.502 11.022 C 6.605 10.908 6.647 10.806 6.7 10.546 C 6.747 10.311 6.794 10.153 6.838 10.078 C 6.932 9.923 7.112 9.843 7.26 9.893 C 7.342 9.919 7.478 10.06 7.588 10.231 C 7.703 10.407 7.801 10.537 7.852 10.579 C 7.875 10.598 7.919 10.625 7.95 10.639 C 7.998 10.661 8.017 10.664 8.077 10.661 C 8.234 10.653 8.297 10.594 8.514 10.25 C 8.564 10.171 8.664 10.07 8.717 10.044 C 8.845 9.983 9.019 10.028 9.137 10.154 C 9.179 10.199 9.248 10.298 9.402 10.539 C 9.428 10.58 9.474 10.637 9.503 10.667 C 9.638 10.801 9.766 10.795 9.946 10.643 C 10.177 10.449 10.265 10.193 10.292 9.642 C 10.304 9.403 10.319 9.256 10.357 8.994 C 10.379 8.843 10.383 8.778 10.383 8.607 C 10.383 8.426 10.381 8.391 10.362 8.322 C 10.316 8.151 10.24 8.041 10.128 7.985 C 9.941 7.89 9.738 7.908 9.458 8.044 C 9.307 8.117 9.248 8.18 9.156 8.367 C 9.069 8.542 9.019 8.607 8.936 8.651 C 8.886 8.678 8.863 8.685 8.815 8.685 C 8.697 8.685 8.608 8.617 8.422 8.384 C 8.348 8.291 8.257 8.185 8.221 8.149 C 8.104 8.034 7.988 7.988 7.817 7.989 C 7.739 7.989 7.726 7.993 7.659 8.026 C 7.545 8.082 7.483 8.156 7.363 8.377 C 7.237 8.61 7.197 8.672 7.119 8.747 C 6.996 8.864 6.863 8.899 6.768 8.838 C 6.711 8.801 6.658 8.744 6.582 8.636 C 6.512 8.536 6.414 8.416 6.365 8.369 C 6.297 8.304 6.189 8.276 6.086 8.298 C 5.969 8.322 5.888 8.379 5.837 8.474 C 5.749 8.64 5.724 8.795 5.732 9.127 C 5.739 9.43 5.763 9.608 5.88 10.214 C 5.966 10.659 5.993 10.759 6.067 10.91 C 6.166 11.11 6.288 11.181 6.406 11.106 L 6.406 11.106 Z M 6.707 7.066 C 6.83 7.045 6.942 7.012 7.117 6.943 C 7.439 6.818 7.682 6.756 7.975 6.728 C 8.1 6.715 8.575 6.715 8.702 6.727 C 8.989 6.755 9.269 6.798 9.511 6.851 C 9.815 6.917 9.954 6.928 10.153 6.898 C 10.387 6.864 10.522 6.798 10.678 6.642 C 10.884 6.436 10.99 6.17 11.043 5.731 C 11.067 5.537 11.067 4.883 11.044 4.706 C 10.98 4.225 10.811 3.87 10.507 3.581 C 10.166 3.257 9.559 3.038 8.867 2.989 C 8.658 2.974 8.181 2.976 7.937 2.993 C 7.269 3.04 6.803 3.149 6.362 3.362 C 5.889 3.59 5.536 3.969 5.347 4.453 C 5.16 4.932 5.053 5.723 5.125 6.098 C 5.159 6.277 5.227 6.437 5.325 6.577 C 5.531 6.869 5.826 7.029 6.259 7.084 C 6.328 7.093 6.619 7.081 6.707 7.066 L 6.707 7.066 Z M 6.814 5.681 C 6.631 5.637 6.466 5.475 6.415 5.29 C 6.392 5.21 6.397 5.057 6.424 4.978 C 6.467 4.851 6.583 4.716 6.692 4.663 C 6.905 4.56 7.161 4.6 7.323 4.762 C 7.538 4.979 7.541 5.318 7.329 5.53 C 7.19 5.668 6.997 5.725 6.814 5.681 L 6.814 5.681 Z M 7.138 5.223 C 7.189 5.196 7.246 5.131 7.259 5.084 C 7.278 5.017 7.268 4.941 7.234 4.885 C 7.148 4.746 6.95 4.737 6.853 4.869 C 6.76 4.997 6.804 5.159 6.949 5.227 C 6.997 5.25 7.09 5.247 7.138 5.223 Z M 9.229 5.525 C 8.976 5.461 8.81 5.245 8.81 4.981 C 8.81 4.742 8.999 4.509 9.23 4.461 C 9.527 4.4 9.81 4.576 9.885 4.867 C 9.951 5.129 9.791 5.42 9.529 5.512 C 9.454 5.538 9.306 5.545 9.229 5.525 L 9.229 5.525 Z M 9.521 5.076 C 9.579 5.059 9.659 4.978 9.674 4.922 C 9.688 4.87 9.682 4.788 9.661 4.748 C 9.641 4.712 9.589 4.659 9.553 4.64 C 9.513 4.619 9.431 4.613 9.381 4.627 C 9.321 4.643 9.25 4.715 9.227 4.783 C 9.19 4.895 9.243 5.013 9.354 5.065 C 9.41 5.091 9.46 5.094 9.521 5.076 Z"/>
</svg>
