<svg xmlns="http://www.w3.org/2000/svg" width="16" height="16" version="1.1">
 <defs>
   <style id="current-color-scheme" type="text/css">
   .ColorScheme-Text { color: #cc00cc; } .ColorScheme-Highlight { color:#5294e2; }
  </style>
  <linearGradient id="arrongin" x1="0%" x2="0%" y1="0%" y2="100%">
   <stop offset="0%" style="stop-color:#dd9b44; stop-opacity:1"/>
   <stop offset="100%" style="stop-color:#ad6c16; stop-opacity:1"/>
  </linearGradient>
  <linearGradient id="aurora" x1="0%" x2="0%" y1="0%" y2="100%">
   <stop offset="0%" style="stop-color:#09D4DF; stop-opacity:1"/>
   <stop offset="100%" style="stop-color:#9269F4; stop-opacity:1"/>
  </linearGradient>
  <linearGradient id="cyberneon" x1="0%" x2="0%" y1="0%" y2="100%">
    <stop offset="0" style="stop-color:#0abdc6; stop-opacity:1"/>
    <stop offset="1" style="stop-color:#ea00d9; stop-opacity:1"/>
  </linearGradient>
  <linearGradient id="fitdance" x1="0%" x2="0%" y1="0%" y2="100%">
   <stop offset="0%" style="stop-color:#1AD6AB; stop-opacity:1"/>
   <stop offset="100%" style="stop-color:#329DB6; stop-opacity:1"/>
  </linearGradient>
  <linearGradient id="oomox" x1="0%" x2="0%" y1="0%" y2="100%">
   <stop offset="0%" style="stop-color:#efefe7; stop-opacity:1"/>
   <stop offset="100%" style="stop-color:#8f8f8b; stop-opacity:1"/>
  </linearGradient>
  <linearGradient id="rainblue" x1="0%" x2="0%" y1="0%" y2="100%">
   <stop offset="0%" style="stop-color:#00F260; stop-opacity:1"/>
   <stop offset="100%" style="stop-color:#0575E6; stop-opacity:1"/>
  </linearGradient>
  <linearGradient id="sunrise" x1="0%" x2="0%" y1="0%" y2="100%">
   <stop offset="0%" style="stop-color: #FF8501; stop-opacity:1"/>
   <stop offset="100%" style="stop-color: #FFCB01; stop-opacity:1"/>
  </linearGradient>
  <linearGradient id="telinkrin" x1="0%" x2="0%" y1="0%" y2="100%">
   <stop offset="0%" style="stop-color: #b2ced6; stop-opacity:1"/>
   <stop offset="100%" style="stop-color: #6da5b7; stop-opacity:1"/>
  </linearGradient>
  <linearGradient id="60spsycho" x1="0%" x2="0%" y1="0%" y2="100%">
   <stop offset="0%" style="stop-color: #df5940; stop-opacity:1"/>
   <stop offset="25%" style="stop-color: #d8d15f; stop-opacity:1"/>
   <stop offset="50%" style="stop-color: #e9882a; stop-opacity:1"/>
   <stop offset="100%" style="stop-color: #279362; stop-opacity:1"/>
  </linearGradient>
  <linearGradient id="90ssummer" x1="0%" x2="0%" y1="0%" y2="100%">
   <stop offset="0%" style="stop-color: #f618c7; stop-opacity:1"/>
   <stop offset="20%" style="stop-color: #94ffab; stop-opacity:1"/>
   <stop offset="50%" style="stop-color: #fbfd54; stop-opacity:1"/>
   <stop offset="100%" style="stop-color: #0f83ae; stop-opacity:1"/>
  </linearGradient>
 </defs>
 <path fill="currentColor" class="ColorScheme-Text" fill-rule="evenodd" d="M -0.031 12.5 L 15.969 12.5 L 15.969 14.5 L -0.031 14.5 L -0.031 12.5 Z"/>
 <path fill="currentColor" class="ColorScheme-Text" fill-rule="evenodd" d="M 0.91 10.182 L 0.91 1.548 L 3.574 1.548 L 3.574 1.548 Q 4.45 1.548 5.165 1.795 L 5.165 1.795 L 5.165 1.795 Q 5.881 2.041 6.349 2.448 L 6.349 2.448 L 6.349 2.448 Q 6.818 2.855 7.133 3.417 L 7.133 3.417 L 7.133 3.417 Q 7.447 3.978 7.589 4.588 L 7.589 4.588 L 7.589 4.588 Q 7.731 5.199 7.731 5.865 L 7.731 5.865 L 7.731 5.865 Q 7.731 6.482 7.601 7.074 L 7.601 7.074 L 7.601 7.074 Q 7.472 7.666 7.157 8.239 L 7.157 8.239 L 7.157 8.239 Q 6.843 8.813 6.374 9.238 L 6.374 9.238 L 6.374 9.238 Q 5.905 9.664 5.171 9.923 L 5.171 9.923 L 5.171 9.923 Q 4.438 10.182 3.525 10.182 L 3.525 10.182 L 0.91 10.182 Z M 2.39 8.788 L 3.735 8.788 L 3.735 8.788 Q 4.388 8.788 4.888 8.529 L 4.888 8.529 L 4.888 8.529 Q 5.387 8.27 5.665 7.832 L 5.665 7.832 L 5.665 7.832 Q 5.942 7.394 6.072 6.901 L 6.072 6.901 L 6.072 6.901 Q 6.201 6.408 6.201 5.865 L 6.201 5.865 L 6.201 5.865 Q 6.201 4.656 5.609 3.799 L 5.609 3.799 L 5.609 3.799 Q 5.017 2.942 3.87 2.942 L 3.87 2.942 L 2.39 2.942 L 2.39 8.788 Z M 12.825 10.33 L 12.825 10.33 L 12.825 10.33 Q 12.048 10.33 11.419 10.071 L 11.419 10.071 L 11.419 10.071 Q 10.79 9.812 10.389 9.38 L 10.389 9.38 L 10.389 9.38 Q 9.988 8.949 9.717 8.357 L 9.717 8.357 L 9.717 8.357 Q 9.445 7.764 9.328 7.148 L 9.328 7.148 L 9.328 7.148 Q 9.211 6.531 9.211 5.865 L 9.211 5.865 L 9.211 5.865 Q 9.211 5.076 9.408 4.323 L 9.408 4.323 L 9.408 4.323 Q 9.606 3.571 10.013 2.899 L 10.013 2.899 L 10.013 2.899 Q 10.42 2.226 11.147 1.813 L 11.147 1.813 L 11.147 1.813 Q 11.875 1.4 12.825 1.4 L 12.825 1.4 L 12.825 1.4 Q 13.972 1.4 14.749 1.937 L 14.749 1.937 L 14.749 1.937 Q 15.526 2.473 15.834 3.238 L 15.834 3.238 L 14.502 3.842 L 14.502 3.842 Q 14.157 3.312 13.781 3.065 L 13.781 3.065 L 13.781 3.065 Q 13.405 2.818 12.825 2.818 L 12.825 2.818 L 12.825 2.818 Q 12.258 2.818 11.832 3.096 L 11.832 3.096 L 11.832 3.096 Q 11.406 3.373 11.178 3.836 L 11.178 3.836 L 11.178 3.836 Q 10.95 4.299 10.845 4.81 L 10.845 4.81 L 10.845 4.81 Q 10.74 5.322 10.74 5.865 L 10.74 5.865 L 10.74 5.865 Q 10.74 7.074 11.277 7.986 L 11.277 7.986 L 11.277 7.986 Q 11.813 8.899 12.825 8.899 L 12.825 8.899 L 12.825 8.899 Q 13.812 8.899 14.478 7.789 L 14.478 7.789 L 15.847 8.307 L 15.847 8.307 Q 14.946 10.33 12.825 10.33 Z"/>
</svg>
