<svg xmlns="http://www.w3.org/2000/svg" width="16" height="16" version="1.1">
 <defs>
   <style id="current-color-scheme" type="text/css">
   .ColorScheme-Text { color: #cc00cc; } .ColorScheme-Highlight { color:#5294e2; }
  </style>
  <linearGradient id="arrongin" x1="0%" x2="0%" y1="0%" y2="100%">
   <stop offset="0%" style="stop-color:#dd9b44; stop-opacity:1"/>
   <stop offset="100%" style="stop-color:#ad6c16; stop-opacity:1"/>
  </linearGradient>
  <linearGradient id="aurora" x1="0%" x2="0%" y1="0%" y2="100%">
   <stop offset="0%" style="stop-color:#09D4DF; stop-opacity:1"/>
   <stop offset="100%" style="stop-color:#9269F4; stop-opacity:1"/>
  </linearGradient>
  <linearGradient id="cyberneon" x1="0%" x2="0%" y1="0%" y2="100%">
    <stop offset="0" style="stop-color:#0abdc6; stop-opacity:1"/>
    <stop offset="1" style="stop-color:#ea00d9; stop-opacity:1"/>
  </linearGradient>
  <linearGradient id="fitdance" x1="0%" x2="0%" y1="0%" y2="100%">
   <stop offset="0%" style="stop-color:#1AD6AB; stop-opacity:1"/>
   <stop offset="100%" style="stop-color:#329DB6; stop-opacity:1"/>
  </linearGradient>
  <linearGradient id="oomox" x1="0%" x2="0%" y1="0%" y2="100%">
   <stop offset="0%" style="stop-color:#efefe7; stop-opacity:1"/>
   <stop offset="100%" style="stop-color:#8f8f8b; stop-opacity:1"/>
  </linearGradient>
  <linearGradient id="rainblue" x1="0%" x2="0%" y1="0%" y2="100%">
   <stop offset="0%" style="stop-color:#00F260; stop-opacity:1"/>
   <stop offset="100%" style="stop-color:#0575E6; stop-opacity:1"/>
  </linearGradient>
  <linearGradient id="sunrise" x1="0%" x2="0%" y1="0%" y2="100%">
   <stop offset="0%" style="stop-color: #FF8501; stop-opacity:1"/>
   <stop offset="100%" style="stop-color: #FFCB01; stop-opacity:1"/>
  </linearGradient>
  <linearGradient id="telinkrin" x1="0%" x2="0%" y1="0%" y2="100%">
   <stop offset="0%" style="stop-color: #b2ced6; stop-opacity:1"/>
   <stop offset="100%" style="stop-color: #6da5b7; stop-opacity:1"/>
  </linearGradient>
  <linearGradient id="60spsycho" x1="0%" x2="0%" y1="0%" y2="100%">
   <stop offset="0%" style="stop-color: #df5940; stop-opacity:1"/>
   <stop offset="25%" style="stop-color: #d8d15f; stop-opacity:1"/>
   <stop offset="50%" style="stop-color: #e9882a; stop-opacity:1"/>
   <stop offset="100%" style="stop-color: #279362; stop-opacity:1"/>
  </linearGradient>
  <linearGradient id="90ssummer" x1="0%" x2="0%" y1="0%" y2="100%">
   <stop offset="0%" style="stop-color: #f618c7; stop-opacity:1"/>
   <stop offset="20%" style="stop-color: #94ffab; stop-opacity:1"/>
   <stop offset="50%" style="stop-color: #fbfd54; stop-opacity:1"/>
   <stop offset="100%" style="stop-color: #0f83ae; stop-opacity:1"/>
  </linearGradient>
 </defs>
 <path fill="currentColor" class="ColorScheme-Text" fill-rule="evenodd" d="M 2.154 10.6 C 2.046 10.516 1.941 10.429 1.838 10.339 C 1.592 10.121 1.371 9.878 1.177 9.61 C 1.005 9.368 0.87 9.103 0.771 8.824 C 0.682 8.559 0.633 8.28 0.633 8 L 0.633 8 C 0.633 7.72 0.682 7.441 0.771 7.173 C 0.87 6.897 1.005 6.632 1.177 6.39 C 1.371 6.122 1.592 5.879 1.838 5.661 C 1.941 5.57 2.048 5.483 2.156 5.398 L 2.156 5.398 C 2.188 6.177 2.32 6.946 2.542 7.693 C 2.572 7.796 2.604 7.898 2.639 8 C 2.604 8.102 2.572 8.204 2.542 8.307 C 2.32 9.053 2.189 9.822 2.154 10.6 L 2.154 10.6 Z M 13.846 5.4 C 13.954 5.484 14.059 5.571 14.162 5.661 C 14.408 5.879 14.629 6.122 14.823 6.39 C 14.995 6.632 15.13 6.897 15.229 7.176 C 15.318 7.441 15.367 7.72 15.367 8 C 15.367 8.28 15.318 8.559 15.229 8.824 C 15.13 9.103 14.995 9.368 14.823 9.61 C 14.629 9.878 14.408 10.121 14.162 10.339 C 14.059 10.429 13.954 10.516 13.846 10.6 C 13.811 9.822 13.68 9.053 13.458 8.307 C 13.428 8.204 13.396 8.102 13.361 8 C 13.396 7.898 13.428 7.796 13.458 7.693 C 13.68 6.947 13.811 6.178 13.846 5.4 L 13.846 5.4 Z M 13.17 4.234 C 12.502 3.887 11.796 3.622 11.064 3.445 C 10.938 3.413 10.811 3.384 10.683 3.358 C 10.226 2.85 9.722 2.391 9.174 1.982 C 9.014 1.861 8.85 1.747 8.681 1.639 C 8.725 1.619 8.769 1.601 8.814 1.583 C 9.297 1.386 9.81 1.282 10.33 1.272 C 10.803 1.269 11.27 1.389 11.685 1.62 C 11.934 1.764 12.155 1.952 12.343 2.17 C 12.539 2.4 12.702 2.662 12.825 2.941 C 12.96 3.252 13.062 3.577 13.12 3.912 C 13.14 4.019 13.158 4.126 13.17 4.234 L 13.17 4.234 Z M 5.317 3.358 C 5.189 3.384 5.062 3.413 4.936 3.445 C 4.204 3.622 3.498 3.887 2.83 4.234 L 2.83 4.234 C 2.842 4.126 2.86 4.019 2.88 3.912 C 2.938 3.577 3.04 3.252 3.175 2.941 C 3.298 2.662 3.461 2.4 3.657 2.17 C 3.845 1.952 4.066 1.764 4.315 1.62 L 4.315 1.62 C 4.73 1.389 5.197 1.269 5.67 1.272 C 6.19 1.282 6.706 1.386 7.186 1.583 C 7.231 1.601 7.276 1.619 7.32 1.64 C 7.151 1.747 6.986 1.861 6.826 1.982 C 6.278 2.391 5.774 2.85 5.317 3.358 L 5.317 3.358 Z M 6.381 3.189 C 6.917 3.105 7.458 3.072 8 3.073 C 8.542 3.072 9.083 3.105 9.619 3.189 C 9.362 2.936 9.085 2.704 8.796 2.486 C 8.544 2.297 8.28 2.125 8 1.981 C 7.72 2.125 7.456 2.297 7.204 2.486 C 6.915 2.704 6.638 2.936 6.381 3.189 L 6.381 3.189 Z M 10.683 12.642 C 10.811 12.616 10.938 12.587 11.064 12.555 C 11.796 12.378 12.502 12.113 13.17 11.766 L 13.17 11.766 C 13.158 11.874 13.14 11.981 13.12 12.088 C 13.062 12.423 12.96 12.748 12.825 13.059 C 12.702 13.338 12.539 13.6 12.343 13.83 C 12.155 14.048 11.934 14.236 11.685 14.38 C 11.27 14.611 10.803 14.731 10.33 14.728 C 9.81 14.718 9.297 14.614 8.814 14.417 C 8.769 14.399 8.724 14.381 8.68 14.36 C 8.849 14.253 9.014 14.139 9.174 14.018 C 9.722 13.609 10.226 13.15 10.683 12.642 L 10.683 12.642 Z M 9.619 12.811 C 9.083 12.895 8.542 12.928 8 12.927 C 7.458 12.928 6.916 12.895 6.381 12.811 C 6.638 13.064 6.915 13.296 7.204 13.514 C 7.456 13.703 7.72 13.875 8 14.019 C 8.28 13.875 8.544 13.703 8.796 13.514 C 9.085 13.296 9.362 13.064 9.619 12.811 L 9.619 12.811 Z M 2.83 11.766 C 3.498 12.113 4.204 12.378 4.936 12.555 C 5.062 12.587 5.189 12.616 5.317 12.642 C 5.774 13.15 6.278 13.609 6.826 14.018 C 6.986 14.139 7.151 14.253 7.32 14.36 C 7.276 14.381 7.231 14.399 7.186 14.417 C 6.706 14.614 6.19 14.718 5.67 14.728 C 5.197 14.731 4.73 14.611 4.315 14.38 C 4.066 14.236 3.845 14.048 3.657 13.83 C 3.461 13.6 3.298 13.338 3.175 13.059 C 3.04 12.748 2.938 12.423 2.88 12.088 C 2.86 11.981 2.842 11.874 2.83 11.766 L 2.83 11.766 Z M 2.78 11.016 C 3.366 11.355 3.991 11.623 4.638 11.819 C 4.306 11.389 4.005 10.935 3.734 10.465 C 3.457 9.989 3.213 9.495 3.014 8.982 C 2.864 9.628 2.783 10.289 2.778 10.954 C 2.778 10.974 2.778 10.995 2.78 11.016 L 2.78 11.016 Z M 4.638 4.181 C 3.991 4.377 3.366 4.645 2.78 4.985 L 2.78 4.985 C 2.778 5.005 2.778 5.026 2.778 5.046 C 2.783 5.711 2.864 6.372 3.014 7.018 C 3.213 6.505 3.457 6.011 3.734 5.535 C 4.005 5.065 4.306 4.611 4.638 4.181 L 4.638 4.181 Z M 5.651 3.932 C 6.424 3.781 7.21 3.704 8 3.706 C 8.79 3.704 9.576 3.781 10.349 3.932 C 10.35 3.933 10.351 3.933 10.351 3.934 C 10.867 4.527 11.325 5.169 11.719 5.855 C 12.116 6.535 12.442 7.255 12.696 8 C 12.442 8.745 12.116 9.465 11.719 10.145 L 11.719 10.145 C 11.325 10.831 10.867 11.473 10.351 12.066 C 10.351 12.067 10.35 12.067 10.349 12.068 C 9.576 12.219 8.79 12.296 8 12.294 C 7.21 12.296 6.424 12.219 5.651 12.068 C 5.65 12.067 5.649 12.067 5.649 12.066 C 5.133 11.473 4.675 10.831 4.281 10.145 C 3.884 9.465 3.558 8.745 3.304 8 C 3.558 7.255 3.884 6.535 4.281 5.855 C 4.675 5.169 5.133 4.527 5.649 3.934 C 5.649 3.933 5.65 3.933 5.651 3.932 L 5.651 3.932 Z M 12.986 8.982 C 13.136 9.628 13.217 10.289 13.222 10.954 C 13.222 10.974 13.222 10.995 13.22 11.015 C 12.634 11.355 12.009 11.623 11.362 11.819 C 11.694 11.389 11.995 10.935 12.266 10.465 L 12.266 10.465 C 12.543 9.989 12.787 9.495 12.986 8.982 L 12.986 8.982 Z M 13.22 4.984 C 12.634 4.645 12.009 4.377 11.362 4.181 L 11.362 4.181 C 11.694 4.611 11.995 5.065 12.266 5.535 C 12.543 6.011 12.787 6.505 12.986 7.018 C 13.136 6.372 13.217 5.711 13.222 5.046 C 13.222 5.026 13.222 5.005 13.22 4.984 L 13.22 4.984 Z M 2.154 11.371 C 1.896 11.205 1.652 11.017 1.42 10.815 C 1.137 10.566 0.882 10.287 0.664 9.979 C 0.455 9.687 0.292 9.371 0.172 9.033 C 0.058 8.701 0 8.35 0 8 L 0 8 C 0 7.65 0.058 7.299 0.172 6.967 C 0.292 6.629 0.455 6.313 0.664 6.021 C 0.882 5.713 1.137 5.434 1.42 5.185 C 1.652 4.983 1.897 4.794 2.156 4.628 L 2.156 4.628 C 2.171 4.35 2.205 4.071 2.256 3.796 C 2.327 3.415 2.44 3.043 2.597 2.686 C 2.741 2.351 2.938 2.038 3.175 1.758 C 3.408 1.484 3.688 1.251 4.002 1.07 L 4.002 1.07 C 4.512 0.784 5.09 0.633 5.677 0.639 C 6.276 0.648 6.869 0.768 7.422 0.993 C 7.619 1.072 7.812 1.159 8 1.255 C 8.188 1.159 8.381 1.072 8.578 0.993 C 9.131 0.768 9.724 0.648 10.32 0.639 C 10.907 0.633 11.488 0.784 11.998 1.07 C 12.312 1.251 12.592 1.484 12.825 1.758 C 13.062 2.038 13.259 2.351 13.403 2.686 C 13.56 3.043 13.673 3.415 13.744 3.796 C 13.795 4.072 13.829 4.35 13.846 4.629 C 14.104 4.795 14.348 4.983 14.58 5.185 C 14.863 5.434 15.118 5.713 15.336 6.021 C 15.545 6.313 15.708 6.629 15.828 6.967 C 15.942 7.299 16 7.65 16 8 C 16 8.35 15.942 8.701 15.828 9.033 C 15.708 9.371 15.545 9.687 15.336 9.979 C 15.118 10.287 14.863 10.566 14.58 10.815 C 14.348 11.017 14.104 11.205 13.846 11.371 C 13.829 11.65 13.795 11.928 13.744 12.204 C 13.673 12.585 13.56 12.957 13.403 13.314 C 13.259 13.649 13.062 13.962 12.825 14.242 C 12.592 14.516 12.312 14.749 11.998 14.93 C 11.488 15.216 10.907 15.367 10.32 15.361 C 9.724 15.352 9.131 15.232 8.578 15.007 C 8.381 14.928 8.188 14.841 8 14.745 C 7.812 14.841 7.619 14.928 7.422 15.007 C 6.869 15.232 6.276 15.352 5.68 15.361 C 5.093 15.367 4.512 15.219 4.002 14.93 C 3.688 14.749 3.408 14.516 3.175 14.242 C 2.938 13.962 2.741 13.649 2.597 13.314 C 2.44 12.957 2.327 12.585 2.256 12.204 C 2.205 11.928 2.171 11.65 2.154 11.371 L 2.154 11.371 Z M 7.385 6.156 C 8.252 6.156 8.615 6.156 8.615 6.771 C 8.615 7.385 8.166 7.385 7.385 7.385 L 7.385 6.156 L 7.385 6.156 Z M 7.385 8 C 8.615 8 9.229 8 9.229 8.922 C 9.229 9.844 8.615 9.844 7.385 9.844 L 7.385 8 L 7.385 8 Z M 6.771 4.312 L 6.771 5.541 C 6.62 5.547 6.342 5.541 6.197 5.541 L 5.541 5.541 L 5.541 6.156 C 5.541 6.156 5.762 6.147 5.754 6.156 C 6.037 6.152 6.127 6.356 6.156 6.493 L 6.156 9.537 C 6.145 9.623 6.154 9.838 5.957 9.844 C 5.966 9.852 5.541 9.844 5.541 9.844 L 5.541 10.459 L 6.234 10.459 C 6.403 10.453 6.607 10.459 6.771 10.459 L 6.771 11.688 L 7.385 11.677 L 7.385 10.459 L 7.99 10.459 L 8.01 11.688 L 8.624 11.688 L 8.605 10.459 C 9.778 10.374 10.459 10.233 10.459 8.922 C 10.459 8 9.843 7.693 9.116 7.693 C 9.578 7.658 9.844 7.385 9.844 6.617 C 9.678 5.681 9.449 5.541 8.615 5.541 L 8.615 4.312 L 8 4.312 L 8 5.541 C 7.816 5.541 7.572 5.535 7.385 5.541 L 7.385 4.312 L 6.771 4.312 L 6.771 4.312 Z"/>
</svg>
