<svg xmlns="http://www.w3.org/2000/svg" width="16" height="16" version="1.1">
 <defs>
   <style id="current-color-scheme" type="text/css">
   .ColorScheme-Text { color: #cc00cc; } .ColorScheme-Highlight { color:#5294e2; }
  </style>
  <linearGradient id="arrongin" x1="0%" x2="0%" y1="0%" y2="100%">
   <stop offset="0%" style="stop-color:#dd9b44; stop-opacity:1"/>
   <stop offset="100%" style="stop-color:#ad6c16; stop-opacity:1"/>
  </linearGradient>
  <linearGradient id="aurora" x1="0%" x2="0%" y1="0%" y2="100%">
   <stop offset="0%" style="stop-color:#09D4DF; stop-opacity:1"/>
   <stop offset="100%" style="stop-color:#9269F4; stop-opacity:1"/>
  </linearGradient>
  <linearGradient id="cyberneon" x1="0%" x2="0%" y1="0%" y2="100%">
    <stop offset="0" style="stop-color:#0abdc6; stop-opacity:1"/>
    <stop offset="1" style="stop-color:#ea00d9; stop-opacity:1"/>
  </linearGradient>
  <linearGradient id="fitdance" x1="0%" x2="0%" y1="0%" y2="100%">
   <stop offset="0%" style="stop-color:#1AD6AB; stop-opacity:1"/>
   <stop offset="100%" style="stop-color:#329DB6; stop-opacity:1"/>
  </linearGradient>
  <linearGradient id="oomox" x1="0%" x2="0%" y1="0%" y2="100%">
   <stop offset="0%" style="stop-color:#efefe7; stop-opacity:1"/>
   <stop offset="100%" style="stop-color:#8f8f8b; stop-opacity:1"/>
  </linearGradient>
  <linearGradient id="rainblue" x1="0%" x2="0%" y1="0%" y2="100%">
   <stop offset="0%" style="stop-color:#00F260; stop-opacity:1"/>
   <stop offset="100%" style="stop-color:#0575E6; stop-opacity:1"/>
  </linearGradient>
  <linearGradient id="sunrise" x1="0%" x2="0%" y1="0%" y2="100%">
   <stop offset="0%" style="stop-color: #FF8501; stop-opacity:1"/>
   <stop offset="100%" style="stop-color: #FFCB01; stop-opacity:1"/>
  </linearGradient>
  <linearGradient id="telinkrin" x1="0%" x2="0%" y1="0%" y2="100%">
   <stop offset="0%" style="stop-color: #b2ced6; stop-opacity:1"/>
   <stop offset="100%" style="stop-color: #6da5b7; stop-opacity:1"/>
  </linearGradient>
  <linearGradient id="60spsycho" x1="0%" x2="0%" y1="0%" y2="100%">
   <stop offset="0%" style="stop-color: #df5940; stop-opacity:1"/>
   <stop offset="25%" style="stop-color: #d8d15f; stop-opacity:1"/>
   <stop offset="50%" style="stop-color: #e9882a; stop-opacity:1"/>
   <stop offset="100%" style="stop-color: #279362; stop-opacity:1"/>
  </linearGradient>
  <linearGradient id="90ssummer" x1="0%" x2="0%" y1="0%" y2="100%">
   <stop offset="0%" style="stop-color: #f618c7; stop-opacity:1"/>
   <stop offset="20%" style="stop-color: #94ffab; stop-opacity:1"/>
   <stop offset="50%" style="stop-color: #fbfd54; stop-opacity:1"/>
   <stop offset="100%" style="stop-color: #0f83ae; stop-opacity:1"/>
  </linearGradient>
 </defs>
 <path fill="currentColor" class="ColorScheme-Text" d="M 3.478 0 C 2.327 0 1.391 0.936 1.391 2.087 L 1.391 14.058 C 1.391 15.129 2.327 16 3.478 16 L 14.609 16 L 14.609 15.304 L 3.478 15.304 C 2.724 15.304 2.087 14.734 2.087 14.058 C 2.087 13.393 2.698 12.87 3.478 12.87 L 14.609 12.87 L 14.609 0 L 3.478 0 Z M 6.012 3.826 L 6.857 3.826 L 8.696 9.19 L 8.696 9.391 L 8 9.391 L 8 9.306 L 7.673 8.348 L 5.197 8.348 L 4.87 9.306 L 4.87 9.391 L 4.174 9.391 L 4.174 9.19 L 6.012 3.826 Z M 6.435 4.739 L 5.436 7.652 L 7.433 7.652 L 6.435 4.739 Z M 10.435 5.217 C 11.058 5.217 11.478 5.706 11.478 6.435 L 11.478 8.348 C 11.478 8.539 11.635 8.696 11.826 8.696 L 11.826 9.391 C 11.558 9.391 11.315 9.287 11.13 9.12 C 10.946 9.287 10.703 9.391 10.435 9.391 L 10.087 9.391 C 9.512 9.391 9.043 8.922 9.043 8.348 L 9.043 7.652 C 9.043 7.078 9.512 6.609 10.087 6.609 L 10.435 6.609 C 10.557 6.609 10.674 6.633 10.783 6.673 L 10.783 6.435 C 10.783 6.197 10.721 5.913 10.435 5.913 C 10.264 5.913 10.087 5.954 10.087 6.261 L 9.391 6.261 C 9.391 5.637 9.811 5.217 10.435 5.217 Z M 10.087 7.304 C 9.896 7.304 9.739 7.461 9.739 7.652 L 9.739 8.348 C 9.739 8.539 9.896 8.696 10.087 8.696 L 10.435 8.696 C 10.626 8.696 10.783 8.539 10.783 8.348 L 10.783 7.652 C 10.783 7.461 10.626 7.304 10.435 7.304 L 10.087 7.304 Z"/>
</svg>
