<svg xmlns="http://www.w3.org/2000/svg" width="16" height="16" version="1.1">
 <defs>
   <style id="current-color-scheme" type="text/css">
   .ColorScheme-Text { color: #cc00cc; } .ColorScheme-Highlight { color:#5294e2; }
  </style>
  <linearGradient id="arrongin" x1="0%" x2="0%" y1="0%" y2="100%">
   <stop offset="0%" style="stop-color:#dd9b44; stop-opacity:1"/>
   <stop offset="100%" style="stop-color:#ad6c16; stop-opacity:1"/>
  </linearGradient>
  <linearGradient id="aurora" x1="0%" x2="0%" y1="0%" y2="100%">
   <stop offset="0%" style="stop-color:#09D4DF; stop-opacity:1"/>
   <stop offset="100%" style="stop-color:#9269F4; stop-opacity:1"/>
  </linearGradient>
  <linearGradient id="cyberneon" x1="0%" x2="0%" y1="0%" y2="100%">
    <stop offset="0" style="stop-color:#0abdc6; stop-opacity:1"/>
    <stop offset="1" style="stop-color:#ea00d9; stop-opacity:1"/>
  </linearGradient>
  <linearGradient id="fitdance" x1="0%" x2="0%" y1="0%" y2="100%">
   <stop offset="0%" style="stop-color:#1AD6AB; stop-opacity:1"/>
   <stop offset="100%" style="stop-color:#329DB6; stop-opacity:1"/>
  </linearGradient>
  <linearGradient id="oomox" x1="0%" x2="0%" y1="0%" y2="100%">
   <stop offset="0%" style="stop-color:#efefe7; stop-opacity:1"/>
   <stop offset="100%" style="stop-color:#8f8f8b; stop-opacity:1"/>
  </linearGradient>
  <linearGradient id="rainblue" x1="0%" x2="0%" y1="0%" y2="100%">
   <stop offset="0%" style="stop-color:#00F260; stop-opacity:1"/>
   <stop offset="100%" style="stop-color:#0575E6; stop-opacity:1"/>
  </linearGradient>
  <linearGradient id="sunrise" x1="0%" x2="0%" y1="0%" y2="100%">
   <stop offset="0%" style="stop-color: #FF8501; stop-opacity:1"/>
   <stop offset="100%" style="stop-color: #FFCB01; stop-opacity:1"/>
  </linearGradient>
  <linearGradient id="telinkrin" x1="0%" x2="0%" y1="0%" y2="100%">
   <stop offset="0%" style="stop-color: #b2ced6; stop-opacity:1"/>
   <stop offset="100%" style="stop-color: #6da5b7; stop-opacity:1"/>
  </linearGradient>
  <linearGradient id="60spsycho" x1="0%" x2="0%" y1="0%" y2="100%">
   <stop offset="0%" style="stop-color: #df5940; stop-opacity:1"/>
   <stop offset="25%" style="stop-color: #d8d15f; stop-opacity:1"/>
   <stop offset="50%" style="stop-color: #e9882a; stop-opacity:1"/>
   <stop offset="100%" style="stop-color: #279362; stop-opacity:1"/>
  </linearGradient>
  <linearGradient id="90ssummer" x1="0%" x2="0%" y1="0%" y2="100%">
   <stop offset="0%" style="stop-color: #f618c7; stop-opacity:1"/>
   <stop offset="20%" style="stop-color: #94ffab; stop-opacity:1"/>
   <stop offset="50%" style="stop-color: #fbfd54; stop-opacity:1"/>
   <stop offset="100%" style="stop-color: #0f83ae; stop-opacity:1"/>
  </linearGradient>
 </defs>
 <path fill="currentColor" class="ColorScheme-Text" opacity="1.0" d="m 7.9972831,0.49985395 c -2.2040482,0 -3.995068,1.79102985 -3.995068,3.99506805 0,2.2040382 1.7910198,3.9950681 3.995068,3.9950681 2.2040379,0 3.9950579,-1.7910299 3.9950579,-3.9950681 0,-2.2040382 -1.79102,-3.99506805 -3.9950579,-3.99506805 z m 0,1.05296195 c 1.6272494,0 2.9420959,1.3148567 2.9420959,2.9421061 0,1.6272494 -1.3148465,2.9421061 -2.9420959,2.9421061 -1.6272594,0 -2.9421061,-1.3148567 -2.9421061,-2.9421061 0,-1.6272494 1.3148467,-2.9421061 2.9421061,-2.9421061 z" />
 <path fill="currentColor" class="ColorScheme-Text" opacity="0.6" d="M 7.4636518,11.498792 A 3.4685842,3.4685842 0 0 1 3.9950676,14.967376 3.4685842,3.4685842 0 0 1 0.52648342,11.498792 3.4685842,3.4685842 0 0 1 3.9950676,8.0302074 3.4685842,3.4685842 0 0 1 7.4636518,11.498792 Z"/>
 <path fill="currentColor" class="ColorScheme-Text" opacity="1.0" d="m 3.9950711,7.5037249 c -2.2040482,0 -3.99506804098,1.7910299 -3.99506804098,3.9950681 0,2.204038 1.79101984098,3.995068 3.99506804098,3.995068 2.2040382,0 3.9950581,-1.79103 3.9950581,-3.995068 0,-2.2040382 -1.7910199,-3.9950681 -3.9950581,-3.9950681 z m 0,1.052962 c 1.6272494,0 2.9420961,1.3148567 2.9420961,2.9421061 0,1.627249 -1.3148467,2.942106 -2.9420961,2.942106 -1.6272594,0 -2.9421061,-1.314857 -2.9421061,-2.942106 0,-1.6272494 1.3148467,-2.9421061 2.9421061,-2.9421061 z" />
 <path fill="currentColor" class="ColorScheme-Text" opacity="1.0" d="M 16.000003,11.498788 A 4.0013581,4.0013581 0 0 1 11.998645,15.500146 4.0013581,4.0013581 0 0 1 7.9972867,11.498788 4.0013581,4.0013581 0 0 1 11.998645,7.4974301 4.0013581,4.0013581 0 0 1 16.000003,11.498788 Z" />
</svg>