<svg xmlns="http://www.w3.org/2000/svg" width="16" height="16" version="1.1">
 <defs>
   <style id="current-color-scheme" type="text/css">
   .ColorScheme-Text { color: #cc00cc; } .ColorScheme-Highlight { color:#5294e2; }
  </style>
  <linearGradient id="arrongin" x1="0%" x2="0%" y1="0%" y2="100%">
   <stop offset="0%" style="stop-color:#dd9b44; stop-opacity:1"/>
   <stop offset="100%" style="stop-color:#ad6c16; stop-opacity:1"/>
  </linearGradient>
  <linearGradient id="aurora" x1="0%" x2="0%" y1="0%" y2="100%">
   <stop offset="0%" style="stop-color:#09D4DF; stop-opacity:1"/>
   <stop offset="100%" style="stop-color:#9269F4; stop-opacity:1"/>
  </linearGradient>
  <linearGradient id="cyberneon" x1="0%" x2="0%" y1="0%" y2="100%">
    <stop offset="0" style="stop-color:#0abdc6; stop-opacity:1"/>
    <stop offset="1" style="stop-color:#ea00d9; stop-opacity:1"/>
  </linearGradient>
  <linearGradient id="fitdance" x1="0%" x2="0%" y1="0%" y2="100%">
   <stop offset="0%" style="stop-color:#1AD6AB; stop-opacity:1"/>
   <stop offset="100%" style="stop-color:#329DB6; stop-opacity:1"/>
  </linearGradient>
  <linearGradient id="oomox" x1="0%" x2="0%" y1="0%" y2="100%">
   <stop offset="0%" style="stop-color:#efefe7; stop-opacity:1"/>
   <stop offset="100%" style="stop-color:#8f8f8b; stop-opacity:1"/>
  </linearGradient>
  <linearGradient id="rainblue" x1="0%" x2="0%" y1="0%" y2="100%">
   <stop offset="0%" style="stop-color:#00F260; stop-opacity:1"/>
   <stop offset="100%" style="stop-color:#0575E6; stop-opacity:1"/>
  </linearGradient>
  <linearGradient id="sunrise" x1="0%" x2="0%" y1="0%" y2="100%">
   <stop offset="0%" style="stop-color: #FF8501; stop-opacity:1"/>
   <stop offset="100%" style="stop-color: #FFCB01; stop-opacity:1"/>
  </linearGradient>
  <linearGradient id="telinkrin" x1="0%" x2="0%" y1="0%" y2="100%">
   <stop offset="0%" style="stop-color: #b2ced6; stop-opacity:1"/>
   <stop offset="100%" style="stop-color: #6da5b7; stop-opacity:1"/>
  </linearGradient>
  <linearGradient id="60spsycho" x1="0%" x2="0%" y1="0%" y2="100%">
   <stop offset="0%" style="stop-color: #df5940; stop-opacity:1"/>
   <stop offset="25%" style="stop-color: #d8d15f; stop-opacity:1"/>
   <stop offset="50%" style="stop-color: #e9882a; stop-opacity:1"/>
   <stop offset="100%" style="stop-color: #279362; stop-opacity:1"/>
  </linearGradient>
  <linearGradient id="90ssummer" x1="0%" x2="0%" y1="0%" y2="100%">
   <stop offset="0%" style="stop-color: #f618c7; stop-opacity:1"/>
   <stop offset="20%" style="stop-color: #94ffab; stop-opacity:1"/>
   <stop offset="50%" style="stop-color: #fbfd54; stop-opacity:1"/>
   <stop offset="100%" style="stop-color: #0f83ae; stop-opacity:1"/>
  </linearGradient>
 </defs>
 <path fill="currentColor" class="ColorScheme-Text" d="M 1.501063,13.73462 C 0.602822,12.51328 0.5,12.36716 0.5,12.31205 c 0,-0.0286 0.367383,-0.53143 0.816406,-1.11729 l 0.816407,-1.0652 v 2.18522 c 0,1.20187 -0.01549,2.18522 -0.03442,2.18522 -0.01893,0 -0.28773,-0.34442 -0.597326,-0.76538 z M 2.60905,12.33279 v -1.03038 h 4.286133 c 5.0954,0 4.583331,0.11061 4.54728,-0.98226 -0.01392,-0.4220196 -0.05631,-0.7381096 -0.107174,-0.7992696 -0.07207,-0.0867 -0.686016,-0.10741 -4.278884,-0.14461 -3.862801,-0.04 -4.205145,-0.0528 -4.326265,-0.16245 -0.126085,-0.1141 -0.130608,-0.21765 -0.109301,-2.5019602 0.02088,-2.23829 0.03049,-2.39694 0.158295,-2.61393 0.195725,-0.33229 0.455791,-0.50004 0.865675,-0.55839 0.197414,-0.0281 2.47904,-0.0533 5.07028,-0.0561 l 4.711345,-0.005 v 0.98318 0.98318 l -4.283752,0.0203 c -4.006033,0.019 -4.291625,0.0282 -4.405192,0.14181 -0.100932,0.10097 -0.121441,0.24052 -0.121441,0.82627 0,1.09726 -0.40074,0.99054 3.735398,0.9947 1.911905,0.002 3.682709,0.0265 3.935118,0.0545 0.51279,0.057 0.755432,0.19748 0.969784,0.5613902 0.127818,0.21701 0.136068,0.35337 0.136068,2.2490996 v 2.01809 l -0.153809,0.41055 c -0.113413,0.1614 -0.263641,0.29033 -0.452887,0.37431 l -0.446091,0.19796 -4.86529,0.0346 -4.86529,0.0346 z m 11.327638,-10.1564098 0.549813,0.73611 c 1.129439,1.51213 1.080162,1.42648 0.942697,1.63861 -0.152549,0.23541 -0.852252,1.1651 -1.22399,1.62631 l -0.283493,0.35172 c -0.0028,0.0695 0.01497,-4.35275 0.01497,-4.35275 z"/>
</svg>
