<svg xmlns="http://www.w3.org/2000/svg" width="16" height="16" version="1.1">
 <defs>
   <style id="current-color-scheme" type="text/css">
   .ColorScheme-Text { color: #c8dff1; } .ColorScheme-Highlight { color: #1AD6AB; }
  </style>
  <linearGradient id="arrongin" x1="0%" x2="0%" y1="0%" y2="100%">
   <stop offset="0%" style="stop-color: #dd9b44; stop-opacity: 1"/>
   <stop offset="100%" style="stop-color: #ad6c16; stop-opacity: 1"/>
  </linearGradient>
  <linearGradient id="aurora" x1="0%" x2="0%" y1="0%" y2="100%">
   <stop offset="0%" style="stop-color: #09D4DF; stop-opacity: 1"/>
   <stop offset="100%" style="stop-color: #9269F4; stop-opacity: 1"/>
  </linearGradient>
  <linearGradient id="cyberneon" x1="0%" x2="0%" y1="0%" y2="100%">
    <stop offset="0" style="stop-color: #0abdc6; stop-opacity: 1"/>
    <stop offset="1" style="stop-color: #ea00d9; stop-opacity: 1"/>
  </linearGradient>
  <linearGradient id="fitdance" x1="0%" x2="0%" y1="0%" y2="100%">
   <stop offset="0%" style="stop-color: #1AD6AB; stop-opacity: 1"/>
   <stop offset="100%" style="stop-color: #329DB6; stop-opacity: 1"/>
  </linearGradient>
  <linearGradient id="oomox" x1="0%" x2="0%" y1="0%" y2="100%">
   <stop offset="0%" style="stop-color: #efefe7; stop-opacity: 1"/>
   <stop offset="100%" style="stop-color: #8f8f8b; stop-opacity: 1"/>
  </linearGradient>
  <linearGradient id="rainblue" x1="0%" x2="0%" y1="0%" y2="100%">
   <stop offset="0%" style="stop-color: #00F260; stop-opacity: 1"/>
   <stop offset="100%" style="stop-color: #0575E6; stop-opacity: 1"/>
  </linearGradient>
  <linearGradient id="sunrise" x1="0%" x2="0%" y1="0%" y2="100%">
   <stop offset="0%" style="stop-color: #FF8501; stop-opacity: 1"/>
   <stop offset="100%" style="stop-color: #FFCB01; stop-opacity: 1"/>
  </linearGradient>
  <linearGradient id="telinkrin" x1="0%" x2="0%" y1="0%" y2="100%">
   <stop offset="0%" style="stop-color: #b2ced6; stop-opacity: 1"/>
   <stop offset="100%" style="stop-color: #6da5b7; stop-opacity: 1"/>
  </linearGradient>
  <linearGradient id="60spsycho" x1="0%" x2="0%" y1="0%" y2="100%">
   <stop offset="0%" style="stop-color: #df5940; stop-opacity: 1"/>
   <stop offset="25%" style="stop-color: #d8d15f; stop-opacity: 1"/>
   <stop offset="50%" style="stop-color: #e9882a; stop-opacity: 1"/>
   <stop offset="100%" style="stop-color: #279362; stop-opacity: 1"/>
  </linearGradient>
  <linearGradient id="90ssummer" x1="0%" x2="0%" y1="0%" y2="100%">
   <stop offset="0%" style="stop-color: #f618c7; stop-opacity: 1"/>
   <stop offset="20%" style="stop-color: #94ffab; stop-opacity: 1"/>
   <stop offset="50%" style="stop-color: #fbfd54; stop-opacity: 1"/>
   <stop offset="100%" style="stop-color: #0f83ae; stop-opacity: 1"/>
  </linearGradient>
 </defs>
 <path fill="currentColor" class="ColorScheme-Text" opacity="0.3" d="M 7.5,1 C 3.9101491,1 1,3.9101491 1,7.5 c 0.00378,3.408965 2.6405581,6.235847 6.0410156,6.476562 C 7.0384989,14.874998 7,16 7,16 c 3.949542,-0.489133 7,-3.918083 7,-8 0,-0.092036 -0.009,-0.1699131 -0.01172,-0.2578125 C 13.993693,7.6615382 13.9976,7.580795 14,7.5 14,3.9101491 11.089851,1 7.5,1 Z M 6.671875,5.9880468 c 0.2079,-1.998e-4 0.3794,0.2033439 0.3125,0.4023439 0.0159,0.0377 0.013672,0.077887 0.013672,0.1171875 0,0.856 8e-4,1.7123594 0,2.5683594 -6e-4,0.765 -0.4946563,1.4794374 -1.2226563,1.7734374 -0.0183,0.008 -0.036787,0.01834 -0.054687,0.02734 -0.0098,0.003 -0.019097,0.0048 -0.029297,0.0078 -0.0056,0.003 -0.011878,0.0048 -0.017578,0.0078 -0.1521,0.042 -0.3040375,0.07661 -0.4609375,0.09961 -0.1197,0.017 -0.1567031,-0.04902 -0.1582031,-0.166015 -0.0012,-0.081 -0.00125,-0.162141 -0.00195,-0.244141 l 0.00391,-0.439453 c -6e-4,-0.032 -0.00205,-0.06566 -0.00195,-0.09766 C 5.0548875,9.9326876 5.1682,9.8842813 5.3125,9.8532813 5.4955,9.8122813 5.545,9.7547188 5.6875,9.6267188 5.8584,9.4727188 5.9608,9.2109063 6,8.9939063 c -0.4937,-0.001 -1.0041469,-9.531e-4 -1.4980469,-0.00195 -0.0537,0 -0.1063562,-9.531e-4 -0.1601562,-0.00195 -0.2016,-0.003 -0.3398438,-0.4006563 -0.3398438,-0.5976563 3e-4,-0.7747 0.00135,-1.2175875 0.00195,-1.9921876 0,-0.0075 -0.00145,-0.015937 -0.00195,-0.023437 -0.0155,-0.1448999 0.027456,-0.2632499 0.1601563,-0.34375 0.0516,-0.0315 0.1085687,-0.042969 0.1679687,-0.042969 0.7807,-4.001e-4 1.5609969,-0.00105 2.3417969,-0.00195 z m 4.001953,0 c 0.208,-1.998e-4 0.377547,0.2033439 0.310547,0.4023439 0.016,0.0377 0.01367,0.077887 0.01367,0.1171875 0,0.856 10e-4,1.7123594 0,2.5683594 -10e-4,0.765 -0.496609,1.4794374 -1.2246095,1.7734374 -0.018,0.008 -0.032781,0.01834 -0.050781,0.02734 -0.01,0.003 -0.02125,0.0048 -0.03125,0.0078 -0.005,0.003 -0.010625,0.0048 -0.015625,0.0078 -0.1519999,0.042 -0.3058906,0.07661 -0.4628906,0.09961 -0.12,0.017 -0.15525,-0.04902 -0.15625,-0.166015 -0.002,-0.081 -0.00195,-0.162141 -0.00195,-0.244141 l 0.00195,-0.439453 c 0,-0.032 -0.00195,-0.06566 -0.00195,-0.09766 10e-4,-0.1120004 0.1118594,-0.1594067 0.2558594,-0.1914067 0.183,-0.041 0.233,-0.098563 0.375,-0.2265625 0.171,-0.154 0.2735,-0.4158125 0.3125,-0.6328125 -0.494,-0.001 -1.0001407,-9.531e-4 -1.4941407,-0.00195 -0.054,0 -0.1091093,-9.531e-4 -0.1621093,-0.00195 -0.202,-0.003 -0.3398438,-0.4006563 -0.3398438,-0.5976563 0,-0.7748001 9.532e-4,-1.2175875 0.00195,-1.9921876 l 0,-0.023437 c -0.016,-0.1448999 0.025203,-0.2631499 0.1582032,-0.34375 0.051,-0.0314 0.1060156,-0.042969 0.1660156,-0.042969 0.781,-4.001e-4 1.5647032,-0.00105 2.345703,-0.00195 z"/>
</svg>
