<svg xmlns="http://www.w3.org/2000/svg" width="16" height="16" version="1.1">
 <defs>
   <style id="current-color-scheme" type="text/css">
   .ColorScheme-Text { color: #c8dff1; } .ColorScheme-Highlight { color: #1AD6AB; }
  </style>
  <linearGradient id="arrongin" x1="0%" x2="0%" y1="0%" y2="100%">
   <stop offset="0%" style="stop-color: #dd9b44; stop-opacity: 1"/>
   <stop offset="100%" style="stop-color: #ad6c16; stop-opacity: 1"/>
  </linearGradient>
  <linearGradient id="aurora" x1="0%" x2="0%" y1="0%" y2="100%">
   <stop offset="0%" style="stop-color: #09D4DF; stop-opacity: 1"/>
   <stop offset="100%" style="stop-color: #9269F4; stop-opacity: 1"/>
  </linearGradient>
  <linearGradient id="cyberneon" x1="0%" x2="0%" y1="0%" y2="100%">
    <stop offset="0" style="stop-color: #0abdc6; stop-opacity: 1"/>
    <stop offset="1" style="stop-color: #ea00d9; stop-opacity: 1"/>
  </linearGradient>
  <linearGradient id="fitdance" x1="0%" x2="0%" y1="0%" y2="100%">
   <stop offset="0%" style="stop-color: #1AD6AB; stop-opacity: 1"/>
   <stop offset="100%" style="stop-color: #329DB6; stop-opacity: 1"/>
  </linearGradient>
  <linearGradient id="oomox" x1="0%" x2="0%" y1="0%" y2="100%">
   <stop offset="0%" style="stop-color: #efefe7; stop-opacity: 1"/>
   <stop offset="100%" style="stop-color: #8f8f8b; stop-opacity: 1"/>
  </linearGradient>
  <linearGradient id="rainblue" x1="0%" x2="0%" y1="0%" y2="100%">
   <stop offset="0%" style="stop-color: #00F260; stop-opacity: 1"/>
   <stop offset="100%" style="stop-color: #0575E6; stop-opacity: 1"/>
  </linearGradient>
  <linearGradient id="sunrise" x1="0%" x2="0%" y1="0%" y2="100%">
   <stop offset="0%" style="stop-color: #FF8501; stop-opacity: 1"/>
   <stop offset="100%" style="stop-color: #FFCB01; stop-opacity: 1"/>
  </linearGradient>
  <linearGradient id="telinkrin" x1="0%" x2="0%" y1="0%" y2="100%">
   <stop offset="0%" style="stop-color: #b2ced6; stop-opacity: 1"/>
   <stop offset="100%" style="stop-color: #6da5b7; stop-opacity: 1"/>
  </linearGradient>
  <linearGradient id="60spsycho" x1="0%" x2="0%" y1="0%" y2="100%">
   <stop offset="0%" style="stop-color: #df5940; stop-opacity: 1"/>
   <stop offset="25%" style="stop-color: #d8d15f; stop-opacity: 1"/>
   <stop offset="50%" style="stop-color: #e9882a; stop-opacity: 1"/>
   <stop offset="100%" style="stop-color: #279362; stop-opacity: 1"/>
  </linearGradient>
  <linearGradient id="90ssummer" x1="0%" x2="0%" y1="0%" y2="100%">
   <stop offset="0%" style="stop-color: #f618c7; stop-opacity: 1"/>
   <stop offset="20%" style="stop-color: #94ffab; stop-opacity: 1"/>
   <stop offset="50%" style="stop-color: #fbfd54; stop-opacity: 1"/>
   <stop offset="100%" style="stop-color: #0f83ae; stop-opacity: 1"/>
  </linearGradient>
 </defs>
 <path fill="currentColor" class="ColorScheme-Text" d="M 3.3482,0 A 0.25823,0.25823 0 0 0 3.094,0.2623 V 1.8297 C 2.4447,1.9384 1.938,2.4451 1.8292,3.0944 H 0.2618 A 0.25823,0.25823 0 1 0 0.2618,3.6108 H 1.8029 V 6.1928 H 0.2618 A 0.25823,0.25823 0 1 0 0.2618,6.7092 H 1.8029 V 9.291 H 0.2618 A 0.2585,0.2585 0 1 0 0.2618,9.808 H 1.8029 V 12.39 H 0.2618 A 0.25823,0.25823 0 1 0 0.2618,12.906 H 1.8292 C 1.938,13.555 2.4447,14.062 3.094,14.171 V 15.738 A 0.25823,0.25823 0 1 0 3.6104,15.738 V 14.197 H 6.1924 V 15.738 A 0.25823,0.25823 0 1 0 6.7088,15.738 V 14.197 H 9.291 V 15.738 A 0.25823,0.25823 0 1 0 9.807,15.738 V 14.197 H 12.389 V 15.738 A 0.2585,0.2585 0 1 0 12.906,15.738 V 14.171 C 13.555,14.062 14.062,13.555 14.17,12.906 H 15.738 A 0.25823,0.25823 0 0 0 16,12.644 0.25823,0.25823 0 0 0 15.738,12.39 H 14.197 V 9.808 H 15.738 A 0.25823,0.25823 0 0 0 16,9.545 0.25823,0.25823 0 0 0 15.738,9.291 H 14.197 V 6.7092 H 15.738 A 0.25823,0.25823 0 0 0 16.001,6.4472 0.25823,0.25823 0 0 0 15.739,6.193 H 14.198 V 3.611 H 15.739 A 0.25823,0.25823 0 0 0 16.001,3.3488 0.25823,0.25823 0 0 0 15.739,3.0946 H 14.171 C 14.062,2.4453 13.555,1.9386 12.906,1.8298 V 0.2624 A 0.25823,0.25823 0 0 0 12.643,2e-4 0.25823,0.25823 0 0 0 12.389,0.2625 V 1.8036 H 9.807 V 0.2625 A 0.25823,0.25823 0 0 0 9.545,2e-4 0.25823,0.25823 0 0 0 9.291,0.2625 V 1.8036 H 6.7094 V 0.2625 A 0.25823,0.25823 0 0 0 6.447,2e-4 0.25823,0.25823 0 0 0 6.1928,0.2625 V 1.8036 H 3.6108 V 0.2625 A 0.25823,0.25823 0 0 0 3.3486,2e-4 Z"/>
</svg>
