<svg xmlns="http://www.w3.org/2000/svg" width="16" height="16" version="1.1">
 <defs>
   <style id="current-color-scheme" type="text/css">
   .ColorScheme-Text { color: #c8dff1; } .ColorScheme-Highlight { color: #1AD6AB; }
  </style>
  <linearGradient id="arrongin" x1="0%" x2="0%" y1="0%" y2="100%">
   <stop offset="0%" style="stop-color: #dd9b44; stop-opacity: 1"/>
   <stop offset="100%" style="stop-color: #ad6c16; stop-opacity: 1"/>
  </linearGradient>
  <linearGradient id="aurora" x1="0%" x2="0%" y1="0%" y2="100%">
   <stop offset="0%" style="stop-color: #09D4DF; stop-opacity: 1"/>
   <stop offset="100%" style="stop-color: #9269F4; stop-opacity: 1"/>
  </linearGradient>
  <linearGradient id="cyberneon" x1="0%" x2="0%" y1="0%" y2="100%">
    <stop offset="0" style="stop-color: #0abdc6; stop-opacity: 1"/>
    <stop offset="1" style="stop-color: #ea00d9; stop-opacity: 1"/>
  </linearGradient>
  <linearGradient id="fitdance" x1="0%" x2="0%" y1="0%" y2="100%">
   <stop offset="0%" style="stop-color: #1AD6AB; stop-opacity: 1"/>
   <stop offset="100%" style="stop-color: #329DB6; stop-opacity: 1"/>
  </linearGradient>
  <linearGradient id="oomox" x1="0%" x2="0%" y1="0%" y2="100%">
   <stop offset="0%" style="stop-color: #efefe7; stop-opacity: 1"/>
   <stop offset="100%" style="stop-color: #8f8f8b; stop-opacity: 1"/>
  </linearGradient>
  <linearGradient id="rainblue" x1="0%" x2="0%" y1="0%" y2="100%">
   <stop offset="0%" style="stop-color: #00F260; stop-opacity: 1"/>
   <stop offset="100%" style="stop-color: #0575E6; stop-opacity: 1"/>
  </linearGradient>
  <linearGradient id="sunrise" x1="0%" x2="0%" y1="0%" y2="100%">
   <stop offset="0%" style="stop-color: #FF8501; stop-opacity: 1"/>
   <stop offset="100%" style="stop-color: #FFCB01; stop-opacity: 1"/>
  </linearGradient>
  <linearGradient id="telinkrin" x1="0%" x2="0%" y1="0%" y2="100%">
   <stop offset="0%" style="stop-color: #b2ced6; stop-opacity: 1"/>
   <stop offset="100%" style="stop-color: #6da5b7; stop-opacity: 1"/>
  </linearGradient>
  <linearGradient id="60spsycho" x1="0%" x2="0%" y1="0%" y2="100%">
   <stop offset="0%" style="stop-color: #df5940; stop-opacity: 1"/>
   <stop offset="25%" style="stop-color: #d8d15f; stop-opacity: 1"/>
   <stop offset="50%" style="stop-color: #e9882a; stop-opacity: 1"/>
   <stop offset="100%" style="stop-color: #279362; stop-opacity: 1"/>
  </linearGradient>
  <linearGradient id="90ssummer" x1="0%" x2="0%" y1="0%" y2="100%">
   <stop offset="0%" style="stop-color: #f618c7; stop-opacity: 1"/>
   <stop offset="20%" style="stop-color: #94ffab; stop-opacity: 1"/>
   <stop offset="50%" style="stop-color: #fbfd54; stop-opacity: 1"/>
   <stop offset="100%" style="stop-color: #0f83ae; stop-opacity: 1"/>
  </linearGradient>
 </defs>
 <path fill="currentColor" class="ColorScheme-Text" d="M 8 1 A 7 7 0 0 0 1 8 A 7 7 0 0 0 8 15 A 7 7 0 0 0 15 8 A 7 7 0 0 0 8 1 z M 8 3 A 5 5 0 0 1 12.908203 7.0566406 A 1.5 1.5 0 0 1 14 8.5 A 1.5 1.5 0 0 1 12.578125 9.9960938 A 5 5 0 0 1 9.9960938 12.582031 A 1.5 1.5 0 0 1 8.5 14 A 1.5 1.5 0 0 1 7.0566406 12.90625 A 5 5 0 0 1 3 8 A 5 5 0 0 1 3.0019531 7.9140625 A 1.5 1.5 0 0 1 2 6.5 A 1.5 1.5 0 0 1 3.5 5 A 1.5 1.5 0 0 1 3.9550781 5.0722656 A 5 5 0 0 1 8 3 z M 8 4 A 4 4 0 0 0 4.7519531 5.6738281 A 1.5 1.5 0 0 1 5 6.5 A 1.5 1.5 0 0 1 4.9960938 6.5605469 L 7.3730469 7.5117188 A 1.5 1.5 0 0 1 8.5 7 A 1.5 1.5 0 0 1 9.9121094 8 L 11.087891 8 A 1.5 1.5 0 0 1 11.898438 7.1289062 A 4 4 0 0 0 8 4 z M 4.625 7.4882812 A 1.5 1.5 0 0 1 4.0039062 7.9101562 A 4 4 0 0 0 4 8 A 4 4 0 0 0 7.1269531 11.900391 A 1.5 1.5 0 0 1 8 11.087891 L 8 9.9121094 A 1.5 1.5 0 0 1 7 8.5 A 1.5 1.5 0 0 1 7.0039062 8.4394531 L 4.625 7.4882812 z M 9.9121094 9 A 1.5 1.5 0 0 1 9 9.9121094 L 9 11.087891 A 1.5 1.5 0 0 1 9.7050781 11.613281 A 4 4 0 0 0 11.611328 9.7070312 A 1.5 1.5 0 0 1 11.087891 9 L 9.9121094 9 z"/>
</svg>
