<svg xmlns="http://www.w3.org/2000/svg" width="16" height="16" version="1.1">
 <defs>
   <style id="current-color-scheme" type="text/css">
   .ColorScheme-Text { color: #cc00cc; } .ColorScheme-Highlight { color:#5294e2; }
  </style>
  <linearGradient id="arrongin" x1="0%" x2="0%" y1="0%" y2="100%">
   <stop offset="0%" style="stop-color:#dd9b44; stop-opacity:1"/>
   <stop offset="100%" style="stop-color:#ad6c16; stop-opacity:1"/>
  </linearGradient>
  <linearGradient id="aurora" x1="0%" x2="0%" y1="0%" y2="100%">
   <stop offset="0%" style="stop-color:#09D4DF; stop-opacity:1"/>
   <stop offset="100%" style="stop-color:#9269F4; stop-opacity:1"/>
  </linearGradient>
  <linearGradient id="cyberneon" x1="0%" x2="0%" y1="0%" y2="100%">
    <stop offset="0" style="stop-color:#0abdc6; stop-opacity:1"/>
    <stop offset="1" style="stop-color:#ea00d9; stop-opacity:1"/>
  </linearGradient>
  <linearGradient id="fitdance" x1="0%" x2="0%" y1="0%" y2="100%">
   <stop offset="0%" style="stop-color:#1AD6AB; stop-opacity:1"/>
   <stop offset="100%" style="stop-color:#329DB6; stop-opacity:1"/>
  </linearGradient>
  <linearGradient id="oomox" x1="0%" x2="0%" y1="0%" y2="100%">
   <stop offset="0%" style="stop-color:#efefe7; stop-opacity:1"/>
   <stop offset="100%" style="stop-color:#8f8f8b; stop-opacity:1"/>
  </linearGradient>
  <linearGradient id="rainblue" x1="0%" x2="0%" y1="0%" y2="100%">
   <stop offset="0%" style="stop-color:#00F260; stop-opacity:1"/>
   <stop offset="100%" style="stop-color:#0575E6; stop-opacity:1"/>
  </linearGradient>
  <linearGradient id="sunrise" x1="0%" x2="0%" y1="0%" y2="100%">
   <stop offset="0%" style="stop-color: #FF8501; stop-opacity:1"/>
   <stop offset="100%" style="stop-color: #FFCB01; stop-opacity:1"/>
  </linearGradient>
  <linearGradient id="telinkrin" x1="0%" x2="0%" y1="0%" y2="100%">
   <stop offset="0%" style="stop-color: #b2ced6; stop-opacity:1"/>
   <stop offset="100%" style="stop-color: #6da5b7; stop-opacity:1"/>
  </linearGradient>
  <linearGradient id="60spsycho" x1="0%" x2="0%" y1="0%" y2="100%">
   <stop offset="0%" style="stop-color: #df5940; stop-opacity:1"/>
   <stop offset="25%" style="stop-color: #d8d15f; stop-opacity:1"/>
   <stop offset="50%" style="stop-color: #e9882a; stop-opacity:1"/>
   <stop offset="100%" style="stop-color: #279362; stop-opacity:1"/>
  </linearGradient>
  <linearGradient id="90ssummer" x1="0%" x2="0%" y1="0%" y2="100%">
   <stop offset="0%" style="stop-color: #f618c7; stop-opacity:1"/>
   <stop offset="20%" style="stop-color: #94ffab; stop-opacity:1"/>
   <stop offset="50%" style="stop-color: #fbfd54; stop-opacity:1"/>
   <stop offset="100%" style="stop-color: #0f83ae; stop-opacity:1"/>
  </linearGradient>
 </defs>
 <path fill="currentColor" class="ColorScheme-Text" d="M 2.2647059,12.735294 V 14.5 h 2.6470588 v -1.764706 z"/>
 <path fill="currentColor" class="ColorScheme-Text" d="M 5.7941176,12.735294 V 14.5 h 2.6470589 v -1.764706 z"/>
 <path fill="currentColor" class="ColorScheme-Text" d="M 9.3235294,12.735294 V 14.5 h 2.6470586 v -1.764706 z"/>
 <path fill="currentColor" class="ColorScheme-Text" d="M 12.852941,12.735294 V 14.5 H 15.5 v -1.764706 z"/>
 <path fill="currentColor" class="ColorScheme-Text" d="m 0.5,10.088235 v 1.764706 h 2.6470588 v -1.764706 z"/>
 <path fill="currentColor" class="ColorScheme-Text" d="m 4.0294118,10.088235 v 1.764706 h 2.6470588 v -1.764706 z"/>
 <path fill="currentColor" class="ColorScheme-Text" d="m 7.5588235,10.088235 v 1.764706 h 2.6470585 v -1.764706 z"/>
 <path fill="currentColor" class="ColorScheme-Text" d="m 11.088235,10.088235 v 1.764706 h 2.647059 v -1.764706 z"/>
 <path fill="currentColor" class="ColorScheme-Text" d="M 2.2647059,7.4411767 V 9.2058826 H 4.9117647 V 7.4411767 Z"/>
 <path fill="currentColor" class="ColorScheme-Text" d="M 5.7941176,7.4411767 V 9.2058826 H 8.4411765 V 7.4411767 Z"/>
 <path fill="currentColor" class="ColorScheme-Text" d="M 9.3235294,7.4411767 V 9.2058826 H 11.970588 V 7.4411767 Z"/>
 <path fill="currentColor" class="ColorScheme-Text" d="M 12.852941,7.4411767 V 9.2058826 H 15.5 V 7.4411767 Z"/>
 <path fill="currentColor" class="ColorScheme-Text" d="M 0.5,4.7941178 V 6.5588237 H 3.1470588 V 4.7941178 Z"/>
 <path fill="currentColor" class="ColorScheme-Text" d="M 4.0294118,4.7941178 V 6.5588237 H 6.6764706 V 4.7941178 Z"/>
 <path fill="currentColor" class="ColorScheme-Text" d="M 7.5588235,4.7941178 V 6.5588237 H 10.205882 V 4.7941178 Z"/>
 <path fill="currentColor" class="ColorScheme-Text" d="m 11.088235,4.7941178 v 1.7647059 h 2.647059 V 4.7941178 Z"/>
 <path fill="currentColor" class="ColorScheme-Text" d="M 2.2647059,2.147059 V 3.9117649 H 4.9117647 V 2.147059 Z"/>
 <path fill="currentColor" class="ColorScheme-Text" d="M 5.7941176,2.147059 V 3.9117649 H 8.4411765 V 2.147059 Z"/>
 <path fill="currentColor" class="ColorScheme-Text" d="M 9.3235294,2.147059 V 3.9117649 H 11.970588 V 2.147059 Z"/>
 <path fill="currentColor" class="ColorScheme-Text" d="M 12.852941,2.147059 V 3.9117649 H 15.5 V 2.147059 Z"/>
</svg>
