<svg xmlns="http://www.w3.org/2000/svg" width="16" height="16" version="1.1">
 <defs>
   <style id="current-color-scheme" type="text/css">
   .ColorScheme-Text { color: #cc00cc; } .ColorScheme-Highlight { color:#5294e2; }
  </style>
  <linearGradient id="arrongin" x1="0%" x2="0%" y1="0%" y2="100%">
   <stop offset="0%" style="stop-color:#dd9b44; stop-opacity:1"/>
   <stop offset="100%" style="stop-color:#ad6c16; stop-opacity:1"/>
  </linearGradient>
  <linearGradient id="aurora" x1="0%" x2="0%" y1="0%" y2="100%">
   <stop offset="0%" style="stop-color:#09D4DF; stop-opacity:1"/>
   <stop offset="100%" style="stop-color:#9269F4; stop-opacity:1"/>
  </linearGradient>
  <linearGradient id="cyberneon" x1="0%" x2="0%" y1="0%" y2="100%">
    <stop offset="0" style="stop-color:#0abdc6; stop-opacity:1"/>
    <stop offset="1" style="stop-color:#ea00d9; stop-opacity:1"/>
  </linearGradient>
  <linearGradient id="fitdance" x1="0%" x2="0%" y1="0%" y2="100%">
   <stop offset="0%" style="stop-color:#1AD6AB; stop-opacity:1"/>
   <stop offset="100%" style="stop-color:#329DB6; stop-opacity:1"/>
  </linearGradient>
  <linearGradient id="oomox" x1="0%" x2="0%" y1="0%" y2="100%">
   <stop offset="0%" style="stop-color:#efefe7; stop-opacity:1"/>
   <stop offset="100%" style="stop-color:#8f8f8b; stop-opacity:1"/>
  </linearGradient>
  <linearGradient id="rainblue" x1="0%" x2="0%" y1="0%" y2="100%">
   <stop offset="0%" style="stop-color:#00F260; stop-opacity:1"/>
   <stop offset="100%" style="stop-color:#0575E6; stop-opacity:1"/>
  </linearGradient>
  <linearGradient id="sunrise" x1="0%" x2="0%" y1="0%" y2="100%">
   <stop offset="0%" style="stop-color: #FF8501; stop-opacity:1"/>
   <stop offset="100%" style="stop-color: #FFCB01; stop-opacity:1"/>
  </linearGradient>
  <linearGradient id="telinkrin" x1="0%" x2="0%" y1="0%" y2="100%">
   <stop offset="0%" style="stop-color: #b2ced6; stop-opacity:1"/>
   <stop offset="100%" style="stop-color: #6da5b7; stop-opacity:1"/>
  </linearGradient>
  <linearGradient id="60spsycho" x1="0%" x2="0%" y1="0%" y2="100%">
   <stop offset="0%" style="stop-color: #df5940; stop-opacity:1"/>
   <stop offset="25%" style="stop-color: #d8d15f; stop-opacity:1"/>
   <stop offset="50%" style="stop-color: #e9882a; stop-opacity:1"/>
   <stop offset="100%" style="stop-color: #279362; stop-opacity:1"/>
  </linearGradient>
  <linearGradient id="90ssummer" x1="0%" x2="0%" y1="0%" y2="100%">
   <stop offset="0%" style="stop-color: #f618c7; stop-opacity:1"/>
   <stop offset="20%" style="stop-color: #94ffab; stop-opacity:1"/>
   <stop offset="50%" style="stop-color: #fbfd54; stop-opacity:1"/>
   <stop offset="100%" style="stop-color: #0f83ae; stop-opacity:1"/>
  </linearGradient>
 </defs>
 <path fill="currentColor" class="ColorScheme-Text" fill-rule="evenodd" d="M 7.143 1.714 L 7.143 3.429 L 8.857 3.429 L 8.857 1.714 L 7.143 1.714 L 7.143 1.714 L 7.143 1.714 Z M 8.043 0 L 8.043 0.001 C 7.71 -0.008 7.382 0.077 7.093 0.246 L 1.758 3.373 C 1.234 3.681 0.896 4.235 0.857 4.849 C 0.891 5.469 1.23 6.029 1.758 6.34 L 7.093 9.468 C 7.654 9.797 8.346 9.797 8.907 9.468 L 14.242 6.34 C 14.766 6.032 15.104 5.478 15.143 4.864 C 15.109 4.245 14.77 3.684 14.242 3.373 L 8.907 0.246 C 8.644 0.092 8.346 0.007 8.043 0 L 8.043 0 L 8.043 0 Z M 7.143 4.286 L 7.143 8.286 L 8.857 8.286 L 8.857 4.286 L 7.143 4.286 Z"/>
 <path fill="currentColor" class="ColorScheme-Text" fill-rule="evenodd" d="M 0.858 4.8 C 0.858 4.802 0.857 4.805 0.857 4.807 C 0.858 4.814 0.859 4.822 0.859 4.829 C 0.859 4.842 0.858 4.856 0.857 4.87 L 0.857 11.09 C 0.857 11.74 1.202 12.341 1.763 12.666 L 7.094 15.756 C 7.372 15.918 7.689 15.999 8 16 L 8 9.598 C 7.998 9.598 7.997 9.598 7.995 9.598 C 7.946 9.598 7.898 9.596 7.849 9.591 C 7.835 9.591 7.822 9.589 7.809 9.588 C 7.759 9.583 7.71 9.575 7.661 9.566 C 7.652 9.564 7.642 9.563 7.633 9.561 C 7.589 9.552 7.546 9.541 7.502 9.528 C 7.485 9.523 7.467 9.518 7.45 9.513 C 7.416 9.502 7.383 9.49 7.35 9.477 C 7.325 9.467 7.3 9.458 7.275 9.448 C 7.248 9.435 7.221 9.422 7.194 9.408 C 7.16 9.392 7.126 9.374 7.093 9.356 L 1.759 6.266 C 1.706 6.235 1.656 6.202 1.607 6.166 L 1.607 6.166 C 1.604 6.165 1.602 6.163 1.6 6.161 C 1.555 6.129 1.512 6.094 1.471 6.058 C 1.45 6.038 1.429 6.018 1.408 5.998 C 1.386 5.977 1.364 5.955 1.342 5.933 C 1.319 5.907 1.297 5.88 1.275 5.853 C 1.258 5.834 1.242 5.814 1.226 5.794 C 1.205 5.765 1.184 5.735 1.164 5.705 C 1.15 5.685 1.137 5.665 1.124 5.644 C 1.104 5.611 1.085 5.578 1.068 5.544 C 1.057 5.525 1.047 5.505 1.037 5.486 C 1.021 5.451 1.005 5.415 0.991 5.379 C 0.982 5.359 0.974 5.338 0.966 5.318 C 0.957 5.292 0.949 5.267 0.942 5.241 C 0.93 5.207 0.919 5.172 0.91 5.137 C 0.907 5.122 0.904 5.107 0.901 5.092 C 0.891 5.049 0.882 5.005 0.875 4.961 C 0.867 4.908 0.861 4.854 0.858 4.8 Z M 2.611 8.066 C 2.069 8.055 1.714 8.367 1.714 8.959 L 1.714 10.098 C 1.714 11.046 2.622 12.343 3.75 13.006 L 7.143 15 L 7.143 13.861 L 3.75 11.865 C 3.351 11.63 3.072 11.232 3.072 10.896 L 3.072 9.757 C 3.072 9.421 3.351 9.351 3.75 9.585 L 7.143 11.58 L 7.143 10.44 L 3.75 8.445 C 3.327 8.196 2.935 8.073 2.611 8.066 Z"/>
 <path fill="currentColor" class="ColorScheme-Text" fill-rule="evenodd" d="M 15.141 4.829 C 15.095 5.427 14.759 5.965 14.241 6.266 L 8.907 9.356 C 8.631 9.515 8.318 9.599 8 9.598 L 8 16 C 8.313 16 8.626 15.919 8.906 15.756 L 14.237 12.666 C 14.798 12.341 15.143 11.74 15.143 11.09 L 15.143 4.87 C 15.142 4.856 15.141 4.842 15.141 4.829 L 15.141 4.829 Z M 12.64 9.469 C 12.819 9.462 12.928 9.567 12.928 9.777 L 10.215 11.373 C 10.215 11.038 10.493 10.639 10.893 10.404 L 11.571 10.006 L 12.25 9.607 C 12.4 9.519 12.533 9.474 12.64 9.469 L 12.64 9.469 L 12.64 9.469 Z M 13.39 8.088 C 13.065 8.095 12.673 8.218 12.25 8.467 L 11.571 8.865 L 10.893 9.264 C 9.765 9.927 8.857 11.224 8.857 12.171 L 8.857 13.311 C 8.857 14.258 9.765 14.487 10.893 13.824 L 11.571 13.426 L 11.571 12.285 L 10.893 12.684 C 10.493 12.919 10.215 12.848 10.215 12.513 L 11.571 11.715 L 12.928 10.916 L 14.286 10.119 L 14.286 8.979 C 14.286 8.387 13.931 8.076 13.39 8.088 L 13.39 8.088 L 13.39 8.088 Z"/>
</svg>
