<svg xmlns="http://www.w3.org/2000/svg" width="16" height="16" version="1.1">
 <defs>
   <style id="current-color-scheme" type="text/css">
   .ColorScheme-Text { color: #cc00cc; } .ColorScheme-Highlight { color:#5294e2; }
  </style>
  <linearGradient id="arrongin" x1="0%" x2="0%" y1="0%" y2="100%">
   <stop offset="0%" style="stop-color:#dd9b44; stop-opacity:1"/>
   <stop offset="100%" style="stop-color:#ad6c16; stop-opacity:1"/>
  </linearGradient>
  <linearGradient id="aurora" x1="0%" x2="0%" y1="0%" y2="100%">
   <stop offset="0%" style="stop-color:#09D4DF; stop-opacity:1"/>
   <stop offset="100%" style="stop-color:#9269F4; stop-opacity:1"/>
  </linearGradient>
  <linearGradient id="cyberneon" x1="0%" x2="0%" y1="0%" y2="100%">
    <stop offset="0" style="stop-color:#0abdc6; stop-opacity:1"/>
    <stop offset="1" style="stop-color:#ea00d9; stop-opacity:1"/>
  </linearGradient>
  <linearGradient id="fitdance" x1="0%" x2="0%" y1="0%" y2="100%">
   <stop offset="0%" style="stop-color:#1AD6AB; stop-opacity:1"/>
   <stop offset="100%" style="stop-color:#329DB6; stop-opacity:1"/>
  </linearGradient>
  <linearGradient id="oomox" x1="0%" x2="0%" y1="0%" y2="100%">
   <stop offset="0%" style="stop-color:#efefe7; stop-opacity:1"/>
   <stop offset="100%" style="stop-color:#8f8f8b; stop-opacity:1"/>
  </linearGradient>
  <linearGradient id="rainblue" x1="0%" x2="0%" y1="0%" y2="100%">
   <stop offset="0%" style="stop-color:#00F260; stop-opacity:1"/>
   <stop offset="100%" style="stop-color:#0575E6; stop-opacity:1"/>
  </linearGradient>
  <linearGradient id="sunrise" x1="0%" x2="0%" y1="0%" y2="100%">
   <stop offset="0%" style="stop-color: #FF8501; stop-opacity:1"/>
   <stop offset="100%" style="stop-color: #FFCB01; stop-opacity:1"/>
  </linearGradient>
  <linearGradient id="telinkrin" x1="0%" x2="0%" y1="0%" y2="100%">
   <stop offset="0%" style="stop-color: #b2ced6; stop-opacity:1"/>
   <stop offset="100%" style="stop-color: #6da5b7; stop-opacity:1"/>
  </linearGradient>
  <linearGradient id="60spsycho" x1="0%" x2="0%" y1="0%" y2="100%">
   <stop offset="0%" style="stop-color: #df5940; stop-opacity:1"/>
   <stop offset="25%" style="stop-color: #d8d15f; stop-opacity:1"/>
   <stop offset="50%" style="stop-color: #e9882a; stop-opacity:1"/>
   <stop offset="100%" style="stop-color: #279362; stop-opacity:1"/>
  </linearGradient>
  <linearGradient id="90ssummer" x1="0%" x2="0%" y1="0%" y2="100%">
   <stop offset="0%" style="stop-color: #f618c7; stop-opacity:1"/>
   <stop offset="20%" style="stop-color: #94ffab; stop-opacity:1"/>
   <stop offset="50%" style="stop-color: #fbfd54; stop-opacity:1"/>
   <stop offset="100%" style="stop-color: #0f83ae; stop-opacity:1"/>
  </linearGradient>
 </defs>
 <path fill="currentColor" class="ColorScheme-Text" d="m 9.8748959,1.37286 v 1.778e-4 a 4.9999488,4.9999488 0 0 0 -4.6239654,3.1029906 2.4999742,2.4999742 0 0 0 -1.625921,-0.6031233 2.4999742,2.4999742 0 0 0 -2.499885,2.5000891 2.4999742,2.4999742 0 0 0 0.516284,1.518569 2.1874774,2.1874774 0 0 0 -1.14142596,1.918843 2.1874774,2.1874774 0 0 0 2.18748696,2.1875008 2.1874774,2.1874774 0 0 0 0.312589,-0.02223 v 0.649411 c 0,1.038747 0.836174,1.874912 1.874916,1.874912 H 11.12503 c 1.038738,0 1.874916,-0.836165 1.874916,-1.874912 v -0.02668 a 2.1874774,2.1874774 0 0 0 0.312589,0.02668 2.1874774,2.1874774 0 0 0 2.187483,-2.187503 2.1874774,2.1874774 0 0 0 -1.119376,-1.9078598 4.9999488,4.9999488 0 0 0 0.494233,-2.154507 4.9999488,4.9999488 0 0 0 -4.9999436,-5.000135 z M 4.5625545,6.9979502 a 1.2499871,1.2499871 0 0 1 1.249943,1.249956 1.2499871,1.2499871 0 0 1 -1.249943,1.249956 1.2499871,1.2499871 0 0 1 -1.249942,-1.249956 1.2499871,1.2499871 0 0 1 1.249942,-1.249956 z m 6.8748605,0 a 1.2499871,1.2499871 0 0 1 1.249942,1.249956 1.2499871,1.2499871 0 0 1 -1.249942,1.249956 1.2499871,1.2499871 0 0 1 -1.249943,-1.249956 1.2499871,1.2499871 0 0 1 1.249943,-1.249956 z m -5.3123465,2.500045 h 3.7498274 c 0,1.0355458 -0.8393882,1.8749118 -1.8749116,1.8749118 -1.0355233,0 -1.8749158,-0.839366 -1.8749158,-1.8749118 z"/>
</svg>
