<svg xmlns="http://www.w3.org/2000/svg" width="16" height="16" version="1.1">
 <defs>
   <style id="current-color-scheme" type="text/css">
   .ColorScheme-Text { color: #00aa00; } .ColorScheme-Highlight { color:#5294e2; }
  </style>
  <linearGradient id="arrongin" x1="0%" x2="0%" y1="0%" y2="100%">
   <stop offset="0%" style="stop-color:#dd9b44; stop-opacity:1"/>
   <stop offset="100%" style="stop-color:#ad6c16; stop-opacity:1"/>
  </linearGradient>
  <linearGradient id="aurora" x1="0%" x2="0%" y1="0%" y2="100%">
   <stop offset="0%" style="stop-color:#09D4DF; stop-opacity:1"/>
   <stop offset="100%" style="stop-color:#9269F4; stop-opacity:1"/>
  </linearGradient>
  <linearGradient id="cyberneon" x1="0%" x2="0%" y1="0%" y2="100%">
    <stop offset="0" style="stop-color:#0abdc6; stop-opacity:1"/>
    <stop offset="1" style="stop-color:#ea00d9; stop-opacity:1"/>
  </linearGradient>
  <linearGradient id="fitdance" x1="0%" x2="0%" y1="0%" y2="100%">
   <stop offset="0%" style="stop-color:#1AD6AB; stop-opacity:1"/>
   <stop offset="100%" style="stop-color:#329DB6; stop-opacity:1"/>
  </linearGradient>
  <linearGradient id="oomox" x1="0%" x2="0%" y1="0%" y2="100%">
   <stop offset="0%" style="stop-color:#00aa00; stop-opacity:1"/>
   <stop offset="100%" style="stop-color:#00cc00; stop-opacity:1"/>
  </linearGradient>
  <linearGradient id="rainblue" x1="0%" x2="0%" y1="0%" y2="100%">
   <stop offset="0%" style="stop-color:#00F260; stop-opacity:1"/>
   <stop offset="100%" style="stop-color:#0575E6; stop-opacity:1"/>
  </linearGradient>
  <linearGradient id="sunrise" x1="0%" x2="0%" y1="0%" y2="100%">
   <stop offset="0%" style="stop-color: #FF8501; stop-opacity:1"/>
   <stop offset="100%" style="stop-color: #FFCB01; stop-opacity:1"/>
  </linearGradient>
  <linearGradient id="telinkrin" x1="0%" x2="0%" y1="0%" y2="100%">
   <stop offset="0%" style="stop-color: #b2ced6; stop-opacity:1"/>
   <stop offset="100%" style="stop-color: #6da5b7; stop-opacity:1"/>
  </linearGradient>
  <linearGradient id="60spsycho" x1="0%" x2="0%" y1="0%" y2="100%">
   <stop offset="0%" style="stop-color: #df5940; stop-opacity:1"/>
   <stop offset="25%" style="stop-color: #d8d15f; stop-opacity:1"/>
   <stop offset="50%" style="stop-color: #e9882a; stop-opacity:1"/>
   <stop offset="100%" style="stop-color: #279362; stop-opacity:1"/>
  </linearGradient>
  <linearGradient id="90ssummer" x1="0%" x2="0%" y1="0%" y2="100%">
   <stop offset="0%" style="stop-color: #f618c7; stop-opacity:1"/>
   <stop offset="20%" style="stop-color: #94ffab; stop-opacity:1"/>
   <stop offset="50%" style="stop-color: #fbfd54; stop-opacity:1"/>
   <stop offset="100%" style="stop-color: #0f83ae; stop-opacity:1"/>
  </linearGradient>
 </defs>
 <g fill="url(#oomox)" class="ColorScheme-Text" transform="matrix(1.0666453,0,0,1.0658339,-973.84804,347.47434)">
  <path d="m 920.5,-326.01172 c -1.92126,0 -3.8417,0.73249 -5.30469,2.19531 -2.92598,2.92565 -2.92598,7.68373 0,10.60938 l 0.70703,-0.70703 c -2.54381,-2.54352 -2.54381,-6.6518 0,-9.19532 2.54382,-2.54351 6.6515,-2.54351 9.19532,0 2.54381,2.54352 2.54381,6.6518 0,9.19532 l 0.70898,0.70703 c 2.92598,-2.92565 2.92598,-7.68373 0,-10.60938 -1.46299,-1.46282 -3.38538,-2.19531 -5.30664,-2.19531 z"/>
  <path d="m 920.5,-323.00781 c -1.1526,0 -2.30586,0.43498 -3.18359,1.30469 -1.75547,1.7394 -1.75547,4.58091 0,6.32031 l 0.70507,-0.71094 c -1.37158,-1.35903 -1.37158,-3.53941 0,-4.89844 1.37159,-1.35903 3.58545,-1.35903 4.95704,0 1.37158,1.35903 1.37158,3.53941 0,4.89844 l 0.70507,0.71094 c 1.75547,-1.7394 1.75547,-4.58091 0,-6.32031 -0.87773,-0.86971 -2.03099,-1.30469 -3.18359,-1.30469 z"/>
  <path d="m 920.5002,-320 a 1.5,1.5 0 0 0 -1.5,1.5 1.5,1.5 0 0 0 1,1.41211 V -311 h 1 v -6.08789 a 1.5,1.5 0 0 0 1,-1.41211 1.5,1.5 0 0 0 -1.5,-1.5 z"/>
 </g>
</svg>
