<svg xmlns="http://www.w3.org/2000/svg" width="16" height="16" version="1.1">
 <defs>
   <style id="current-color-scheme" type="text/css">
   .ColorScheme-Text { color: #00aa00; } .ColorScheme-Highlight { color:#5294e2; }
  </style>
  <linearGradient id="arrongin" x1="0%" x2="0%" y1="0%" y2="100%">
   <stop offset="0%" style="stop-color:#dd9b44; stop-opacity:1"/>
   <stop offset="100%" style="stop-color:#ad6c16; stop-opacity:1"/>
  </linearGradient>
  <linearGradient id="aurora" x1="0%" x2="0%" y1="0%" y2="100%">
   <stop offset="0%" style="stop-color:#09D4DF; stop-opacity:1"/>
   <stop offset="100%" style="stop-color:#9269F4; stop-opacity:1"/>
  </linearGradient>
  <linearGradient id="cyberneon" x1="0%" x2="0%" y1="0%" y2="100%">
    <stop offset="0" style="stop-color:#0abdc6; stop-opacity:1"/>
    <stop offset="1" style="stop-color:#ea00d9; stop-opacity:1"/>
  </linearGradient>
  <linearGradient id="fitdance" x1="0%" x2="0%" y1="0%" y2="100%">
   <stop offset="0%" style="stop-color:#1AD6AB; stop-opacity:1"/>
   <stop offset="100%" style="stop-color:#329DB6; stop-opacity:1"/>
  </linearGradient>
  <linearGradient id="oomox" x1="0%" x2="0%" y1="0%" y2="100%">
   <stop offset="0%" style="stop-color:#00aa00; stop-opacity:1"/>
   <stop offset="100%" style="stop-color:#00cc00; stop-opacity:1"/>
  </linearGradient>
  <linearGradient id="rainblue" x1="0%" x2="0%" y1="0%" y2="100%">
   <stop offset="0%" style="stop-color:#00F260; stop-opacity:1"/>
   <stop offset="100%" style="stop-color:#0575E6; stop-opacity:1"/>
  </linearGradient>
  <linearGradient id="sunrise" x1="0%" x2="0%" y1="0%" y2="100%">
   <stop offset="0%" style="stop-color: #FF8501; stop-opacity:1"/>
   <stop offset="100%" style="stop-color: #FFCB01; stop-opacity:1"/>
  </linearGradient>
  <linearGradient id="telinkrin" x1="0%" x2="0%" y1="0%" y2="100%">
   <stop offset="0%" style="stop-color: #b2ced6; stop-opacity:1"/>
   <stop offset="100%" style="stop-color: #6da5b7; stop-opacity:1"/>
  </linearGradient>
  <linearGradient id="60spsycho" x1="0%" x2="0%" y1="0%" y2="100%">
   <stop offset="0%" style="stop-color: #df5940; stop-opacity:1"/>
   <stop offset="25%" style="stop-color: #d8d15f; stop-opacity:1"/>
   <stop offset="50%" style="stop-color: #e9882a; stop-opacity:1"/>
   <stop offset="100%" style="stop-color: #279362; stop-opacity:1"/>
  </linearGradient>
  <linearGradient id="90ssummer" x1="0%" x2="0%" y1="0%" y2="100%">
   <stop offset="0%" style="stop-color: #f618c7; stop-opacity:1"/>
   <stop offset="20%" style="stop-color: #94ffab; stop-opacity:1"/>
   <stop offset="50%" style="stop-color: #fbfd54; stop-opacity:1"/>
   <stop offset="100%" style="stop-color: #0f83ae; stop-opacity:1"/>
  </linearGradient>
 </defs>
 <path fill="url(#oomox)" class="ColorScheme-Text" fill-rule="evenodd" d="M 7.903 0.097 C 3.538 0.097 0 3.635 0 8 C 0 12.365 3.538 15.903 7.903 15.903 C 8.473 15.9 9.041 15.835 9.597 15.71 C 5.974 14.915 3.391 11.709 3.387 8 C 3.39 4.296 5.965 1.09 9.582 0.29 C 9.031 0.166 8.468 0.101 7.903 0.097 L 7.903 0.097 Z M 12.544 8.141 C 13.547 8.775 14.636 9.26 16 9.253 C 14.813 9.807 14.882 11.304 12.007 10.665 C 11.676 10.592 11.372 10.495 11.088 10.378 C 11.042 11.563 11.166 12.749 11.855 13.927 C 10.781 13.176 9.519 13.985 8.635 11.176 C 8.533 10.852 8.465 10.54 8.424 10.236 C 7.374 10.789 6.41 11.49 5.733 12.675 C 5.847 11.37 4.516 10.681 6.506 8.51 C 6.735 8.261 6.971 8.046 7.214 7.859 C 6.211 7.225 5.122 6.74 3.758 6.747 C 4.945 6.193 4.876 4.696 7.751 5.335 C 8.082 5.408 8.386 5.505 8.67 5.622 C 8.716 4.437 8.591 3.251 7.903 2.073 C 8.976 2.824 10.238 2.015 11.123 4.824 C 11.225 5.148 11.293 5.46 11.334 5.764 C 12.383 5.211 13.348 4.51 14.024 3.325 C 13.91 4.63 15.241 5.319 13.251 7.49 C 13.022 7.739 12.786 7.954 12.544 8.141 Z"/>
</svg>
