<svg xmlns="http://www.w3.org/2000/svg" width="16" height="16" version="1.1">
 <defs>
   <style id="current-color-scheme" type="text/css">
   .ColorScheme-Text { color: #00aa00; } .ColorScheme-Highlight { color:#5294e2; }
  </style>
  <linearGradient id="arrongin" x1="0%" x2="0%" y1="0%" y2="100%">
   <stop offset="0%" style="stop-color:#dd9b44; stop-opacity:1"/>
   <stop offset="100%" style="stop-color:#ad6c16; stop-opacity:1"/>
  </linearGradient>
  <linearGradient id="aurora" x1="0%" x2="0%" y1="0%" y2="100%">
   <stop offset="0%" style="stop-color:#09D4DF; stop-opacity:1"/>
   <stop offset="100%" style="stop-color:#9269F4; stop-opacity:1"/>
  </linearGradient>
  <linearGradient id="cyberneon" x1="0%" x2="0%" y1="0%" y2="100%">
    <stop offset="0" style="stop-color:#0abdc6; stop-opacity:1"/>
    <stop offset="1" style="stop-color:#ea00d9; stop-opacity:1"/>
  </linearGradient>
  <linearGradient id="fitdance" x1="0%" x2="0%" y1="0%" y2="100%">
   <stop offset="0%" style="stop-color:#1AD6AB; stop-opacity:1"/>
   <stop offset="100%" style="stop-color:#329DB6; stop-opacity:1"/>
  </linearGradient>
  <linearGradient id="oomox" x1="0%" x2="0%" y1="0%" y2="100%">
   <stop offset="0%" style="stop-color:#00aa00; stop-opacity:1"/>
   <stop offset="100%" style="stop-color:#00cc00; stop-opacity:1"/>
  </linearGradient>
  <linearGradient id="rainblue" x1="0%" x2="0%" y1="0%" y2="100%">
   <stop offset="0%" style="stop-color:#00F260; stop-opacity:1"/>
   <stop offset="100%" style="stop-color:#0575E6; stop-opacity:1"/>
  </linearGradient>
  <linearGradient id="sunrise" x1="0%" x2="0%" y1="0%" y2="100%">
   <stop offset="0%" style="stop-color: #FF8501; stop-opacity:1"/>
   <stop offset="100%" style="stop-color: #FFCB01; stop-opacity:1"/>
  </linearGradient>
  <linearGradient id="telinkrin" x1="0%" x2="0%" y1="0%" y2="100%">
   <stop offset="0%" style="stop-color: #b2ced6; stop-opacity:1"/>
   <stop offset="100%" style="stop-color: #6da5b7; stop-opacity:1"/>
  </linearGradient>
  <linearGradient id="60spsycho" x1="0%" x2="0%" y1="0%" y2="100%">
   <stop offset="0%" style="stop-color: #df5940; stop-opacity:1"/>
   <stop offset="25%" style="stop-color: #d8d15f; stop-opacity:1"/>
   <stop offset="50%" style="stop-color: #e9882a; stop-opacity:1"/>
   <stop offset="100%" style="stop-color: #279362; stop-opacity:1"/>
  </linearGradient>
  <linearGradient id="90ssummer" x1="0%" x2="0%" y1="0%" y2="100%">
   <stop offset="0%" style="stop-color: #f618c7; stop-opacity:1"/>
   <stop offset="20%" style="stop-color: #94ffab; stop-opacity:1"/>
   <stop offset="50%" style="stop-color: #fbfd54; stop-opacity:1"/>
   <stop offset="100%" style="stop-color: #0f83ae; stop-opacity:1"/>
  </linearGradient>
 </defs>
 <path fill="url(#oomox)" class="ColorScheme-Text" d="M 9.3144531 0.0390625 L 6.6816406 0.43359375 L 6.6816406 1.2460938 A 6.99 7.0066411 0 0 0 4.578125 2.0097656 L 3.9296875 1.2324219 L 1.9238281 2.9433594 L 2.5625 3.7050781 A 6.99 7.0066411 0 0 0 1.9257812 4.6269531 C 1.7345083 4.9592225 1.582707 5.3027371 1.4511719 5.6503906 L 0.44726562 5.4726562 L 0.0078125 8.0742188 L 1.0019531 8.25 C 1.0161294 8.9994179 1.1470737 9.7409468 1.3925781 10.445312 L 0.5 10.962891 L 1.8300781 13.240234 L 2.7128906 12.730469 C 3.1894453 13.28123 3.7569486 13.767424 4.4140625 14.160156 L 4.0605469 15.136719 L 6.5410156 16.023438 L 6.890625 15.058594 C 7.6321487 15.17786 8.3805197 15.181633 9.109375 15.064453 L 9.4628906 16.039062 L 11.931641 15.121094 L 11.583984 14.164062 C 12.21646 13.787575 12.79284 13.308363 13.289062 12.732422 L 14.181641 13.248047 L 15.484375 10.955078 L 14.605469 10.447266 C 14.853948 9.7295129 14.97891 8.9883963 14.988281 8.2519531 L 16.007812 8.0722656 L 15.533203 5.4765625 L 14.53125 5.6523438 C 14.268998 4.9609643 13.892243 4.3110509 13.419922 3.7265625 L 14.085938 2.9296875 L 12.056641 1.2460938 L 11.408203 2.0195312 A 6.98 6.9966173 0 0 0 9.3144531 1.2519531 L 9.3144531 0.041015625 L 9.3144531 0.0390625 z M 7.9921875 2.125 A 6 6.0142842 0 0 1 13.992188 8.1386719 A 6 6.0142842 0 0 1 7.9921875 14.152344 A 6 6.0142842 0 0 1 1.9921875 8.1386719 A 6 6.0142842 0 0 1 7.9921875 2.125 z M 7.9824219 3.1289062 A 4.976 4.9878464 0 0 0 7.640625 3.140625 A 4.989 5.0008773 0 0 0 3.6582031 5.6289062 A 5.013 5.0249344 0 0 0 5.4941406 12.478516 A 5.002 5.0139083 0 0 0 12.324219 10.648438 A 5.01 5.0219273 0 0 0 10.488281 3.8007812 A 4.976 4.9878464 0 0 0 7.9824219 3.1289062 z M 7.9277344 4.1289062 A 4 4.0095228 0 0 1 7.9921875 4.1289062 A 4 4.0095228 0 0 1 11.992188 8.1386719 A 4 4.0095228 0 0 1 7.9921875 12.148438 A 4 4.0095228 0 0 1 3.9921875 8.1386719 A 4 4.0095228 0 0 1 7.9277344 4.1289062 z"/>
</svg>
