<svg xmlns="http://www.w3.org/2000/svg" width="16" height="16" version="1.1">
 <defs>
   <style id="current-color-scheme" type="text/css">
   .ColorScheme-Text { color: #00aa00; } .ColorScheme-Highlight { color:#5294e2; }
  </style>
  <linearGradient id="arrongin" x1="0%" x2="0%" y1="0%" y2="100%">
   <stop offset="0%" style="stop-color:#dd9b44; stop-opacity:1"/>
   <stop offset="100%" style="stop-color:#ad6c16; stop-opacity:1"/>
  </linearGradient>
  <linearGradient id="aurora" x1="0%" x2="0%" y1="0%" y2="100%">
   <stop offset="0%" style="stop-color:#09D4DF; stop-opacity:1"/>
   <stop offset="100%" style="stop-color:#9269F4; stop-opacity:1"/>
  </linearGradient>
  <linearGradient id="cyberneon" x1="0%" x2="0%" y1="0%" y2="100%">
    <stop offset="0" style="stop-color:#0abdc6; stop-opacity:1"/>
    <stop offset="1" style="stop-color:#ea00d9; stop-opacity:1"/>
  </linearGradient>
  <linearGradient id="fitdance" x1="0%" x2="0%" y1="0%" y2="100%">
   <stop offset="0%" style="stop-color:#1AD6AB; stop-opacity:1"/>
   <stop offset="100%" style="stop-color:#329DB6; stop-opacity:1"/>
  </linearGradient>
  <linearGradient id="oomox" x1="0%" x2="0%" y1="0%" y2="100%">
   <stop offset="0%" style="stop-color:#00aa00; stop-opacity:1"/>
   <stop offset="100%" style="stop-color:#00cc00; stop-opacity:1"/>
  </linearGradient>
  <linearGradient id="rainblue" x1="0%" x2="0%" y1="0%" y2="100%">
   <stop offset="0%" style="stop-color:#00F260; stop-opacity:1"/>
   <stop offset="100%" style="stop-color:#0575E6; stop-opacity:1"/>
  </linearGradient>
  <linearGradient id="sunrise" x1="0%" x2="0%" y1="0%" y2="100%">
   <stop offset="0%" style="stop-color: #FF8501; stop-opacity:1"/>
   <stop offset="100%" style="stop-color: #FFCB01; stop-opacity:1"/>
  </linearGradient>
  <linearGradient id="telinkrin" x1="0%" x2="0%" y1="0%" y2="100%">
   <stop offset="0%" style="stop-color: #b2ced6; stop-opacity:1"/>
   <stop offset="100%" style="stop-color: #6da5b7; stop-opacity:1"/>
  </linearGradient>
  <linearGradient id="60spsycho" x1="0%" x2="0%" y1="0%" y2="100%">
   <stop offset="0%" style="stop-color: #df5940; stop-opacity:1"/>
   <stop offset="25%" style="stop-color: #d8d15f; stop-opacity:1"/>
   <stop offset="50%" style="stop-color: #e9882a; stop-opacity:1"/>
   <stop offset="100%" style="stop-color: #279362; stop-opacity:1"/>
  </linearGradient>
  <linearGradient id="90ssummer" x1="0%" x2="0%" y1="0%" y2="100%">
   <stop offset="0%" style="stop-color: #f618c7; stop-opacity:1"/>
   <stop offset="20%" style="stop-color: #94ffab; stop-opacity:1"/>
   <stop offset="50%" style="stop-color: #fbfd54; stop-opacity:1"/>
   <stop offset="100%" style="stop-color: #0f83ae; stop-opacity:1"/>
  </linearGradient>
 </defs>
 <path fill="url(#oomox)" class="ColorScheme-Text" d="M 8,0 C 3.58168,0 0,3.58168 0,8 c 0,4.41815 3.58168,8 8,8 4.41832,0 8,-3.58185 8,-8 C 16,3.58168 12.41832,0 8,0 Z m 2.84375,2.21875 c 0.13766,0.0171 0.27853,0.0826 0.40625,0.15625 0.51088,0.29509 0.70134,0.92662 0.40625,1.4375 C 11.36151,4.3234 10.6984,4.51384 10.1875,4.21875 9.67697,3.92401 9.48651,3.26054 9.78125,2.75 10.00257,2.36684 10.43076,2.16761 10.84375,2.21875 Z M 8,3.375 c 0.42953,0 0.85529,0.0473 1.25,0.15625 0.0696,0.42918 0.31266,0.82809 0.71875,1.0625 0.4054,0.23372 0.87518,0.24715 1.28125,0.0937 0.78978,0.77678 1.3002,1.82345 1.375,3 l -1.53125,0.0312 C 10.95343,6.12513 9.62985,4.875 8,4.875 7.53047,4.875 7.08669,4.9704 6.6875,5.15625 l -0.75,-1.3125 C 6.55724,3.53696 7.26159,3.375 8,3.375 Z M 5.4375,4.125 6.21875,5.4375 C 5.41658,6.00212 4.875,6.94444 4.875,8 c 0,1.05556 0.54158,1.99819 1.34375,2.5625 L 5.4375,11.875 C 4.50261,11.25037 3.78854,10.27455 3.5,9.15625 3.83713,8.88116 4.0625,8.46924 4.0625,8 4.0625,7.53047 3.83713,7.11884 3.5,6.84375 3.78886,5.72585 4.50295,4.74965 5.4375,4.125 Z M 2.5625,6.9375 C 3.15233,6.9375 3.625,7.40982 3.625,8 3.625,8.5899 3.15233,9.0625 2.5625,9.0625 1.97232,9.0625 1.5,8.5899 1.5,8 1.5,7.40982 1.97232,6.9375 2.5625,6.9375 Z m 8.53125,1.34375 1.53125,0.0312 c -0.0748,1.17655 -0.58522,2.22333 -1.375,3 -0.40607,-0.1534 -0.87551,-0.14032 -1.28125,0.0937 C 9.56266,11.64091 9.31963,12.03947 9.25,12.46865 8.85529,12.57794 8.42953,12.6249 8,12.6249 c -0.73833,0 -1.44268,-0.1616 -2.0625,-0.46875 l 0.75,-1.3125 C 7.08669,11.02947 7.53047,11.1249 8,11.1249 c 1.6298,0 2.95379,-1.24978 3.09375,-2.84375 z m -0.5,3.375 c 0.41293,-0.0512 0.84143,0.14834 1.0625,0.53125 0.29507,0.51088 0.10463,1.14274 -0.40625,1.4375 -0.51088,0.29507 -1.17399,0.1359 -1.46875,-0.375 -0.29507,-0.51054 -0.10463,-1.17368 0.40625,-1.46875 0.12764,-0.0737 0.26861,-0.10795 0.40625,-0.125 z"/>
</svg>
