<svg xmlns="http://www.w3.org/2000/svg" width="16" height="16" version="1.1">
 <defs>
   <style id="current-color-scheme" type="text/css">
   .ColorScheme-Text { color: #00aa00; } .ColorScheme-Highlight { color:#5294e2; }
  </style>
  <linearGradient id="arrongin" x1="0%" x2="0%" y1="0%" y2="100%">
   <stop offset="0%" style="stop-color:#dd9b44; stop-opacity:1"/>
   <stop offset="100%" style="stop-color:#ad6c16; stop-opacity:1"/>
  </linearGradient>
  <linearGradient id="aurora" x1="0%" x2="0%" y1="0%" y2="100%">
   <stop offset="0%" style="stop-color:#09D4DF; stop-opacity:1"/>
   <stop offset="100%" style="stop-color:#9269F4; stop-opacity:1"/>
  </linearGradient>
  <linearGradient id="cyberneon" x1="0%" x2="0%" y1="0%" y2="100%">
    <stop offset="0" style="stop-color:#0abdc6; stop-opacity:1"/>
    <stop offset="1" style="stop-color:#ea00d9; stop-opacity:1"/>
  </linearGradient>
  <linearGradient id="fitdance" x1="0%" x2="0%" y1="0%" y2="100%">
   <stop offset="0%" style="stop-color:#1AD6AB; stop-opacity:1"/>
   <stop offset="100%" style="stop-color:#329DB6; stop-opacity:1"/>
  </linearGradient>
  <linearGradient id="oomox" x1="0%" x2="0%" y1="0%" y2="100%">
   <stop offset="0%" style="stop-color:#00aa00; stop-opacity:1"/>
   <stop offset="100%" style="stop-color:#00cc00; stop-opacity:1"/>
  </linearGradient>
  <linearGradient id="rainblue" x1="0%" x2="0%" y1="0%" y2="100%">
   <stop offset="0%" style="stop-color:#00F260; stop-opacity:1"/>
   <stop offset="100%" style="stop-color:#0575E6; stop-opacity:1"/>
  </linearGradient>
  <linearGradient id="sunrise" x1="0%" x2="0%" y1="0%" y2="100%">
   <stop offset="0%" style="stop-color: #FF8501; stop-opacity:1"/>
   <stop offset="100%" style="stop-color: #FFCB01; stop-opacity:1"/>
  </linearGradient>
  <linearGradient id="telinkrin" x1="0%" x2="0%" y1="0%" y2="100%">
   <stop offset="0%" style="stop-color: #b2ced6; stop-opacity:1"/>
   <stop offset="100%" style="stop-color: #6da5b7; stop-opacity:1"/>
  </linearGradient>
  <linearGradient id="60spsycho" x1="0%" x2="0%" y1="0%" y2="100%">
   <stop offset="0%" style="stop-color: #df5940; stop-opacity:1"/>
   <stop offset="25%" style="stop-color: #d8d15f; stop-opacity:1"/>
   <stop offset="50%" style="stop-color: #e9882a; stop-opacity:1"/>
   <stop offset="100%" style="stop-color: #279362; stop-opacity:1"/>
  </linearGradient>
  <linearGradient id="90ssummer" x1="0%" x2="0%" y1="0%" y2="100%">
   <stop offset="0%" style="stop-color: #f618c7; stop-opacity:1"/>
   <stop offset="20%" style="stop-color: #94ffab; stop-opacity:1"/>
   <stop offset="50%" style="stop-color: #fbfd54; stop-opacity:1"/>
   <stop offset="100%" style="stop-color: #0f83ae; stop-opacity:1"/>
  </linearGradient>
 </defs>
 <path fill="url(#oomox)" class="ColorScheme-Text" opacity="1.0" d="m 8,0.50000025 c -4.1365835,0 -7.5,3.36341655 -7.5,7.49999995 C 0.5,12.136584 3.8634165,15.5 8,15.5 c 4.136583,0 7.500001,-3.363417 7.500001,-7.4999998 C 15.500001,3.863417 12.136583,0.50000045 8,0.50000025 Z M 8,1.4375003 c 3.629921,2e-7 6.562501,2.9325792 6.562501,6.5624999 C 14.562501,11.629921 11.629921,14.5625 8,14.5625 4.3700791,14.5625 1.4375,11.629921 1.4375,8.0000002 1.4375,4.3700793 4.3700791,1.4375003 8,1.4375003 Z"/>
 <path fill="url(#oomox)" class="ColorScheme-Text" opacity="0.8" d="m 8,2.2578128 c -3.1657705,0 -5.7421876,2.576417 -5.7421876,5.7421874 0,3.1657708 2.5764171,5.7421878 5.7421876,5.7421878 3.165771,-1e-6 5.742188,-2.576418 5.742188,-5.7421878 C 13.742188,4.83423 11.165771,2.257813 8,2.2578128 Z m 0,0.9375 c 2.659108,2e-7 4.804688,2.1455797 4.804688,4.8046874 0,2.6591078 -2.14558,4.8046868 -4.804688,4.8046878 -2.6591079,0 -4.8046876,-2.14558 -4.8046876,-4.8046878 C 3.1953124,5.3408924 5.3408921,3.1953128 8,3.1953128 Z"/>
 <path fill="url(#oomox)" class="ColorScheme-Text" opacity="0.6" d="M 11.443723,8.0854643 A 3.4438774,3.4438774 0 0 1 7.9998448,11.529342 3.4438774,3.4438774 0 0 1 4.5559673,8.0854643 3.4438774,3.4438774 0 0 1 7.9998448,4.6415868 3.4438774,3.4438774 0 0 1 11.443723,8.0854643 Z"/>
</svg>
