<svg xmlns="http://www.w3.org/2000/svg" width="16" height="16" version="1.1">
 <defs>
   <style id="current-color-scheme" type="text/css">
   .ColorScheme-Text { color: #00aa00; } .ColorScheme-Highlight { color:#5294e2; }
  </style>
  <linearGradient id="arrongin" x1="0%" x2="0%" y1="0%" y2="100%">
   <stop offset="0%" style="stop-color:#dd9b44; stop-opacity:1"/>
   <stop offset="100%" style="stop-color:#ad6c16; stop-opacity:1"/>
  </linearGradient>
  <linearGradient id="aurora" x1="0%" x2="0%" y1="0%" y2="100%">
   <stop offset="0%" style="stop-color:#09D4DF; stop-opacity:1"/>
   <stop offset="100%" style="stop-color:#9269F4; stop-opacity:1"/>
  </linearGradient>
  <linearGradient id="cyberneon" x1="0%" x2="0%" y1="0%" y2="100%">
    <stop offset="0" style="stop-color:#0abdc6; stop-opacity:1"/>
    <stop offset="1" style="stop-color:#ea00d9; stop-opacity:1"/>
  </linearGradient>
  <linearGradient id="fitdance" x1="0%" x2="0%" y1="0%" y2="100%">
   <stop offset="0%" style="stop-color:#1AD6AB; stop-opacity:1"/>
   <stop offset="100%" style="stop-color:#329DB6; stop-opacity:1"/>
  </linearGradient>
  <linearGradient id="oomox" x1="0%" x2="0%" y1="0%" y2="100%">
   <stop offset="0%" style="stop-color:#00aa00; stop-opacity:1"/>
   <stop offset="100%" style="stop-color:#00cc00; stop-opacity:1"/>
  </linearGradient>
  <linearGradient id="rainblue" x1="0%" x2="0%" y1="0%" y2="100%">
   <stop offset="0%" style="stop-color:#00F260; stop-opacity:1"/>
   <stop offset="100%" style="stop-color:#0575E6; stop-opacity:1"/>
  </linearGradient>
  <linearGradient id="sunrise" x1="0%" x2="0%" y1="0%" y2="100%">
   <stop offset="0%" style="stop-color: #FF8501; stop-opacity:1"/>
   <stop offset="100%" style="stop-color: #FFCB01; stop-opacity:1"/>
  </linearGradient>
  <linearGradient id="telinkrin" x1="0%" x2="0%" y1="0%" y2="100%">
   <stop offset="0%" style="stop-color: #b2ced6; stop-opacity:1"/>
   <stop offset="100%" style="stop-color: #6da5b7; stop-opacity:1"/>
  </linearGradient>
  <linearGradient id="60spsycho" x1="0%" x2="0%" y1="0%" y2="100%">
   <stop offset="0%" style="stop-color: #df5940; stop-opacity:1"/>
   <stop offset="25%" style="stop-color: #d8d15f; stop-opacity:1"/>
   <stop offset="50%" style="stop-color: #e9882a; stop-opacity:1"/>
   <stop offset="100%" style="stop-color: #279362; stop-opacity:1"/>
  </linearGradient>
  <linearGradient id="90ssummer" x1="0%" x2="0%" y1="0%" y2="100%">
   <stop offset="0%" style="stop-color: #f618c7; stop-opacity:1"/>
   <stop offset="20%" style="stop-color: #94ffab; stop-opacity:1"/>
   <stop offset="50%" style="stop-color: #fbfd54; stop-opacity:1"/>
   <stop offset="100%" style="stop-color: #0f83ae; stop-opacity:1"/>
  </linearGradient>
 </defs>
 <path fill="url(#oomox)" class="ColorScheme-Text" d="m 3.1354291,15.384735 c -0.5410055,-0.19438 -1.5317605,-0.76714 -1.988172,-1.14928 -0.80813692,-0.6766 -1.40269728,-1.58598 -1.03694868,-1.58598 0.0603429,0 0.47978322,0.29416 0.93205758,0.65349 1.4868005,1.1815 2.6534288,1.59799 3.7169832,1.32698 1.2093833,-0.30797 3.0136915,-1.42581 3.4552229,-2.1402 0.2830068,-0.45791 0.2753484,-0.74571 -0.025614,-0.95987 -0.2321494,-0.16544 -0.2112475,-0.17192 0.459417,-0.14816 l 0.7026402,0.0259 0.03097,0.37838 c 0.021813,0.26651 -0.097944,0.64421 -0.4053598,1.27822 -0.2399892,0.49492 -0.4363428,0.98578 -0.4363428,1.09083 0,0.23541 -0.7810401,0.67349 -1.6755309,0.93992 -0.6854517,0.20431 -2.5296463,0.2704 -3.1267094,0.1123 -0.278752,-0.0739 -0.2995675,-0.0639 -0.1759316,0.0851 0.1187765,0.14297 0.1092564,0.16759 -0.06217,0.16025 -0.1113125,-0.004 -0.2753699,-0.0346 -0.3645495,-0.0665 z m 4.4032118,-0.2799 c 1.3440459,-0.55916 2.2031088,-1.18272 2.7836691,-2.02043 0.286916,-0.41424 0.309498,-0.73185 0.03235,-0.45463 -0.289979,0.28984 -0.4089843,0.13866 -0.4089843,-0.52066 0,-0.85504 -0.2245604,-1.11179 -0.8929036,-1.02091 l -0.4583198,0.0622 0.5404915,-0.28638 c 0.2972696,-0.15766 0.6134629,-0.34987 0.7026399,-0.42676 0.08915,-0.0773 0.3672583,-0.24362 0.6179543,-0.36975 0.542732,-0.2729901 0.679223,-0.4940101 0.679223,-1.1005901 0,-0.77038 -0.227609,-1.30448 -0.814582,-1.91137 -0.3216583,-0.33259 -0.4817613,-0.56753 -0.3867303,-0.56753 0.08914,0 0.4169493,0.26306 0.7283663,0.5846 0.448285,0.46283 0.612788,0.73538 0.789828,1.30858 0.262425,0.84959 0.292514,2.0695401 0.07395,2.9982601 -0.08046,0.3421 -0.129886,0.62157 -0.109831,0.62157 0.02,0 0.108915,-0.1339 0.197667,-0.29717 0.08869,-0.16328 0.163224,-0.23887 0.1656,-0.16803 0.0069,0.19869 -0.487086,1.07952 -0.940035,1.6769 -0.790492,1.0425 -2.462149,2.06224 -3.5959659,2.19355 l -0.5943447,0.06868 z M 6.3783781,10.803905 C 5.3292696,10.330665 4.2763208,8.9125349 4.1559434,7.8107749 l -0.056002,-0.51207 0.3458074,0.69582 c 0.6562513,1.32046 1.6467887,2.0119601 2.4195433,1.68908 0.3298297,-0.13779 0.7021257,-0.53328 0.7021257,-0.74588 0,-0.0531 -0.1198996,-0.0173 -0.2664459,0.0782 -0.4282961,0.28076 -0.9969942,0.22504 -1.3545829,-0.13261 -0.7689257,-0.76895 -0.6042057,-2.10859 0.3803415,-3.09312 0.5632002,-0.56322 0.9813944,-0.73815 1.8940001,-0.79232 0.6742173,-0.0389 0.9120347,-0.009 1.3730403,0.19135 1.0751441,0.46253 2.1525041,1.94652 2.2686071,3.12487 l 0.04903,0.49795 -0.371806,-0.75668 c -0.475955,-0.96869 -0.832012,-1.38513 -1.432926,-1.676 -0.5980123,-0.2894 -1.0208922,-0.21899 -1.4013382,0.23282 -0.347898,0.41337 -0.3512456,0.60028 -0.00687,0.3745 0.4282961,-0.28077 0.9970058,-0.22505 1.3545842,0.13261 1.072445,1.07243 0.233622,3.1846001 -1.5020355,3.7821201 -0.5796232,0.19955 -1.617406,0.1529 -2.1728576,-0.0976 z m 2.4153486,-0.35031 c 0.2174978,-0.16587 0.4683544,-0.44262 0.5574743,-0.6149601 0.3329613,-0.64386 0.110859,-1.73621 -0.3850151,-1.89361 -0.3010405,-0.0955 -0.5656571,0.15809 -1.0744231,1.02902 -0.5434507,0.9305 -0.7500911,1.1017201 -1.4058738,1.1647401 -0.4718402,0.0454 -0.5252918,0.0739 -0.4065044,0.21684 0.2658844,0.32051 0.7688346,0.45942 1.5521713,0.42892 0.6464,-0.0259 0.8288,-0.0769 1.1621717,-0.3313 z M 7.5364121,7.8660649 c 0.1225603,-0.13391 0.3739529,-0.51419 0.558663,-0.84532 0.4806631,-0.86173 0.7659203,-1.09447 1.4185947,-1.15714 0.5232122,-0.0501 0.5398862,-0.0618 0.3687999,-0.25053 -0.2760913,-0.30495 -0.8626059,-0.45052 -1.6218975,-0.40214 -0.7650287,0.0488 -1.1248683,0.24707 -1.5308682,0.84355 -0.6510516,0.95658 0.081945,2.60282 0.8067081,1.81175 z m -2.0769142,1.20452 c -0.9583773,-0.88341 -1.3595999,-2.34879 -1.0771314,-3.93403 0.1937235,-1.08721 0.1935076,-1.11278 -0.00687,-0.85841 -0.1449481,0.18358 -0.1443218,0.15593 0.00458,-0.22245 0.5582061,-1.41488 2.2634177,-2.89421 3.8625943,-3.35091003 0.8682176,-0.24794 1.3029718,-0.17019 0.5138288,0.092 C 7.3724079,1.2565049 5.9363168,2.3213349 5.462088,3.2395249 l -0.1925831,0.37277 0.2803675,-0.18358 c 0.4427771,-0.29027 0.5041713,-0.23368 0.5041713,0.4649 0,0.85767 0.2251217,1.11386 0.8929146,1.01607 l 0.4583194,-0.0669 -0.4864451,0.26348 c -0.8909946,0.48249 -1.7820233,1.05948 -1.9187433,1.24245 -0.1724588,0.23066 -0.1735775,1.01262 -0.00229,1.58633 0.081029,0.27126 0.346857,0.66619 0.681737,1.01243 0.6476344,0.66965 0.4765371,0.76572 -0.2200895,0.12354 z m 1.2071432,-4.49254 c -0.1750288,-0.17494 -0.037579,-0.80739 0.3603338,-1.65751 0.236538,-0.50537 0.4305811,-0.99624 0.4312204,-1.09083 0.00114,-0.21598 0.8263659,-0.66818 1.6766975,-0.91914003 0.6948689,-0.20517 2.2771322,-0.26435 3.0202182,-0.11317 0.380959,0.0773 0.410915,0.0687 0.284035,-0.0842 -0.477841,-0.57578 1.493257,0.28336 2.408834,1.04993003 0.812149,0.67997 1.408126,1.58974 1.041429,1.58974 -0.06034,0 -0.485989,-0.29977 -0.945863,-0.66585 -0.93536,-0.74489 -1.602423,-1.36408 -2.591772,-1.54723 -0.728846,-0.13477 -1.51968,0.0665 -2.190834,0.38098 -1.060824,0.49725 -2.6778983,1.61776 -2.6778983,2.27653 0,0.1028 0.1908812,0.5112 0.321005,0.63245 l 0.2365812,0.22029 H 7.3896696 c -0.3580358,0 -0.6833944,-0.0346 -0.7230285,-0.0721 z"/>
</svg>
