<svg xmlns="http://www.w3.org/2000/svg" width="16" height="16" version="1.1">
 <defs>
   <style id="current-color-scheme" type="text/css">
   .ColorScheme-Text { color: #00aa00; } .ColorScheme-Highlight { color:#5294e2; }
  </style>
  <linearGradient id="arrongin" x1="0%" x2="0%" y1="0%" y2="100%">
   <stop offset="0%" style="stop-color:#dd9b44; stop-opacity:1"/>
   <stop offset="100%" style="stop-color:#ad6c16; stop-opacity:1"/>
  </linearGradient>
  <linearGradient id="aurora" x1="0%" x2="0%" y1="0%" y2="100%">
   <stop offset="0%" style="stop-color:#09D4DF; stop-opacity:1"/>
   <stop offset="100%" style="stop-color:#9269F4; stop-opacity:1"/>
  </linearGradient>
  <linearGradient id="cyberneon" x1="0%" x2="0%" y1="0%" y2="100%">
    <stop offset="0" style="stop-color:#0abdc6; stop-opacity:1"/>
    <stop offset="1" style="stop-color:#ea00d9; stop-opacity:1"/>
  </linearGradient>
  <linearGradient id="fitdance" x1="0%" x2="0%" y1="0%" y2="100%">
   <stop offset="0%" style="stop-color:#1AD6AB; stop-opacity:1"/>
   <stop offset="100%" style="stop-color:#329DB6; stop-opacity:1"/>
  </linearGradient>
  <linearGradient id="oomox" x1="0%" x2="0%" y1="0%" y2="100%">
   <stop offset="0%" style="stop-color:#00aa00; stop-opacity:1"/>
   <stop offset="100%" style="stop-color:#00cc00; stop-opacity:1"/>
  </linearGradient>
  <linearGradient id="rainblue" x1="0%" x2="0%" y1="0%" y2="100%">
   <stop offset="0%" style="stop-color:#00F260; stop-opacity:1"/>
   <stop offset="100%" style="stop-color:#0575E6; stop-opacity:1"/>
  </linearGradient>
  <linearGradient id="sunrise" x1="0%" x2="0%" y1="0%" y2="100%">
   <stop offset="0%" style="stop-color: #FF8501; stop-opacity:1"/>
   <stop offset="100%" style="stop-color: #FFCB01; stop-opacity:1"/>
  </linearGradient>
  <linearGradient id="telinkrin" x1="0%" x2="0%" y1="0%" y2="100%">
   <stop offset="0%" style="stop-color: #b2ced6; stop-opacity:1"/>
   <stop offset="100%" style="stop-color: #6da5b7; stop-opacity:1"/>
  </linearGradient>
  <linearGradient id="60spsycho" x1="0%" x2="0%" y1="0%" y2="100%">
   <stop offset="0%" style="stop-color: #df5940; stop-opacity:1"/>
   <stop offset="25%" style="stop-color: #d8d15f; stop-opacity:1"/>
   <stop offset="50%" style="stop-color: #e9882a; stop-opacity:1"/>
   <stop offset="100%" style="stop-color: #279362; stop-opacity:1"/>
  </linearGradient>
  <linearGradient id="90ssummer" x1="0%" x2="0%" y1="0%" y2="100%">
   <stop offset="0%" style="stop-color: #f618c7; stop-opacity:1"/>
   <stop offset="20%" style="stop-color: #94ffab; stop-opacity:1"/>
   <stop offset="50%" style="stop-color: #fbfd54; stop-opacity:1"/>
   <stop offset="100%" style="stop-color: #0f83ae; stop-opacity:1"/>
  </linearGradient>
 </defs>
 <path fill="url(#oomox)" class="ColorScheme-Text" fill-rule="evenodd" d="M 0.941 13.299 C 0.951 13.252 0.96 13.214 0.988 13.176 C 1.082 13.064 1.186 12.969 1.308 12.904 C 1.769 12.631 2.268 12.424 2.795 12.301 C 3.558 12.104 4.339 11.953 5.12 11.868 C 6.08 11.765 7.04 11.708 8 11.718 C 8.96 11.708 9.92 11.765 10.88 11.868 C 11.661 11.953 12.442 12.104 13.205 12.301 C 13.732 12.424 14.231 12.631 14.692 12.904 C 14.814 12.969 14.918 13.064 15.012 13.176 C 15.04 13.214 15.049 13.252 15.059 13.299 C 15.049 13.336 15.04 13.384 15.012 13.412 C 14.918 13.525 14.814 13.619 14.692 13.694 C 14.231 13.967 13.732 14.165 13.205 14.287 C 12.442 14.494 11.661 14.635 10.88 14.72 C 9.92 14.824 8.96 14.88 8 14.88 C 7.04 14.88 6.08 14.824 5.12 14.72 C 4.339 14.635 3.558 14.494 2.795 14.287 C 2.268 14.165 1.769 13.967 1.308 13.694 C 1.186 13.619 1.082 13.525 0.988 13.412 C 0.96 13.384 0.951 13.336 0.941 13.299 L 0.941 13.299 L 0.941 13.299 Z M 0.941 8 C 0.951 7.953 0.96 7.915 0.988 7.878 C 1.082 7.774 1.186 7.68 1.308 7.605 C 1.769 7.332 2.268 7.125 2.795 7.002 C 3.558 6.805 4.339 6.664 5.12 6.579 C 6.08 6.466 7.04 6.419 8 6.419 C 8.96 6.419 9.92 6.466 10.88 6.579 C 11.661 6.664 12.442 6.805 13.205 7.002 C 13.732 7.125 14.231 7.332 14.692 7.605 C 14.814 7.68 14.918 7.774 15.012 7.878 C 15.04 7.915 15.049 7.953 15.059 8 C 15.049 8.047 15.04 8.085 15.012 8.122 C 14.918 8.226 14.814 8.32 14.692 8.395 C 14.231 8.668 13.732 8.875 13.205 8.998 C 12.442 9.195 11.661 9.336 10.88 9.421 C 9.92 9.534 8.96 9.581 8 9.581 C 7.04 9.581 6.08 9.534 5.12 9.421 C 4.339 9.336 3.558 9.195 2.795 8.998 C 2.268 8.875 1.769 8.668 1.308 8.395 C 1.186 8.32 1.082 8.226 0.988 8.122 C 0.96 8.085 0.951 8.047 0.941 8 L 0.941 8 L 0.941 8 Z M 0 13.299 C 0.009 13.035 0.094 12.791 0.254 12.584 C 0.414 12.395 0.602 12.226 0.819 12.094 C 1.365 11.774 1.948 11.529 2.56 11.388 C 3.369 11.172 4.188 11.021 5.016 10.936 C 6.005 10.824 7.002 10.767 8 10.776 C 8.998 10.767 9.995 10.824 10.984 10.936 C 11.812 11.021 12.631 11.172 13.44 11.388 C 14.052 11.529 14.635 11.774 15.181 12.094 C 15.398 12.226 15.586 12.395 15.746 12.584 C 15.906 12.791 15.991 13.035 16 13.299 C 15.991 13.553 15.906 13.798 15.746 14.005 C 15.586 14.202 15.398 14.372 15.181 14.494 C 14.635 14.824 14.052 15.059 13.44 15.2 C 12.631 15.416 11.812 15.567 10.984 15.652 C 9.995 15.765 8.998 15.821 8 15.821 C 7.002 15.821 6.005 15.765 5.016 15.652 C 4.188 15.567 3.369 15.416 2.56 15.2 C 1.948 15.059 1.365 14.824 0.819 14.494 C 0.602 14.372 0.414 14.202 0.254 14.005 C 0.094 13.798 0.009 13.553 0 13.299 L 0 13.299 L 0 13.299 Z M 0 8 C 0.009 7.746 0.094 7.492 0.254 7.294 C 0.414 7.096 0.602 6.927 0.819 6.795 C 1.365 6.475 1.948 6.24 2.56 6.089 C 3.369 5.882 4.188 5.732 5.016 5.638 C 6.005 5.534 7.002 5.478 8 5.478 C 8.998 5.478 9.995 5.534 10.984 5.638 C 11.812 5.732 12.631 5.882 13.44 6.089 C 14.052 6.24 14.635 6.475 15.181 6.795 C 15.398 6.927 15.586 7.096 15.746 7.294 C 15.906 7.492 15.991 7.746 16 8 C 15.991 8.254 15.906 8.508 15.746 8.706 C 15.586 8.904 15.398 9.073 15.181 9.205 C 14.635 9.525 14.052 9.76 13.44 9.911 C 12.631 10.118 11.812 10.268 10.984 10.362 C 9.995 10.466 8.998 10.522 8 10.522 C 7.002 10.522 6.005 10.466 5.016 10.362 C 4.188 10.268 3.369 10.118 2.56 9.911 C 1.948 9.76 1.365 9.525 0.819 9.205 C 0.602 9.073 0.414 8.904 0.254 8.706 C 0.094 8.508 0.009 8.254 0 8 L 0 8 L 0 8 Z M 0.941 2.701 C 0.951 2.664 0.96 2.616 0.988 2.588 C 1.082 2.475 1.186 2.381 1.308 2.306 C 1.769 2.033 2.268 1.835 2.795 1.713 C 3.558 1.506 4.339 1.365 5.12 1.28 C 6.08 1.176 7.04 1.12 8 1.12 C 8.96 1.12 9.92 1.176 10.88 1.28 C 11.661 1.365 12.442 1.506 13.205 1.713 C 13.732 1.835 14.231 2.033 14.692 2.306 C 14.814 2.381 14.918 2.475 15.012 2.588 C 15.04 2.616 15.049 2.664 15.059 2.701 C 15.049 2.748 15.04 2.786 15.012 2.824 C 14.918 2.936 14.814 3.031 14.692 3.096 C 14.231 3.369 13.732 3.576 13.205 3.699 C 12.442 3.896 11.661 4.047 10.88 4.132 C 9.92 4.235 8.96 4.292 8 4.282 C 7.04 4.292 6.08 4.235 5.12 4.132 C 4.339 4.047 3.558 3.896 2.795 3.699 C 2.268 3.576 1.769 3.369 1.308 3.096 C 1.186 3.031 1.082 2.936 0.988 2.824 C 0.96 2.786 0.951 2.748 0.941 2.701 L 0.941 2.701 Z M 0 2.701 C 0.009 2.447 0.094 2.193 0.254 1.995 C 0.414 1.798 0.602 1.628 0.819 1.506 C 1.365 1.176 1.948 0.941 2.56 0.8 C 3.369 0.584 4.188 0.433 5.016 0.348 C 6.005 0.235 7.002 0.179 8 0.179 C 8.998 0.179 9.995 0.235 10.984 0.348 C 11.812 0.433 12.631 0.584 13.44 0.8 C 14.052 0.941 14.635 1.176 15.181 1.506 C 15.398 1.628 15.586 1.798 15.746 1.995 C 15.906 2.202 15.991 2.447 16 2.701 C 15.991 2.965 15.906 3.209 15.746 3.416 C 15.586 3.605 15.398 3.774 15.181 3.906 C 14.635 4.226 14.052 4.471 13.44 4.612 C 12.631 4.828 11.812 4.979 10.984 5.064 C 9.995 5.176 8.998 5.233 8 5.224 C 7.002 5.233 6.005 5.176 5.016 5.064 C 4.188 4.979 3.369 4.828 2.56 4.612 C 1.948 4.471 1.365 4.226 0.819 3.906 C 0.602 3.774 0.414 3.605 0.254 3.416 C 0.094 3.209 0.009 2.965 0 2.701 L 0 2.701 Z"/>
</svg>
