<svg xmlns="http://www.w3.org/2000/svg" width="16" height="16" version="1.1">
 <defs>
   <style id="current-color-scheme" type="text/css">
   .ColorScheme-Text { color: #c8dff1; } .ColorScheme-Highlight { color:#5294e2; }
  </style>
  <linearGradient id="arrongin" x1="0%" x2="0%" y1="0%" y2="100%">
   <stop offset="0%" style="stop-color:#dd9b44; stop-opacity:1"/>
   <stop offset="100%" style="stop-color:#ad6c16; stop-opacity:1"/>
  </linearGradient>
  <linearGradient id="aurora" x1="0%" x2="0%" y1="0%" y2="100%">
   <stop offset="0%" style="stop-color:#09D4DF; stop-opacity:1"/>
   <stop offset="100%" style="stop-color:#9269F4; stop-opacity:1"/>
  </linearGradient>
  <linearGradient id="cyberneon" x1="0%" x2="0%" y1="0%" y2="100%">
    <stop offset="0" style="stop-color:#0abdc6; stop-opacity:1"/>
    <stop offset="1" style="stop-color:#ea00d9; stop-opacity:1"/>
  </linearGradient>
  <linearGradient id="fitdance" x1="0%" x2="0%" y1="0%" y2="100%">
   <stop offset="0%" style="stop-color:#1AD6AB; stop-opacity:1"/>
   <stop offset="100%" style="stop-color:#329DB6; stop-opacity:1"/>
  </linearGradient>
  <linearGradient id="oomox" x1="0%" x2="0%" y1="0%" y2="100%">
   <stop offset="0%" style="stop-color:#efefe7; stop-opacity:1"/>
   <stop offset="100%" style="stop-color:#8f8f8b; stop-opacity:1"/>
  </linearGradient>
  <linearGradient id="rainblue" x1="0%" x2="0%" y1="0%" y2="100%">
   <stop offset="0%" style="stop-color:#00F260; stop-opacity:1"/>
   <stop offset="100%" style="stop-color:#0575E6; stop-opacity:1"/>
  </linearGradient>
  <linearGradient id="sunrise" x1="0%" x2="0%" y1="0%" y2="100%">
   <stop offset="0%" style="stop-color: #FF8501; stop-opacity:1"/>
   <stop offset="100%" style="stop-color: #FFCB01; stop-opacity:1"/>
  </linearGradient>
  <linearGradient id="telinkrin" x1="0%" x2="0%" y1="0%" y2="100%">
   <stop offset="0%" style="stop-color: #b2ced6; stop-opacity:1"/>
   <stop offset="100%" style="stop-color: #6da5b7; stop-opacity:1"/>
  </linearGradient>
  <linearGradient id="60spsycho" x1="0%" x2="0%" y1="0%" y2="100%">
   <stop offset="0%" style="stop-color: #df5940; stop-opacity:1"/>
   <stop offset="25%" style="stop-color: #d8d15f; stop-opacity:1"/>
   <stop offset="50%" style="stop-color: #e9882a; stop-opacity:1"/>
   <stop offset="100%" style="stop-color: #279362; stop-opacity:1"/>
  </linearGradient>
  <linearGradient id="90ssummer" x1="0%" x2="0%" y1="0%" y2="100%">
   <stop offset="0%" style="stop-color: #f618c7; stop-opacity:1"/>
   <stop offset="20%" style="stop-color: #94ffab; stop-opacity:1"/>
   <stop offset="50%" style="stop-color: #fbfd54; stop-opacity:1"/>
   <stop offset="100%" style="stop-color: #0f83ae; stop-opacity:1"/>
  </linearGradient>
 </defs>
 <path fill="currentColor" class="ColorScheme-Text" fill-rule="evenodd" d="M 1.778 0 C 0.798 0 0 0.798 0 1.778 L 0 14.222 C 0 15.202 0.798 16 1.778 16 L 14.222 16 C 15.202 16 16 15.202 16 14.222 L 16 1.778 C 16 0.798 15.202 0 14.222 0 L 1.778 0 Z M 2.867 5.314 C 2.867 6.346 3.621 6.972 4.8 7.396 C 5.712 7.726 6.074 8.042 6.074 8.585 C 6.074 9.169 5.607 9.562 4.767 9.562 C 4.099 9.562 3.463 9.349 3.037 9.105 L 2.75 10.189 C 3.144 10.421 3.929 10.644 4.683 10.644 C 6.53 10.644 7.402 9.634 7.402 8.489 C 7.402 7.46 6.796 6.833 5.555 6.367 C 4.6 5.994 4.186 5.74 4.186 5.187 C 4.186 4.773 4.545 4.326 5.373 4.326 C 6.043 4.326 6.541 4.529 6.797 4.666 L 7.115 3.615 C 6.744 3.424 6.17 3.254 5.395 3.254 C 3.846 3.254 2.87 4.146 2.87 5.314 L 2.867 5.314 M 8.197 7.972 C 8.197 9.436 9.111 10.496 10.395 10.496 C 11.075 10.496 11.604 10.188 11.905 9.731 L 11.925 9.731 L 11.925 10.176 C 11.925 11.291 11.288 11.738 10.438 11.738 C 9.813 11.738 9.261 11.535 8.929 11.346 L 8.644 12.332 C 9.089 12.61 9.79 12.746 10.448 12.746 C 11.159 12.746 11.903 12.598 12.444 12.119 C 12.985 11.631 13.207 10.858 13.207 9.774 L 13.207 6.843 C 13.207 6.132 13.229 5.708 13.25 5.357 L 12.114 5.357 L 12.061 6.048 L 12.04 6.048 C 11.796 5.622 11.329 5.24 10.544 5.24 C 9.302 5.24 8.197 6.271 8.197 7.97 L 8.197 7.972 M 9.525 7.927 C 9.525 6.876 10.065 6.24 10.798 6.24 C 11.35 6.24 11.722 6.599 11.86 7.078 C 11.892 7.183 11.903 7.312 11.903 7.427 L 11.903 8.267 C 11.903 8.415 11.882 8.595 11.849 8.734 C 11.7 9.201 11.276 9.519 10.788 9.519 C 9.97 9.519 9.525 8.808 9.525 7.927 L 9.525 7.927 M 2.867 5.314 Z"/>
</svg>
