<svg xmlns="http://www.w3.org/2000/svg" width="16" height="16" version="1.1">
 <defs>
   <style id="current-color-scheme" type="text/css">
   .ColorScheme-Text { color: #c8dff1; } .ColorScheme-Highlight { color:#5294e2; }
  </style>
  <linearGradient id="arrongin" x1="0%" x2="0%" y1="0%" y2="100%">
   <stop offset="0%" style="stop-color:#dd9b44; stop-opacity:1"/>
   <stop offset="100%" style="stop-color:#ad6c16; stop-opacity:1"/>
  </linearGradient>
  <linearGradient id="aurora" x1="0%" x2="0%" y1="0%" y2="100%">
   <stop offset="0%" style="stop-color:#09D4DF; stop-opacity:1"/>
   <stop offset="100%" style="stop-color:#9269F4; stop-opacity:1"/>
  </linearGradient>
  <linearGradient id="cyberneon" x1="0%" x2="0%" y1="0%" y2="100%">
    <stop offset="0" style="stop-color:#0abdc6; stop-opacity:1"/>
    <stop offset="1" style="stop-color:#ea00d9; stop-opacity:1"/>
  </linearGradient>
  <linearGradient id="fitdance" x1="0%" x2="0%" y1="0%" y2="100%">
   <stop offset="0%" style="stop-color:#1AD6AB; stop-opacity:1"/>
   <stop offset="100%" style="stop-color:#329DB6; stop-opacity:1"/>
  </linearGradient>
  <linearGradient id="oomox" x1="0%" x2="0%" y1="0%" y2="100%">
   <stop offset="0%" style="stop-color:#efefe7; stop-opacity:1"/>
   <stop offset="100%" style="stop-color:#8f8f8b; stop-opacity:1"/>
  </linearGradient>
  <linearGradient id="rainblue" x1="0%" x2="0%" y1="0%" y2="100%">
   <stop offset="0%" style="stop-color:#00F260; stop-opacity:1"/>
   <stop offset="100%" style="stop-color:#0575E6; stop-opacity:1"/>
  </linearGradient>
  <linearGradient id="sunrise" x1="0%" x2="0%" y1="0%" y2="100%">
   <stop offset="0%" style="stop-color: #FF8501; stop-opacity:1"/>
   <stop offset="100%" style="stop-color: #FFCB01; stop-opacity:1"/>
  </linearGradient>
  <linearGradient id="telinkrin" x1="0%" x2="0%" y1="0%" y2="100%">
   <stop offset="0%" style="stop-color: #b2ced6; stop-opacity:1"/>
   <stop offset="100%" style="stop-color: #6da5b7; stop-opacity:1"/>
  </linearGradient>
  <linearGradient id="60spsycho" x1="0%" x2="0%" y1="0%" y2="100%">
   <stop offset="0%" style="stop-color: #df5940; stop-opacity:1"/>
   <stop offset="25%" style="stop-color: #d8d15f; stop-opacity:1"/>
   <stop offset="50%" style="stop-color: #e9882a; stop-opacity:1"/>
   <stop offset="100%" style="stop-color: #279362; stop-opacity:1"/>
  </linearGradient>
  <linearGradient id="90ssummer" x1="0%" x2="0%" y1="0%" y2="100%">
   <stop offset="0%" style="stop-color: #f618c7; stop-opacity:1"/>
   <stop offset="20%" style="stop-color: #94ffab; stop-opacity:1"/>
   <stop offset="50%" style="stop-color: #fbfd54; stop-opacity:1"/>
   <stop offset="100%" style="stop-color: #0f83ae; stop-opacity:1"/>
  </linearGradient>
 </defs>
 <rect fill="currentColor" class="ColorScheme-Text" width="4.625" height="3.594" x="16.34" y=".34" transform="matrix(1,0,0,1,0,0)"/>
 <path fill="currentColor" class="ColorScheme-Text" d="M 11.898 4.933 C 11.669 4.954 11.493 5.149 11.498 5.38 C 11.502 5.619 11.698 5.81 11.941 5.809 L 13.254 5.809 C 13.741 5.809 14.129 6.195 14.129 6.682 C 14.129 7.163 13.755 7.544 13.28 7.558 L 11.941 7.558 C 11.822 7.556 11.709 7.604 11.625 7.688 C 11.542 7.771 11.496 7.886 11.498 8.004 C 11.498 8.121 11.544 8.233 11.63 8.315 C 11.712 8.398 11.822 8.444 11.941 8.442 L 13.253 8.442 C 13.742 8.442 14.128 8.828 14.128 9.317 C 14.128 9.796 13.755 10.177 13.279 10.191 L 11.94 10.191 C 11.82 10.189 11.707 10.235 11.623 10.319 C 11.54 10.404 11.493 10.517 11.495 10.637 L 11.495 10.677 C 11.521 10.902 11.712 11.07 11.94 11.067 L 13.251 11.067 C 13.28 11.067 13.311 11.065 13.34 11.06 C 14.26 11.014 15 10.248 15 9.318 C 15 8.796 14.771 8.326 14.407 8.005 C 14.773 7.685 15 7.215 15 6.691 C 15 5.741 14.229 4.96 13.285 4.941 L 11.897 4.941 M 6.652 6.25 C 6.421 6.267 6.241 6.462 6.246 6.693 L 6.246 7.63 C 5.496 7.827 4.933 8.51 4.933 9.319 C 4.928 9.545 5.097 9.738 5.325 9.764 L 5.366 9.764 C 5.486 9.766 5.599 9.719 5.681 9.636 C 5.765 9.553 5.813 9.437 5.809 9.319 C 5.809 8.849 6.168 8.478 6.63 8.451 L 6.733 8.451 C 7.198 8.479 7.559 8.848 7.559 9.319 C 7.559 9.56 7.755 9.755 7.996 9.755 C 8.237 9.755 8.434 9.56 8.434 9.319 C 8.434 8.509 7.873 7.827 7.121 7.63 L 7.121 6.693 C 7.124 6.57 7.075 6.452 6.986 6.369 C 6.897 6.286 6.776 6.24 6.654 6.25 M 1.438 6.256 C 1.193 6.256 1 6.45 1 6.693 C 1 6.873 1.104 7.03 1.26 7.097 C 1.096 7.362 1 7.673 1 8.005 C 1 8.967 1.79 9.755 2.749 9.755 C 3.71 9.755 4.5 8.967 4.5 8.005 C 4.5 7.673 4.4 7.362 4.238 7.097 C 4.393 7.029 4.5 6.873 4.5 6.693 C 4.5 6.45 4.303 6.256 4.062 6.256 M 10.186 6.256 C 9.943 6.256 9.748 6.45 9.748 6.693 L 9.748 9.319 C 9.748 9.56 9.943 9.755 10.186 9.755 C 10.429 9.755 10.624 9.56 10.624 9.319 L 10.624 6.693 C 10.624 6.45 10.429 6.256 10.186 6.256 Z M 2.749 7.131 C 3.236 7.131 3.624 7.517 3.624 8.005 C 3.624 8.493 3.236 8.88 2.749 8.88 C 2.262 8.88 1.875 8.493 1.875 8.005 C 1.875 7.517 2.262 7.131 2.749 7.131 Z"/>
</svg>
