<svg xmlns="http://www.w3.org/2000/svg" width="16" height="16" version="1.1">
 <defs>
   <style id="current-color-scheme" type="text/css">
   .ColorScheme-Text { color: #c8dff1; } .ColorScheme-Highlight { color:#5294e2; }
  </style>
  <linearGradient id="arrongin" x1="0%" x2="0%" y1="0%" y2="100%">
   <stop offset="0%" style="stop-color:#dd9b44; stop-opacity:1"/>
   <stop offset="100%" style="stop-color:#ad6c16; stop-opacity:1"/>
  </linearGradient>
  <linearGradient id="aurora" x1="0%" x2="0%" y1="0%" y2="100%">
   <stop offset="0%" style="stop-color:#09D4DF; stop-opacity:1"/>
   <stop offset="100%" style="stop-color:#9269F4; stop-opacity:1"/>
  </linearGradient>
  <linearGradient id="cyberneon" x1="0%" x2="0%" y1="0%" y2="100%">
    <stop offset="0" style="stop-color:#0abdc6; stop-opacity:1"/>
    <stop offset="1" style="stop-color:#ea00d9; stop-opacity:1"/>
  </linearGradient>
  <linearGradient id="fitdance" x1="0%" x2="0%" y1="0%" y2="100%">
   <stop offset="0%" style="stop-color:#1AD6AB; stop-opacity:1"/>
   <stop offset="100%" style="stop-color:#329DB6; stop-opacity:1"/>
  </linearGradient>
  <linearGradient id="oomox" x1="0%" x2="0%" y1="0%" y2="100%">
   <stop offset="0%" style="stop-color:#efefe7; stop-opacity:1"/>
   <stop offset="100%" style="stop-color:#8f8f8b; stop-opacity:1"/>
  </linearGradient>
  <linearGradient id="rainblue" x1="0%" x2="0%" y1="0%" y2="100%">
   <stop offset="0%" style="stop-color:#00F260; stop-opacity:1"/>
   <stop offset="100%" style="stop-color:#0575E6; stop-opacity:1"/>
  </linearGradient>
  <linearGradient id="sunrise" x1="0%" x2="0%" y1="0%" y2="100%">
   <stop offset="0%" style="stop-color: #FF8501; stop-opacity:1"/>
   <stop offset="100%" style="stop-color: #FFCB01; stop-opacity:1"/>
  </linearGradient>
  <linearGradient id="telinkrin" x1="0%" x2="0%" y1="0%" y2="100%">
   <stop offset="0%" style="stop-color: #b2ced6; stop-opacity:1"/>
   <stop offset="100%" style="stop-color: #6da5b7; stop-opacity:1"/>
  </linearGradient>
  <linearGradient id="60spsycho" x1="0%" x2="0%" y1="0%" y2="100%">
   <stop offset="0%" style="stop-color: #df5940; stop-opacity:1"/>
   <stop offset="25%" style="stop-color: #d8d15f; stop-opacity:1"/>
   <stop offset="50%" style="stop-color: #e9882a; stop-opacity:1"/>
   <stop offset="100%" style="stop-color: #279362; stop-opacity:1"/>
  </linearGradient>
  <linearGradient id="90ssummer" x1="0%" x2="0%" y1="0%" y2="100%">
   <stop offset="0%" style="stop-color: #f618c7; stop-opacity:1"/>
   <stop offset="20%" style="stop-color: #94ffab; stop-opacity:1"/>
   <stop offset="50%" style="stop-color: #fbfd54; stop-opacity:1"/>
   <stop offset="100%" style="stop-color: #0f83ae; stop-opacity:1"/>
  </linearGradient>
 </defs>
 <path fill="currentColor" class="ColorScheme-Text" d="M 3.111 1.778 L 4.889 4 L 5.778 3.556 L 4.444 2.222 L 5.778 1.778 L 3.111 1.778 Z M 10.222 1.778 L 11.556 2.222 L 10.222 3.556 L 11.111 4 L 12.889 1.778 L 10.222 1.778 Z M 8 2.667 C 6.843 2.67 5.328 3.302 5.333 5.51 L 8 4 L 10.667 5.51 C 10.672 3.302 9.157 2.67 8 2.667 L 8 2.667 Z M 1.333 3.556 L 2.222 6.222 L 2.222 5.333 L 4 5.333 L 4.444 4.444 L 1.333 3.556 Z M 14.667 3.556 L 11.556 4.444 L 12 5.333 L 13.778 5.333 L 13.778 6.222 L 14.667 3.556 Z M 8 4.889 L 6.667 5.689 L 6.844 6.934 L 7.288 5.778 L 8.712 5.778 L 9.156 6.934 L 9.333 5.69 L 8 4.89 L 8 4.889 Z M 3.556 6.222 L 0 7.556 L 1.778 8.444 L 1.778 8 L 3.111 7.556 L 3.556 6.222 Z M 5.778 6.222 L 4 6.934 C 4.011 8.386 4.825 9.758 5.644 10.425 C 6.217 10.881 6.936 11.404 7.288 11.555 C 7.692 11.706 7.468 10.807 7.555 10.666 L 8.444 10.666 C 8.532 10.807 8.307 11.707 8.711 11.555 C 9.064 11.404 9.782 10.882 10.356 10.425 C 11.175 9.757 11.988 8.387 12 6.934 L 10.222 6.222 L 9.778 8 L 8.621 8 L 8 6.222 L 7.379 8 L 6.222 8 L 5.778 6.222 L 5.778 6.222 Z M 12.444 6.222 L 12.889 7.556 L 14.222 8 L 14.222 8.444 L 16 7.556 L 12.444 6.222 Z M 3.556 8.889 L 1.333 9.778 L 4.889 14.222 L 3.556 8.889 Z M 12.444 8.889 L 11.111 14.222 L 14.667 9.778 L 12.444 8.889 Z"/>
</svg>
