<svg xmlns="http://www.w3.org/2000/svg" width="16" height="16" version="1.1">
 <defs>
   <style id="current-color-scheme" type="text/css">
   .ColorScheme-Text { color: #c8dff1; } .ColorScheme-Highlight { color:#5294e2; }
  </style>
  <linearGradient id="arrongin" x1="0%" x2="0%" y1="0%" y2="100%">
   <stop offset="0%" style="stop-color:#dd9b44; stop-opacity:1"/>
   <stop offset="100%" style="stop-color:#ad6c16; stop-opacity:1"/>
  </linearGradient>
  <linearGradient id="aurora" x1="0%" x2="0%" y1="0%" y2="100%">
   <stop offset="0%" style="stop-color:#09D4DF; stop-opacity:1"/>
   <stop offset="100%" style="stop-color:#9269F4; stop-opacity:1"/>
  </linearGradient>
  <linearGradient id="cyberneon" x1="0%" x2="0%" y1="0%" y2="100%">
    <stop offset="0" style="stop-color:#0abdc6; stop-opacity:1"/>
    <stop offset="1" style="stop-color:#ea00d9; stop-opacity:1"/>
  </linearGradient>
  <linearGradient id="fitdance" x1="0%" x2="0%" y1="0%" y2="100%">
   <stop offset="0%" style="stop-color:#1AD6AB; stop-opacity:1"/>
   <stop offset="100%" style="stop-color:#329DB6; stop-opacity:1"/>
  </linearGradient>
  <linearGradient id="oomox" x1="0%" x2="0%" y1="0%" y2="100%">
   <stop offset="0%" style="stop-color:#efefe7; stop-opacity:1"/>
   <stop offset="100%" style="stop-color:#8f8f8b; stop-opacity:1"/>
  </linearGradient>
  <linearGradient id="rainblue" x1="0%" x2="0%" y1="0%" y2="100%">
   <stop offset="0%" style="stop-color:#00F260; stop-opacity:1"/>
   <stop offset="100%" style="stop-color:#0575E6; stop-opacity:1"/>
  </linearGradient>
  <linearGradient id="sunrise" x1="0%" x2="0%" y1="0%" y2="100%">
   <stop offset="0%" style="stop-color: #FF8501; stop-opacity:1"/>
   <stop offset="100%" style="stop-color: #FFCB01; stop-opacity:1"/>
  </linearGradient>
  <linearGradient id="telinkrin" x1="0%" x2="0%" y1="0%" y2="100%">
   <stop offset="0%" style="stop-color: #b2ced6; stop-opacity:1"/>
   <stop offset="100%" style="stop-color: #6da5b7; stop-opacity:1"/>
  </linearGradient>
  <linearGradient id="60spsycho" x1="0%" x2="0%" y1="0%" y2="100%">
   <stop offset="0%" style="stop-color: #df5940; stop-opacity:1"/>
   <stop offset="25%" style="stop-color: #d8d15f; stop-opacity:1"/>
   <stop offset="50%" style="stop-color: #e9882a; stop-opacity:1"/>
   <stop offset="100%" style="stop-color: #279362; stop-opacity:1"/>
  </linearGradient>
  <linearGradient id="90ssummer" x1="0%" x2="0%" y1="0%" y2="100%">
   <stop offset="0%" style="stop-color: #f618c7; stop-opacity:1"/>
   <stop offset="20%" style="stop-color: #94ffab; stop-opacity:1"/>
   <stop offset="50%" style="stop-color: #fbfd54; stop-opacity:1"/>
   <stop offset="100%" style="stop-color: #0f83ae; stop-opacity:1"/>
  </linearGradient>
 </defs>
 <path fill="currentColor" class="ColorScheme-Text" d="M 4.125 0 C 3.902 0.274 3.767 0.501 3.511 0.773 C 2.657 1.683 2.795 2.266 3.472 2.902 C 3.589 3.012 3.209 3.404 3.079 3.917 C 3.333 4.122 3.398 4.435 3.63 4.673 C 3.882 4.362 4.46 3.663 4.636 3.476 C 4.636 3.476 5.007 2.891 4.544 2.341 C 4.209 2.008 4.125 1.231 4.144 0.461 C 4.166 0.41 4.118 0.13 4.125 0 L 4.125 0 Z M 6.261 0.629 C 5.939 0.629 5.906 0.744 6.018 1.446 C 6.181 2.464 5.827 3.394 5.034 3.98 C 4.703 4.225 4.031 5.05 4.031 5.158 C 4.031 5.253 2.504 5.649 2.946 6.217 C 3.012 6.301 2.182 6.866 3.125 6.453 C 3.912 6.109 4.352 8.149 4.653 8.733 L 5.2 9.795 L 4.714 10.744 C 4.005 12.126 4.211 12.58 2.876 13.932 C 2.668 14.143 2.702 14.404 2.538 14.296 C 1.368 13.526 2.436 14.642 2.363 14.743 C 1.831 13.63 1.986 15.369 1.986 15.37 C 2.493 15.928 3.439 16.018 4.183 15.997 C 5.423 16.003 5.967 15.169 6.332 14.548 C 7.398 12.725 8.774 11.271 9.208 11.438 C 9.398 11.511 10.083 12.308 10.731 13.209 C 11.38 14.109 12.003 14.819 12.116 14.787 C 12.481 14.68 12.912 13.756 12.912 12.873 C 12.912 11.704 12.707 11.43 12.353 11.084 C 12.089 10.826 12.251 10.69 12.002 10.326 C 11.566 9.69 11.354 9.886 11.678 9.202 C 11.864 8.81 11.872 8.623 12.358 8.225 C 13.558 7.242 14.244 5.198 13.978 4.234 C 13.868 3.837 13.684 3.333 13.518 3.112 C 13.233 2.736 13.214 2.758 13.208 3.48 C 13.203 4.112 11.606 4.839 11.265 4.839 C 11.231 4.839 11.195 4.845 11.156 4.857 C 10.858 5.328 10.613 5.624 10.423 5.974 C 9.498 7.274 9.801 7.257 9.456 7.257 C 9.109 7.257 8.356 6.357 7.414 4.941 C 7.341 4.831 7.01 4.729 6.958 4.634 C 6.932 4.586 6.915 4.544 6.896 4.501 C 6.889 4.485 6.881 4.469 6.874 4.453 C 6.861 4.424 6.843 4.392 6.833 4.364 C 6.805 4.291 6.789 4.225 6.779 4.162 C 6.778 4.16 6.777 4.157 6.777 4.155 C 6.776 4.15 6.774 4.144 6.773 4.138 C 6.772 4.131 6.774 4.124 6.773 4.117 C 6.767 4.06 6.767 4.006 6.776 3.957 C 6.777 3.952 6.776 3.947 6.777 3.943 C 6.788 3.889 6.81 3.84 6.838 3.793 C 6.839 3.792 6.84 3.791 6.84 3.789 C 6.843 3.785 6.844 3.78 6.847 3.776 C 6.879 3.728 6.923 3.684 6.975 3.643 C 6.976 3.642 6.977 3.641 6.979 3.639 C 6.979 3.639 6.98 3.639 6.98 3.639 C 7.092 3.553 7.247 3.482 7.448 3.421 C 7.496 3.438 7.54 3.451 7.591 3.47 L 8.275 3.47 C 8.3 3.391 8.303 3.295 8.289 3.171 C 8.217 2.561 6.76 0.629 6.261 0.629 L 6.261 0.629 Z M 11.413 0.629 C 11.136 0.629 9.878 2.551 9.936 3.236 C 9.989 3.866 9.87 3.876 10.144 3.843 C 10.387 3.813 11.022 3.816 11.144 3.588 C 11.226 3.434 11.474 1.922 11.555 1.602 C 11.783 0.698 11.773 0.629 11.413 0.629 Z"/>
</svg>
