<svg xmlns="http://www.w3.org/2000/svg" width="16" height="16" version="1.1">
 <defs>
   <style id="current-color-scheme" type="text/css">
   .ColorScheme-Text { color: #c8dff1; } .ColorScheme-Highlight { color:#5294e2; }
  </style>
  <linearGradient id="arrongin" x1="0%" x2="0%" y1="0%" y2="100%">
   <stop offset="0%" style="stop-color:#dd9b44; stop-opacity:1"/>
   <stop offset="100%" style="stop-color:#ad6c16; stop-opacity:1"/>
  </linearGradient>
  <linearGradient id="aurora" x1="0%" x2="0%" y1="0%" y2="100%">
   <stop offset="0%" style="stop-color:#09D4DF; stop-opacity:1"/>
   <stop offset="100%" style="stop-color:#9269F4; stop-opacity:1"/>
  </linearGradient>
  <linearGradient id="cyberneon" x1="0%" x2="0%" y1="0%" y2="100%">
    <stop offset="0" style="stop-color:#0abdc6; stop-opacity:1"/>
    <stop offset="1" style="stop-color:#ea00d9; stop-opacity:1"/>
  </linearGradient>
  <linearGradient id="fitdance" x1="0%" x2="0%" y1="0%" y2="100%">
   <stop offset="0%" style="stop-color:#1AD6AB; stop-opacity:1"/>
   <stop offset="100%" style="stop-color:#329DB6; stop-opacity:1"/>
  </linearGradient>
  <linearGradient id="oomox" x1="0%" x2="0%" y1="0%" y2="100%">
   <stop offset="0%" style="stop-color:#efefe7; stop-opacity:1"/>
   <stop offset="100%" style="stop-color:#8f8f8b; stop-opacity:1"/>
  </linearGradient>
  <linearGradient id="rainblue" x1="0%" x2="0%" y1="0%" y2="100%">
   <stop offset="0%" style="stop-color:#00F260; stop-opacity:1"/>
   <stop offset="100%" style="stop-color:#0575E6; stop-opacity:1"/>
  </linearGradient>
  <linearGradient id="sunrise" x1="0%" x2="0%" y1="0%" y2="100%">
   <stop offset="0%" style="stop-color: #FF8501; stop-opacity:1"/>
   <stop offset="100%" style="stop-color: #FFCB01; stop-opacity:1"/>
  </linearGradient>
  <linearGradient id="telinkrin" x1="0%" x2="0%" y1="0%" y2="100%">
   <stop offset="0%" style="stop-color: #b2ced6; stop-opacity:1"/>
   <stop offset="100%" style="stop-color: #6da5b7; stop-opacity:1"/>
  </linearGradient>
  <linearGradient id="60spsycho" x1="0%" x2="0%" y1="0%" y2="100%">
   <stop offset="0%" style="stop-color: #df5940; stop-opacity:1"/>
   <stop offset="25%" style="stop-color: #d8d15f; stop-opacity:1"/>
   <stop offset="50%" style="stop-color: #e9882a; stop-opacity:1"/>
   <stop offset="100%" style="stop-color: #279362; stop-opacity:1"/>
  </linearGradient>
  <linearGradient id="90ssummer" x1="0%" x2="0%" y1="0%" y2="100%">
   <stop offset="0%" style="stop-color: #f618c7; stop-opacity:1"/>
   <stop offset="20%" style="stop-color: #94ffab; stop-opacity:1"/>
   <stop offset="50%" style="stop-color: #fbfd54; stop-opacity:1"/>
   <stop offset="100%" style="stop-color: #0f83ae; stop-opacity:1"/>
  </linearGradient>
 </defs>
 <path fill="currentColor" class="ColorScheme-Text" fill-rule="evenodd" d="M 12.848 2.572 L 11.673 1.391 L 12.253 0.8 C 12.913 0.127 13.504 -0.127 13.977 0.059 C 14.407 0.227 15.381 1.263 15.412 1.585 C 15.476 2.23 15.37 2.491 14.799 3.101 C 14.464 3.46 14.152 3.753 14.107 3.753 C 14.061 3.753 13.495 3.221 12.848 2.572 L 12.848 2.572 L 12.848 2.572 L 12.848 2.572 L 12.848 2.572 Z M 11.928 3.491 C 10.812 2.37 10.764 2.298 10.981 2.082 C 11.197 1.865 11.27 1.915 12.412 3.057 C 13.449 4.094 13.592 4.289 13.445 4.466 C 13.351 4.579 13.236 4.672 13.189 4.672 C 13.142 4.672 12.575 4.14 11.928 3.491 L 11.928 3.491 L 11.928 3.491 L 11.928 3.491 Z M 3.257 12.203 C 2.644 11.578 2.142 11.031 2.142 10.988 C 2.142 10.944 3.974 9.078 6.214 6.839 L 10.285 2.769 L 11.5 3.983 L 12.714 5.197 L 8.644 9.269 C 6.405 11.508 4.528 13.341 4.472 13.341 C 4.417 13.341 3.87 12.829 3.257 12.203 L 3.257 12.203 L 3.257 12.203 L 3.257 12.203 Z M 1.761 11.428 C 2.472 12.228 3.221 12.989 3.969 13.754 L 0.48 14.969 L 1.761 11.428 L 1.761 11.428 Z M 0.587 15.319 L 15.413 15.319 C 15.503 15.319 15.589 15.355 15.653 15.419 C 15.717 15.483 15.753 15.569 15.753 15.659 C 15.753 15.751 15.717 15.837 15.653 15.901 C 15.589 15.965 15.503 16 15.413 16 L 0.587 16 C 0.497 16 0.411 15.965 0.347 15.901 C 0.283 15.837 0.247 15.751 0.247 15.659 C 0.247 15.569 0.283 15.483 0.347 15.419 C 0.411 15.355 0.497 15.319 0.587 15.319 Z"/>
</svg>
