<svg xmlns="http://www.w3.org/2000/svg" width="16" height="16" version="1.1">
 <defs>
   <style id="current-color-scheme" type="text/css">
   .ColorScheme-Text { color: #c8dff1; } .ColorScheme-Highlight { color:#5294e2; }
  </style>
  <linearGradient id="arrongin" x1="0%" x2="0%" y1="0%" y2="100%">
   <stop offset="0%" style="stop-color:#dd9b44; stop-opacity:1"/>
   <stop offset="100%" style="stop-color:#ad6c16; stop-opacity:1"/>
  </linearGradient>
  <linearGradient id="aurora" x1="0%" x2="0%" y1="0%" y2="100%">
   <stop offset="0%" style="stop-color:#09D4DF; stop-opacity:1"/>
   <stop offset="100%" style="stop-color:#9269F4; stop-opacity:1"/>
  </linearGradient>
  <linearGradient id="cyberneon" x1="0%" x2="0%" y1="0%" y2="100%">
    <stop offset="0" style="stop-color:#0abdc6; stop-opacity:1"/>
    <stop offset="1" style="stop-color:#ea00d9; stop-opacity:1"/>
  </linearGradient>
  <linearGradient id="fitdance" x1="0%" x2="0%" y1="0%" y2="100%">
   <stop offset="0%" style="stop-color:#1AD6AB; stop-opacity:1"/>
   <stop offset="100%" style="stop-color:#329DB6; stop-opacity:1"/>
  </linearGradient>
  <linearGradient id="oomox" x1="0%" x2="0%" y1="0%" y2="100%">
   <stop offset="0%" style="stop-color:#efefe7; stop-opacity:1"/>
   <stop offset="100%" style="stop-color:#8f8f8b; stop-opacity:1"/>
  </linearGradient>
  <linearGradient id="rainblue" x1="0%" x2="0%" y1="0%" y2="100%">
   <stop offset="0%" style="stop-color:#00F260; stop-opacity:1"/>
   <stop offset="100%" style="stop-color:#0575E6; stop-opacity:1"/>
  </linearGradient>
  <linearGradient id="sunrise" x1="0%" x2="0%" y1="0%" y2="100%">
   <stop offset="0%" style="stop-color: #FF8501; stop-opacity:1"/>
   <stop offset="100%" style="stop-color: #FFCB01; stop-opacity:1"/>
  </linearGradient>
  <linearGradient id="telinkrin" x1="0%" x2="0%" y1="0%" y2="100%">
   <stop offset="0%" style="stop-color: #b2ced6; stop-opacity:1"/>
   <stop offset="100%" style="stop-color: #6da5b7; stop-opacity:1"/>
  </linearGradient>
  <linearGradient id="60spsycho" x1="0%" x2="0%" y1="0%" y2="100%">
   <stop offset="0%" style="stop-color: #df5940; stop-opacity:1"/>
   <stop offset="25%" style="stop-color: #d8d15f; stop-opacity:1"/>
   <stop offset="50%" style="stop-color: #e9882a; stop-opacity:1"/>
   <stop offset="100%" style="stop-color: #279362; stop-opacity:1"/>
  </linearGradient>
  <linearGradient id="90ssummer" x1="0%" x2="0%" y1="0%" y2="100%">
   <stop offset="0%" style="stop-color: #f618c7; stop-opacity:1"/>
   <stop offset="20%" style="stop-color: #94ffab; stop-opacity:1"/>
   <stop offset="50%" style="stop-color: #fbfd54; stop-opacity:1"/>
   <stop offset="100%" style="stop-color: #0f83ae; stop-opacity:1"/>
  </linearGradient>
 </defs>
 <path fill="currentColor" class="ColorScheme-Text" d="M 10.197 15.862 C 10.022 15.701 9.857 15.406 9.784 15.127 C 9.755 15.018 9.724 14.921 9.715 14.911 C 9.705 14.901 9.587 14.831 9.452 14.754 C 9.168 14.592 9.099 14.508 9.199 14.448 C 9.36 14.352 9.531 14.166 9.612 14 C 9.704 13.812 9.808 13.467 9.781 13.439 C 9.773 13.431 9.63 13.466 9.464 13.517 C 8.666 13.761 7.667 13.798 6.926 13.61 C 6.795 13.577 6.682 13.556 6.674 13.563 C 6.653 13.584 6.777 13.927 6.846 14.038 C 6.938 14.186 7.071 14.324 7.176 14.379 C 7.228 14.406 7.27 14.45 7.27 14.477 C 7.27 14.537 7.103 14.664 6.875 14.779 C 6.709 14.861 6.699 14.875 6.641 15.081 C 6.472 15.689 6.031 16.132 5.822 15.902 C 5.74 15.811 5.752 15.58 5.855 15.27 C 5.904 15.123 5.936 14.995 5.925 14.984 C 5.915 14.974 5.81 14.998 5.691 15.037 C 5.326 15.158 5.129 15.184 4.996 15.129 C 4.85 15.068 4.798 14.919 4.898 14.847 C 5.039 14.743 5.646 14.619 6.21 14.578 L 6.535 14.555 L 6.409 14.298 C 6.28 14.034 6.142 13.584 6.142 13.429 C 6.142 13.359 6.097 13.313 5.918 13.197 C 5.128 12.686 4.7 11.83 4.692 10.743 C 4.691 10.494 4.682 10.29 4.673 10.29 C 4.664 10.29 4.57 10.376 4.465 10.48 C 4.264 10.679 4.058 10.779 3.939 10.736 C 3.9 10.722 3.834 10.66 3.792 10.599 C 3.741 10.523 3.711 10.502 3.699 10.534 C 3.69 10.559 3.642 10.696 3.593 10.837 C 3.543 10.978 3.435 11.233 3.352 11.404 C 3.016 12.097 2.852 11.993 2.846 11.085 C 2.845 10.836 2.835 10.632 2.826 10.632 C 2.816 10.632 2.733 10.757 2.641 10.911 C 2.381 11.345 2.098 11.608 2.022 11.485 C 1.985 11.425 1.997 10.694 2.039 10.463 C 2.206 9.549 2.846 8.713 3.822 8.135 C 4.214 7.902 4.668 7.695 4.852 7.664 L 4.99 7.64 L 4.786 7.514 C 4.535 7.359 4.314 7.125 4.217 6.912 C 4.11 6.674 4.117 6.275 4.234 5.992 L 4.322 5.78 L 4.198 5.705 C 4.123 5.661 4.092 5.625 4.118 5.616 C 4.146 5.606 4.083 5.528 3.955 5.412 C 3.84 5.308 3.724 5.178 3.695 5.123 L 3.643 5.023 L 3.85 5.128 C 4.066 5.236 4.094 5.231 4.001 5.098 C 3.955 5.032 3.84 4.718 3.862 4.718 C 3.866 4.718 3.944 4.757 4.037 4.804 C 4.129 4.851 4.225 4.889 4.25 4.889 C 4.302 4.889 4.306 4.874 4.397 4.308 C 4.435 4.072 4.491 3.796 4.521 3.692 C 4.816 2.692 5.545 1.919 6.525 1.569 C 6.815 1.465 6.827 1.457 6.926 1.281 C 6.982 1.181 7.076 1.045 7.135 0.978 C 7.24 0.859 7.547 0.616 7.593 0.616 C 7.606 0.616 7.606 0.666 7.593 0.727 C 7.573 0.818 7.577 0.831 7.616 0.799 C 8.052 0.447 8.465 0.208 8.871 0.071 C 9.203 -0.041 9.244 -0.024 9.059 0.146 C 8.875 0.316 8.486 0.784 8.509 0.807 C 8.518 0.816 8.593 0.794 8.676 0.758 C 8.759 0.723 8.937 0.668 9.072 0.638 C 9.326 0.58 9.765 0.562 9.765 0.609 C 9.765 0.624 9.687 0.712 9.592 0.806 C 9.431 0.964 9.15 1.343 9.15 1.403 C 9.15 1.417 9.207 1.44 9.276 1.453 C 9.507 1.496 10.019 1.681 10.324 1.833 C 11.271 2.301 11.786 2.986 11.934 3.974 C 11.96 4.148 12.006 4.376 12.035 4.479 C 12.065 4.582 12.089 4.717 12.089 4.779 C 12.089 4.844 12.11 4.899 12.138 4.91 C 12.177 4.925 12.353 4.859 12.54 4.761 C 12.581 4.739 12.499 4.988 12.425 5.114 C 12.386 5.18 12.36 5.24 12.367 5.246 C 12.374 5.253 12.469 5.215 12.577 5.161 L 12.773 5.063 L 12.724 5.159 C 12.697 5.211 12.582 5.34 12.468 5.445 C 12.355 5.55 12.281 5.642 12.303 5.65 C 12.356 5.667 12.198 5.772 12.03 5.831 C 11.955 5.858 11.907 5.895 11.914 5.921 C 12.047 6.424 12.063 6.526 12.046 6.768 C 12.021 7.119 11.917 7.377 11.708 7.607 C 11.54 7.79 11.538 7.795 11.627 7.795 C 11.729 7.795 12.337 8.193 12.808 8.57 C 13.503 9.126 14.084 9.828 14.243 10.305 C 14.421 10.842 14.263 11.327 13.926 11.272 L 13.816 11.254 L 13.827 11.413 C 13.843 11.643 13.79 11.76 13.67 11.76 C 13.447 11.76 12.987 11.335 12.771 10.93 L 12.657 10.717 L 12.629 10.851 C 12.565 11.159 12.438 11.156 12.016 10.837 C 11.843 10.705 11.691 10.598 11.678 10.598 C 11.665 10.598 11.646 10.755 11.635 10.948 C 11.613 11.318 11.499 11.838 11.371 12.155 C 11.329 12.258 11.303 12.352 11.313 12.362 C 11.324 12.373 11.427 12.39 11.542 12.4 L 11.751 12.419 L 11.662 12.513 C 11.612 12.564 11.519 12.635 11.455 12.669 C 11.39 12.704 11.338 12.744 11.338 12.759 C 11.338 12.783 11.628 12.803 11.743 12.787 C 11.768 12.784 11.779 12.796 11.768 12.815 C 11.737 12.865 11.413 12.98 11.226 13.008 C 11.137 13.021 11.073 13.045 11.083 13.062 C 11.116 13.115 10.921 13.137 10.757 13.1 C 10.618 13.067 10.577 13.071 10.46 13.13 C 10.325 13.196 10.323 13.2 10.282 13.468 C 10.235 13.774 10.126 14.118 9.992 14.382 C 9.943 14.48 9.902 14.567 9.902 14.574 C 9.902 14.581 10.038 14.597 10.205 14.61 C 10.788 14.654 11.378 14.776 11.523 14.881 C 11.57 14.916 11.581 14.952 11.564 15.018 C 11.516 15.209 11.247 15.235 10.792 15.091 C 10.637 15.042 10.505 15.008 10.498 15.015 C 10.491 15.022 10.524 15.146 10.57 15.292 C 10.667 15.599 10.68 15.865 10.6 15.945 C 10.504 16.041 10.358 16.011 10.197 15.862 L 10.197 15.862 Z M 8.444 7.068 C 8.573 6.886 8.876 6.329 8.876 6.274 C 8.876 6.264 8.599 6.256 8.259 6.256 L 7.641 6.256 L 7.665 6.333 C 7.746 6.595 8.18 7.282 8.265 7.282 C 8.28 7.282 8.36 7.186 8.444 7.068 L 8.444 7.068 Z M 6.936 5.815 C 7.175 5.547 6.904 5.128 6.489 5.128 C 6.365 5.128 6.321 5.148 6.224 5.245 C 6.097 5.371 6.083 5.448 6.154 5.617 C 6.292 5.942 6.724 6.051 6.936 5.815 Z M 10 5.855 C 10.122 5.765 10.244 5.58 10.244 5.484 C 10.244 5.274 10.082 5.128 9.849 5.128 C 9.592 5.128 9.371 5.309 9.332 5.551 C 9.309 5.693 9.361 5.795 9.503 5.884 C 9.636 5.968 9.866 5.955 10 5.855 L 10 5.855 Z M 5.69 3.376 C 5.806 3.171 6.03 2.953 6.157 2.921 C 6.204 2.909 6.316 2.909 6.406 2.92 C 6.725 2.961 6.738 2.96 6.75 2.9 C 6.772 2.79 6.636 2.702 6.443 2.702 C 6.123 2.702 5.863 2.887 5.685 3.241 C 5.597 3.417 5.547 3.556 5.572 3.556 C 5.581 3.556 5.634 3.475 5.69 3.376 L 5.69 3.376 Z M 10.747 3.274 C 10.555 2.885 10.309 2.701 9.979 2.701 C 9.784 2.701 9.648 2.789 9.67 2.9 C 9.682 2.96 9.695 2.961 10.014 2.92 C 10.104 2.909 10.216 2.909 10.263 2.921 C 10.39 2.953 10.614 3.171 10.73 3.377 C 10.879 3.64 10.891 3.566 10.747 3.274 L 10.747 3.274 Z"/>
</svg>
