<svg xmlns="http://www.w3.org/2000/svg" width="16" height="16" version="1.1">
 <defs>
   <style id="current-color-scheme" type="text/css">
   .ColorScheme-Text { color: #00aa00; } .ColorScheme-Highlight { color:#5294e2; }
  </style>
  <linearGradient id="arrongin" x1="0%" x2="0%" y1="0%" y2="100%">
   <stop offset="0%" style="stop-color:#dd9b44; stop-opacity:1"/>
   <stop offset="100%" style="stop-color:#ad6c16; stop-opacity:1"/>
  </linearGradient>
  <linearGradient id="aurora" x1="0%" x2="0%" y1="0%" y2="100%">
   <stop offset="0%" style="stop-color:#09D4DF; stop-opacity:1"/>
   <stop offset="100%" style="stop-color:#9269F4; stop-opacity:1"/>
  </linearGradient>
  <linearGradient id="cyberneon" x1="0%" x2="0%" y1="0%" y2="100%">
    <stop offset="0" style="stop-color:#0abdc6; stop-opacity:1"/>
    <stop offset="1" style="stop-color:#ea00d9; stop-opacity:1"/>
  </linearGradient>
  <linearGradient id="fitdance" x1="0%" x2="0%" y1="0%" y2="100%">
   <stop offset="0%" style="stop-color:#1AD6AB; stop-opacity:1"/>
   <stop offset="100%" style="stop-color:#329DB6; stop-opacity:1"/>
  </linearGradient>
  <linearGradient id="oomox" x1="0%" x2="0%" y1="0%" y2="100%">
   <stop offset="0%" style="stop-color:#00aa00; stop-opacity:1"/>
   <stop offset="100%" style="stop-color:#00cc00; stop-opacity:1"/>
  </linearGradient>
  <linearGradient id="rainblue" x1="0%" x2="0%" y1="0%" y2="100%">
   <stop offset="0%" style="stop-color:#00F260; stop-opacity:1"/>
   <stop offset="100%" style="stop-color:#0575E6; stop-opacity:1"/>
  </linearGradient>
  <linearGradient id="sunrise" x1="0%" x2="0%" y1="0%" y2="100%">
   <stop offset="0%" style="stop-color: #FF8501; stop-opacity:1"/>
   <stop offset="100%" style="stop-color: #FFCB01; stop-opacity:1"/>
  </linearGradient>
  <linearGradient id="telinkrin" x1="0%" x2="0%" y1="0%" y2="100%">
   <stop offset="0%" style="stop-color: #b2ced6; stop-opacity:1"/>
   <stop offset="100%" style="stop-color: #6da5b7; stop-opacity:1"/>
  </linearGradient>
  <linearGradient id="60spsycho" x1="0%" x2="0%" y1="0%" y2="100%">
   <stop offset="0%" style="stop-color: #df5940; stop-opacity:1"/>
   <stop offset="25%" style="stop-color: #d8d15f; stop-opacity:1"/>
   <stop offset="50%" style="stop-color: #e9882a; stop-opacity:1"/>
   <stop offset="100%" style="stop-color: #279362; stop-opacity:1"/>
  </linearGradient>
  <linearGradient id="90ssummer" x1="0%" x2="0%" y1="0%" y2="100%">
   <stop offset="0%" style="stop-color: #f618c7; stop-opacity:1"/>
   <stop offset="20%" style="stop-color: #94ffab; stop-opacity:1"/>
   <stop offset="50%" style="stop-color: #fbfd54; stop-opacity:1"/>
   <stop offset="100%" style="stop-color: #0f83ae; stop-opacity:1"/>
  </linearGradient>
 </defs>
 <path fill="url(#oomox)" class="ColorScheme-Text" fill-rule="evenodd" d="M 9.714 12.098 C 9.714 12.991 8.947 13.714 8 13.714 C 7.053 13.714 6.286 12.991 6.286 12.098 C 6.286 11.206 9.714 11.206 9.714 12.098 L 9.714 12.098 L 9.714 12.098 L 9.714 12.098 L 9.714 12.098 Z M 4.571 5.143 C 5.518 5.143 6.286 6.166 6.286 7.429 C 6.286 8.691 5.518 9.714 4.571 9.714 C 3.625 9.714 2.857 8.691 2.857 7.429 C 2.857 6.166 3.625 5.143 4.571 5.143 L 4.571 5.143 L 4.571 5.143 L 4.571 5.143 L 4.571 5.143 Z M 4.571 4 C 2.994 4 1.714 5.535 1.714 7.429 C 1.714 9.322 2.994 10.857 4.571 10.857 C 6.149 10.857 7.429 9.322 7.429 7.429 C 7.429 5.535 6.149 4 4.571 4 L 4.571 4 L 4.571 4 L 4.571 4 L 4.571 4 Z M 0.64 0.126 C 0 0.779 0 3.903 0 5.882 C 0 13.063 4.16 16 8 16 C 11.84 16 16 13.062 16 5.882 C 16 3.923 16 0.779 15.36 0.126 C 14.72 -0.526 10.48 1.5 9.2 2.805 L 6.8 2.805 C 5.52 1.5 1.28 -0.526 0.64 0.126 L 0.64 0.126 L 0.64 0.126 L 0.64 0.126 L 0.64 0.126 Z M 11.429 5.143 C 12.375 5.143 13.143 6.166 13.143 7.429 C 13.143 8.691 12.375 9.714 11.429 9.714 C 10.482 9.714 9.714 8.691 9.714 7.429 C 9.714 6.166 10.482 5.143 11.429 5.143 L 11.429 5.143 L 11.429 5.143 Z M 11.429 4 C 9.851 4 8.571 5.535 8.571 7.429 C 8.571 9.322 9.851 10.857 11.429 10.857 C 13.007 10.857 14.286 9.322 14.286 7.429 C 14.286 5.535 13.007 4 11.429 4 L 11.429 4 L 11.429 4 Z"/>
</svg>
