<svg xmlns="http://www.w3.org/2000/svg" width="16" height="16" version="1.1">
 <defs>
   <style id="current-color-scheme" type="text/css">
   .ColorScheme-Text { color: #00aa00; } .ColorScheme-Highlight { color:#5294e2; }
  </style>
  <linearGradient id="arrongin" x1="0%" x2="0%" y1="0%" y2="100%">
   <stop offset="0%" style="stop-color:#dd9b44; stop-opacity:1"/>
   <stop offset="100%" style="stop-color:#ad6c16; stop-opacity:1"/>
  </linearGradient>
  <linearGradient id="aurora" x1="0%" x2="0%" y1="0%" y2="100%">
   <stop offset="0%" style="stop-color:#09D4DF; stop-opacity:1"/>
   <stop offset="100%" style="stop-color:#9269F4; stop-opacity:1"/>
  </linearGradient>
  <linearGradient id="cyberneon" x1="0%" x2="0%" y1="0%" y2="100%">
    <stop offset="0" style="stop-color:#0abdc6; stop-opacity:1"/>
    <stop offset="1" style="stop-color:#ea00d9; stop-opacity:1"/>
  </linearGradient>
  <linearGradient id="fitdance" x1="0%" x2="0%" y1="0%" y2="100%">
   <stop offset="0%" style="stop-color:#1AD6AB; stop-opacity:1"/>
   <stop offset="100%" style="stop-color:#329DB6; stop-opacity:1"/>
  </linearGradient>
  <linearGradient id="oomox" x1="0%" x2="0%" y1="0%" y2="100%">
   <stop offset="0%" style="stop-color:#00aa00; stop-opacity:1"/>
   <stop offset="100%" style="stop-color:#00cc00; stop-opacity:1"/>
  </linearGradient>
  <linearGradient id="rainblue" x1="0%" x2="0%" y1="0%" y2="100%">
   <stop offset="0%" style="stop-color:#00F260; stop-opacity:1"/>
   <stop offset="100%" style="stop-color:#0575E6; stop-opacity:1"/>
  </linearGradient>
  <linearGradient id="sunrise" x1="0%" x2="0%" y1="0%" y2="100%">
   <stop offset="0%" style="stop-color: #FF8501; stop-opacity:1"/>
   <stop offset="100%" style="stop-color: #FFCB01; stop-opacity:1"/>
  </linearGradient>
  <linearGradient id="telinkrin" x1="0%" x2="0%" y1="0%" y2="100%">
   <stop offset="0%" style="stop-color: #b2ced6; stop-opacity:1"/>
   <stop offset="100%" style="stop-color: #6da5b7; stop-opacity:1"/>
  </linearGradient>
  <linearGradient id="60spsycho" x1="0%" x2="0%" y1="0%" y2="100%">
   <stop offset="0%" style="stop-color: #df5940; stop-opacity:1"/>
   <stop offset="25%" style="stop-color: #d8d15f; stop-opacity:1"/>
   <stop offset="50%" style="stop-color: #e9882a; stop-opacity:1"/>
   <stop offset="100%" style="stop-color: #279362; stop-opacity:1"/>
  </linearGradient>
  <linearGradient id="90ssummer" x1="0%" x2="0%" y1="0%" y2="100%">
   <stop offset="0%" style="stop-color: #f618c7; stop-opacity:1"/>
   <stop offset="20%" style="stop-color: #94ffab; stop-opacity:1"/>
   <stop offset="50%" style="stop-color: #fbfd54; stop-opacity:1"/>
   <stop offset="100%" style="stop-color: #0f83ae; stop-opacity:1"/>
  </linearGradient>
 </defs>
 <path fill="url(#oomox)" class="ColorScheme-Text" fill-rule="evenodd" d="M 0.073 13.114 L 0.157 12.476 L 0.157 12.476 Q 0.45 12.455 0.539 12.329 L 0.539 12.329 L 0.539 12.329 Q 0.627 12.204 0.638 11.817 L 0.638 11.817 L 0.638 11.817 Q 0.69 10.824 0.69 10.217 L 0.69 10.217 L 0.69 7.258 L 0.69 7.258 Q 0.69 6.902 0.58 6.766 L 0.58 6.766 L 0.58 6.766 Q 0.471 6.63 0.178 6.63 L 0.178 6.63 L 0.042 6.63 L 0 6.578 L 0.052 6.034 L 0.052 6.034 Q 0.638 5.95 1.213 5.835 L 1.213 5.835 L 1.213 5.835 Q 1.788 5.72 1.956 5.689 L 1.956 5.689 L 2.05 5.793 L 2.05 5.793 Q 2.039 5.856 1.997 6.06 L 1.997 6.06 L 1.997 6.06 Q 1.956 6.264 1.935 6.452 L 1.935 6.452 L 1.976 6.505 L 1.976 6.505 Q 2.834 5.741 3.033 5.741 L 3.033 5.741 L 3.033 5.741 Q 3.65 5.741 4.12 6.024 L 4.12 6.024 L 4.12 6.024 Q 4.591 6.306 4.847 6.829 L 4.847 6.829 L 4.847 6.829 Q 5.103 7.352 5.103 8.031 L 5.103 8.031 L 5.103 8.031 Q 5.103 8.837 4.748 9.454 L 4.748 9.454 L 4.748 9.454 Q 4.392 10.071 3.765 10.41 L 3.765 10.41 L 3.765 10.41 Q 3.137 10.75 2.332 10.75 L 2.332 10.75 L 2.332 10.75 Q 2.196 10.75 2.06 10.74 L 2.06 10.74 L 2.06 10.74 Q 1.924 10.729 1.872 10.719 L 1.872 10.719 L 1.882 11.692 L 1.882 11.692 Q 1.882 12.12 1.95 12.267 L 1.95 12.267 L 1.95 12.267 Q 2.018 12.413 2.259 12.413 L 2.259 12.413 L 2.259 12.413 Q 2.405 12.413 2.515 12.403 L 2.515 12.403 L 2.515 12.403 Q 2.625 12.392 2.688 12.392 L 2.688 12.392 L 2.708 12.434 L 2.593 13.072 L 2.593 13.072 Q 2.363 13.072 2.186 13.061 L 2.186 13.061 L 1.339 13.051 L 1.339 13.051 Q 0.973 13.051 0.58 13.077 L 0.58 13.077 L 0.58 13.077 Q 0.188 13.103 0.073 13.114 L 0.073 13.114 Z M 2.698 9.903 L 2.698 9.903 Q 3.21 9.903 3.493 9.516 L 3.493 9.516 L 3.493 9.516 Q 3.775 9.129 3.775 8.429 L 3.775 8.429 L 3.775 8.429 Q 3.775 7.665 3.488 7.21 L 3.488 7.21 L 3.488 7.21 Q 3.2 6.756 2.729 6.756 L 2.729 6.756 L 2.729 6.756 Q 2.583 6.756 2.374 6.844 L 2.374 6.844 L 2.374 6.844 Q 2.165 6.933 1.976 7.08 L 1.976 7.08 L 1.976 7.08 Q 1.914 8.303 1.914 9.746 L 1.914 9.746 L 1.914 9.746 Q 2.05 9.799 2.269 9.851 L 2.269 9.851 L 2.269 9.851 Q 2.489 9.903 2.698 9.903 L 2.698 9.903 Z M 9.966 10.771 L 9.966 10.771 Q 9.035 10.771 8.92 10.018 L 8.92 10.018 L 8.858 9.997 L 8.858 9.997 Q 7.843 10.729 7.634 10.729 L 7.634 10.729 L 7.634 10.729 Q 6.724 10.729 6.186 10.112 L 6.186 10.112 L 6.186 10.112 Q 5.647 9.495 5.647 8.439 L 5.647 8.439 L 5.647 8.439 Q 5.647 7.665 5.987 7.043 L 5.987 7.043 L 5.987 7.043 Q 6.327 6.421 6.928 6.071 L 6.928 6.071 L 6.928 6.071 Q 7.529 5.72 8.282 5.72 L 8.282 5.72 L 8.282 5.72 Q 8.533 5.72 8.826 5.752 L 8.826 5.752 L 8.826 4.403 L 8.826 4.403 Q 8.826 4.078 8.727 3.948 L 8.727 3.948 L 8.727 3.948 Q 8.627 3.817 8.387 3.817 L 8.387 3.817 L 8.387 3.817 Q 8.303 3.817 8.23 3.827 L 8.23 3.827 L 8.23 3.827 Q 8.157 3.838 8.136 3.848 L 8.136 3.848 L 8.199 3.231 L 8.199 3.231 Q 8.816 3.158 9.443 3.043 L 9.443 3.043 L 9.443 3.043 Q 10.071 2.928 10.259 2.886 L 10.259 2.886 L 10.353 3.064 L 10.353 3.064 Q 10.217 3.263 10.123 5.103 L 10.123 5.103 L 10.123 5.103 Q 10.029 6.944 10.029 9.276 L 10.029 9.276 L 10.029 9.276 Q 10.029 9.475 10.118 9.59 L 10.118 9.59 L 10.118 9.59 Q 10.207 9.705 10.363 9.705 L 10.363 9.705 L 10.363 9.705 Q 10.478 9.705 10.583 9.663 L 10.583 9.663 L 10.583 9.663 Q 10.688 9.621 10.756 9.579 L 10.756 9.579 L 10.756 9.579 Q 10.824 9.537 10.844 9.527 L 10.844 9.527 L 11.012 9.746 L 11.012 9.746 Q 10.98 9.809 10.834 10.018 L 10.834 10.018 L 10.834 10.018 Q 10.688 10.227 10.452 10.458 L 10.452 10.458 L 10.452 10.458 Q 10.217 10.688 9.966 10.771 L 9.966 10.771 Z M 8.021 9.767 L 8.021 9.767 Q 8.188 9.767 8.371 9.689 L 8.371 9.689 L 8.371 9.689 Q 8.554 9.61 8.675 9.527 L 8.675 9.527 L 8.675 9.527 Q 8.795 9.443 8.826 9.412 L 8.826 9.412 L 8.826 6.766 L 8.826 6.766 Q 8.805 6.756 8.701 6.714 L 8.701 6.714 L 8.701 6.714 Q 8.596 6.672 8.429 6.63 L 8.429 6.63 L 8.429 6.63 Q 8.261 6.588 8.052 6.588 L 8.052 6.588 L 8.052 6.588 Q 7.54 6.588 7.258 6.97 L 7.258 6.97 L 7.258 6.97 Q 6.975 7.352 6.975 8.052 L 6.975 8.052 L 6.975 8.052 Q 6.975 8.826 7.263 9.297 L 7.263 9.297 L 7.263 9.297 Q 7.55 9.767 8.021 9.767 L 8.021 9.767 Z M 11.639 8.774 L 11.284 8.387 L 11.284 8.282 L 12.225 7.237 L 12.424 7.195 L 12.424 7.195 Q 12.706 7.195 13.668 7.404 L 13.668 7.404 L 13.668 7.404 Q 14.546 7.592 14.756 7.592 L 14.756 7.592 L 14.756 7.592 Q 14.881 7.592 15.054 7.461 L 15.054 7.461 L 15.054 7.461 Q 15.226 7.331 15.357 7.19 L 15.357 7.19 L 15.357 7.19 Q 15.488 7.048 15.529 7.007 L 15.529 7.007 L 15.644 7.007 L 16 7.393 L 16 7.498 L 15.059 8.554 L 14.86 8.596 L 14.86 8.596 Q 14.536 8.596 13.616 8.376 L 13.616 8.376 L 13.616 8.376 Q 12.737 8.188 12.528 8.188 L 12.528 8.188 L 12.528 8.188 Q 12.403 8.188 12.23 8.319 L 12.23 8.319 L 12.23 8.319 Q 12.058 8.45 11.927 8.591 L 11.927 8.591 L 11.927 8.591 Q 11.796 8.732 11.754 8.774 L 11.754 8.774 L 11.639 8.774 Z"/>
</svg>
