<svg xmlns="http://www.w3.org/2000/svg" width="16" height="16" version="1.1">
 <defs>
   <style id="current-color-scheme" type="text/css">
   .ColorScheme-Text { color: #00aa00; } .ColorScheme-Highlight { color:#5294e2; }
  </style>
  <linearGradient id="arrongin" x1="0%" x2="0%" y1="0%" y2="100%">
   <stop offset="0%" style="stop-color:#dd9b44; stop-opacity:1"/>
   <stop offset="100%" style="stop-color:#ad6c16; stop-opacity:1"/>
  </linearGradient>
  <linearGradient id="aurora" x1="0%" x2="0%" y1="0%" y2="100%">
   <stop offset="0%" style="stop-color:#09D4DF; stop-opacity:1"/>
   <stop offset="100%" style="stop-color:#9269F4; stop-opacity:1"/>
  </linearGradient>
  <linearGradient id="cyberneon" x1="0%" x2="0%" y1="0%" y2="100%">
    <stop offset="0" style="stop-color:#0abdc6; stop-opacity:1"/>
    <stop offset="1" style="stop-color:#ea00d9; stop-opacity:1"/>
  </linearGradient>
  <linearGradient id="fitdance" x1="0%" x2="0%" y1="0%" y2="100%">
   <stop offset="0%" style="stop-color:#1AD6AB; stop-opacity:1"/>
   <stop offset="100%" style="stop-color:#329DB6; stop-opacity:1"/>
  </linearGradient>
  <linearGradient id="oomox" x1="0%" x2="0%" y1="0%" y2="100%">
   <stop offset="0%" style="stop-color:#00aa00; stop-opacity:1"/>
   <stop offset="100%" style="stop-color:#00cc00; stop-opacity:1"/>
  </linearGradient>
  <linearGradient id="rainblue" x1="0%" x2="0%" y1="0%" y2="100%">
   <stop offset="0%" style="stop-color:#00F260; stop-opacity:1"/>
   <stop offset="100%" style="stop-color:#0575E6; stop-opacity:1"/>
  </linearGradient>
  <linearGradient id="sunrise" x1="0%" x2="0%" y1="0%" y2="100%">
   <stop offset="0%" style="stop-color: #FF8501; stop-opacity:1"/>
   <stop offset="100%" style="stop-color: #FFCB01; stop-opacity:1"/>
  </linearGradient>
  <linearGradient id="telinkrin" x1="0%" x2="0%" y1="0%" y2="100%">
   <stop offset="0%" style="stop-color: #b2ced6; stop-opacity:1"/>
   <stop offset="100%" style="stop-color: #6da5b7; stop-opacity:1"/>
  </linearGradient>
  <linearGradient id="60spsycho" x1="0%" x2="0%" y1="0%" y2="100%">
   <stop offset="0%" style="stop-color: #df5940; stop-opacity:1"/>
   <stop offset="25%" style="stop-color: #d8d15f; stop-opacity:1"/>
   <stop offset="50%" style="stop-color: #e9882a; stop-opacity:1"/>
   <stop offset="100%" style="stop-color: #279362; stop-opacity:1"/>
  </linearGradient>
  <linearGradient id="90ssummer" x1="0%" x2="0%" y1="0%" y2="100%">
   <stop offset="0%" style="stop-color: #f618c7; stop-opacity:1"/>
   <stop offset="20%" style="stop-color: #94ffab; stop-opacity:1"/>
   <stop offset="50%" style="stop-color: #fbfd54; stop-opacity:1"/>
   <stop offset="100%" style="stop-color: #0f83ae; stop-opacity:1"/>
  </linearGradient>
 </defs>
 <path fill="url(#oomox)" class="ColorScheme-Text" d="M 0.50004882,1.2456363 V 14.800099 H 15.50005 V 1.2456363 Z M 15.083252,1.5535781 h 3.6e-4 V 14.492157 h -3.6e-4 z M 2.7576938,2.7434526 c 1.419982,0 2.7768501,0.2793297 4.0709221,0.8382458 1.2940719,0.558918 2.4099295,1.3094803 3.3472591,2.2515583 0.937328,0.942075 1.683998,2.063462 2.240099,3.364088 0.5561,1.3006213 0.833949,2.6645173 0.833949,4.0916893 H 11.23541 c 0,-1.152984 -0.223706,-2.256891 -0.671386,-3.3114518 C 10.116345,8.9230237 9.5129255,8.0162357 8.7539697,7.2569527 7.9950139,6.4976667 7.0926947,5.8929037 6.0469455,5.4429587 5.0011938,4.9930117 3.9048718,4.7679917 2.7576938,4.7679917 Z m 0,3.5853761 c 1.252103,0 2.409704,0.310945 3.4729411,0.933136 1.0632394,0.622191 1.9042783,1.467604 2.5233348,2.536225 0.6190565,1.0686213 0.9284817,2.2324043 0.9284817,3.4908443 H 7.6679368 c 0,-1.363899 -0.4789895,-2.527682 -1.4373019,-3.4908443 C 5.2653276,8.8279917 4.1077248,8.3429857 2.7576938,8.3429857 Z m 1.395408,4.1443273 c 0.384724,0 0.713327,0.137229 0.98613,0.411424 0.272804,0.274188 0.4092756,0.604473 0.4092756,0.991144 0,0.393704 -0.1364817,0.725843 -0.4092756,0.996513 -0.272803,0.270669 -0.601406,0.406056 -0.98613,0.406056 -0.384726,0 -0.713684,-0.136886 -0.98649,-0.411068 -0.272804,-0.274184 -0.408918,-0.604829 -0.408918,-0.991501 0,-0.386671 0.136118,-0.716956 0.408918,-0.991144 0.272806,-0.274184 0.601764,-0.411424 0.98649,-0.411424 z"/>
</svg>
