<svg xmlns="http://www.w3.org/2000/svg" width="16" height="16" version="1.1">
 <defs>
   <style id="current-color-scheme" type="text/css">
   .ColorScheme-Text { color: #00aa00; } .ColorScheme-Highlight { color:#5294e2; }
  </style>
  <linearGradient id="arrongin" x1="0%" x2="0%" y1="0%" y2="100%">
   <stop offset="0%" style="stop-color:#dd9b44; stop-opacity:1"/>
   <stop offset="100%" style="stop-color:#ad6c16; stop-opacity:1"/>
  </linearGradient>
  <linearGradient id="aurora" x1="0%" x2="0%" y1="0%" y2="100%">
   <stop offset="0%" style="stop-color:#09D4DF; stop-opacity:1"/>
   <stop offset="100%" style="stop-color:#9269F4; stop-opacity:1"/>
  </linearGradient>
  <linearGradient id="cyberneon" x1="0%" x2="0%" y1="0%" y2="100%">
    <stop offset="0" style="stop-color:#0abdc6; stop-opacity:1"/>
    <stop offset="1" style="stop-color:#ea00d9; stop-opacity:1"/>
  </linearGradient>
  <linearGradient id="fitdance" x1="0%" x2="0%" y1="0%" y2="100%">
   <stop offset="0%" style="stop-color:#1AD6AB; stop-opacity:1"/>
   <stop offset="100%" style="stop-color:#329DB6; stop-opacity:1"/>
  </linearGradient>
  <linearGradient id="oomox" x1="0%" x2="0%" y1="0%" y2="100%">
   <stop offset="0%" style="stop-color:#00aa00; stop-opacity:1"/>
   <stop offset="100%" style="stop-color:#00cc00; stop-opacity:1"/>
  </linearGradient>
  <linearGradient id="rainblue" x1="0%" x2="0%" y1="0%" y2="100%">
   <stop offset="0%" style="stop-color:#00F260; stop-opacity:1"/>
   <stop offset="100%" style="stop-color:#0575E6; stop-opacity:1"/>
  </linearGradient>
  <linearGradient id="sunrise" x1="0%" x2="0%" y1="0%" y2="100%">
   <stop offset="0%" style="stop-color: #FF8501; stop-opacity:1"/>
   <stop offset="100%" style="stop-color: #FFCB01; stop-opacity:1"/>
  </linearGradient>
  <linearGradient id="telinkrin" x1="0%" x2="0%" y1="0%" y2="100%">
   <stop offset="0%" style="stop-color: #b2ced6; stop-opacity:1"/>
   <stop offset="100%" style="stop-color: #6da5b7; stop-opacity:1"/>
  </linearGradient>
  <linearGradient id="60spsycho" x1="0%" x2="0%" y1="0%" y2="100%">
   <stop offset="0%" style="stop-color: #df5940; stop-opacity:1"/>
   <stop offset="25%" style="stop-color: #d8d15f; stop-opacity:1"/>
   <stop offset="50%" style="stop-color: #e9882a; stop-opacity:1"/>
   <stop offset="100%" style="stop-color: #279362; stop-opacity:1"/>
  </linearGradient>
  <linearGradient id="90ssummer" x1="0%" x2="0%" y1="0%" y2="100%">
   <stop offset="0%" style="stop-color: #f618c7; stop-opacity:1"/>
   <stop offset="20%" style="stop-color: #94ffab; stop-opacity:1"/>
   <stop offset="50%" style="stop-color: #fbfd54; stop-opacity:1"/>
   <stop offset="100%" style="stop-color: #0f83ae; stop-opacity:1"/>
  </linearGradient>
 </defs>
 <path fill="url(#oomox)" class="ColorScheme-Text" fill-rule="evenodd" d="M 10.634 9.578 L 12.032 11.674 C 12.138 11.65 12.25 11.636 12.364 11.636 C 12.687 11.636 12.985 11.742 13.225 11.921 L 13.225 11.921 C 14.079 10.8 14.544 9.424 14.545 8 C 14.544 7.506 14.486 7.014 14.375 6.534 L 14.375 6.534 C 14.139 6.508 13.92 6.424 13.733 6.297 L 10.86 8.35 C 10.892 8.47 10.909 8.597 10.909 8.727 C 10.909 9.045 10.807 9.339 10.634 9.578 Z M 10.267 7.521 L 13.14 5.468 L 13.14 5.468 C 13.108 5.348 13.091 5.221 13.091 5.091 C 13.091 4.78 13.189 4.492 13.352 4.253 C 12.146 2.512 10.152 1.455 8 1.455 L 8 1.455 C 4.385 1.455 1.455 4.385 1.455 8 C 1.455 8 1.455 8 1.455 8 C 2.031 8 2.53 8.336 2.765 8.824 L 2.765 8.824 L 2.765 8.824 L 8.051 8.344 C 8.22 7.727 8.785 7.273 9.455 7.273 C 9.755 7.273 10.035 7.364 10.267 7.521 Z M 8.143 9.357 L 2.858 9.839 C 2.746 10.246 2.461 10.583 2.08 10.75 L 2.08 10.75 C 3.129 13.04 5.43 14.543 8 14.545 C 9.083 14.543 10.144 14.272 11.084 13.752 L 11.084 13.752 L 11.084 13.752 C 10.968 13.558 10.909 13.331 10.909 13.091 C 10.909 12.773 11.011 12.479 11.185 12.24 L 9.787 10.144 C 9.68 10.169 9.569 10.182 9.455 10.182 C 8.877 10.182 8.378 9.845 8.143 9.357 Z M 15.082 6.423 C 15.21 6.939 15.271 7.468 15.273 8 C 15.273 9.714 14.68 11.29 13.688 12.534 L 13.688 12.534 C 13.778 12.699 13.818 12.89 13.818 13.091 C 13.818 13.894 13.166 14.545 12.364 14.545 C 12.081 14.545 11.816 14.464 11.592 14.324 C 10.533 14.928 9.307 15.273 8 15.273 C 6.071 15.273 4.221 14.506 2.857 13.143 C 2.209 12.494 1.695 11.735 1.355 10.902 C 0.598 10.854 0 10.224 0 9.455 C 0 8.915 0.294 8.444 0.734 8.2 L 0.734 8.2 C 0.728 8.134 0.727 8.067 0.727 8 C 0.727 3.983 3.983 0.727 8 0.727 L 8 0.727 C 10.392 0.73 12.584 1.903 13.92 3.796 C 14.103 3.689 14.318 3.636 14.545 3.636 C 15.348 3.636 16 4.288 16 5.091 C 16 5.701 15.624 6.224 15.082 6.423 L 15.082 6.423 Z"/>
</svg>
