<svg xmlns="http://www.w3.org/2000/svg" width="24" height="24" version="1.1">
 <defs>
  <style id="current-color-scheme" type="text/css">
   .ColorScheme-Text { color: #E7E7E7; } .ColorScheme-Highlight { color: #1AD6AB; }
  </style>
  <linearGradient id="arrongin" x1="0%" x2="0%" y1="0%" y2="100%">
   <stop offset="0%" style="stop-color:#dd9b44"/>
   <stop offset="100%" style="stop-color:#ad6c16"/>
  </linearGradient>
  <linearGradient id="aurora" x1="0%" x2="0%" y1="0%" y2="100%">
   <stop offset="0%" style="stop-color:#09D4DF"/>
   <stop offset="100%" style="stop-color:#9269F4"/>
  </linearGradient>
  <linearGradient id="cyberneon" x1="0%" x2="0%" y1="0%" y2="100%">
   <stop offset="0" style="stop-color:#0abdc6"/>
   <stop offset="1" style="stop-color:#ea00d9"/>
  </linearGradient>
  <linearGradient id="fitdance" x1="0%" x2="0%" y1="0%" y2="100%">
   <stop offset="0%" style="stop-color:#1AD6AB"/>
   <stop offset="100%" style="stop-color:#329DB6"/>
  </linearGradient>
  <linearGradient id="oomox" x1="0%" x2="0%" y1="0%" y2="100%">
   <stop offset="0%" style="stop-color:#efefe7"/>
   <stop offset="100%" style="stop-color:#8f8f8b"/>
  </linearGradient>
  <linearGradient id="rainblue" x1="0%" x2="0%" y1="0%" y2="100%">
   <stop offset="0%" style="stop-color:#00F260"/>
   <stop offset="100%" style="stop-color:#0575E6"/>
  </linearGradient>
  <linearGradient id="sunrise" x1="0%" x2="0%" y1="0%" y2="100%">
   <stop offset="0%" style="stop-color:#FF8501"/>
   <stop offset="100%" style="stop-color:#FFCB01"/>
  </linearGradient>
  <linearGradient id="telinkrin" x1="0%" x2="0%" y1="0%" y2="100%">
   <stop offset="0%" style="stop-color:#b2ced6"/>
   <stop offset="100%" style="stop-color:#6da5b7"/>
  </linearGradient>
  <linearGradient id="60spsycho" x1="0%" x2="0%" y1="0%" y2="100%">
   <stop offset="0%" style="stop-color:#df5940"/>
   <stop offset="25%" style="stop-color:#d8d15f"/>
   <stop offset="50%" style="stop-color:#e9882a"/>
   <stop offset="100%" style="stop-color:#279362"/>
  </linearGradient>
  <linearGradient id="90ssummer" x1="0%" x2="0%" y1="0%" y2="100%">
   <stop offset="0%" style="stop-color:#f618c7"/>
   <stop offset="20%" style="stop-color:#94ffab"/>
   <stop offset="50%" style="stop-color:#fbfd54"/>
   <stop offset="100%" style="stop-color:#0f83ae"/>
  </linearGradient>
 </defs>
 <path fill="currentColor" class="ColorScheme-Text" d="m 17.5,6 a 3.5,3.5 0 0 0 -3.466797,3.042969 l -1.558594,2.996093 A 3,3 0 0 0 12,12 3,3 0 0 0 9.9199219,12.841797 L 8.9746094,12.369141 A 3,3 0 0 0 9,12 3,3 0 0 0 6,9 3,3 0 0 0 3,12 3,3 0 0 0 6,15 3,3 0 0 0 8.0800781,14.158203 l 0.9453125,0.472656 A 3,3 0 0 0 9,15 a 3,3 0 0 0 3,3 3,3 0 0 0 3,-2.982422 l 3.666016,-2.220703 A 3.5,3.5 0 0 0 21,9.5 3.5,3.5 0 0 0 17.5,6 Z m 0,1 A 2.5,2.5 0 0 1 20,9.5 2.5,2.5 0 0 1 17.5,12 2.5,2.5 0 0 1 15,9.5 2.5,2.5 0 0 1 17.5,7 Z m 0,1 A 1.5,1.5 0 0 0 16,9.5 1.5,1.5 0 0 0 17.5,11 1.5,1.5 0 0 0 19,9.5 1.5,1.5 0 0 0 17.5,8 Z M 6,10 a 2,2 0 0 1 1.9941406,1.878906 l -1.546875,-0.773437 a 1.0001,1.0001 0 0 0 -0.4824218,-0.111328 1.0001,1.0001 0 0 0 -0.4121094,1.90039 l 1.5488281,0.773438 A 2,2 0 0 1 6,14 2,2 0 0 1 4,12 2,2 0 0 1 6,10 Z m 6,3 a 2,2 0 0 1 2,2 2,2 0 0 1 -2,2 2,2 0 0 1 -1.994141,-1.878906 l 1.546875,0.773437 a 1.0001163,1.0001163 0 1 0 0.894532,-1.789062 L 10.898438,13.332031 A 2,2 0 0 1 12,13 Z"/>
</svg>
