<svg xmlns="http://www.w3.org/2000/svg" width="24" height="24" version="1.1">
 <defs>
  <style id="current-color-scheme" type="text/css">
   .ColorScheme-Text { color: #E7E7E7; } .ColorScheme-Highlight { color: #1AD6AB; }
  </style>
  <linearGradient id="arrongin" x1="0%" x2="0%" y1="0%" y2="100%">
   <stop offset="0%" style="stop-color:#dd9b44"/>
   <stop offset="100%" style="stop-color:#ad6c16"/>
  </linearGradient>
  <linearGradient id="aurora" x1="0%" x2="0%" y1="0%" y2="100%">
   <stop offset="0%" style="stop-color:#09D4DF"/>
   <stop offset="100%" style="stop-color:#9269F4"/>
  </linearGradient>
  <linearGradient id="cyberneon" x1="0%" x2="0%" y1="0%" y2="100%">
   <stop offset="0" style="stop-color:#0abdc6"/>
   <stop offset="1" style="stop-color:#ea00d9"/>
  </linearGradient>
  <linearGradient id="fitdance" x1="0%" x2="0%" y1="0%" y2="100%">
   <stop offset="0%" style="stop-color:#1AD6AB"/>
   <stop offset="100%" style="stop-color:#329DB6"/>
  </linearGradient>
  <linearGradient id="oomox" x1="0%" x2="0%" y1="0%" y2="100%">
   <stop offset="0%" style="stop-color:#efefe7"/>
   <stop offset="100%" style="stop-color:#8f8f8b"/>
  </linearGradient>
  <linearGradient id="rainblue" x1="0%" x2="0%" y1="0%" y2="100%">
   <stop offset="0%" style="stop-color:#00F260"/>
   <stop offset="100%" style="stop-color:#0575E6"/>
  </linearGradient>
  <linearGradient id="sunrise" x1="0%" x2="0%" y1="0%" y2="100%">
   <stop offset="0%" style="stop-color:#FF8501"/>
   <stop offset="100%" style="stop-color:#FFCB01"/>
  </linearGradient>
  <linearGradient id="telinkrin" x1="0%" x2="0%" y1="0%" y2="100%">
   <stop offset="0%" style="stop-color:#b2ced6"/>
   <stop offset="100%" style="stop-color:#6da5b7"/>
  </linearGradient>
  <linearGradient id="60spsycho" x1="0%" x2="0%" y1="0%" y2="100%">
   <stop offset="0%" style="stop-color:#df5940"/>
   <stop offset="25%" style="stop-color:#d8d15f"/>
   <stop offset="50%" style="stop-color:#e9882a"/>
   <stop offset="100%" style="stop-color:#279362"/>
  </linearGradient>
  <linearGradient id="90ssummer" x1="0%" x2="0%" y1="0%" y2="100%">
   <stop offset="0%" style="stop-color:#f618c7"/>
   <stop offset="20%" style="stop-color:#94ffab"/>
   <stop offset="50%" style="stop-color:#fbfd54"/>
   <stop offset="100%" style="stop-color:#0f83ae"/>
  </linearGradient>
 </defs>
 <g transform="translate(1 1)">
  <path fill="currentColor" class="ColorScheme-Text" d="m11 3c-0.19263 0-0.38312 0.010178-0.57227 0.023437-0.02374 0.00175-0.04659 0.00193-0.07031 0.00391-2.8574 0.2256-5.2788 1.9429-6.5015 4.375-0.0791 0.1575-0.1597 0.3153-0.2285 0.4786-0.3746 0.8457-0.5783 1.742-0.6153 2.6811-0.00162 0.03035-0.00262 0.06135-0.00391 0.0918-0.00247 0.08976-0.00646 0.17901-0.00586 0.26953-0.0002 0.026-0.0019 0.052-0.0019 0.077 0 0.93022 0.16572 1.8193 0.45508 2.6484 0.0674 0.21512 0.15718 0.43462 0.23828 0.65234a3 3 0 0 1 1.3066 -0.301 3 3 0 0 1 3 3 3 3 0 0 1 -0.375 1.451c0.3187 0.01318 0.62772 0.09391 1.1562 0.25977 0.52453 0.1646 1.1215 0.25287 1.7969 0.27734 0.02825 0.0014 0.05761 0.0028 0.08594 0.0039 0.09243 0.0026 0.18187 0.0078 0.27734 0.0078 0.0078 0 0.01373 0.000057 0.02149 0 0.01231 0.000055 0.02478 0 0.03711 0 0.22339 0 0.44345-0.01152 0.66211-0.0293 1.9778-0.14065 3.5664-0.87147 4.9961-2.2988 1.178-1.176 1.9088-2.6293 2.1973-4.1484 0.02658-0.13884 0.04706-0.27859 0.06641-0.41992 0.0117-0.08676 0.02438-0.17272 0.0332-0.25977 0.01939-0.18667 0.03067-0.37606 0.03711-0.56641 0.0014-0.04797 0.0034-0.09654 0.0039-0.14453 0.002-0.045 0.005-0.088 0.005-0.133 0-4.358-3.45-7.8778-7.779-7.9941-0.034-0.001-0.068-0.0015-0.102-0.002-0.04-0.0006-0.079-0.0039-0.119-0.0039zm-5 6a2 2 0 0 1 2 2 2 2 0 0 1 -2 2 2 2 0 0 1 -2 -2 2 2 0 0 1 2 -2zm5 0a2 2 0 0 1 2 2 2 2 0 0 1 -2 2 2 2 0 0 1 -2 -2 2 2 0 0 1 2 -2zm5 0a2 2 0 0 1 2 2 2 2 0 0 1 -2 2 2 2 0 0 1 -2 -2 2 2 0 0 1 2 -2z"/>
  <circle fill="currentColor" class="ColorScheme-Highlight" cx="5" cy="17" r="2"/>
 </g>
</svg>
