<svg xmlns="http://www.w3.org/2000/svg" width="16" height="16" version="1.1">
 <defs>
   <style id="current-color-scheme" type="text/css">
   .ColorScheme-Text { color: #00aa00; } .ColorScheme-Highlight { color: #5294e2; }
  </style>
  <linearGradient id="arrongin" x1="0%" x2="0%" y1="0%" y2="100%">
   <stop offset="0%" style="stop-color: #dd9b44; stop-opacity: 1"/>
   <stop offset="100%" style="stop-color: #ad6c16; stop-opacity: 1"/>
  </linearGradient>
  <linearGradient id="aurora" x1="0%" x2="0%" y1="0%" y2="100%">
   <stop offset="0%" style="stop-color: #09D4DF; stop-opacity: 1"/>
   <stop offset="100%" style="stop-color: #9269F4; stop-opacity: 1"/>
  </linearGradient>
  <linearGradient id="cyberneon" x1="0%" x2="0%" y1="0%" y2="100%">
    <stop offset="0" style="stop-color: #0abdc6; stop-opacity: 1"/>
    <stop offset="1" style="stop-color: #ea00d9; stop-opacity: 1"/>
  </linearGradient>
  <linearGradient id="fitdance" x1="0%" x2="0%" y1="0%" y2="100%">
   <stop offset="0%" style="stop-color: #1AD6AB; stop-opacity: 1"/>
   <stop offset="100%" style="stop-color: #329DB6; stop-opacity: 1"/>
  </linearGradient>
  <linearGradient id="oomox" x1="0%" x2="0%" y1="0%" y2="100%">
   <stop offset="0%" style="stop-color: #00aa00; stop-opacity: 1"/>
   <stop offset="100%" style="stop-color: #00cc00; stop-opacity: 1"/>
  </linearGradient>
  <linearGradient id="rainblue" x1="0%" x2="0%" y1="0%" y2="100%">
   <stop offset="0%" style="stop-color: #00F260; stop-opacity: 1"/>
   <stop offset="100%" style="stop-color: #0575E6; stop-opacity: 1"/>
  </linearGradient>
  <linearGradient id="sunrise" x1="0%" x2="0%" y1="0%" y2="100%">
   <stop offset="0%" style="stop-color: #FF8501; stop-opacity: 1"/>
   <stop offset="100%" style="stop-color: #FFCB01; stop-opacity: 1"/>
  </linearGradient>
  <linearGradient id="telinkrin" x1="0%" x2="0%" y1="0%" y2="100%">
   <stop offset="0%" style="stop-color: #b2ced6; stop-opacity: 1"/>
   <stop offset="100%" style="stop-color: #6da5b7; stop-opacity: 1"/>
  </linearGradient>
  <linearGradient id="60spsycho" x1="0%" x2="0%" y1="0%" y2="100%">
   <stop offset="0%" style="stop-color: #df5940; stop-opacity: 1"/>
   <stop offset="25%" style="stop-color: #d8d15f; stop-opacity: 1"/>
   <stop offset="50%" style="stop-color: #e9882a; stop-opacity: 1"/>
   <stop offset="100%" style="stop-color: #279362; stop-opacity: 1"/>
  </linearGradient>
  <linearGradient id="90ssummer" x1="0%" x2="0%" y1="0%" y2="100%">
   <stop offset="0%" style="stop-color: #f618c7; stop-opacity: 1"/>
   <stop offset="20%" style="stop-color: #94ffab; stop-opacity: 1"/>
   <stop offset="50%" style="stop-color: #fbfd54; stop-opacity: 1"/>
   <stop offset="100%" style="stop-color: #0f83ae; stop-opacity: 1"/>
  </linearGradient>
 </defs>
   <path fill="url(#oomox)" class="ColorScheme-Text" d="M 13.77725 8.898328 C 13.219058 8.901169 12.73393 9.035686 12.327709 9.23442 C 12.178663 8.939246 12.029617 8.676223 12.003317 8.483343 C 11.97409 8.25831 11.939021 8.120953 11.97409 7.852091 C 12.00916 7.583229 12.166974 7.20038 12.164051 7.171155 C 12.161123 7.141959 12.128982 7.004573 11.807509 7.00166 C 11.486041 6.99882 11.208407 7.063022 11.176261 7.147784 C 11.144111 7.232532 11.082742 7.425412 11.041827 7.624146 C 10.9863 7.916394 10.398886 8.959705 10.062801 9.506195 C 9.954671 9.29287 9.861153 9.105828 9.840696 8.956778 C 9.811471 8.73176 9.7764 8.594402 9.811471 8.325526 C 9.84654 8.056664 10.004351 7.673815 10.00143 7.644591 C 9.998501 7.615351 9.966361 7.478022 9.64489 7.475096 C 9.323418 7.472255 9.045784 7.536458 9.013636 7.621219 C 8.981492 7.705967 8.946421 7.904701 8.879204 8.097582 C 8.811988 8.290462 8.031689 10.032255 7.827118 10.482304 C 7.72191 10.713176 7.631314 10.897305 7.56702 11.022955 C 7.56702 11.022955 7.56702 11.022955 7.56702 11.022955 C 7.56702 11.022955 7.564091 11.03175 7.555331 11.046341 C 7.499805 11.154474 7.467658 11.212923 7.467658 11.212923 C 7.467658 11.212923 7.467658 11.212923 7.467658 11.215764 C 7.423821 11.294672 7.377061 11.367727 7.353681 11.367727 C 7.336149 11.367727 7.303999 11.157314 7.35952 10.870906 C 7.476421 10.265966 7.754054 9.324935 7.751131 9.292783 C 7.751131 9.275251 7.803734 9.111595 7.569938 9.026834 C 7.341988 8.942086 7.260158 9.082371 7.239699 9.082371 C 7.219243 9.082371 7.20463 9.132054 7.20463 9.132054 C 7.20463 9.132054 7.458885 8.074109 6.719502 8.074109 C 6.257754 8.074109 5.620658 8.579696 5.305031 9.035614 C 5.106304 9.143733 4.682547 9.374618 4.229567 9.623022 C 4.05714 9.719462 3.878871 9.815902 3.712291 9.906503 C 3.700592 9.894825 3.68891 9.880191 3.677221 9.868512 C 2.782948 8.912876 1.128835 8.23778 1.198974 6.954832 C 1.225275 6.487235 1.386012 5.259796 4.375689 3.76934 C 6.836399 2.55652 8.794449 2.892605 9.133455 3.637829 C 9.618583 4.701613 8.084292 6.677189 5.54175 6.963598 C 4.571493 7.071731 4.062987 6.697648 3.934397 6.557363 C 3.799963 6.41124 3.779507 6.402474 3.729824 6.431698 C 3.647996 6.475543 3.7006 6.607047 3.729824 6.683028 C 3.80581 6.881762 4.118513 7.23246 4.647477 7.404881 C 5.115071 7.556844 6.251908 7.641606 7.628387 7.109707 C 9.168524 6.513533 10.372579 4.856503 10.01896 3.468327 C 9.665342 2.059706 7.327374 1.59503 5.115071 2.381172 C 3.799963 2.848768 2.373804 3.585226 1.348019 4.543796 C 0.129355 5.683547 -0.063529 6.674277 0.015379 7.089263 C 0.298857 8.562179 2.329967 9.520742 3.142412 10.230902 C 3.101498 10.254288 3.063504 10.274747 3.031358 10.292279 C 2.625136 10.493925 1.076232 11.303452 0.690467 12.159722 C 0.252097 13.129978 0.760607 13.825533 1.096689 13.919046 C 2.140007 14.208367 3.212549 13.688175 3.788275 12.828964 C 4.364 11.969768 4.293859 10.853388 4.027916 10.341962 C 4.024986 10.336094 4.022077 10.330284 4.016227 10.32443 C 4.121437 10.263054 4.229567 10.198765 4.334777 10.137389 C 4.542272 10.014651 4.746843 9.900678 4.922191 9.80715 C 4.822828 10.078939 4.749764 10.403338 4.714697 10.870934 C 4.670859 11.420351 4.895889 12.133438 5.191057 12.413993 C 5.322568 12.536731 5.477457 12.539658 5.576823 12.539658 C 5.921671 12.539658 6.076563 12.25325 6.248988 11.914245 C 6.459404 11.49926 6.649363 11.017058 6.649363 11.017058 C 6.649363 11.017058 6.412644 12.32048 7.055587 12.32048 C 7.289383 12.32048 7.526102 12.016539 7.631312 11.861649 C 7.631312 11.864475 7.631312 11.864475 7.631312 11.864475 C 7.631312 11.864475 7.637151 11.855695 7.648848 11.835236 C 7.67223 11.797245 7.686842 11.77386 7.686842 11.77386 C 7.686842 11.77386 7.686842 11.771019 7.686842 11.768006 C 7.780359 11.604336 7.990779 11.233195 8.30348 10.616548 C 8.70678 9.82164 9.095468 8.827999 9.095468 8.827999 C 9.095468 8.827999 9.130537 9.070563 9.250358 9.47387 C 9.320496 9.710595 9.466618 9.970691 9.583517 10.222021 C 9.489999 10.353525 9.431551 10.426594 9.431551 10.426594 C 9.431551 10.426594 9.431551 10.426594 9.434479 10.42942 C 9.358494 10.528787 9.276665 10.63692 9.186069 10.742126 C 8.867522 11.122048 8.487602 11.557493 8.434999 11.683158 C 8.373626 11.832208 8.388242 11.940341 8.505137 12.028016 C 8.589888 12.092304 8.741857 12.10107 8.896746 12.092304 C 9.183146 12.071846 9.384798 12.001703 9.484159 11.957873 C 9.639053 11.902351 9.820244 11.817589 9.989746 11.691924 C 10.302451 11.461053 10.49241 11.130814 10.474874 10.69537 C 10.466101 10.455732 10.3872 10.216081 10.29076 9.991063 C 10.319984 9.950146 10.346288 9.909228 10.375511 9.868311 C 10.869407 9.146472 11.25225 8.354477 11.25225 8.354477 C 11.25225 8.354477 11.287319 8.597041 11.40714 9.000334 C 11.465589 9.204907 11.58541 9.427027 11.690618 9.643278 C 11.225947 10.020273 10.939545 10.458645 10.837259 10.745053 C 10.653144 11.276938 10.796345 11.516575 11.068134 11.572112 C 11.190877 11.598425 11.366224 11.539975 11.494814 11.484438 C 11.65847 11.431828 11.851352 11.341227 12.035468 11.206796 C 12.348173 10.975924 12.649185 10.654452 12.631653 10.219008 C 12.622888 10.020273 12.570278 9.824481 12.497218 9.634512 C 12.89175 9.470857 13.400257 9.380256 14.049044 9.456252 C 15.440134 9.619907 15.714846 10.48787 15.662243 10.853186 C 15.609638 11.218488 15.317391 11.417223 15.220949 11.478584 C 15.12451 11.539961 15.092364 11.56042 15.10113 11.60425 C 15.112818 11.668553 15.15958 11.665626 15.241408 11.653933 C 15.355383 11.633474 15.972023 11.358773 15.998324 10.686604 C 16.042162 9.827393 15.223872 8.889288 13.777254 8.898054 L 13.77725 8.898328 Z M 3.045973 12.51633 C 2.584224 13.019005 1.941283 13.208958 1.66365 13.048229 C 1.365559 12.875808 1.482458 12.133496 2.049414 11.601611 C 2.394264 11.277212 2.838479 10.976198 3.133648 10.792084 C 3.200864 10.751166 3.300228 10.692717 3.420049 10.619662 C 3.440506 10.607998 3.452195 10.60213 3.452195 10.60213 L 3.452195 10.60213 C 3.475576 10.587539 3.498951 10.572934 3.522332 10.5583 C 3.729828 11.318129 3.531106 11.987372 3.045972 12.516344 L 3.045973 12.51633 Z M 6.406803 10.230974 C 6.246069 10.622589 5.909985 11.624982 5.705413 11.56946 C 5.530065 11.522688 5.421935 10.762859 5.670344 10.011781 C 5.796009 9.634786 6.061954 9.184737 6.216844 9.009388 C 6.468176 8.728833 6.745809 8.635305 6.813026 8.749292 C 6.897777 8.898328 6.506168 9.985483 6.406805 10.230974 L 6.406803 10.230974 Z M 9.180217 11.557767 C 9.113002 11.592831 9.048708 11.616216 9.019483 11.598684 C 8.999026 11.58702 9.048708 11.540235 9.048708 11.540235 C 9.048708 11.540235 9.39648 11.166152 9.533836 10.996657 C 9.612742 10.89729 9.706261 10.780391 9.805626 10.648887 C 9.805626 10.660551 9.805626 10.675199 9.805626 10.686863 C 9.805626 11.134001 9.373101 11.435014 9.180217 11.557767 L 9.180217 11.557767 Z M 11.319458 11.069726 C 11.269778 11.034662 11.278546 10.917749 11.445125 10.552447 C 11.509419 10.40925 11.661387 10.169598 11.921485 9.938727 C 11.950712 10.032255 11.971169 10.122841 11.968244 10.207589 C 11.965315 10.771625 11.56202 10.982052 11.319458 11.069726 L 11.319458 11.069726 Z"/>
</svg>
