<svg xmlns="http://www.w3.org/2000/svg" width="16" height="16" version="1.1">
 <defs>
   <style id="current-color-scheme" type="text/css">
   .ColorScheme-Text { color: #00aa00; } .ColorScheme-Highlight { color:#5294e2; }
  </style>
  <linearGradient id="arrongin" x1="0%" x2="0%" y1="0%" y2="100%">
   <stop offset="0%" style="stop-color:#dd9b44; stop-opacity:1"/>
   <stop offset="100%" style="stop-color:#ad6c16; stop-opacity:1"/>
  </linearGradient>
  <linearGradient id="aurora" x1="0%" x2="0%" y1="0%" y2="100%">
   <stop offset="0%" style="stop-color:#09D4DF; stop-opacity:1"/>
   <stop offset="100%" style="stop-color:#9269F4; stop-opacity:1"/>
  </linearGradient>
  <linearGradient id="cyberneon" x1="0%" x2="0%" y1="0%" y2="100%">
    <stop offset="0" style="stop-color:#0abdc6; stop-opacity:1"/>
    <stop offset="1" style="stop-color:#ea00d9; stop-opacity:1"/>
  </linearGradient>
  <linearGradient id="fitdance" x1="0%" x2="0%" y1="0%" y2="100%">
   <stop offset="0%" style="stop-color:#1AD6AB; stop-opacity:1"/>
   <stop offset="100%" style="stop-color:#329DB6; stop-opacity:1"/>
  </linearGradient>
  <linearGradient id="oomox" x1="0%" x2="0%" y1="0%" y2="100%">
   <stop offset="0%" style="stop-color:#00aa00; stop-opacity:1"/>
   <stop offset="100%" style="stop-color:#00cc00; stop-opacity:1"/>
  </linearGradient>
  <linearGradient id="rainblue" x1="0%" x2="0%" y1="0%" y2="100%">
   <stop offset="0%" style="stop-color:#00F260; stop-opacity:1"/>
   <stop offset="100%" style="stop-color:#0575E6; stop-opacity:1"/>
  </linearGradient>
  <linearGradient id="sunrise" x1="0%" x2="0%" y1="0%" y2="100%">
   <stop offset="0%" style="stop-color: #FF8501; stop-opacity:1"/>
   <stop offset="100%" style="stop-color: #FFCB01; stop-opacity:1"/>
  </linearGradient>
  <linearGradient id="telinkrin" x1="0%" x2="0%" y1="0%" y2="100%">
   <stop offset="0%" style="stop-color: #b2ced6; stop-opacity:1"/>
   <stop offset="100%" style="stop-color: #6da5b7; stop-opacity:1"/>
  </linearGradient>
  <linearGradient id="60spsycho" x1="0%" x2="0%" y1="0%" y2="100%">
   <stop offset="0%" style="stop-color: #df5940; stop-opacity:1"/>
   <stop offset="25%" style="stop-color: #d8d15f; stop-opacity:1"/>
   <stop offset="50%" style="stop-color: #e9882a; stop-opacity:1"/>
   <stop offset="100%" style="stop-color: #279362; stop-opacity:1"/>
  </linearGradient>
  <linearGradient id="90ssummer" x1="0%" x2="0%" y1="0%" y2="100%">
   <stop offset="0%" style="stop-color: #f618c7; stop-opacity:1"/>
   <stop offset="20%" style="stop-color: #94ffab; stop-opacity:1"/>
   <stop offset="50%" style="stop-color: #fbfd54; stop-opacity:1"/>
   <stop offset="100%" style="stop-color: #0f83ae; stop-opacity:1"/>
  </linearGradient>
 </defs>
 <path fill="url(#oomox)" class="ColorScheme-Text" d="m 7.0778187,4.0903951e-4 c -0.2758584,0 -0.3302713,0.0120940005 -0.4412431,0.10602470049 -0.2209255,0.1850393 -0.3468299,0.7549523 -0.3455518,1.58335576 0.0013,0.8565021 0.118599,1.6717231 0.3880803,2.7324538 l 0.1701168,0.661949 -0.1594855,0.497792 C 6.1831781,7.2006543 5.448765,8.8852373 4.3665569,10.90398 2.7264254,13.963457 1.4588987,15.56959 0.57610737,15.7123 0.43406971,15.73649 0.42725648,15.72843 0.42725648,15.62764 c -8e-7,-0.516336 0.97911032,-1.8075 2.06800052,-2.727173 0.5562255,-0.469814 -0.091055,-0.15561 -0.8399595,0.407731 -0.75469832,0.567938 -1.37984982,1.304346 -1.57359415,1.853457 -0.13776832,0.390639 -0.10862462,0.528471 0.14353731,0.656628 0.45054823,0.228981 0.67982738,0.23785 1.06323994,0.04757 0.7453025,-0.370079 1.7309462,-1.540664 2.8282167,-3.357355 0.3557882,-0.589062 0.467435,-0.736085 0.5582012,-0.736085 0.031971,0 0.3682246,-0.09313 0.7442674,-0.206406 1.5029655,-0.452923 3.3076753,-0.818486 5.0769691,-1.032632 l 0.590098,-0.07418 0.297706,0.148354 c 0.775314,0.389026 1.855619,0.76628 2.647466,0.921407 0.535558,0.104815 1.232957,0.124166 1.467271,0.04233 0.147638,-0.0516 0.45521,-0.233818 0.455213,-0.293886 -0.600989,0.281792 -1.506845,-0.06652 -2.188295,-0.267682 -0.449297,-0.1415 -1.438078,-0.528108 -1.493851,-0.582491 1.197182,-0.231803 3.442818,-0.283001 3.684125,0.545443 0.0707,0 0.05253,-0.332587 -0.02657,-0.466025 -0.148169,-0.249944 -0.577527,-0.451552 -1.196142,-0.5666067 -0.500847,-0.09312 -1.687624,-0.119328 -2.615569,-0.05846 l -0.824011,0.05281 -0.297706,-0.180202 C 9.2887904,8.7201433 8.3846945,7.5535903 7.5669215,5.3377143 7.4442033,5.0051273 7.435946,4.9595733 7.4765484,4.7499423 7.6194973,4.0117603 7.7521538,1.5178018 7.6519834,1.4561221 7.4695421,2.2733588 7.3219971,3.0907567 7.1363117,3.828495 c -0.038341,0 -0.1507421,-0.5750327 -0.2392292,-1.2444396 -0.096273,-0.7283049 -0.061312,-1.71356856 0.069112,-2.04934026 0.052262,-0.1346473 0.1204331,-0.2572006 0.1541693,-0.2701009 0.3343074,0.095946 0.5203728,0.3604033 0.5688335,0.76781216 0.047432,0 0.059612,-0.077805 0.069112,-0.32815236 C 7.7791907,0.15330844 7.6315397,-4.0604904e-6 7.0778367,-4.0604904e-6 Z M 7.2107253,6.0796143 c 0.018951,-0.0081 0.029711,0.03628 0.053162,0.100784 0.028861,0.08103 0.1903705,0.412328 0.3561862,0.736086 0.7134564,1.392995 1.5035265,2.306621 2.6421505,3.055527 0.05768,0.03628 0.09332,0.08103 0.07974,0.09514 -0.01359,0.01209 -0.245352,0.0641 -0.5103558,0.111265 -1.8071109,0.321702 -4.0569069,0.998688 -5.1513954,1.546308 -0.017411,0.0081 -0.031891,-0.0081 -0.031891,-0.03628 0,-0.02822 0.1075847,-0.252767 0.2445424,-0.497752 C 5.9244722,9.3455407 6.617665,7.8542207 7.0087134,6.6259467 7.1327666,6.2365177 7.1791532,6.0905827 7.2107283,6.0805037 Z"/>
</svg>
