<svg xmlns="http://www.w3.org/2000/svg" width="16" height="16" version="1.1">
 <defs>
   <style id="current-color-scheme" type="text/css">
   .ColorScheme-Text { color: #00aa00; } .ColorScheme-Highlight { color:#5294e2; }
  </style>
  <linearGradient id="arrongin" x1="0%" x2="0%" y1="0%" y2="100%">
   <stop offset="0%" style="stop-color:#dd9b44; stop-opacity:1"/>
   <stop offset="100%" style="stop-color:#ad6c16; stop-opacity:1"/>
  </linearGradient>
  <linearGradient id="aurora" x1="0%" x2="0%" y1="0%" y2="100%">
   <stop offset="0%" style="stop-color:#09D4DF; stop-opacity:1"/>
   <stop offset="100%" style="stop-color:#9269F4; stop-opacity:1"/>
  </linearGradient>
  <linearGradient id="cyberneon" x1="0%" x2="0%" y1="0%" y2="100%">
    <stop offset="0" style="stop-color:#0abdc6; stop-opacity:1"/>
    <stop offset="1" style="stop-color:#ea00d9; stop-opacity:1"/>
  </linearGradient>
  <linearGradient id="fitdance" x1="0%" x2="0%" y1="0%" y2="100%">
   <stop offset="0%" style="stop-color:#1AD6AB; stop-opacity:1"/>
   <stop offset="100%" style="stop-color:#329DB6; stop-opacity:1"/>
  </linearGradient>
  <linearGradient id="oomox" x1="0%" x2="0%" y1="0%" y2="100%">
   <stop offset="0%" style="stop-color:#00aa00; stop-opacity:1"/>
   <stop offset="100%" style="stop-color:#00cc00; stop-opacity:1"/>
  </linearGradient>
  <linearGradient id="rainblue" x1="0%" x2="0%" y1="0%" y2="100%">
   <stop offset="0%" style="stop-color:#00F260; stop-opacity:1"/>
   <stop offset="100%" style="stop-color:#0575E6; stop-opacity:1"/>
  </linearGradient>
  <linearGradient id="sunrise" x1="0%" x2="0%" y1="0%" y2="100%">
   <stop offset="0%" style="stop-color: #FF8501; stop-opacity:1"/>
   <stop offset="100%" style="stop-color: #FFCB01; stop-opacity:1"/>
  </linearGradient>
  <linearGradient id="telinkrin" x1="0%" x2="0%" y1="0%" y2="100%">
   <stop offset="0%" style="stop-color: #b2ced6; stop-opacity:1"/>
   <stop offset="100%" style="stop-color: #6da5b7; stop-opacity:1"/>
  </linearGradient>
  <linearGradient id="60spsycho" x1="0%" x2="0%" y1="0%" y2="100%">
   <stop offset="0%" style="stop-color: #df5940; stop-opacity:1"/>
   <stop offset="25%" style="stop-color: #d8d15f; stop-opacity:1"/>
   <stop offset="50%" style="stop-color: #e9882a; stop-opacity:1"/>
   <stop offset="100%" style="stop-color: #279362; stop-opacity:1"/>
  </linearGradient>
  <linearGradient id="90ssummer" x1="0%" x2="0%" y1="0%" y2="100%">
   <stop offset="0%" style="stop-color: #f618c7; stop-opacity:1"/>
   <stop offset="20%" style="stop-color: #94ffab; stop-opacity:1"/>
   <stop offset="50%" style="stop-color: #fbfd54; stop-opacity:1"/>
   <stop offset="100%" style="stop-color: #0f83ae; stop-opacity:1"/>
  </linearGradient>
 </defs>
 <path fill="url(#oomox)" class="ColorScheme-Text" fill-rule="evenodd" d="M 6.203 11.728 C 4.793 12.14 3.592 12.361 2.863 12.37 C 1.673 12.384 0.164 12.192 0.006 10.99 C -0.108 10.119 1.353 8.724 1.353 8.724 L 1.353 8.724 C 1.353 8.724 0.279 10.069 0.564 10.727 C 0.883 11.462 1.997 11.635 2.798 11.614 C 3.602 11.594 4.617 11.421 5.725 11.125 L 5.725 11.125 C 5.321 10.55 5.091 9.847 5.091 9.091 C 5.091 7.082 6.718 5.455 8.727 5.455 L 8.727 5.455 C 8.999 5.455 9.263 5.484 9.516 5.547 L 9.516 5.547 C 9.475 5.403 9.454 5.249 9.454 5.091 C 9.454 4.087 10.268 3.273 11.273 3.273 C 12.277 3.273 13.091 4.087 13.091 5.091 C 13.091 5.98 12.453 6.719 11.613 6.886 C 11.936 7.308 12.166 7.805 12.275 8.346 C 14.042 7.267 15.29 6.031 15.343 4.85 C 15.381 4.007 13.636 3.569 13.636 3.569 C 13.636 3.491 15.989 3.607 16 4.915 C 16.013 6.496 14.454 7.973 12.36 9.183 C 12.313 11.15 10.706 12.727 8.727 12.727 C 7.827 12.727 7.004 12.401 6.375 11.854 C 6.309 11.824 6.25 11.782 6.203 11.728 Z M 5.822 10.85 C 5.684 10.543 5.608 10.202 5.608 9.845 C 5.608 8.479 6.711 7.376 8.077 7.376 L 8.077 7.376 C 9.265 7.376 10.266 8.211 10.498 9.331 L 10.498 9.331 L 10.498 9.331 C 9.658 9.753 8.766 10.133 7.878 10.435 C 7.711 10.068 7.339 9.819 6.909 9.819 C 6.327 9.819 5.851 10.275 5.822 10.85 Z M 6.874 11.998 C 7.224 12.212 7.637 12.328 8.077 12.328 C 9.351 12.328 10.408 11.356 10.547 10.118 L 10.547 10.118 L 10.547 10.118 C 9.703 10.523 8.822 10.879 7.97 11.166 C 7.854 11.645 7.423 12.001 6.909 12.001 C 6.897 12.001 6.885 12 6.874 11.998 Z"/>
</svg>
