<svg xmlns="http://www.w3.org/2000/svg" width="16" height="16" version="1.1">
 <defs>
   <style id="current-color-scheme" type="text/css">
   .ColorScheme-Text { color: #00aa00; } .ColorScheme-Highlight { color:#5294e2; }
  </style>
  <linearGradient id="arrongin" x1="0%" x2="0%" y1="0%" y2="100%">
   <stop offset="0%" style="stop-color:#dd9b44; stop-opacity:1"/>
   <stop offset="100%" style="stop-color:#ad6c16; stop-opacity:1"/>
  </linearGradient>
  <linearGradient id="aurora" x1="0%" x2="0%" y1="0%" y2="100%">
   <stop offset="0%" style="stop-color:#09D4DF; stop-opacity:1"/>
   <stop offset="100%" style="stop-color:#9269F4; stop-opacity:1"/>
  </linearGradient>
  <linearGradient id="cyberneon" x1="0%" x2="0%" y1="0%" y2="100%">
    <stop offset="0" style="stop-color:#0abdc6; stop-opacity:1"/>
    <stop offset="1" style="stop-color:#ea00d9; stop-opacity:1"/>
  </linearGradient>
  <linearGradient id="fitdance" x1="0%" x2="0%" y1="0%" y2="100%">
   <stop offset="0%" style="stop-color:#1AD6AB; stop-opacity:1"/>
   <stop offset="100%" style="stop-color:#329DB6; stop-opacity:1"/>
  </linearGradient>
  <linearGradient id="oomox" x1="0%" x2="0%" y1="0%" y2="100%">
   <stop offset="0%" style="stop-color:#00aa00; stop-opacity:1"/>
   <stop offset="100%" style="stop-color:#00cc00; stop-opacity:1"/>
  </linearGradient>
  <linearGradient id="rainblue" x1="0%" x2="0%" y1="0%" y2="100%">
   <stop offset="0%" style="stop-color:#00F260; stop-opacity:1"/>
   <stop offset="100%" style="stop-color:#0575E6; stop-opacity:1"/>
  </linearGradient>
  <linearGradient id="sunrise" x1="0%" x2="0%" y1="0%" y2="100%">
   <stop offset="0%" style="stop-color: #FF8501; stop-opacity:1"/>
   <stop offset="100%" style="stop-color: #FFCB01; stop-opacity:1"/>
  </linearGradient>
  <linearGradient id="telinkrin" x1="0%" x2="0%" y1="0%" y2="100%">
   <stop offset="0%" style="stop-color: #b2ced6; stop-opacity:1"/>
   <stop offset="100%" style="stop-color: #6da5b7; stop-opacity:1"/>
  </linearGradient>
  <linearGradient id="60spsycho" x1="0%" x2="0%" y1="0%" y2="100%">
   <stop offset="0%" style="stop-color: #df5940; stop-opacity:1"/>
   <stop offset="25%" style="stop-color: #d8d15f; stop-opacity:1"/>
   <stop offset="50%" style="stop-color: #e9882a; stop-opacity:1"/>
   <stop offset="100%" style="stop-color: #279362; stop-opacity:1"/>
  </linearGradient>
  <linearGradient id="90ssummer" x1="0%" x2="0%" y1="0%" y2="100%">
   <stop offset="0%" style="stop-color: #f618c7; stop-opacity:1"/>
   <stop offset="20%" style="stop-color: #94ffab; stop-opacity:1"/>
   <stop offset="50%" style="stop-color: #fbfd54; stop-opacity:1"/>
   <stop offset="100%" style="stop-color: #0f83ae; stop-opacity:1"/>
  </linearGradient>
 </defs>
 <path fill="url(#oomox)" class="ColorScheme-Text" d="M 3.994 1.5 C 2.736 1.515 1.815 1.469 1.063 1.885 C 0.686 2.092 0.387 2.444 0.223 2.883 C 0.058 3.321 0 3.842 0 4.5 L 0 11.5 C 0 12.158 0.058 12.679 0.223 13.117 C 0.387 13.556 0.686 13.908 1.063 14.115 C 1.815 14.531 2.736 14.485 3.994 14.5 L 3.998 14.5 L 12.002 14.5 L 12.006 14.5 C 13.264 14.486 14.185 14.531 14.938 14.115 C 15.314 13.908 15.611 13.556 15.775 13.117 C 15.94 12.679 16 12.158 16 11.5 L 16 4.5 C 16 3.842 15.94 3.321 15.775 2.883 C 15.611 2.444 15.314 2.092 14.938 1.885 C 14.185 1.469 13.264 1.515 12.006 1.5 L 12.002 1.5 L 3.996 1.5 L 3.994 1.5 Z M 1.834 2.5 L 2.166 2.5 C 2.833 2.5 3 2.7 3 3.5 C 3 4.3 2.833 4.5 2.166 4.5 L 1.834 4.5 C 1.167 4.5 1 4.3 1 3.5 C 1 2.7 1.167 2.5 1.834 2.5 Z M 4 2.5 L 12 2.5 C 13.26 2.515 14.087 2.558 14.453 2.76 C 14.637 2.861 14.742 2.974 14.84 3.234 C 14.937 3.494 15 3.908 15 4.5 L 15 11.5 C 15 12.092 14.937 12.506 14.84 12.766 C 14.742 13.026 14.637 13.139 14.453 13.24 C 14.087 13.442 13.26 13.485 12 13.5 L 11.994 13.5 L 4 13.5 L 4 2.5 Z M 10 4 L 5 8 L 10 12 L 10 4 Z M 1.834 5.5 L 2.166 5.5 C 2.833 5.5 3 5.7 3 6.5 C 3 7.3 2.833 7.5 2.166 7.5 L 1.834 7.5 C 1.167 7.5 1 7.3 1 6.5 C 1 5.7 1.167 5.5 1.834 5.5 Z M 1.834 8.5 L 2.166 8.5 C 2.833 8.5 3 8.7 3 9.5 C 3 10.3 2.833 10.5 2.166 10.5 L 1.834 10.5 C 1.167 10.5 1 10.3 1 9.5 C 1 8.7 1.167 8.5 1.834 8.5 Z M 1.834 11.5 L 2.166 11.5 C 2.833 11.5 3 11.7 3 12.5 C 3 13.3 2.833 13.5 2.166 13.5 L 1.834 13.5 C 1.167 13.5 1 13.3 1 12.5 C 1 11.7 1.167 11.5 1.834 11.5 Z"/>
</svg>
