<svg xmlns="http://www.w3.org/2000/svg" width="22" height="22" version="1.1">
 <defs>
  <style id="current-color-scheme" type="text/css">
   .ColorScheme-Text { color: #00aa00; } .ColorScheme-Highlight { color: #1AD6AB; }
  </style>
  <linearGradient id="arrongin" x1="0%" x2="0%" y1="0%" y2="100%">
   <stop offset="0%" style="stop-color:#dd9b44"/>
   <stop offset="100%" style="stop-color:#ad6c16"/>
  </linearGradient>
  <linearGradient id="aurora" x1="0%" x2="0%" y1="0%" y2="100%">
   <stop offset="0%" style="stop-color:#09D4DF"/>
   <stop offset="100%" style="stop-color:#9269F4"/>
  </linearGradient>
  <linearGradient id="cyberneon" x1="0%" x2="0%" y1="0%" y2="100%">
   <stop offset="0" style="stop-color:#0abdc6"/>
   <stop offset="1" style="stop-color:#ea00d9"/>
  </linearGradient>
  <linearGradient id="fitdance" x1="0%" x2="0%" y1="0%" y2="100%">
   <stop offset="0%" style="stop-color:#1AD6AB"/>
   <stop offset="100%" style="stop-color:#329DB6"/>
  </linearGradient>
  <linearGradient id="oomox" x1="0%" x2="0%" y1="0%" y2="100%">
   <stop offset="0%" style="stop-color:#00aa00"/>
   <stop offset="100%" style="stop-color:#00cc00"/>
  </linearGradient>
  <linearGradient id="rainblue" x1="0%" x2="0%" y1="0%" y2="100%">
   <stop offset="0%" style="stop-color:#00F260"/>
   <stop offset="100%" style="stop-color:#0575E6"/>
  </linearGradient>
  <linearGradient id="sunrise" x1="0%" x2="0%" y1="0%" y2="100%">
   <stop offset="0%" style="stop-color:#FF8501"/>
   <stop offset="100%" style="stop-color:#FFCB01"/>
  </linearGradient>
  <linearGradient id="telinkrin" x1="0%" x2="0%" y1="0%" y2="100%">
   <stop offset="0%" style="stop-color:#b2ced6"/>
   <stop offset="100%" style="stop-color:#6da5b7"/>
  </linearGradient>
  <linearGradient id="60spsycho" x1="0%" x2="0%" y1="0%" y2="100%">
   <stop offset="0%" style="stop-color:#df5940"/>
   <stop offset="25%" style="stop-color:#d8d15f"/>
   <stop offset="50%" style="stop-color:#e9882a"/>
   <stop offset="100%" style="stop-color:#279362"/>
  </linearGradient>
  <linearGradient id="90ssummer" x1="0%" x2="0%" y1="0%" y2="100%">
   <stop offset="0%" style="stop-color:#f618c7"/>
   <stop offset="20%" style="stop-color:#94ffab"/>
   <stop offset="50%" style="stop-color:#fbfd54"/>
   <stop offset="100%" style="stop-color:#0f83ae"/>
  </linearGradient>
 </defs>
 <path fill="url(#oomox)" class="ColorScheme-Text" d="m 13.242366,3.0095812 c -1.120282,0.084 -2.179798,0.7052186 -2.779298,1.7539061 -0.9591995,1.6778 -0.377118,3.8142375 1.300782,4.7734375 1.6777,0.9592002 3.814437,0.3770187 4.773437,-1.3007813 0.959,-1.6778 0.377219,-3.8142875 -1.300781,-4.7734375 V 3.460756 C 14.607256,3.1010932 13.914534,2.9591842 13.242366,3.0095842 Z M 6.3165845,5.0076279 c -0.800204,0.05998 -1.558141,0.5028906 -1.986328,1.2519531 -0.6851,1.1985 -0.268813,2.7251563 0.929687,3.4101563 1.1985,0.6849997 2.725157,0.2685125 3.410157,-0.9296875 0.685,-1.1988 0.268512,-2.7250563 -0.929688,-3.4101563 C 7.2909375,5.072981 6.7967065,4.9716396 6.3165845,5.0076279 Z m 9.9999995,5.0000001 c -0.800175,0.06 -1.558128,0.502953 -1.986328,1.251953 -0.6851,1.1984 -0.268712,2.725036 0.929688,3.410156 1.1985,0.6851 2.725036,0.268712 3.410156,-0.929688 0.6851,-1.198499 0.268712,-2.725035 -0.929688,-3.410155 C 17.290975,10.072981 16.79669,9.9716273 16.316584,10.007628 Z M 4.8517405,11.005675 c -0.640119,0.04792 -1.245322,0.402703 -1.58789,1.001953 -0.54812,0.9589 -0.21464,2.180515 0.74414,2.728515 0.9588,0.548 2.180416,0.21386 2.728516,-0.74414 0.5481,-0.959001 0.214659,-2.180416 -0.744141,-2.728516 -0.359512,-0.2055 -0.756553,-0.286565 -1.140625,-0.257812 z m 8.2792965,3.998046 c -0.777616,-0.05038 -1.546681,0.359255 -1.917969,1.09961 -0.49507,0.9872 -0.09652,2.188543 0.890625,2.683593 0.987201,0.49507 2.188544,0.09653 2.683594,-0.890625 0.49507,-0.9872 0.09653,-2.188543 -0.890625,-2.683593 -0.2468,-0.123768 -0.506419,-0.192192 -0.765625,-0.208985 z m -5.7421865,1 c -0.480113,0.03609 -0.934532,0.302578 -1.191407,0.751953 -0.4111,0.719 -0.160706,1.635875 0.558594,2.046875 0.719,0.411 1.635775,0.160407 2.046875,-0.558593 0.41102,-0.719 0.160466,-1.635825 -0.558594,-2.046875 -0.269812,-0.154125 -0.567401,-0.215016 -0.855468,-0.19336 z"/>
</svg>
