<svg xmlns="http://www.w3.org/2000/svg" width="16" height="16" version="1.1">
 <defs>
   <style id="current-color-scheme" type="text/css">
   .ColorScheme-Text { color: #cc00cc; } .ColorScheme-Highlight { color:#5294e2; }
  </style>
  <linearGradient id="arrongin" x1="0%" x2="0%" y1="0%" y2="100%">
   <stop offset="0%" style="stop-color:#dd9b44; stop-opacity:1"/>
   <stop offset="100%" style="stop-color:#ad6c16; stop-opacity:1"/>
  </linearGradient>
  <linearGradient id="aurora" x1="0%" x2="0%" y1="0%" y2="100%">
   <stop offset="0%" style="stop-color:#09D4DF; stop-opacity:1"/>
   <stop offset="100%" style="stop-color:#9269F4; stop-opacity:1"/>
  </linearGradient>
  <linearGradient id="cyberneon" x1="0%" x2="0%" y1="0%" y2="100%">
    <stop offset="0" style="stop-color:#0abdc6; stop-opacity:1"/>
    <stop offset="1" style="stop-color:#ea00d9; stop-opacity:1"/>
  </linearGradient>
  <linearGradient id="fitdance" x1="0%" x2="0%" y1="0%" y2="100%">
   <stop offset="0%" style="stop-color:#1AD6AB; stop-opacity:1"/>
   <stop offset="100%" style="stop-color:#329DB6; stop-opacity:1"/>
  </linearGradient>
  <linearGradient id="oomox" x1="0%" x2="0%" y1="0%" y2="100%">
   <stop offset="0%" style="stop-color:#efefe7; stop-opacity:1"/>
   <stop offset="100%" style="stop-color:#8f8f8b; stop-opacity:1"/>
  </linearGradient>
  <linearGradient id="rainblue" x1="0%" x2="0%" y1="0%" y2="100%">
   <stop offset="0%" style="stop-color:#00F260; stop-opacity:1"/>
   <stop offset="100%" style="stop-color:#0575E6; stop-opacity:1"/>
  </linearGradient>
  <linearGradient id="sunrise" x1="0%" x2="0%" y1="0%" y2="100%">
   <stop offset="0%" style="stop-color: #FF8501; stop-opacity:1"/>
   <stop offset="100%" style="stop-color: #FFCB01; stop-opacity:1"/>
  </linearGradient>
  <linearGradient id="telinkrin" x1="0%" x2="0%" y1="0%" y2="100%">
   <stop offset="0%" style="stop-color: #b2ced6; stop-opacity:1"/>
   <stop offset="100%" style="stop-color: #6da5b7; stop-opacity:1"/>
  </linearGradient>
  <linearGradient id="60spsycho" x1="0%" x2="0%" y1="0%" y2="100%">
   <stop offset="0%" style="stop-color: #df5940; stop-opacity:1"/>
   <stop offset="25%" style="stop-color: #d8d15f; stop-opacity:1"/>
   <stop offset="50%" style="stop-color: #e9882a; stop-opacity:1"/>
   <stop offset="100%" style="stop-color: #279362; stop-opacity:1"/>
  </linearGradient>
  <linearGradient id="90ssummer" x1="0%" x2="0%" y1="0%" y2="100%">
   <stop offset="0%" style="stop-color: #f618c7; stop-opacity:1"/>
   <stop offset="20%" style="stop-color: #94ffab; stop-opacity:1"/>
   <stop offset="50%" style="stop-color: #fbfd54; stop-opacity:1"/>
   <stop offset="100%" style="stop-color: #0f83ae; stop-opacity:1"/>
  </linearGradient>
 </defs>
 <path fill="currentColor" class="ColorScheme-Text" fill-rule="evenodd" d="M 7.25 1.187 C 7.268 1.26 7.277 1.335 7.278 1.404 C 7.279 1.734 7.132 1.839 6.975 1.619 C 6.888 1.496 6.719 1.392 6.607 1.392 C 6.525 1.392 6.181 1.602 6.181 1.652 C 6.181 1.671 6.259 1.677 6.355 1.666 C 6.538 1.645 6.596 1.682 6.597 1.821 C 6.598 1.948 6.363 2.22 5.974 2.543 C 5.474 2.958 5.31 3.14 5.31 3.282 C 5.31 3.363 5.274 3.422 5.173 3.506 L 5.035 3.62 L 5.097 3.751 C 5.182 3.93 5.176 3.971 5.047 4.134 C 4.895 4.325 4.878 4.398 4.958 4.52 C 5.037 4.64 5.041 4.935 4.968 5.318 C 4.906 5.65 4.943 6.139 5.06 6.539 C 5.111 6.716 5.273 7.176 5.418 7.561 C 5.727 8.381 5.788 8.581 5.84 8.955 C 5.915 9.49 5.783 9.923 5.451 10.237 C 5.221 10.455 5.075 10.504 4.889 10.427 C 4.513 10.269 4.269 9.767 3.831 8.251 C 3.386 6.711 3.007 6.076 2.15 5.439 C 1.838 5.207 1.154 4.717 0.7 4.351 C 0.711 4.176 0.727 4.001 0.746 3.827 C 0.766 3.642 0.793 3.459 0.827 3.276 C 0.855 3.123 0.891 2.97 0.936 2.82 C 0.972 2.695 1.018 2.574 1.071 2.455 C 1.116 2.355 1.169 2.26 1.23 2.17 C 1.284 2.089 1.345 2.015 1.414 1.946 C 1.482 1.878 1.557 1.816 1.638 1.762 C 1.728 1.701 1.824 1.648 1.923 1.604 C 2.042 1.55 2.165 1.505 2.29 1.469 C 2.439 1.425 2.592 1.388 2.746 1.36 C 2.929 1.326 3.112 1.299 3.297 1.279 C 3.512 1.255 3.728 1.238 3.944 1.225 C 4.192 1.212 4.441 1.202 4.689 1.196 C 4.971 1.19 5.253 1.187 5.535 1.187 C 5.535 1.187 5.535 1.187 5.535 1.187 L 7.25 1.187 Z M 0.654 9.129 C 1.236 9.639 2.12 10.268 2.694 10.565 C 2.883 10.662 3.046 10.757 3.057 10.774 C 3.068 10.792 2.988 10.818 2.879 10.832 C 2.094 10.934 1.217 11.324 0.706 11.738 C 0.701 11.667 0.696 11.597 0.692 11.527 C 0.678 11.279 0.668 11.031 0.663 10.783 C 0.657 10.502 0.654 10.22 0.654 9.939 C 0.654 9.938 0.654 9.938 0.654 9.937 L 0.654 9.129 Z M 12.981 14.687 C 13.009 14.579 13.012 14.484 12.992 14.411 C 12.846 13.87 11.915 13.663 10.858 13.938 C 10.669 13.987 10.225 14.133 9.873 14.26 C 9.405 14.43 9.18 14.492 9.04 14.492 C 8.816 14.492 8.648 14.437 8.615 14.352 C 8.578 14.256 8.674 13.766 8.773 13.551 C 9.02 13.009 9.376 12.824 9.852 12.992 C 10.044 13.06 10.041 13.06 10.041 13.008 C 10.041 12.986 9.99 12.918 9.93 12.857 C 9.776 12.703 9.538 12.705 9.129 12.863 C 8.962 12.928 8.817 12.973 8.808 12.964 C 8.798 12.954 8.78 12.811 8.767 12.645 C 8.728 12.137 8.845 11.93 9.163 11.941 L 9.34 11.948 L 9.227 11.855 C 9.072 11.728 8.97 11.738 8.795 11.896 C 8.617 12.057 8.527 12.293 8.527 12.599 C 8.527 12.942 8.416 12.935 8.236 12.58 C 8.076 12.265 8.118 11.877 8.307 11.927 C 8.392 11.949 8.392 11.943 8.304 11.77 C 8.172 11.511 8.184 11.273 8.338 11.108 C 8.4 11.041 8.561 10.8 8.697 10.573 C 9.023 10.025 9.302 9.663 9.738 9.225 C 10.543 8.414 11.369 7.877 13.181 6.987 C 14.184 6.494 14.984 6.148 15.346 5.962 C 15.346 5.996 15.346 6.029 15.346 6.062 C 15.346 6.062 15.346 6.062 15.346 6.062 L 15.346 9.937 C 15.346 9.938 15.346 9.938 15.346 9.939 C 15.346 10.22 15.344 10.502 15.337 10.783 C 15.332 11.031 15.322 11.279 15.308 11.527 C 15.296 11.743 15.277 11.959 15.254 12.173 C 15.234 12.358 15.207 12.541 15.173 12.724 C 15.145 12.878 15.108 13.029 15.064 13.18 C 15.028 13.305 14.983 13.426 14.929 13.545 C 14.884 13.645 14.831 13.74 14.771 13.83 C 14.716 13.91 14.655 13.985 14.586 14.054 C 14.518 14.122 14.443 14.184 14.363 14.238 C 14.272 14.299 14.176 14.352 14.077 14.396 C 13.958 14.45 13.835 14.495 13.71 14.532 C 13.56 14.575 13.408 14.612 13.254 14.64 C 13.163 14.657 13.072 14.672 12.981 14.687 Z M 15.34 5.371 C 14.952 5.551 14.262 5.828 13.805 6.029 C 12.486 6.61 11.443 7.131 10.888 7.488 C 9.976 8.074 9.134 8.835 8.586 9.567 C 8.422 9.785 8.272 9.964 8.253 9.964 C 8.233 9.964 8.163 9.89 8.097 9.8 C 7.985 9.644 7.978 9.614 7.965 9.238 L 7.952 8.841 L 7.802 8.69 C 7.67 8.558 7.655 8.527 7.685 8.438 C 7.743 8.266 7.678 8.096 7.475 7.888 C 7.309 7.717 7.288 7.679 7.305 7.571 C 7.329 7.42 7.256 7.297 7.072 7.184 C 6.977 7.125 6.938 7.074 6.938 7.007 C 6.938 6.956 6.905 6.851 6.865 6.774 C 6.5 6.068 6.505 5.867 6.883 6.01 C 7.039 6.07 7.103 6.028 7.176 5.82 C 7.215 5.712 7.284 5.604 7.337 5.569 C 7.472 5.481 7.688 5.524 7.808 5.664 C 7.946 5.826 8.092 5.907 8.189 5.876 C 8.263 5.853 8.269 5.832 8.248 5.656 C 8.181 5.083 8.175 4.912 8.225 4.912 C 8.252 4.912 8.412 5.053 8.581 5.224 C 8.842 5.489 8.923 5.603 9.106 5.969 C 9.224 6.207 9.321 6.441 9.321 6.49 C 9.321 6.538 9.337 6.577 9.356 6.577 C 9.401 6.577 9.427 6.249 9.394 6.095 C 9.373 5.998 9.381 5.97 9.434 5.953 C 9.494 5.934 9.486 5.901 9.356 5.643 C 9.216 5.363 9.045 4.912 9.07 4.886 C 9.077 4.88 9.222 4.854 9.394 4.83 C 9.774 4.776 10.051 4.819 10.409 4.986 C 10.544 5.049 10.66 5.101 10.668 5.101 C 10.676 5.101 10.664 5.055 10.643 4.997 C 10.589 4.855 10.323 4.586 9.852 4.201 C 9.448 3.872 9.212 3.639 9.21 3.566 C 9.205 3.424 9.074 3.119 8.944 2.945 C 8.693 2.608 8.735 2.53 9.218 2.444 C 9.377 2.416 9.456 2.38 9.511 2.31 C 9.604 2.192 9.608 2.132 9.52 2.169 C 9.414 2.214 9.089 2.269 9.066 2.247 C 9.055 2.236 9.115 2.151 9.2 2.059 C 9.368 1.877 9.512 1.624 9.509 1.517 C 9.508 1.48 9.466 1.528 9.415 1.626 C 9.302 1.845 9.196 1.922 9.011 1.922 C 8.932 1.922 8.867 1.915 8.867 1.907 C 8.867 1.898 8.919 1.777 8.981 1.638 C 9.068 1.443 9.113 1.302 9.118 1.187 L 10.465 1.187 C 10.465 1.187 10.465 1.187 10.465 1.187 L 10.465 1.187 C 10.747 1.187 11.029 1.19 11.311 1.196 C 11.559 1.202 11.808 1.212 12.056 1.225 C 12.272 1.238 12.487 1.255 12.703 1.279 C 12.888 1.299 13.072 1.326 13.254 1.36 C 13.408 1.388 13.56 1.425 13.71 1.469 C 13.835 1.505 13.958 1.55 14.077 1.604 C 14.176 1.648 14.272 1.701 14.363 1.762 C 14.443 1.816 14.518 1.878 14.586 1.946 C 14.655 2.015 14.716 2.089 14.771 2.17 C 14.831 2.26 14.884 2.355 14.929 2.455 C 14.983 2.574 15.028 2.695 15.064 2.82 C 15.108 2.97 15.145 3.123 15.173 3.276 C 15.207 3.459 15.234 3.642 15.254 3.827 C 15.277 4.041 15.296 4.257 15.308 4.473 C 15.322 4.721 15.332 4.969 15.337 5.217 C 15.338 5.268 15.339 5.32 15.34 5.371 Z M 8.927 1.187 C 8.871 1.586 8.726 1.884 8.582 1.884 C 8.552 1.884 8.497 1.85 8.461 1.807 C 8.408 1.745 8.394 1.655 8.394 1.344 C 8.394 1.289 8.393 1.237 8.391 1.187 L 8.927 1.187 Z M 8.165 1.187 C 8.141 1.36 8.076 1.51 7.972 1.609 C 7.899 1.677 7.829 1.733 7.815 1.733 C 7.801 1.733 7.787 1.623 7.785 1.49 C 7.783 1.383 7.77 1.28 7.748 1.187 L 7.748 1.187 L 8.165 1.187 Z M 7.599 14.813 C 7.637 14.795 7.677 14.777 7.719 14.756 C 7.938 14.65 8.158 14.563 8.208 14.563 C 8.302 14.563 8.331 14.511 8.261 14.468 C 8.24 14.455 8.154 14.351 8.069 14.237 C 7.945 14.068 7.88 13.993 7.764 13.993 L 7.764 13.993 C 7.673 13.994 7.552 14.04 7.348 14.124 C 7.133 14.213 6.88 14.325 6.786 14.372 C 6.623 14.454 6.408 14.627 6.408 14.676 C 6.408 14.689 6.506 14.74 6.626 14.789 C 6.644 14.796 6.664 14.805 6.683 14.813 L 7.599 14.813 Z M 10.465 0.533 C 15.308 0.533 16 1.224 16 6.063 L 16 9.938 C 16 14.776 15.308 15.467 10.465 15.467 L 5.535 15.467 C 0.692 15.467 0 14.776 0 9.938 L 0 6.063 C 0 1.224 0.692 0.533 5.535 0.533 L 10.465 0.533 L 10.465 0.533 Z"/>
</svg>
