<svg xmlns="http://www.w3.org/2000/svg" width="16" height="16" version="1.1">
 <defs>
   <style id="current-color-scheme" type="text/css">
   .ColorScheme-Text { color: #cc00cc; } .ColorScheme-Highlight { color:#5294e2; }
  </style>
  <linearGradient id="arrongin" x1="0%" x2="0%" y1="0%" y2="100%">
   <stop offset="0%" style="stop-color:#dd9b44; stop-opacity:1"/>
   <stop offset="100%" style="stop-color:#ad6c16; stop-opacity:1"/>
  </linearGradient>
  <linearGradient id="aurora" x1="0%" x2="0%" y1="0%" y2="100%">
   <stop offset="0%" style="stop-color:#09D4DF; stop-opacity:1"/>
   <stop offset="100%" style="stop-color:#9269F4; stop-opacity:1"/>
  </linearGradient>
  <linearGradient id="cyberneon" x1="0%" x2="0%" y1="0%" y2="100%">
    <stop offset="0" style="stop-color:#0abdc6; stop-opacity:1"/>
    <stop offset="1" style="stop-color:#ea00d9; stop-opacity:1"/>
  </linearGradient>
  <linearGradient id="fitdance" x1="0%" x2="0%" y1="0%" y2="100%">
   <stop offset="0%" style="stop-color:#1AD6AB; stop-opacity:1"/>
   <stop offset="100%" style="stop-color:#329DB6; stop-opacity:1"/>
  </linearGradient>
  <linearGradient id="oomox" x1="0%" x2="0%" y1="0%" y2="100%">
   <stop offset="0%" style="stop-color:#efefe7; stop-opacity:1"/>
   <stop offset="100%" style="stop-color:#8f8f8b; stop-opacity:1"/>
  </linearGradient>
  <linearGradient id="rainblue" x1="0%" x2="0%" y1="0%" y2="100%">
   <stop offset="0%" style="stop-color:#00F260; stop-opacity:1"/>
   <stop offset="100%" style="stop-color:#0575E6; stop-opacity:1"/>
  </linearGradient>
  <linearGradient id="sunrise" x1="0%" x2="0%" y1="0%" y2="100%">
   <stop offset="0%" style="stop-color: #FF8501; stop-opacity:1"/>
   <stop offset="100%" style="stop-color: #FFCB01; stop-opacity:1"/>
  </linearGradient>
  <linearGradient id="telinkrin" x1="0%" x2="0%" y1="0%" y2="100%">
   <stop offset="0%" style="stop-color: #b2ced6; stop-opacity:1"/>
   <stop offset="100%" style="stop-color: #6da5b7; stop-opacity:1"/>
  </linearGradient>
  <linearGradient id="60spsycho" x1="0%" x2="0%" y1="0%" y2="100%">
   <stop offset="0%" style="stop-color: #df5940; stop-opacity:1"/>
   <stop offset="25%" style="stop-color: #d8d15f; stop-opacity:1"/>
   <stop offset="50%" style="stop-color: #e9882a; stop-opacity:1"/>
   <stop offset="100%" style="stop-color: #279362; stop-opacity:1"/>
  </linearGradient>
  <linearGradient id="90ssummer" x1="0%" x2="0%" y1="0%" y2="100%">
   <stop offset="0%" style="stop-color: #f618c7; stop-opacity:1"/>
   <stop offset="20%" style="stop-color: #94ffab; stop-opacity:1"/>
   <stop offset="50%" style="stop-color: #fbfd54; stop-opacity:1"/>
   <stop offset="100%" style="stop-color: #0f83ae; stop-opacity:1"/>
  </linearGradient>
 </defs>
 <rect fill="currentColor" class="ColorScheme-Text" fill-opacity="0" width="16" height="16"/>
 <path fill="currentColor" class="ColorScheme-Text" fill-rule="evenodd" d="M 13.78 9.259 C 14.015 8.888 14.215 8.495 14.39 8.09 C 14.52 7.81 14.62 7.52 14.71 7.22 C 14.9 6.58 15 5.92 15 5.25 C 15.01 4.13 14.62 3.04 13.89 2.19 C 13.26 1.45 12.34 1.02 11.38 1 C 10.37 1 9.41 1.45 8.77 2.23 L 8.77 2.23 C 8.58 2.47 8.3 2.6 8 2.6 C 7.7 2.6 7.42 2.47 7.23 2.23 C 6.59 1.45 5.63 1 4.62 1 C 3.66 1.02 2.74 1.45 2.11 2.19 C 1.38 3.04 0.99 4.13 1 5.25 C 1 5.92 1.1 6.58 1.29 7.22 C 1.38 7.52 1.48 7.81 1.61 8.09 C 2.06 9.13 2.67 10.09 3.41 10.94 C 4.11 11.75 4.88 12.51 5.71 13.18 C 6.34 13.7 7 14.19 7.68 14.63 C 7.79 14.7 7.89 14.77 8 14.84 C 8.11 14.77 8.21 14.7 8.32 14.63 C 9 14.19 9.66 13.7 10.29 13.18 C 10.796 12.772 11.28 12.33 11.733 11.857 C 11.496 11.653 11.253 11.441 11.001 11.219 C 10.869 11.37 10.734 11.517 10.596 11.659 C 9.925 12.323 9.048 13.156 8.098 12.963 C 7.348 12.731 6.929 12.552 6.722 12.115 C 6.391 10.983 7.386 10.521 7.964 9.929 C 8.203 9.68 8.444 9.407 8.679 9.112 C 8.364 8.827 8.057 8.536 7.752 8.243 C 7.535 8.035 7.317 7.822 7.095 7.605 C 6.604 7.068 6.594 6.825 6.736 6.224 C 6.848 5.87 7.003 5.549 7.185 5.282 C 7.467 4.865 7.804 4.669 8.149 4.624 C 8.726 4.549 9.328 4.892 9.741 5.328 C 10.041 5.652 10.336 5.981 10.63 6.311 C 10.857 5.937 11.042 5.592 11.19 5.283 C 11.541 4.602 11.606 4.338 12.276 4.174 C 12.467 4.164 12.635 4.202 12.805 4.279 C 13.633 4.666 13.835 5.861 13.645 6.561 C 13.488 7.088 13.214 7.754 12.847 8.463 C 13.165 8.736 13.486 9.011 13.78 9.259 Z M 8 1.6 C 8.843 0.566 10.047 0 11.384 0 C 13.933 0 16 2.352 16 5.253 C 16 6.033 15.879 6.783 15.667 7.499 C 15.667 7.499 15.475 8.145 15.305 8.501 C 13.359 13.05 8 16 8 16 C 8 16 2.641 13.05 0.695 8.501 C 0.525 8.145 0.333 7.499 0.333 7.499 C 0.121 6.783 0 6.033 0 5.253 C 0 2.352 2.067 0 4.616 0 C 5.953 0 7.157 0.566 8 1.6 L 8 1.6 Z"/>
</svg>
