<svg xmlns="http://www.w3.org/2000/svg" width="16" height="16" version="1.1">
 <defs>
   <style id="current-color-scheme" type="text/css">
   .ColorScheme-Text { color: #cc00cc; } .ColorScheme-Highlight { color:#5294e2; }
  </style>
  <linearGradient id="arrongin" x1="0%" x2="0%" y1="0%" y2="100%">
   <stop offset="0%" style="stop-color:#dd9b44; stop-opacity:1"/>
   <stop offset="100%" style="stop-color:#ad6c16; stop-opacity:1"/>
  </linearGradient>
  <linearGradient id="aurora" x1="0%" x2="0%" y1="0%" y2="100%">
   <stop offset="0%" style="stop-color:#09D4DF; stop-opacity:1"/>
   <stop offset="100%" style="stop-color:#9269F4; stop-opacity:1"/>
  </linearGradient>
  <linearGradient id="cyberneon" x1="0%" x2="0%" y1="0%" y2="100%">
    <stop offset="0" style="stop-color:#0abdc6; stop-opacity:1"/>
    <stop offset="1" style="stop-color:#ea00d9; stop-opacity:1"/>
  </linearGradient>
  <linearGradient id="fitdance" x1="0%" x2="0%" y1="0%" y2="100%">
   <stop offset="0%" style="stop-color:#1AD6AB; stop-opacity:1"/>
   <stop offset="100%" style="stop-color:#329DB6; stop-opacity:1"/>
  </linearGradient>
  <linearGradient id="oomox" x1="0%" x2="0%" y1="0%" y2="100%">
   <stop offset="0%" style="stop-color:#efefe7; stop-opacity:1"/>
   <stop offset="100%" style="stop-color:#8f8f8b; stop-opacity:1"/>
  </linearGradient>
  <linearGradient id="rainblue" x1="0%" x2="0%" y1="0%" y2="100%">
   <stop offset="0%" style="stop-color:#00F260; stop-opacity:1"/>
   <stop offset="100%" style="stop-color:#0575E6; stop-opacity:1"/>
  </linearGradient>
  <linearGradient id="sunrise" x1="0%" x2="0%" y1="0%" y2="100%">
   <stop offset="0%" style="stop-color: #FF8501; stop-opacity:1"/>
   <stop offset="100%" style="stop-color: #FFCB01; stop-opacity:1"/>
  </linearGradient>
  <linearGradient id="telinkrin" x1="0%" x2="0%" y1="0%" y2="100%">
   <stop offset="0%" style="stop-color: #b2ced6; stop-opacity:1"/>
   <stop offset="100%" style="stop-color: #6da5b7; stop-opacity:1"/>
  </linearGradient>
  <linearGradient id="60spsycho" x1="0%" x2="0%" y1="0%" y2="100%">
   <stop offset="0%" style="stop-color: #df5940; stop-opacity:1"/>
   <stop offset="25%" style="stop-color: #d8d15f; stop-opacity:1"/>
   <stop offset="50%" style="stop-color: #e9882a; stop-opacity:1"/>
   <stop offset="100%" style="stop-color: #279362; stop-opacity:1"/>
  </linearGradient>
  <linearGradient id="90ssummer" x1="0%" x2="0%" y1="0%" y2="100%">
   <stop offset="0%" style="stop-color: #f618c7; stop-opacity:1"/>
   <stop offset="20%" style="stop-color: #94ffab; stop-opacity:1"/>
   <stop offset="50%" style="stop-color: #fbfd54; stop-opacity:1"/>
   <stop offset="100%" style="stop-color: #0f83ae; stop-opacity:1"/>
  </linearGradient>
 </defs>
 <path fill="currentColor" class="ColorScheme-Text" d="M 10.101562 -0.001953125 C 7.8752007 -0.001953125 6.015625 1.7295271 6.015625 3.8847656 C 6.015625 5.4395469 6.7536326 7.2685111 7.5722656 8.7792969 C 7.9815821 9.5346898 8.4140437 10.203489 8.8085938 10.705078 C 9.0058688 10.955873 9.1913807 11.164902 9.3769531 11.330078 C 9.5625256 11.495254 9.7206199 11.652827 10.0625 11.677734 C 10.437569 11.705086 10.624644 11.530796 10.816406 11.367188 C 11.008168 11.203579 11.193524 10.994077 11.390625 10.742188 C 11.784826 10.238408 12.21358 9.5626035 12.619141 8.796875 C 13.430263 7.2654179 14.160156 5.4138359 14.160156 3.8847656 C 14.160156 1.7348612 12.327933 -0.001953125 10.101562 -0.001953125 z M 10.101562 1.0625 C 11.780658 1.0625 13.095703 2.339107 13.095703 3.8847656 C 13.095703 5.0490972 12.440583 6.8585152 11.677734 8.2988281 C 11.29631 9.0189846 10.890726 9.6559457 10.552734 10.087891 C 10.383739 10.303863 10.229601 10.467396 10.125 10.556641 C 10.020399 10.645885 9.9548281 10.603638 10.140625 10.617188 C 10.293233 10.628306 10.198247 10.635122 10.085938 10.535156 C 9.973628 10.435191 9.8159567 10.264807 9.6445312 10.046875 C 9.3016803 9.6110109 8.892425 8.9832392 8.5078125 8.2734375 C 7.7385875 6.8538342 7.0800781 5.0785429 7.0800781 3.8847656 C 7.0800781 2.3444412 8.4224783 1.0625 10.101562 1.0625 z M 10.074219 2.6328125 C 9.2964107 2.6328125 8.6542969 3.2728178 8.6542969 4.0507812 C 8.6542969 4.8287403 9.2964031 5.4707031 10.074219 5.4707031 C 10.85203 5.4707031 11.494141 4.8287485 11.494141 4.0507812 C 11.494141 3.2728097 10.852022 2.6328125 10.074219 2.6328125 z M 10.074219 3.6972656 C 10.277863 3.6972656 10.429687 3.8489518 10.429688 4.0507812 C 10.429688 4.252594 10.277856 4.40625 10.074219 4.40625 C 9.8705634 4.40625 9.7167969 4.2526022 9.7167969 4.0507812 C 9.7167969 3.8489437 9.8705558 3.6972656 10.074219 3.6972656 z"/>
 <path fill="currentColor" class="ColorScheme-Text" d="M 15.484375 11.660156 A 0.53209502 0.53209502 0 0 0 15.214844 11.734375 L 10.162109 14.751953 L 5.3964844 11.748047 L 0.2734375 14.923828 A 0.53209502 0.53209502 0 0 0 0.1015625 15.65625 A 0.53209502 0.53209502 0 0 0 0.83398438 15.828125 L 5.3925781 13.003906 L 10.146484 16 L 15.759766 12.648438 A 0.53209502 0.53209502 0 0 0 15.945312 11.917969 A 0.53209502 0.53209502 0 0 0 15.484375 11.660156 z"/>
</svg>
