<svg xmlns="http://www.w3.org/2000/svg" width="16" height="16" version="1.1">
 <defs>
   <style id="current-color-scheme" type="text/css">
   .ColorScheme-Text { color: #cc00cc; } .ColorScheme-Highlight { color:#5294e2; }
  </style>
  <linearGradient id="arrongin" x1="0%" x2="0%" y1="0%" y2="100%">
   <stop offset="0%" style="stop-color:#dd9b44; stop-opacity:1"/>
   <stop offset="100%" style="stop-color:#ad6c16; stop-opacity:1"/>
  </linearGradient>
  <linearGradient id="aurora" x1="0%" x2="0%" y1="0%" y2="100%">
   <stop offset="0%" style="stop-color:#09D4DF; stop-opacity:1"/>
   <stop offset="100%" style="stop-color:#9269F4; stop-opacity:1"/>
  </linearGradient>
  <linearGradient id="cyberneon" x1="0%" x2="0%" y1="0%" y2="100%">
    <stop offset="0" style="stop-color:#0abdc6; stop-opacity:1"/>
    <stop offset="1" style="stop-color:#ea00d9; stop-opacity:1"/>
  </linearGradient>
  <linearGradient id="fitdance" x1="0%" x2="0%" y1="0%" y2="100%">
   <stop offset="0%" style="stop-color:#1AD6AB; stop-opacity:1"/>
   <stop offset="100%" style="stop-color:#329DB6; stop-opacity:1"/>
  </linearGradient>
  <linearGradient id="oomox" x1="0%" x2="0%" y1="0%" y2="100%">
   <stop offset="0%" style="stop-color:#efefe7; stop-opacity:1"/>
   <stop offset="100%" style="stop-color:#8f8f8b; stop-opacity:1"/>
  </linearGradient>
  <linearGradient id="rainblue" x1="0%" x2="0%" y1="0%" y2="100%">
   <stop offset="0%" style="stop-color:#00F260; stop-opacity:1"/>
   <stop offset="100%" style="stop-color:#0575E6; stop-opacity:1"/>
  </linearGradient>
  <linearGradient id="sunrise" x1="0%" x2="0%" y1="0%" y2="100%">
   <stop offset="0%" style="stop-color: #FF8501; stop-opacity:1"/>
   <stop offset="100%" style="stop-color: #FFCB01; stop-opacity:1"/>
  </linearGradient>
  <linearGradient id="telinkrin" x1="0%" x2="0%" y1="0%" y2="100%">
   <stop offset="0%" style="stop-color: #b2ced6; stop-opacity:1"/>
   <stop offset="100%" style="stop-color: #6da5b7; stop-opacity:1"/>
  </linearGradient>
  <linearGradient id="60spsycho" x1="0%" x2="0%" y1="0%" y2="100%">
   <stop offset="0%" style="stop-color: #df5940; stop-opacity:1"/>
   <stop offset="25%" style="stop-color: #d8d15f; stop-opacity:1"/>
   <stop offset="50%" style="stop-color: #e9882a; stop-opacity:1"/>
   <stop offset="100%" style="stop-color: #279362; stop-opacity:1"/>
  </linearGradient>
  <linearGradient id="90ssummer" x1="0%" x2="0%" y1="0%" y2="100%">
   <stop offset="0%" style="stop-color: #f618c7; stop-opacity:1"/>
   <stop offset="20%" style="stop-color: #94ffab; stop-opacity:1"/>
   <stop offset="50%" style="stop-color: #fbfd54; stop-opacity:1"/>
   <stop offset="100%" style="stop-color: #0f83ae; stop-opacity:1"/>
  </linearGradient>
 </defs>
 <path fill="currentColor" class="ColorScheme-Text" d="m 1.6346752,7.425794 c 0,0 1.44656,-2.150411 4.3348799,-2.372812 V 4.272863 C 2.7703764,4.531531 0,7.261222 0,7.261222 c 0,0 1.5690749,4.570081 5.9695551,4.988521 V 11.420482 C 2.740281,11.011337 1.6346752,7.425794 1.6346752,7.425794 Z m 4.3348799,2.345917 v 0.759425 C 3.5289328,10.092277 2.8515197,7.536073 2.8515197,7.536073 c 0,0 1.1718157,-1.307893 3.1181116,-1.520008 v 0.8333 c -0.0012,0 -0.002,-4.32e-4 -0.00307,-4.32e-4 C 4.9450702,6.725427 4.1471232,7.68688 4.1471232,7.68688 c 0,0 0.4472709,1.618523 1.8231714,2.084277 m 0,-6.937865 v 1.438941 c 0.09392,-0.0072 0.1878334,-0.01333 0.2822567,-0.01658 3.6371237,-0.123505 6.0069647,3.005426 6.0069647,3.005426 0,0 -2.721843,3.33457 -5.5575147,3.33457 -0.2598871,0 -0.5031874,-0.0243 -0.7317143,-0.06508 v 0.889834 c 0.1954144,0.02496 0.3980288,0.0397 0.6094508,0.0397 2.6387942,0 4.5470712,-1.357798 6.3949282,-2.964816 0.306371,0.247209 1.560618,0.848614 1.818448,1.111854 -1.756962,1.481988 -5.8515352,2.676661 -8.172995,2.676661 -0.2237574,0 -0.4386537,-0.01364 -0.6498853,-0.03417 V 13.5 H 16 V 2.833277 H 5.9702332 Z m 0,3.182798 V 5.052428 c 0.092953,-0.0056 0.1866067,-0.01155 0.2822567,-0.01463 2.6154804,-0.08277 4.3313747,2.264469 4.3313747,2.264469 0,0 -1.8533426,2.593385 -3.840553,2.593385 -0.2859901,0 -0.5424029,-0.04629 -0.773185,-0.124481 V 6.849403 C 6.9884028,6.973366 7.1933563,7.426519 7.8054738,8.454669 L 9.166852,7.298015 c 0,0 -0.9938335,-1.313226 -2.6691946,-1.313226 -0.1821114,-6.2e-5 -0.3563676,0.01285 -0.5274923,0.03121"/>
</svg>
