<svg xmlns="http://www.w3.org/2000/svg" width="16" height="16" version="1.1">
 <defs>
   <style id="current-color-scheme" type="text/css">
   .ColorScheme-Text { color: #cc00cc; } .ColorScheme-Highlight { color:#5294e2; }
  </style>
  <linearGradient id="arrongin" x1="0%" x2="0%" y1="0%" y2="100%">
   <stop offset="0%" style="stop-color:#dd9b44; stop-opacity:1"/>
   <stop offset="100%" style="stop-color:#ad6c16; stop-opacity:1"/>
  </linearGradient>
  <linearGradient id="aurora" x1="0%" x2="0%" y1="0%" y2="100%">
   <stop offset="0%" style="stop-color:#09D4DF; stop-opacity:1"/>
   <stop offset="100%" style="stop-color:#9269F4; stop-opacity:1"/>
  </linearGradient>
  <linearGradient id="cyberneon" x1="0%" x2="0%" y1="0%" y2="100%">
    <stop offset="0" style="stop-color:#0abdc6; stop-opacity:1"/>
    <stop offset="1" style="stop-color:#ea00d9; stop-opacity:1"/>
  </linearGradient>
  <linearGradient id="fitdance" x1="0%" x2="0%" y1="0%" y2="100%">
   <stop offset="0%" style="stop-color:#1AD6AB; stop-opacity:1"/>
   <stop offset="100%" style="stop-color:#329DB6; stop-opacity:1"/>
  </linearGradient>
  <linearGradient id="oomox" x1="0%" x2="0%" y1="0%" y2="100%">
   <stop offset="0%" style="stop-color:#efefe7; stop-opacity:1"/>
   <stop offset="100%" style="stop-color:#8f8f8b; stop-opacity:1"/>
  </linearGradient>
  <linearGradient id="rainblue" x1="0%" x2="0%" y1="0%" y2="100%">
   <stop offset="0%" style="stop-color:#00F260; stop-opacity:1"/>
   <stop offset="100%" style="stop-color:#0575E6; stop-opacity:1"/>
  </linearGradient>
  <linearGradient id="sunrise" x1="0%" x2="0%" y1="0%" y2="100%">
   <stop offset="0%" style="stop-color: #FF8501; stop-opacity:1"/>
   <stop offset="100%" style="stop-color: #FFCB01; stop-opacity:1"/>
  </linearGradient>
  <linearGradient id="telinkrin" x1="0%" x2="0%" y1="0%" y2="100%">
   <stop offset="0%" style="stop-color: #b2ced6; stop-opacity:1"/>
   <stop offset="100%" style="stop-color: #6da5b7; stop-opacity:1"/>
  </linearGradient>
  <linearGradient id="60spsycho" x1="0%" x2="0%" y1="0%" y2="100%">
   <stop offset="0%" style="stop-color: #df5940; stop-opacity:1"/>
   <stop offset="25%" style="stop-color: #d8d15f; stop-opacity:1"/>
   <stop offset="50%" style="stop-color: #e9882a; stop-opacity:1"/>
   <stop offset="100%" style="stop-color: #279362; stop-opacity:1"/>
  </linearGradient>
  <linearGradient id="90ssummer" x1="0%" x2="0%" y1="0%" y2="100%">
   <stop offset="0%" style="stop-color: #f618c7; stop-opacity:1"/>
   <stop offset="20%" style="stop-color: #94ffab; stop-opacity:1"/>
   <stop offset="50%" style="stop-color: #fbfd54; stop-opacity:1"/>
   <stop offset="100%" style="stop-color: #0f83ae; stop-opacity:1"/>
  </linearGradient>
 </defs>
 <path fill="currentColor" class="ColorScheme-Text" d="M 7.289 0 L 7.644 1.778 L 8 3.556 L 8.356 1.778 L 8.711 0 L 8 0 L 7.289 0 Z M 5.926 0.711 L 5.541 1.024 L 5.156 1.337 L 5.867 2.447 L 6.578 3.556 L 6.252 2.133 L 5.926 0.711 Z M 10.074 0.711 L 9.748 2.133 L 9.422 3.556 L 10.133 2.447 L 10.844 1.337 L 10.459 1.024 L 10.074 0.711 Z M 5.511 3.911 C 4.529 3.911 3.733 5.105 3.733 6.578 C 3.733 8.051 4.529 9.244 5.511 9.244 C 6.493 9.244 7.289 8.051 7.289 6.578 C 7.289 5.105 6.493 3.911 5.511 3.911 Z M 10.489 3.911 C 9.507 3.911 8.711 5.105 8.711 6.578 C 8.711 8.051 9.507 9.244 10.489 9.244 C 11.471 9.244 12.267 8.051 12.267 6.578 C 12.267 5.105 11.471 3.911 10.489 3.911 Z M 7.976 7.823 C 7.781 7.831 7.612 7.938 7.55 8.094 L 7.076 9.295 L 6.603 10.494 C 6.465 10.846 6.92 11.155 7.297 10.964 C 7.943 10.551 8.055 10.636 8.703 10.964 C 9.08 11.155 9.535 10.846 9.397 10.494 L 8.924 9.295 L 8.45 8.094 C 8.383 7.924 8.188 7.814 7.976 7.823 Z M 5.511 11.733 C 4.723 11.733 4.089 12.368 4.089 13.156 L 4.089 14.578 C 4.089 15.366 4.723 16 5.511 16 L 10.489 16 C 11.277 16 11.911 15.366 11.911 14.578 L 11.911 13.156 C 11.911 12.368 11.277 11.733 10.489 11.733 L 5.511 11.733 Z M 5.511 12.444 L 5.867 12.444 L 5.867 13.511 L 4.8 13.511 L 4.8 13.156 C 4.8 12.749 5.105 12.444 5.511 12.444 Z M 6.578 12.444 L 7.644 12.444 L 7.644 13.511 L 6.578 13.511 L 6.578 12.444 Z M 8.356 12.444 L 9.422 12.444 L 9.422 13.511 L 8.356 13.511 L 8.356 12.444 Z M 10.133 12.444 L 10.489 12.444 C 10.895 12.444 11.2 12.749 11.2 13.156 L 11.2 13.511 L 10.133 13.511 L 10.133 12.444 Z M 4.8 14.222 L 5.867 14.222 L 5.867 15.289 L 5.511 15.289 C 5.105 15.289 4.8 14.984 4.8 14.578 L 4.8 14.222 Z M 6.578 14.222 L 7.644 14.222 L 7.644 15.289 L 6.578 15.289 L 6.578 14.222 Z M 8.356 14.222 L 9.422 14.222 L 9.422 15.289 L 8.356 15.289 L 8.356 14.222 Z M 10.133 14.222 L 11.2 14.222 L 11.2 14.578 C 11.2 14.984 10.895 15.289 10.489 15.289 L 10.133 15.289 L 10.133 14.222 Z"/>
</svg>
