<svg xmlns="http://www.w3.org/2000/svg" width="16" height="16" version="1.1">
 <defs>
   <style id="current-color-scheme" type="text/css">
   .ColorScheme-Text { color: #cc00cc; } .ColorScheme-Highlight { color:#5294e2; }
  </style>
  <linearGradient id="arrongin" x1="0%" x2="0%" y1="0%" y2="100%">
   <stop offset="0%" style="stop-color:#dd9b44; stop-opacity:1"/>
   <stop offset="100%" style="stop-color:#ad6c16; stop-opacity:1"/>
  </linearGradient>
  <linearGradient id="aurora" x1="0%" x2="0%" y1="0%" y2="100%">
   <stop offset="0%" style="stop-color:#09D4DF; stop-opacity:1"/>
   <stop offset="100%" style="stop-color:#9269F4; stop-opacity:1"/>
  </linearGradient>
  <linearGradient id="cyberneon" x1="0%" x2="0%" y1="0%" y2="100%">
    <stop offset="0" style="stop-color:#0abdc6; stop-opacity:1"/>
    <stop offset="1" style="stop-color:#ea00d9; stop-opacity:1"/>
  </linearGradient>
  <linearGradient id="fitdance" x1="0%" x2="0%" y1="0%" y2="100%">
   <stop offset="0%" style="stop-color:#1AD6AB; stop-opacity:1"/>
   <stop offset="100%" style="stop-color:#329DB6; stop-opacity:1"/>
  </linearGradient>
  <linearGradient id="oomox" x1="0%" x2="0%" y1="0%" y2="100%">
   <stop offset="0%" style="stop-color:#efefe7; stop-opacity:1"/>
   <stop offset="100%" style="stop-color:#8f8f8b; stop-opacity:1"/>
  </linearGradient>
  <linearGradient id="rainblue" x1="0%" x2="0%" y1="0%" y2="100%">
   <stop offset="0%" style="stop-color:#00F260; stop-opacity:1"/>
   <stop offset="100%" style="stop-color:#0575E6; stop-opacity:1"/>
  </linearGradient>
  <linearGradient id="sunrise" x1="0%" x2="0%" y1="0%" y2="100%">
   <stop offset="0%" style="stop-color: #FF8501; stop-opacity:1"/>
   <stop offset="100%" style="stop-color: #FFCB01; stop-opacity:1"/>
  </linearGradient>
  <linearGradient id="telinkrin" x1="0%" x2="0%" y1="0%" y2="100%">
   <stop offset="0%" style="stop-color: #b2ced6; stop-opacity:1"/>
   <stop offset="100%" style="stop-color: #6da5b7; stop-opacity:1"/>
  </linearGradient>
  <linearGradient id="60spsycho" x1="0%" x2="0%" y1="0%" y2="100%">
   <stop offset="0%" style="stop-color: #df5940; stop-opacity:1"/>
   <stop offset="25%" style="stop-color: #d8d15f; stop-opacity:1"/>
   <stop offset="50%" style="stop-color: #e9882a; stop-opacity:1"/>
   <stop offset="100%" style="stop-color: #279362; stop-opacity:1"/>
  </linearGradient>
  <linearGradient id="90ssummer" x1="0%" x2="0%" y1="0%" y2="100%">
   <stop offset="0%" style="stop-color: #f618c7; stop-opacity:1"/>
   <stop offset="20%" style="stop-color: #94ffab; stop-opacity:1"/>
   <stop offset="50%" style="stop-color: #fbfd54; stop-opacity:1"/>
   <stop offset="100%" style="stop-color: #0f83ae; stop-opacity:1"/>
  </linearGradient>
 </defs>
 <path fill="currentColor" class="ColorScheme-Text" fill-rule="evenodd" d="M 8.018 0 C 7.847 -0.007 7.686 0.08 7.6 0.227 L 6.216 2.571 L 3.703 1.479 C 3.553 1.414 3.379 1.433 3.246 1.528 C 3.113 1.624 3.041 1.782 3.058 1.944 L 3.331 4.645 L 0.649 5.223 C 0.489 5.258 0.359 5.374 0.308 5.529 C 0.258 5.683 0.294 5.853 0.403 5.974 L 2.229 8.001 L 0.403 10.028 C 0.294 10.149 0.258 10.319 0.309 10.473 C 0.36 10.628 0.489 10.744 0.65 10.778 L 3.331 11.356 L 3.059 14.057 C 3.043 14.219 3.114 14.377 3.247 14.473 C 3.38 14.568 3.554 14.587 3.704 14.521 L 6.217 13.43 L 7.602 15.774 C 7.685 15.914 7.837 16 8.001 16 C 8.165 16 8.317 15.914 8.4 15.773 L 9.784 13.429 L 12.297 14.52 C 12.447 14.586 12.621 14.567 12.754 14.472 C 12.887 14.376 12.959 14.218 12.942 14.056 L 12.669 11.355 L 15.351 10.777 C 15.511 10.742 15.641 10.626 15.692 10.471 C 15.742 10.317 15.706 10.147 15.597 10.026 L 13.771 7.999 L 15.597 5.972 C 15.706 5.851 15.742 5.681 15.691 5.527 C 15.64 5.372 15.511 5.256 15.35 5.222 L 12.668 4.644 L 12.941 1.943 C 12.957 1.781 12.886 1.623 12.753 1.527 C 12.62 1.432 12.446 1.413 12.295 1.479 L 9.783 2.57 L 8.398 0.226 C 8.319 0.092 8.176 0.007 8.018 0 Z M 10.407 5.025 C 10.358 5.384 10.31 5.752 10.286 6.089 C 10.259 6.485 10.206 6.769 10.353 7.224 C 10.509 7.704 10.725 7.894 10.996 8.214 C 11.263 8.531 11.581 8.87 11.892 9.19 C 11.444 9.267 10.976 9.356 10.562 9.456 C 10.149 9.557 9.844 9.601 9.449 9.873 C 9.053 10.145 8.906 10.416 8.677 10.759 C 8.456 11.091 8.233 11.472 8.026 11.839 C 7.635 11.126 7.186 10.346 6.42 9.857 C 5.758 9.434 4.97 9.278 4.229 9.161 C 4.757 8.614 5.301 7.973 5.545 7.146 C 5.756 6.434 5.722 5.727 5.647 5.079 C 6.318 5.404 7.085 5.714 7.939 5.714 C 8.848 5.714 9.687 5.371 10.407 5.025 L 10.407 5.025 L 10.407 5.025 Z M 4.468 3.429 C 4.468 3.429 5.124 5.546 4.723 6.903 C 4.322 8.26 2.286 9.788 2.286 9.788 C 2.286 9.788 4.948 9.933 5.959 10.579 C 6.97 11.225 7.998 13.714 7.998 13.714 C 7.998 13.714 9.363 10.972 9.934 10.579 C 10.505 10.187 13.714 9.785 13.714 9.785 C 13.714 9.785 11.368 7.576 11.169 6.96 C 10.969 6.344 11.533 3.43 11.533 3.43 C 11.533 3.43 9.422 4.857 7.939 4.857 C 6.455 4.857 4.468 3.429 4.468 3.429 L 4.468 3.429 L 4.468 3.429 Z"/>
</svg>
