<svg xmlns="http://www.w3.org/2000/svg" width="16" height="16" version="1.1">
 <defs>
   <style id="current-color-scheme" type="text/css">
   .ColorScheme-Text { color: #00aa00; } .ColorScheme-Highlight { color:#5294e2; }
  </style>
  <linearGradient id="arrongin" x1="0%" x2="0%" y1="0%" y2="100%">
   <stop offset="0%" style="stop-color:#dd9b44; stop-opacity:1"/>
   <stop offset="100%" style="stop-color:#ad6c16; stop-opacity:1"/>
  </linearGradient>
  <linearGradient id="aurora" x1="0%" x2="0%" y1="0%" y2="100%">
   <stop offset="0%" style="stop-color:#09D4DF; stop-opacity:1"/>
   <stop offset="100%" style="stop-color:#9269F4; stop-opacity:1"/>
  </linearGradient>
  <linearGradient id="cyberneon" x1="0%" x2="0%" y1="0%" y2="100%">
    <stop offset="0" style="stop-color:#0abdc6; stop-opacity:1"/>
    <stop offset="1" style="stop-color:#ea00d9; stop-opacity:1"/>
  </linearGradient>
  <linearGradient id="fitdance" x1="0%" x2="0%" y1="0%" y2="100%">
   <stop offset="0%" style="stop-color:#1AD6AB; stop-opacity:1"/>
   <stop offset="100%" style="stop-color:#329DB6; stop-opacity:1"/>
  </linearGradient>
  <linearGradient id="oomox" x1="0%" x2="0%" y1="0%" y2="100%">
   <stop offset="0%" style="stop-color:#00aa00; stop-opacity:1"/>
   <stop offset="100%" style="stop-color:#00cc00; stop-opacity:1"/>
  </linearGradient>
  <linearGradient id="rainblue" x1="0%" x2="0%" y1="0%" y2="100%">
   <stop offset="0%" style="stop-color:#00F260; stop-opacity:1"/>
   <stop offset="100%" style="stop-color:#0575E6; stop-opacity:1"/>
  </linearGradient>
  <linearGradient id="sunrise" x1="0%" x2="0%" y1="0%" y2="100%">
   <stop offset="0%" style="stop-color: #FF8501; stop-opacity:1"/>
   <stop offset="100%" style="stop-color: #FFCB01; stop-opacity:1"/>
  </linearGradient>
  <linearGradient id="telinkrin" x1="0%" x2="0%" y1="0%" y2="100%">
   <stop offset="0%" style="stop-color: #b2ced6; stop-opacity:1"/>
   <stop offset="100%" style="stop-color: #6da5b7; stop-opacity:1"/>
  </linearGradient>
  <linearGradient id="60spsycho" x1="0%" x2="0%" y1="0%" y2="100%">
   <stop offset="0%" style="stop-color: #df5940; stop-opacity:1"/>
   <stop offset="25%" style="stop-color: #d8d15f; stop-opacity:1"/>
   <stop offset="50%" style="stop-color: #e9882a; stop-opacity:1"/>
   <stop offset="100%" style="stop-color: #279362; stop-opacity:1"/>
  </linearGradient>
  <linearGradient id="90ssummer" x1="0%" x2="0%" y1="0%" y2="100%">
   <stop offset="0%" style="stop-color: #f618c7; stop-opacity:1"/>
   <stop offset="20%" style="stop-color: #94ffab; stop-opacity:1"/>
   <stop offset="50%" style="stop-color: #fbfd54; stop-opacity:1"/>
   <stop offset="100%" style="stop-color: #0f83ae; stop-opacity:1"/>
  </linearGradient>
 </defs>
 <path fill="url(#oomox)" class="ColorScheme-Text" d="M 4.032 15.966 C 3.864 15.903 3.718 15.795 3.63 15.67 C 3.549 15.554 3.547 15.541 3.536 15.047 C 3.525 14.491 3.558 14.198 3.674 13.864 C 3.899 13.21 4.293 12.659 4.907 12.141 C 5.172 11.917 5.621 11.603 5.653 11.618 C 5.664 11.624 5.767 11.676 5.882 11.735 C 6.261 11.928 6.863 12.164 7.305 12.291 C 7.352 12.305 7.311 12.334 7.103 12.431 C 6.774 12.586 6.49 12.752 6.51 12.778 C 6.518 12.789 7.04 12.798 7.671 12.798 L 8.817 12.798 L 9.079 12.946 C 9.223 13.028 9.479 13.211 9.648 13.353 L 9.956 13.612 L 7.74 13.625 L 5.525 13.638 L 5.422 13.806 C 5.331 13.957 5.196 14.266 5.196 14.326 C 5.196 14.339 6.371 14.349 8 14.349 C 9.542 14.349 10.804 14.34 10.804 14.328 C 10.804 14.269 10.693 14.006 10.605 13.856 C 10.23 13.22 9.561 12.697 8.634 12.319 C 8.446 12.242 8.015 12.103 7.676 12.01 C 6.525 11.693 5.681 11.281 4.961 10.684 C 4.19 10.044 3.73 9.332 3.575 8.538 C 3.514 8.23 3.53 7.607 3.606 7.319 C 3.835 6.443 4.447 5.651 5.394 5.006 C 5.512 4.926 5.621 4.861 5.636 4.861 C 5.652 4.861 5.778 4.918 5.915 4.987 C 6.314 5.188 6.748 5.358 7.304 5.531 C 7.352 5.546 7.316 5.571 7.119 5.66 C 6.985 5.721 6.785 5.824 6.675 5.891 L 6.474 6.011 L 7.646 6.024 L 8.817 6.037 L 9.023 6.153 C 9.37 6.349 9.911 6.774 9.911 6.852 C 9.911 6.868 9.14 6.877 7.712 6.877 L 5.513 6.877 L 5.401 7.078 C 5.272 7.308 5.184 7.539 5.211 7.576 C 5.238 7.612 10.763 7.61 10.79 7.575 C 10.82 7.533 10.69 7.222 10.553 7.006 C 10.193 6.441 9.539 5.938 8.709 5.589 C 8.48 5.492 8.147 5.376 7.969 5.33 C 7.398 5.182 7.039 5.066 6.629 4.899 C 5.039 4.25 3.949 3.186 3.606 1.949 C 3.572 1.825 3.552 1.586 3.541 1.162 C 3.525 0.572 3.527 0.549 3.594 0.418 C 3.715 0.182 4.036 0 4.333 0 C 4.762 0 5.134 0.326 5.134 0.703 L 5.134 0.827 L 8 0.827 L 10.866 0.827 L 10.866 0.703 C 10.866 0.326 11.238 0 11.667 0 C 11.964 0 12.285 0.182 12.406 0.418 C 12.473 0.549 12.475 0.572 12.459 1.162 C 12.442 1.814 12.421 1.937 12.25 2.363 C 12.066 2.826 11.687 3.343 11.222 3.766 C 11.002 3.966 10.473 4.358 10.386 4.387 C 10.363 4.394 10.227 4.34 10.083 4.268 C 9.765 4.106 9.209 3.881 8.884 3.781 L 8.643 3.707 L 8.93 3.57 C 9.088 3.494 9.286 3.39 9.371 3.339 L 9.524 3.245 L 8.354 3.232 L 7.183 3.219 L 6.952 3.09 C 6.825 3.02 6.568 2.834 6.382 2.677 L 6.043 2.392 L 8.262 2.379 L 10.481 2.366 L 10.571 2.225 C 10.662 2.082 10.804 1.757 10.804 1.691 C 10.804 1.66 10.387 1.655 8 1.655 C 5.682 1.655 5.196 1.661 5.196 1.689 C 5.196 1.755 5.325 2.054 5.426 2.222 C 5.763 2.783 6.465 3.325 7.315 3.68 C 7.62 3.808 7.825 3.873 8.462 4.045 C 9.739 4.389 10.921 5.081 11.618 5.894 C 12.174 6.541 12.429 7.142 12.459 7.873 C 12.495 8.751 12.197 9.504 11.528 10.225 C 11.309 10.461 10.852 10.846 10.562 11.039 L 10.365 11.169 L 10.269 11.12 C 9.736 10.847 9.207 10.634 8.694 10.486 C 8.645 10.472 8.678 10.448 8.864 10.364 C 9.142 10.237 9.455 10.056 9.472 10.012 C 9.482 9.987 9.241 9.98 8.334 9.98 L 7.183 9.98 L 6.921 9.832 C 6.777 9.751 6.521 9.568 6.351 9.425 L 6.043 9.165 L 8.256 9.152 L 10.47 9.139 L 10.562 8.999 C 10.648 8.869 10.804 8.518 10.804 8.456 C 10.804 8.437 9.977 8.428 8 8.428 C 6.458 8.428 5.196 8.438 5.196 8.45 C 5.196 8.495 5.298 8.757 5.359 8.868 C 5.395 8.932 5.478 9.06 5.544 9.152 C 5.65 9.299 5.726 9.383 6.012 9.665 C 6.109 9.76 6.605 10.09 6.854 10.225 C 7.217 10.421 7.665 10.586 8.315 10.765 C 8.987 10.951 9.52 11.153 9.988 11.4 C 10.976 11.921 11.79 12.686 12.147 13.43 C 12.411 13.98 12.479 14.325 12.464 15.047 C 12.453 15.541 12.451 15.554 12.37 15.67 C 12.21 15.899 11.951 16.015 11.638 15.999 C 11.198 15.976 10.916 15.741 10.871 15.36 L 10.851 15.189 L 8 15.189 L 5.149 15.189 L 5.129 15.36 C 5.098 15.627 4.935 15.837 4.679 15.942 C 4.527 16.004 4.167 16.017 4.032 15.966 L 4.032 15.966 Z"/>
</svg>
