<svg xmlns="http://www.w3.org/2000/svg" width="16" height="16" version="1.1">
 <defs>
   <style id="current-color-scheme" type="text/css">
   .ColorScheme-Text { color: #00aa00; } .ColorScheme-Highlight { color:#5294e2; }
  </style>
  <linearGradient id="arrongin" x1="0%" x2="0%" y1="0%" y2="100%">
   <stop offset="0%" style="stop-color:#dd9b44; stop-opacity:1"/>
   <stop offset="100%" style="stop-color:#ad6c16; stop-opacity:1"/>
  </linearGradient>
  <linearGradient id="aurora" x1="0%" x2="0%" y1="0%" y2="100%">
   <stop offset="0%" style="stop-color:#09D4DF; stop-opacity:1"/>
   <stop offset="100%" style="stop-color:#9269F4; stop-opacity:1"/>
  </linearGradient>
  <linearGradient id="cyberneon" x1="0%" x2="0%" y1="0%" y2="100%">
    <stop offset="0" style="stop-color:#0abdc6; stop-opacity:1"/>
    <stop offset="1" style="stop-color:#ea00d9; stop-opacity:1"/>
  </linearGradient>
  <linearGradient id="fitdance" x1="0%" x2="0%" y1="0%" y2="100%">
   <stop offset="0%" style="stop-color:#1AD6AB; stop-opacity:1"/>
   <stop offset="100%" style="stop-color:#329DB6; stop-opacity:1"/>
  </linearGradient>
  <linearGradient id="oomox" x1="0%" x2="0%" y1="0%" y2="100%">
   <stop offset="0%" style="stop-color:#00aa00; stop-opacity:1"/>
   <stop offset="100%" style="stop-color:#00cc00; stop-opacity:1"/>
  </linearGradient>
  <linearGradient id="rainblue" x1="0%" x2="0%" y1="0%" y2="100%">
   <stop offset="0%" style="stop-color:#00F260; stop-opacity:1"/>
   <stop offset="100%" style="stop-color:#0575E6; stop-opacity:1"/>
  </linearGradient>
  <linearGradient id="sunrise" x1="0%" x2="0%" y1="0%" y2="100%">
   <stop offset="0%" style="stop-color: #FF8501; stop-opacity:1"/>
   <stop offset="100%" style="stop-color: #FFCB01; stop-opacity:1"/>
  </linearGradient>
  <linearGradient id="telinkrin" x1="0%" x2="0%" y1="0%" y2="100%">
   <stop offset="0%" style="stop-color: #b2ced6; stop-opacity:1"/>
   <stop offset="100%" style="stop-color: #6da5b7; stop-opacity:1"/>
  </linearGradient>
  <linearGradient id="60spsycho" x1="0%" x2="0%" y1="0%" y2="100%">
   <stop offset="0%" style="stop-color: #df5940; stop-opacity:1"/>
   <stop offset="25%" style="stop-color: #d8d15f; stop-opacity:1"/>
   <stop offset="50%" style="stop-color: #e9882a; stop-opacity:1"/>
   <stop offset="100%" style="stop-color: #279362; stop-opacity:1"/>
  </linearGradient>
  <linearGradient id="90ssummer" x1="0%" x2="0%" y1="0%" y2="100%">
   <stop offset="0%" style="stop-color: #f618c7; stop-opacity:1"/>
   <stop offset="20%" style="stop-color: #94ffab; stop-opacity:1"/>
   <stop offset="50%" style="stop-color: #fbfd54; stop-opacity:1"/>
   <stop offset="100%" style="stop-color: #0f83ae; stop-opacity:1"/>
  </linearGradient>
 </defs>
 <path fill="url(#oomox)" class="ColorScheme-Text" d="M 9.562 10.169 C 9.373 10.194 9.177 10.144 9.025 10.027 C 8.872 9.911 8.77 9.74 8.745 9.548 C 8.72 9.359 8.77 9.163 8.887 9.01 C 9.003 8.858 9.174 8.756 9.366 8.73 C 9.508 8.709 9.653 8.701 9.799 8.701 C 10.093 8.701 10.391 8.738 10.678 8.807 C 11.074 8.897 11.444 9.068 11.775 9.304 C 12.182 9.602 12.505 9.998 12.716 10.46 C 12.836 10.725 12.927 11.008 12.985 11.295 C 13.05 11.63 13.086 11.967 13.086 12.305 L 13.086 12.36 C 13.09 12.709 13.054 13.057 12.985 13.402 C 12.927 13.7 12.828 13.991 12.694 14.263 C 12.469 14.732 12.124 15.132 11.695 15.422 C 11.35 15.651 10.968 15.815 10.565 15.906 C 10.282 15.967 9.995 16 9.704 16 C 9.599 16 9.493 15.996 9.388 15.985 C 9.195 15.964 9.021 15.869 8.901 15.72 C 8.778 15.571 8.723 15.379 8.741 15.186 C 8.763 14.994 8.858 14.819 9.007 14.699 C 9.156 14.576 9.348 14.518 9.541 14.54 C 9.591 14.543 9.642 14.547 9.693 14.547 C 9.882 14.547 10.067 14.525 10.249 14.485 C 10.474 14.438 10.689 14.347 10.881 14.22 C 11.099 14.071 11.274 13.867 11.386 13.631 C 11.466 13.464 11.524 13.29 11.561 13.112 C 11.611 12.868 11.637 12.618 11.633 12.371 C 11.633 12.371 11.633 12.367 11.633 12.367 L 11.633 12.313 C 11.633 12.313 11.633 12.313 11.633 12.313 C 11.633 12.065 11.608 11.818 11.561 11.579 C 11.524 11.401 11.47 11.226 11.393 11.063 C 11.288 10.834 11.125 10.63 10.925 10.481 C 10.747 10.358 10.551 10.267 10.343 10.22 C 10.162 10.176 9.977 10.155 9.788 10.155 C 9.711 10.155 9.639 10.158 9.562 10.169 Z"/>
 <path fill="url(#oomox)" class="ColorScheme-Text" d="M 8.727 9.446 C 8.727 9.254 8.803 9.068 8.941 8.93 C 9.076 8.796 9.261 8.719 9.453 8.719 C 9.646 8.719 9.831 8.796 9.966 8.93 C 10.104 9.068 10.18 9.254 10.18 9.446 L 10.18 15.259 C 10.18 15.451 10.104 15.633 9.966 15.771 C 9.831 15.906 9.646 15.985 9.453 15.985 C 9.261 15.985 9.076 15.906 8.941 15.771 C 8.803 15.633 8.727 15.451 8.727 15.259 L 8.727 9.446 Z"/>
 <path fill="url(#oomox)" class="ColorScheme-Text" fill-rule="evenodd" d="M 5.868 13.043 L 4.923 13.043 C 4.731 13.043 4.545 12.966 4.411 12.832 C 4.273 12.694 4.196 12.509 4.196 12.316 C 4.196 12.124 4.273 11.938 4.411 11.804 C 4.545 11.666 4.731 11.59 4.923 11.59 L 5.868 11.59 L 5.868 10.754 C 5.868 10.747 5.868 10.739 5.868 10.732 C 5.871 10.612 5.846 10.496 5.795 10.387 C 5.773 10.347 5.74 10.314 5.701 10.289 C 5.602 10.231 5.486 10.202 5.37 10.209 C 5.37 10.209 5.366 10.209 5.363 10.209 C 5.348 10.209 5.33 10.209 5.312 10.209 L 3.688 10.209 C 3.495 10.209 3.31 10.133 3.176 9.998 C 3.038 9.86 2.961 9.675 2.961 9.482 C 2.961 9.29 3.038 9.105 3.176 8.97 C 3.31 8.832 3.495 8.756 3.688 8.756 L 5.29 8.756 C 5.319 8.756 5.345 8.756 5.374 8.756 C 5.755 8.749 6.133 8.854 6.46 9.05 C 6.725 9.214 6.939 9.442 7.085 9.719 C 7.248 10.042 7.328 10.402 7.321 10.765 L 7.321 12.316 L 7.321 12.316 L 7.321 13.944 C 7.332 14.314 7.241 14.685 7.063 15.015 C 6.907 15.288 6.681 15.517 6.409 15.673 C 6.086 15.858 5.719 15.953 5.345 15.949 C 5.33 15.949 5.312 15.949 5.297 15.949 L 3.688 15.949 C 3.495 15.949 3.31 15.873 3.176 15.738 C 3.038 15.6 2.961 15.415 2.961 15.223 C 2.961 15.03 3.038 14.845 3.176 14.71 C 3.31 14.572 3.495 14.496 3.688 14.496 L 5.312 14.496 L 5.355 14.496 C 5.472 14.5 5.584 14.471 5.686 14.412 C 5.73 14.387 5.766 14.351 5.795 14.307 C 5.846 14.205 5.871 14.089 5.868 13.973 C 5.868 13.966 5.868 13.958 5.868 13.951 L 5.868 13.043 L 5.868 13.043 Z M 11.673 1.548 C 11.64 1.533 11.611 1.523 11.575 1.519 C 11.357 1.472 11.132 1.45 10.91 1.453 C 10.812 1.453 10.714 1.464 10.616 1.486 C 10.572 1.497 10.532 1.515 10.492 1.537 C 10.42 1.592 10.365 1.661 10.336 1.744 C 10.264 1.937 10.22 2.14 10.209 2.347 C 10.184 2.656 10.176 2.961 10.18 3.266 C 10.18 3.27 10.18 3.274 10.18 3.277 L 10.18 3.452 L 10.18 3.633 L 10.18 3.815 L 10.18 3.993 C 10.18 3.997 10.18 3.997 10.18 4 C 10.176 4.309 10.184 4.614 10.209 4.919 C 10.22 5.126 10.264 5.33 10.336 5.526 C 10.365 5.606 10.42 5.679 10.492 5.73 C 10.532 5.755 10.572 5.769 10.616 5.78 C 10.71 5.806 10.809 5.817 10.907 5.813 C 11.139 5.82 11.368 5.799 11.597 5.755 C 11.63 5.751 11.666 5.74 11.699 5.73 C 11.768 5.581 11.88 5.461 12.026 5.384 C 12.171 5.312 12.338 5.286 12.498 5.319 C 12.658 5.348 12.803 5.435 12.908 5.559 C 13.017 5.679 13.079 5.835 13.086 5.998 L 13.086 6.009 C 13.086 6.027 13.086 6.046 13.086 6.064 C 13.083 6.224 13.036 6.376 12.956 6.514 C 12.85 6.696 12.698 6.845 12.516 6.947 C 12.313 7.066 12.087 7.146 11.851 7.186 C 11.539 7.244 11.223 7.274 10.903 7.266 C 10.689 7.27 10.478 7.244 10.267 7.194 C 10.064 7.143 9.864 7.056 9.686 6.939 C 9.363 6.718 9.112 6.402 8.974 6.035 C 8.854 5.708 8.781 5.366 8.76 5.017 C 8.734 4.676 8.723 4.331 8.727 3.986 L 8.727 3.815 L 8.727 3.633 L 8.727 3.455 L 8.727 3.281 C 8.723 2.939 8.734 2.594 8.76 2.249 C 8.781 1.904 8.854 1.559 8.974 1.232 C 9.112 0.865 9.363 0.549 9.686 0.327 C 9.864 0.211 10.064 0.127 10.267 0.077 C 10.474 0.026 10.689 0 10.903 0 C 11.23 -0.003 11.553 0.026 11.873 0.095 C 12.116 0.146 12.349 0.24 12.556 0.378 C 12.738 0.494 12.879 0.658 12.977 0.85 C 13.046 0.985 13.083 1.13 13.086 1.283 C 13.086 1.297 13.086 1.312 13.086 1.326 L 13.086 1.337 C 13.079 1.508 13.014 1.668 12.901 1.795 C 12.788 1.922 12.632 2.002 12.465 2.028 C 12.298 2.053 12.127 2.017 11.982 1.929 C 11.837 1.842 11.728 1.708 11.673 1.548 L 11.673 1.548 Z M 4.367 3.277 L 4.367 3.452 L 4.367 3.633 L 4.367 3.815 L 4.367 3.993 C 4.367 3.997 4.367 3.997 4.367 4 C 4.364 4.309 4.371 4.614 4.396 4.919 C 4.407 5.126 4.451 5.33 4.523 5.526 C 4.553 5.606 4.607 5.679 4.68 5.73 C 4.72 5.755 4.76 5.769 4.803 5.78 C 4.898 5.806 4.996 5.817 5.094 5.813 C 5.326 5.82 5.555 5.799 5.784 5.755 C 5.817 5.751 5.853 5.74 5.886 5.73 C 5.955 5.581 6.067 5.461 6.213 5.384 C 6.358 5.312 6.525 5.286 6.685 5.319 C 6.845 5.348 6.99 5.435 7.096 5.559 C 7.205 5.679 7.266 5.835 7.274 5.998 L 7.274 6.009 C 7.274 6.027 7.274 6.046 7.274 6.064 C 7.27 6.224 7.223 6.376 7.143 6.514 C 7.037 6.696 6.885 6.845 6.703 6.947 C 6.5 7.066 6.275 7.146 6.038 7.186 C 5.726 7.244 5.41 7.274 5.09 7.266 C 4.876 7.27 4.665 7.244 4.454 7.194 C 4.251 7.143 4.051 7.056 3.873 6.939 C 3.55 6.718 3.299 6.402 3.161 6.035 C 3.041 5.708 2.969 5.366 2.947 5.017 C 2.921 4.676 2.91 4.331 2.914 3.986 L 2.914 3.815 L 2.914 3.633 L 2.914 3.455 L 2.914 3.281 C 2.91 2.939 2.921 2.594 2.947 2.249 C 2.969 1.904 3.041 1.559 3.161 1.232 C 3.299 0.865 3.55 0.549 3.873 0.327 C 4.051 0.211 4.251 0.127 4.454 0.077 C 4.665 0.026 4.876 0 5.09 0 C 5.417 -0.003 5.74 0.026 6.06 0.095 C 6.304 0.146 6.536 0.24 6.743 0.378 C 6.925 0.494 7.067 0.658 7.165 0.85 C 7.234 0.985 7.27 1.13 7.274 1.283 C 7.274 1.297 7.274 1.312 7.274 1.326 L 7.274 1.337 C 7.266 1.508 7.201 1.668 7.088 1.795 C 6.976 1.922 6.819 2.002 6.652 2.028 C 6.485 2.053 6.315 2.017 6.169 1.929 C 6.024 1.842 5.915 1.708 5.86 1.548 C 5.828 1.533 5.799 1.523 5.766 1.519 C 5.544 1.472 5.319 1.45 5.097 1.453 C 4.999 1.453 4.901 1.464 4.803 1.486 C 4.76 1.497 4.72 1.515 4.68 1.537 C 4.607 1.592 4.553 1.661 4.523 1.744 C 4.451 1.937 4.407 2.14 4.396 2.347 C 4.371 2.656 4.364 2.961 4.367 3.266 C 4.367 3.27 4.367 3.274 4.367 3.277 Z"/>
</svg>
