<svg xmlns="http://www.w3.org/2000/svg" width="16" height="16" version="1.1">
 <defs>
   <style id="current-color-scheme" type="text/css">
   .ColorScheme-Text { color: #00aa00; } .ColorScheme-Highlight { color:#5294e2; }
  </style>
  <linearGradient id="arrongin" x1="0%" x2="0%" y1="0%" y2="100%">
   <stop offset="0%" style="stop-color:#dd9b44; stop-opacity:1"/>
   <stop offset="100%" style="stop-color:#ad6c16; stop-opacity:1"/>
  </linearGradient>
  <linearGradient id="aurora" x1="0%" x2="0%" y1="0%" y2="100%">
   <stop offset="0%" style="stop-color:#09D4DF; stop-opacity:1"/>
   <stop offset="100%" style="stop-color:#9269F4; stop-opacity:1"/>
  </linearGradient>
  <linearGradient id="cyberneon" x1="0%" x2="0%" y1="0%" y2="100%">
    <stop offset="0" style="stop-color:#0abdc6; stop-opacity:1"/>
    <stop offset="1" style="stop-color:#ea00d9; stop-opacity:1"/>
  </linearGradient>
  <linearGradient id="fitdance" x1="0%" x2="0%" y1="0%" y2="100%">
   <stop offset="0%" style="stop-color:#1AD6AB; stop-opacity:1"/>
   <stop offset="100%" style="stop-color:#329DB6; stop-opacity:1"/>
  </linearGradient>
  <linearGradient id="oomox" x1="0%" x2="0%" y1="0%" y2="100%">
   <stop offset="0%" style="stop-color:#00aa00; stop-opacity:1"/>
   <stop offset="100%" style="stop-color:#00cc00; stop-opacity:1"/>
  </linearGradient>
  <linearGradient id="rainblue" x1="0%" x2="0%" y1="0%" y2="100%">
   <stop offset="0%" style="stop-color:#00F260; stop-opacity:1"/>
   <stop offset="100%" style="stop-color:#0575E6; stop-opacity:1"/>
  </linearGradient>
  <linearGradient id="sunrise" x1="0%" x2="0%" y1="0%" y2="100%">
   <stop offset="0%" style="stop-color: #FF8501; stop-opacity:1"/>
   <stop offset="100%" style="stop-color: #FFCB01; stop-opacity:1"/>
  </linearGradient>
  <linearGradient id="telinkrin" x1="0%" x2="0%" y1="0%" y2="100%">
   <stop offset="0%" style="stop-color: #b2ced6; stop-opacity:1"/>
   <stop offset="100%" style="stop-color: #6da5b7; stop-opacity:1"/>
  </linearGradient>
  <linearGradient id="60spsycho" x1="0%" x2="0%" y1="0%" y2="100%">
   <stop offset="0%" style="stop-color: #df5940; stop-opacity:1"/>
   <stop offset="25%" style="stop-color: #d8d15f; stop-opacity:1"/>
   <stop offset="50%" style="stop-color: #e9882a; stop-opacity:1"/>
   <stop offset="100%" style="stop-color: #279362; stop-opacity:1"/>
  </linearGradient>
  <linearGradient id="90ssummer" x1="0%" x2="0%" y1="0%" y2="100%">
   <stop offset="0%" style="stop-color: #f618c7; stop-opacity:1"/>
   <stop offset="20%" style="stop-color: #94ffab; stop-opacity:1"/>
   <stop offset="50%" style="stop-color: #fbfd54; stop-opacity:1"/>
   <stop offset="100%" style="stop-color: #0f83ae; stop-opacity:1"/>
  </linearGradient>
 </defs>
 <path fill="url(#oomox)" class="ColorScheme-Text" fill-rule="evenodd" d="M 8 3.588 C 5.983 3.588 4.174 4.145 2.934 4.971 C 1.695 5.797 1.067 6.813 1.067 7.853 C 1.069 8.605 1.401 9.373 2.147 10.097 C 2.383 10.326 2.5 10.651 2.465 10.977 C 2.349 12.045 2.177 13.043 1.894 13.934 C 2.975 13.595 3.944 13.005 4.698 12.189 C 4.956 11.909 5.343 11.788 5.715 11.871 C 6.448 12.035 7.222 12.12 8.002 12.121 C 10.018 12.121 11.827 11.564 13.066 10.738 C 14.305 9.912 14.933 8.895 14.933 7.855 C 14.933 6.814 14.305 5.797 13.066 4.971 C 11.826 4.145 10.017 3.588 8 3.588 L 8 3.588 Z M 5.485 12.918 C 4.122 14.396 2.169 15.321 0 15.321 C 0.746 14.451 1.202 12.795 1.409 10.875 C 0.52 10.017 0 8.976 0 7.855 C 0 6.765 0.491 5.751 1.335 4.907 C 1.089 2.956 0.629 1.269 0 0.388 C 2.169 0.388 4.122 1.313 5.485 2.791 C 6.276 2.616 7.122 2.521 8 2.521 C 12.415 2.521 16 4.911 16 7.855 C 16 10.798 12.415 13.188 8 13.188 C 7.122 13.188 6.276 13.093 5.485 12.918 L 5.485 12.918 Z M 4.8 6.788 C 4.211 6.788 3.733 7.265 3.733 7.855 C 3.733 8.444 4.211 8.921 4.8 8.921 C 5.389 8.921 5.867 8.444 5.867 7.855 C 5.867 7.265 5.389 6.788 4.8 6.788 L 4.8 6.788 Z M 8 6.788 C 7.411 6.788 6.933 7.265 6.933 7.855 C 6.933 8.444 7.411 8.921 8 8.921 C 8.589 8.921 9.067 8.444 9.067 7.855 C 9.067 7.265 8.589 6.788 8 6.788 L 8 6.788 Z M 11.2 6.788 C 10.611 6.788 10.133 7.265 10.133 7.855 C 10.133 8.444 10.611 8.921 11.2 8.921 C 11.789 8.921 12.267 8.444 12.267 7.855 C 12.267 7.265 11.789 6.788 11.2 6.788 L 11.2 6.788 Z"/>
</svg>
