<svg xmlns="http://www.w3.org/2000/svg" width="16" height="16" version="1.1">
 <defs>
   <style id="current-color-scheme" type="text/css">
   .ColorScheme-Text { color: #00aa00; } .ColorScheme-Highlight { color:#5294e2; }
  </style>
  <linearGradient id="arrongin" x1="0%" x2="0%" y1="0%" y2="100%">
   <stop offset="0%" style="stop-color:#dd9b44; stop-opacity:1"/>
   <stop offset="100%" style="stop-color:#ad6c16; stop-opacity:1"/>
  </linearGradient>
  <linearGradient id="aurora" x1="0%" x2="0%" y1="0%" y2="100%">
   <stop offset="0%" style="stop-color:#09D4DF; stop-opacity:1"/>
   <stop offset="100%" style="stop-color:#9269F4; stop-opacity:1"/>
  </linearGradient>
  <linearGradient id="cyberneon" x1="0%" x2="0%" y1="0%" y2="100%">
    <stop offset="0" style="stop-color:#0abdc6; stop-opacity:1"/>
    <stop offset="1" style="stop-color:#ea00d9; stop-opacity:1"/>
  </linearGradient>
  <linearGradient id="fitdance" x1="0%" x2="0%" y1="0%" y2="100%">
   <stop offset="0%" style="stop-color:#1AD6AB; stop-opacity:1"/>
   <stop offset="100%" style="stop-color:#329DB6; stop-opacity:1"/>
  </linearGradient>
  <linearGradient id="oomox" x1="0%" x2="0%" y1="0%" y2="100%">
   <stop offset="0%" style="stop-color:#00aa00; stop-opacity:1"/>
   <stop offset="100%" style="stop-color:#00cc00; stop-opacity:1"/>
  </linearGradient>
  <linearGradient id="rainblue" x1="0%" x2="0%" y1="0%" y2="100%">
   <stop offset="0%" style="stop-color:#00F260; stop-opacity:1"/>
   <stop offset="100%" style="stop-color:#0575E6; stop-opacity:1"/>
  </linearGradient>
  <linearGradient id="sunrise" x1="0%" x2="0%" y1="0%" y2="100%">
   <stop offset="0%" style="stop-color: #FF8501; stop-opacity:1"/>
   <stop offset="100%" style="stop-color: #FFCB01; stop-opacity:1"/>
  </linearGradient>
  <linearGradient id="telinkrin" x1="0%" x2="0%" y1="0%" y2="100%">
   <stop offset="0%" style="stop-color: #b2ced6; stop-opacity:1"/>
   <stop offset="100%" style="stop-color: #6da5b7; stop-opacity:1"/>
  </linearGradient>
  <linearGradient id="60spsycho" x1="0%" x2="0%" y1="0%" y2="100%">
   <stop offset="0%" style="stop-color: #df5940; stop-opacity:1"/>
   <stop offset="25%" style="stop-color: #d8d15f; stop-opacity:1"/>
   <stop offset="50%" style="stop-color: #e9882a; stop-opacity:1"/>
   <stop offset="100%" style="stop-color: #279362; stop-opacity:1"/>
  </linearGradient>
  <linearGradient id="90ssummer" x1="0%" x2="0%" y1="0%" y2="100%">
   <stop offset="0%" style="stop-color: #f618c7; stop-opacity:1"/>
   <stop offset="20%" style="stop-color: #94ffab; stop-opacity:1"/>
   <stop offset="50%" style="stop-color: #fbfd54; stop-opacity:1"/>
   <stop offset="100%" style="stop-color: #0f83ae; stop-opacity:1"/>
  </linearGradient>
 </defs>
 <path fill="url(#oomox)" class="ColorScheme-Text" fill-rule="evenodd" d="M 12.522 8 C 12.522 7.04 13.301 6.261 14.261 6.261 C 15.221 6.261 16 7.04 16 8 C 16 8.96 15.221 9.739 14.261 9.739 C 13.301 9.739 12.522 8.96 12.522 8 L 12.522 8 Z M 6.261 14.261 C 6.261 13.301 7.04 12.522 8 12.522 C 8.96 12.522 9.739 13.301 9.739 14.261 C 9.739 15.221 8.96 16 8 16 C 7.04 16 6.261 15.221 6.261 14.261 L 6.261 14.261 Z M 0 14.261 C 0 13.301 0.779 12.522 1.739 12.522 C 2.699 12.522 3.478 13.301 3.478 14.261 C 3.478 15.221 2.699 16 1.739 16 C 0.779 16 0 15.221 0 14.261 Z"/>
 <path fill="url(#oomox)" class="ColorScheme-Text" fill-rule="evenodd" d="M 6.261 8 C 6.261 7.04 7.04 6.261 8 6.261 C 8.96 6.261 9.739 7.04 9.739 8 C 9.739 8.96 8.96 9.739 8 9.739 C 7.04 9.739 6.261 8.96 6.261 8 L 6.261 8 L 6.261 8 L 6.261 8 L 6.261 8 Z M 0 8 C 0 7.04 0.779 6.261 1.739 6.261 C 2.699 6.261 3.478 7.04 3.478 8 C 3.478 8.96 2.699 9.739 1.739 9.739 C 0.779 9.739 0 8.96 0 8 L 0 8 L 0 8 L 0 8 L 0 8 Z M 6.261 1.739 C 6.261 0.779 7.04 0 8 0 C 8.96 0 9.739 0.779 9.739 1.739 C 9.739 2.699 8.96 3.478 8 3.478 C 7.04 3.478 6.261 2.699 6.261 1.739 L 6.261 1.739 L 6.261 1.739 L 6.261 1.739 Z M 0 1.787 C 0 0.854 0.758 0.097 1.691 0.097 C 2.624 0.097 3.382 0.854 3.382 1.787 C 3.382 2.721 2.624 3.478 1.691 3.478 C 0.758 3.478 0 2.721 0 1.787 L 0 1.787 L 0 1.787 Z M 12.522 1.739 C 12.522 0.779 13.301 0 14.261 0 C 15.221 0 16 0.779 16 1.739 C 16 2.699 15.221 3.478 14.261 3.478 C 13.301 3.478 12.522 2.699 12.522 1.739 L 12.522 1.739 Z M 12.522 14.261 C 12.522 13.301 13.301 12.522 14.261 12.522 C 15.221 12.522 16 13.301 16 14.261 C 16 15.221 15.221 16 14.261 16 C 13.301 16 12.522 15.221 12.522 14.261 Z"/>
</svg>
