<svg xmlns="http://www.w3.org/2000/svg" width="16" height="16" version="1.1">
 <defs>
   <style id="current-color-scheme" type="text/css">
   .ColorScheme-Text { color: #00aa00; } .ColorScheme-Highlight { color:#5294e2; }
  </style>
  <linearGradient id="arrongin" x1="0%" x2="0%" y1="0%" y2="100%">
   <stop offset="0%" style="stop-color:#dd9b44; stop-opacity:1"/>
   <stop offset="100%" style="stop-color:#ad6c16; stop-opacity:1"/>
  </linearGradient>
  <linearGradient id="aurora" x1="0%" x2="0%" y1="0%" y2="100%">
   <stop offset="0%" style="stop-color:#09D4DF; stop-opacity:1"/>
   <stop offset="100%" style="stop-color:#9269F4; stop-opacity:1"/>
  </linearGradient>
  <linearGradient id="cyberneon" x1="0%" x2="0%" y1="0%" y2="100%">
    <stop offset="0" style="stop-color:#0abdc6; stop-opacity:1"/>
    <stop offset="1" style="stop-color:#ea00d9; stop-opacity:1"/>
  </linearGradient>
  <linearGradient id="fitdance" x1="0%" x2="0%" y1="0%" y2="100%">
   <stop offset="0%" style="stop-color:#1AD6AB; stop-opacity:1"/>
   <stop offset="100%" style="stop-color:#329DB6; stop-opacity:1"/>
  </linearGradient>
  <linearGradient id="oomox" x1="0%" x2="0%" y1="0%" y2="100%">
   <stop offset="0%" style="stop-color:#00aa00; stop-opacity:1"/>
   <stop offset="100%" style="stop-color:#00cc00; stop-opacity:1"/>
  </linearGradient>
  <linearGradient id="rainblue" x1="0%" x2="0%" y1="0%" y2="100%">
   <stop offset="0%" style="stop-color:#00F260; stop-opacity:1"/>
   <stop offset="100%" style="stop-color:#0575E6; stop-opacity:1"/>
  </linearGradient>
  <linearGradient id="sunrise" x1="0%" x2="0%" y1="0%" y2="100%">
   <stop offset="0%" style="stop-color: #FF8501; stop-opacity:1"/>
   <stop offset="100%" style="stop-color: #FFCB01; stop-opacity:1"/>
  </linearGradient>
  <linearGradient id="telinkrin" x1="0%" x2="0%" y1="0%" y2="100%">
   <stop offset="0%" style="stop-color: #b2ced6; stop-opacity:1"/>
   <stop offset="100%" style="stop-color: #6da5b7; stop-opacity:1"/>
  </linearGradient>
  <linearGradient id="60spsycho" x1="0%" x2="0%" y1="0%" y2="100%">
   <stop offset="0%" style="stop-color: #df5940; stop-opacity:1"/>
   <stop offset="25%" style="stop-color: #d8d15f; stop-opacity:1"/>
   <stop offset="50%" style="stop-color: #e9882a; stop-opacity:1"/>
   <stop offset="100%" style="stop-color: #279362; stop-opacity:1"/>
  </linearGradient>
  <linearGradient id="90ssummer" x1="0%" x2="0%" y1="0%" y2="100%">
   <stop offset="0%" style="stop-color: #f618c7; stop-opacity:1"/>
   <stop offset="20%" style="stop-color: #94ffab; stop-opacity:1"/>
   <stop offset="50%" style="stop-color: #fbfd54; stop-opacity:1"/>
   <stop offset="100%" style="stop-color: #0f83ae; stop-opacity:1"/>
  </linearGradient>
 </defs>
 <path fill="url(#oomox)" class="ColorScheme-Text" d="M 1.683 13.805 C 2.105 12.937 2.666 11.561 3.002 10.649 C 3.145 10.258 3.562 9.881 3.93 9.808 L 3.93 9.808 L 5.476 9.153 C 5.218 8.873 5.421 8.445 6.084 7.866 L 5.824 7.34 C 5.444 7.275 5.214 7.136 5.131 6.924 C 5.049 6.712 5.115 6.426 5.329 6.067 C 5.24 5.965 5.214 5.847 5.251 5.713 L 4.771 3.694 L 4.763 3.403 L 4.787 3.002 L 4.732 2.782 L 4.889 2.648 L 4.975 2.515 L 5.07 2.413 L 4.96 2.145 L 4.905 1.965 L 4.913 1.682 L 5.054 1.328 Q 5.435 0.812 5.722 0.621 C 6.009 0.43 6.008 0.463 6.17 0.393 C 6.332 0.323 6.845 0.17 7.223 0.094 Q 7.601 0.019 7.702 0.016 L 7.922 0 L 8.08 0.039 L 8.59 0.173 L 9.078 0.409 L 9.423 0.778 L 9.62 1.179 L 9.706 1.65 L 9.769 1.886 L 9.934 1.965 L 10.084 2.248 L 10.194 2.287 L 10.178 2.601 L 10.319 3.026 L 10.421 3.254 L 10.618 3.623 L 10.618 3.772 L 10.744 4.032 L 10.728 4.283 L 10.634 4.629 L 10.909 4.747 L 10.846 4.857 Q 11.27 5.282 11.184 5.635 C 11.068 6.109 10.587 6.475 10.531 6.656 Q 10.409 7.059 10.028 6.821 L 10.194 7.576 L 10.524 7.859 L 11.718 8.181 L 12.362 8.252 L 12.732 8.322 L 13.416 8.393 Q 13.534 8.324 13.604 8.346 Q 13.675 8.367 13.785 8.401 L 14.288 8.692 Q 14.827 9.258 14.995 9.642 C 15.164 10.027 15.135 10.7 15.152 11.277 C 15.17 11.854 15.266 12.68 15.034 13.399 Q 14.803 14.118 14.72 14.13 L 14.06 15.833 C 13.629 15.85 13.162 15.899 12.737 15.913 C 9.334 16.022 6.045 16.043 3.041 15.892 C 2.251 15.851 1.616 15.806 0.813 15.676 L 0.975 15.301 L 1.416 14.507 L 1.683 13.804"/>
</svg>
