<svg xmlns="http://www.w3.org/2000/svg" width="16" height="16" version="1.1">
 <defs>
   <style id="current-color-scheme" type="text/css">
   .ColorScheme-Text { color: #00aa00; } .ColorScheme-Highlight { color:#5294e2; }
  </style>
  <linearGradient id="arrongin" x1="0%" x2="0%" y1="0%" y2="100%">
   <stop offset="0%" style="stop-color:#dd9b44; stop-opacity:1"/>
   <stop offset="100%" style="stop-color:#ad6c16; stop-opacity:1"/>
  </linearGradient>
  <linearGradient id="aurora" x1="0%" x2="0%" y1="0%" y2="100%">
   <stop offset="0%" style="stop-color:#09D4DF; stop-opacity:1"/>
   <stop offset="100%" style="stop-color:#9269F4; stop-opacity:1"/>
  </linearGradient>
  <linearGradient id="cyberneon" x1="0%" x2="0%" y1="0%" y2="100%">
    <stop offset="0" style="stop-color:#0abdc6; stop-opacity:1"/>
    <stop offset="1" style="stop-color:#ea00d9; stop-opacity:1"/>
  </linearGradient>
  <linearGradient id="fitdance" x1="0%" x2="0%" y1="0%" y2="100%">
   <stop offset="0%" style="stop-color:#1AD6AB; stop-opacity:1"/>
   <stop offset="100%" style="stop-color:#329DB6; stop-opacity:1"/>
  </linearGradient>
  <linearGradient id="oomox" x1="0%" x2="0%" y1="0%" y2="100%">
   <stop offset="0%" style="stop-color:#00aa00; stop-opacity:1"/>
   <stop offset="100%" style="stop-color:#00cc00; stop-opacity:1"/>
  </linearGradient>
  <linearGradient id="rainblue" x1="0%" x2="0%" y1="0%" y2="100%">
   <stop offset="0%" style="stop-color:#00F260; stop-opacity:1"/>
   <stop offset="100%" style="stop-color:#0575E6; stop-opacity:1"/>
  </linearGradient>
  <linearGradient id="sunrise" x1="0%" x2="0%" y1="0%" y2="100%">
   <stop offset="0%" style="stop-color: #FF8501; stop-opacity:1"/>
   <stop offset="100%" style="stop-color: #FFCB01; stop-opacity:1"/>
  </linearGradient>
  <linearGradient id="telinkrin" x1="0%" x2="0%" y1="0%" y2="100%">
   <stop offset="0%" style="stop-color: #b2ced6; stop-opacity:1"/>
   <stop offset="100%" style="stop-color: #6da5b7; stop-opacity:1"/>
  </linearGradient>
  <linearGradient id="60spsycho" x1="0%" x2="0%" y1="0%" y2="100%">
   <stop offset="0%" style="stop-color: #df5940; stop-opacity:1"/>
   <stop offset="25%" style="stop-color: #d8d15f; stop-opacity:1"/>
   <stop offset="50%" style="stop-color: #e9882a; stop-opacity:1"/>
   <stop offset="100%" style="stop-color: #279362; stop-opacity:1"/>
  </linearGradient>
  <linearGradient id="90ssummer" x1="0%" x2="0%" y1="0%" y2="100%">
   <stop offset="0%" style="stop-color: #f618c7; stop-opacity:1"/>
   <stop offset="20%" style="stop-color: #94ffab; stop-opacity:1"/>
   <stop offset="50%" style="stop-color: #fbfd54; stop-opacity:1"/>
   <stop offset="100%" style="stop-color: #0f83ae; stop-opacity:1"/>
  </linearGradient>
 </defs>
 <path fill="url(#oomox)" class="ColorScheme-Text" fill-rule="evenodd" d="M 8.667 8 L 7.333 8 L 7.333 3.333 L 8.667 3.333 L 8.667 8 Z M 1.333 13.333 L 1.333 12 L 7.333 12 L 7.333 7.333 L 14.667 7.333 L 14.667 8.667 L 8.667 8.667 L 8.667 13.333 L 1.333 13.333 Z"/>
 <path fill="url(#oomox)" class="ColorScheme-Text" d="M 8 2 C 7.264 2 6.667 2.597 6.667 3.333 C 6.667 4.07 7.264 4.667 8 4.667 C 8.736 4.667 9.333 4.07 9.333 3.333 C 9.333 2.597 8.736 2 8 2 Z M 8 6.667 C 7.264 6.667 6.667 7.264 6.667 8 C 6.667 8.736 7.264 9.333 8 9.333 C 8.736 9.333 9.333 8.736 9.333 8 C 9.333 7.264 8.736 6.667 8 6.667 Z M 14.667 6.667 C 13.93 6.667 13.333 7.264 13.333 8 C 13.333 8.736 13.93 9.333 14.667 9.333 C 15.403 9.333 16 8.736 16 8 C 16 7.264 15.403 6.667 14.667 6.667 Z M 1.333 11.333 C 0.597 11.333 0 11.93 0 12.667 C 0 13.403 0.597 14 1.333 14 C 2.07 14 2.667 13.403 2.667 12.667 C 2.667 11.93 2.07 11.333 1.333 11.333 Z M 8 11.333 C 7.264 11.333 6.667 11.93 6.667 12.667 C 6.667 13.403 7.264 14 8 14 C 8.736 14 9.333 13.403 9.333 12.667 C 9.333 11.93 8.736 11.333 8 11.333 Z"/>
</svg>
