<svg xmlns="http://www.w3.org/2000/svg" width="16" height="16" version="1.1">
 <defs>
   <style id="current-color-scheme" type="text/css">
   .ColorScheme-Text { color: #00aa00; } .ColorScheme-Highlight { color:#5294e2; }
  </style>
  <linearGradient id="arrongin" x1="0%" x2="0%" y1="0%" y2="100%">
   <stop offset="0%" style="stop-color:#dd9b44; stop-opacity:1"/>
   <stop offset="100%" style="stop-color:#ad6c16; stop-opacity:1"/>
  </linearGradient>
  <linearGradient id="aurora" x1="0%" x2="0%" y1="0%" y2="100%">
   <stop offset="0%" style="stop-color:#09D4DF; stop-opacity:1"/>
   <stop offset="100%" style="stop-color:#9269F4; stop-opacity:1"/>
  </linearGradient>
  <linearGradient id="cyberneon" x1="0%" x2="0%" y1="0%" y2="100%">
    <stop offset="0" style="stop-color:#0abdc6; stop-opacity:1"/>
    <stop offset="1" style="stop-color:#ea00d9; stop-opacity:1"/>
  </linearGradient>
  <linearGradient id="fitdance" x1="0%" x2="0%" y1="0%" y2="100%">
   <stop offset="0%" style="stop-color:#1AD6AB; stop-opacity:1"/>
   <stop offset="100%" style="stop-color:#329DB6; stop-opacity:1"/>
  </linearGradient>
  <linearGradient id="oomox" x1="0%" x2="0%" y1="0%" y2="100%">
   <stop offset="0%" style="stop-color:#00aa00; stop-opacity:1"/>
   <stop offset="100%" style="stop-color:#00cc00; stop-opacity:1"/>
  </linearGradient>
  <linearGradient id="rainblue" x1="0%" x2="0%" y1="0%" y2="100%">
   <stop offset="0%" style="stop-color:#00F260; stop-opacity:1"/>
   <stop offset="100%" style="stop-color:#0575E6; stop-opacity:1"/>
  </linearGradient>
  <linearGradient id="sunrise" x1="0%" x2="0%" y1="0%" y2="100%">
   <stop offset="0%" style="stop-color: #FF8501; stop-opacity:1"/>
   <stop offset="100%" style="stop-color: #FFCB01; stop-opacity:1"/>
  </linearGradient>
  <linearGradient id="telinkrin" x1="0%" x2="0%" y1="0%" y2="100%">
   <stop offset="0%" style="stop-color: #b2ced6; stop-opacity:1"/>
   <stop offset="100%" style="stop-color: #6da5b7; stop-opacity:1"/>
  </linearGradient>
  <linearGradient id="60spsycho" x1="0%" x2="0%" y1="0%" y2="100%">
   <stop offset="0%" style="stop-color: #df5940; stop-opacity:1"/>
   <stop offset="25%" style="stop-color: #d8d15f; stop-opacity:1"/>
   <stop offset="50%" style="stop-color: #e9882a; stop-opacity:1"/>
   <stop offset="100%" style="stop-color: #279362; stop-opacity:1"/>
  </linearGradient>
  <linearGradient id="90ssummer" x1="0%" x2="0%" y1="0%" y2="100%">
   <stop offset="0%" style="stop-color: #f618c7; stop-opacity:1"/>
   <stop offset="20%" style="stop-color: #94ffab; stop-opacity:1"/>
   <stop offset="50%" style="stop-color: #fbfd54; stop-opacity:1"/>
   <stop offset="100%" style="stop-color: #0f83ae; stop-opacity:1"/>
  </linearGradient>
 </defs>
 <path fill="url(#oomox)" class="ColorScheme-Text" d="M 3.826 4.174 C 3.549 4.174 3.284 4.284 3.088 4.48 C 2.893 4.675 2.783 4.941 2.783 5.218 C 2.783 5.794 3.25 6.26 3.826 6.26 C 4.402 6.26 4.869 5.794 4.87 5.218 C 4.87 4.941 4.76 4.675 4.564 4.48 C 4.368 4.284 4.103 4.174 3.826 4.174 L 3.826 4.174 Z M 6.609 4.174 C 6.332 4.174 6.067 4.284 5.871 4.48 C 5.675 4.675 5.565 4.941 5.565 5.218 C 5.566 5.794 6.033 6.26 6.609 6.26 C 7.185 6.26 7.652 5.794 7.652 5.218 C 7.653 4.941 7.543 4.675 7.347 4.48 C 7.151 4.284 6.886 4.174 6.609 4.174 L 6.609 4.174 Z M 9.392 4.174 C 9.115 4.174 8.85 4.284 8.654 4.48 C 8.458 4.675 8.348 4.941 8.348 5.218 C 8.349 5.794 8.816 6.26 9.392 6.26 C 9.968 6.26 10.435 5.794 10.435 5.218 C 10.435 4.941 10.325 4.675 10.13 4.48 C 9.934 4.284 9.668 4.174 9.392 4.174 L 9.392 4.174 Z M 12.174 4.174 C 11.897 4.174 11.632 4.284 11.436 4.48 C 11.24 4.675 11.13 4.941 11.13 5.218 C 11.131 5.794 11.598 6.26 12.174 6.26 C 12.75 6.26 13.217 5.794 13.217 5.218 C 13.217 4.941 13.107 4.675 12.912 4.48 C 12.716 4.284 12.451 4.174 12.174 4.174 L 12.174 4.174 Z M 1.044 6.956 C 0.767 6.956 0.501 7.066 0.306 7.262 C 0.11 7.457 0 7.723 0 8 C 0 8.276 0.11 8.542 0.306 8.738 C 0.501 8.933 0.767 9.043 1.044 9.043 C 1.32 9.043 1.586 8.933 1.781 8.738 C 1.977 8.542 2.087 8.276 2.087 8 C 2.087 7.723 1.977 7.457 1.781 7.262 C 1.586 7.066 1.32 6.956 1.044 6.956 L 1.044 6.956 Z M 3.826 6.956 C 3.549 6.956 3.284 7.066 3.088 7.262 C 2.893 7.457 2.783 7.723 2.783 8 C 2.783 8.276 2.893 8.542 3.088 8.738 C 3.284 8.933 3.549 9.043 3.826 9.043 C 4.103 9.043 4.368 8.933 4.564 8.738 C 4.76 8.542 4.87 8.276 4.87 8 C 4.87 7.723 4.76 7.457 4.564 7.262 C 4.368 7.066 4.103 6.956 3.826 6.956 L 3.826 6.956 Z M 6.609 6.956 C 6.332 6.956 6.067 7.066 5.871 7.262 C 5.675 7.457 5.565 7.723 5.565 8 C 5.565 8.276 5.675 8.542 5.871 8.738 C 6.067 8.933 6.332 9.043 6.609 9.043 C 6.886 9.043 7.151 8.933 7.347 8.738 C 7.543 8.542 7.653 8.276 7.652 8 C 7.653 7.723 7.543 7.457 7.347 7.262 C 7.151 7.066 6.886 6.956 6.609 6.956 L 6.609 6.956 Z M 9.392 6.956 C 9.115 6.956 8.85 7.066 8.654 7.262 C 8.458 7.457 8.348 7.723 8.348 8 C 8.348 8.276 8.458 8.542 8.654 8.738 C 8.85 8.933 9.115 9.043 9.392 9.043 C 9.668 9.043 9.934 8.933 10.13 8.738 C 10.325 8.542 10.435 8.276 10.435 8 C 10.435 7.723 10.325 7.457 10.13 7.262 C 9.934 7.066 9.668 6.956 9.392 6.956 L 9.392 6.956 Z M 12.174 6.956 C 11.897 6.956 11.632 7.066 11.436 7.262 C 11.24 7.457 11.13 7.723 11.13 8 C 11.13 8.276 11.24 8.542 11.436 8.738 C 11.632 8.933 11.897 9.043 12.174 9.043 C 12.451 9.043 12.716 8.933 12.912 8.738 C 13.107 8.542 13.217 8.276 13.217 8 C 13.217 7.723 13.107 7.457 12.912 7.262 C 12.716 7.066 12.451 6.956 12.174 6.956 L 12.174 6.956 Z M 14.956 6.956 C 14.68 6.956 14.414 7.066 14.219 7.262 C 14.023 7.457 13.913 7.723 13.913 8 C 13.913 8.276 14.023 8.542 14.219 8.738 C 14.414 8.933 14.68 9.043 14.956 9.043 C 15.233 9.043 15.499 8.933 15.694 8.738 C 15.89 8.542 16 8.276 16 8 C 16 7.723 15.89 7.457 15.694 7.262 C 15.499 7.066 15.233 6.956 14.956 6.956 L 14.956 6.956 Z M 1.044 9.739 C 0.767 9.739 0.501 9.849 0.306 10.044 C 0.11 10.24 0 10.506 0 10.782 C 0 11.059 0.11 11.325 0.306 11.52 C 0.501 11.716 0.767 11.826 1.044 11.826 C 1.32 11.826 1.586 11.716 1.781 11.52 C 1.977 11.325 2.087 11.059 2.087 10.782 C 2.087 10.506 1.977 10.24 1.781 10.044 C 1.586 9.849 1.32 9.739 1.044 9.739 L 1.044 9.739 Z M 3.826 9.739 C 3.549 9.739 3.284 9.849 3.088 10.044 C 2.893 10.24 2.783 10.506 2.783 10.782 C 2.783 11.059 2.893 11.325 3.088 11.52 C 3.284 11.716 3.549 11.826 3.826 11.826 C 4.103 11.826 4.368 11.716 4.564 11.52 C 4.76 11.325 4.87 11.059 4.87 10.782 C 4.87 10.506 4.76 10.24 4.564 10.044 C 4.368 9.849 4.103 9.739 3.826 9.739 L 3.826 9.739 Z M 12.174 9.739 C 11.897 9.739 11.632 9.849 11.436 10.044 C 11.24 10.24 11.13 10.506 11.13 10.782 C 11.13 11.059 11.24 11.325 11.436 11.52 C 11.632 11.716 11.897 11.826 12.174 11.826 C 12.451 11.826 12.716 11.716 12.912 11.52 C 13.107 11.325 13.217 11.059 13.217 10.782 C 13.217 10.506 13.107 10.24 12.912 10.044 C 12.716 9.849 12.451 9.739 12.174 9.739 L 12.174 9.739 Z M 14.956 9.739 C 14.68 9.739 14.414 9.849 14.219 10.044 C 14.023 10.24 13.913 10.506 13.913 10.782 C 13.913 11.059 14.023 11.325 14.219 11.52 C 14.414 11.716 14.68 11.826 14.956 11.826 C 15.233 11.826 15.499 11.716 15.694 11.52 C 15.89 11.325 16 11.059 16 10.782 C 16 10.506 15.89 10.24 15.694 10.044 C 15.499 9.849 15.233 9.739 14.956 9.739 L 14.956 9.739 Z"/>
</svg>
