<svg xmlns="http://www.w3.org/2000/svg" width="16" height="16" version="1.1">
 <defs>
   <style id="current-color-scheme" type="text/css">
   .ColorScheme-Text { color: #00aa00; } .ColorScheme-Highlight { color:#5294e2; }
  </style>
  <linearGradient id="arrongin" x1="0%" x2="0%" y1="0%" y2="100%">
   <stop offset="0%" style="stop-color:#dd9b44; stop-opacity:1"/>
   <stop offset="100%" style="stop-color:#ad6c16; stop-opacity:1"/>
  </linearGradient>
  <linearGradient id="aurora" x1="0%" x2="0%" y1="0%" y2="100%">
   <stop offset="0%" style="stop-color:#09D4DF; stop-opacity:1"/>
   <stop offset="100%" style="stop-color:#9269F4; stop-opacity:1"/>
  </linearGradient>
  <linearGradient id="cyberneon" x1="0%" x2="0%" y1="0%" y2="100%">
    <stop offset="0" style="stop-color:#0abdc6; stop-opacity:1"/>
    <stop offset="1" style="stop-color:#ea00d9; stop-opacity:1"/>
  </linearGradient>
  <linearGradient id="fitdance" x1="0%" x2="0%" y1="0%" y2="100%">
   <stop offset="0%" style="stop-color:#1AD6AB; stop-opacity:1"/>
   <stop offset="100%" style="stop-color:#329DB6; stop-opacity:1"/>
  </linearGradient>
  <linearGradient id="oomox" x1="0%" x2="0%" y1="0%" y2="100%">
   <stop offset="0%" style="stop-color:#00aa00; stop-opacity:1"/>
   <stop offset="100%" style="stop-color:#00cc00; stop-opacity:1"/>
  </linearGradient>
  <linearGradient id="rainblue" x1="0%" x2="0%" y1="0%" y2="100%">
   <stop offset="0%" style="stop-color:#00F260; stop-opacity:1"/>
   <stop offset="100%" style="stop-color:#0575E6; stop-opacity:1"/>
  </linearGradient>
  <linearGradient id="sunrise" x1="0%" x2="0%" y1="0%" y2="100%">
   <stop offset="0%" style="stop-color: #FF8501; stop-opacity:1"/>
   <stop offset="100%" style="stop-color: #FFCB01; stop-opacity:1"/>
  </linearGradient>
  <linearGradient id="telinkrin" x1="0%" x2="0%" y1="0%" y2="100%">
   <stop offset="0%" style="stop-color: #b2ced6; stop-opacity:1"/>
   <stop offset="100%" style="stop-color: #6da5b7; stop-opacity:1"/>
  </linearGradient>
  <linearGradient id="60spsycho" x1="0%" x2="0%" y1="0%" y2="100%">
   <stop offset="0%" style="stop-color: #df5940; stop-opacity:1"/>
   <stop offset="25%" style="stop-color: #d8d15f; stop-opacity:1"/>
   <stop offset="50%" style="stop-color: #e9882a; stop-opacity:1"/>
   <stop offset="100%" style="stop-color: #279362; stop-opacity:1"/>
  </linearGradient>
  <linearGradient id="90ssummer" x1="0%" x2="0%" y1="0%" y2="100%">
   <stop offset="0%" style="stop-color: #f618c7; stop-opacity:1"/>
   <stop offset="20%" style="stop-color: #94ffab; stop-opacity:1"/>
   <stop offset="50%" style="stop-color: #fbfd54; stop-opacity:1"/>
   <stop offset="100%" style="stop-color: #0f83ae; stop-opacity:1"/>
  </linearGradient>
 </defs>
 <path fill="url(#oomox)" class="ColorScheme-Text" fill-rule="evenodd" d="M 3.571 12.418 L 2.333 12.659 L 0.912 7.848 L 0.177 4.067 L 2.352 3.645 L 3.087 7.425 L 3.571 12.418 L 3.571 12.418 L 3.571 12.418 Z M 4.583 15.346 L 4.583 15.346 L 4.583 15.346 Q 4.238 15.847 3.619 15.968 L 3.619 15.968 L 3.619 15.968 Q 3 16.088 2.511 15.758 L 2.511 15.758 L 2.511 15.758 Q 2.021 15.428 1.904 14.826 L 1.904 14.826 L 1.904 14.826 Q 1.787 14.223 2.115 13.725 L 2.115 13.725 L 2.115 13.725 Q 2.444 13.228 3.063 13.107 L 3.063 13.107 L 3.063 13.107 Q 3.682 12.987 4.19 13.322 L 4.19 13.322 L 4.19 13.322 Q 4.698 13.657 4.815 14.26 L 4.815 14.26 L 4.815 14.26 Q 4.929 14.845 4.583 15.346 L 4.583 15.346 L 4.583 15.346 Z M 7.511 8.997 L 6.291 8.679 L 7.089 3.727 L 8.062 0 L 10.205 0.559 L 9.233 4.286 L 7.511 8.997 L 7.511 8.997 L 7.511 8.997 Z M 7.157 12.075 L 7.157 12.075 L 7.157 12.075 Q 6.629 12.378 6.019 12.219 L 6.019 12.219 L 6.019 12.219 Q 5.409 12.06 5.11 11.55 L 5.11 11.55 L 5.11 11.55 Q 4.812 11.041 4.967 10.447 L 4.967 10.447 L 4.967 10.447 Q 5.122 9.853 5.633 9.547 L 5.633 9.547 L 5.633 9.547 Q 6.145 9.24 6.755 9.399 L 6.755 9.399 L 6.755 9.399 Q 7.365 9.558 7.678 10.08 L 7.678 10.08 L 7.678 10.08 Q 7.991 10.602 7.836 11.196 L 7.836 11.196 L 7.836 11.196 Q 7.685 11.773 7.157 12.075 L 7.157 12.075 L 7.157 12.075 Z M 12.035 12.163 L 10.867 11.686 L 12.315 6.883 L 13.772 3.318 L 15.823 4.156 L 14.366 7.721 L 12.035 12.163 L 12.035 12.163 Z M 11.276 15.167 L 11.276 15.167 L 11.276 15.167 Q 10.713 15.397 10.129 15.158 L 10.129 15.158 L 10.129 15.158 Q 9.545 14.92 9.317 14.375 L 9.317 14.375 L 9.317 14.375 Q 9.088 13.831 9.32 13.263 L 9.32 13.263 L 9.32 13.263 Q 9.553 12.695 10.1 12.459 L 10.1 12.459 L 10.1 12.459 Q 10.648 12.222 11.232 12.461 L 11.232 12.461 L 11.232 12.461 Q 11.815 12.699 12.056 13.258 L 12.056 13.258 L 12.056 13.258 Q 12.298 13.817 12.065 14.385 L 12.065 14.385 L 12.065 14.385 Q 11.84 14.937 11.276 15.167 L 11.276 15.167 Z"/>
</svg>
