<svg xmlns="http://www.w3.org/2000/svg" width="16" height="16" version="1.1">
 <defs>
   <style id="current-color-scheme" type="text/css">
   .ColorScheme-Text { color: #00aa00; } .ColorScheme-Highlight { color: #1AD6AB; }
  </style>
  <linearGradient id="arrongin" x1="0%" x2="0%" y1="0%" y2="100%">
   <stop offset="0%" style="stop-color: #dd9b44; stop-opacity: 1"/>
   <stop offset="100%" style="stop-color: #ad6c16; stop-opacity: 1"/>
  </linearGradient>
  <linearGradient id="aurora" x1="0%" x2="0%" y1="0%" y2="100%">
   <stop offset="0%" style="stop-color: #09D4DF; stop-opacity: 1"/>
   <stop offset="100%" style="stop-color: #9269F4; stop-opacity: 1"/>
  </linearGradient>
  <linearGradient id="cyberneon" x1="0%" x2="0%" y1="0%" y2="100%">
    <stop offset="0" style="stop-color: #0abdc6; stop-opacity: 1"/>
    <stop offset="1" style="stop-color: #ea00d9; stop-opacity: 1"/>
  </linearGradient>
  <linearGradient id="fitdance" x1="0%" x2="0%" y1="0%" y2="100%">
   <stop offset="0%" style="stop-color: #1AD6AB; stop-opacity: 1"/>
   <stop offset="100%" style="stop-color: #329DB6; stop-opacity: 1"/>
  </linearGradient>
  <linearGradient id="oomox" x1="0%" x2="0%" y1="0%" y2="100%">
   <stop offset="0%" style="stop-color: #00aa00; stop-opacity: 1"/>
   <stop offset="100%" style="stop-color: #00cc00; stop-opacity: 1"/>
  </linearGradient>
  <linearGradient id="rainblue" x1="0%" x2="0%" y1="0%" y2="100%">
   <stop offset="0%" style="stop-color: #00F260; stop-opacity: 1"/>
   <stop offset="100%" style="stop-color: #0575E6; stop-opacity: 1"/>
  </linearGradient>
  <linearGradient id="sunrise" x1="0%" x2="0%" y1="0%" y2="100%">
   <stop offset="0%" style="stop-color: #FF8501; stop-opacity: 1"/>
   <stop offset="100%" style="stop-color: #FFCB01; stop-opacity: 1"/>
  </linearGradient>
  <linearGradient id="telinkrin" x1="0%" x2="0%" y1="0%" y2="100%">
   <stop offset="0%" style="stop-color: #b2ced6; stop-opacity: 1"/>
   <stop offset="100%" style="stop-color: #6da5b7; stop-opacity: 1"/>
  </linearGradient>
  <linearGradient id="60spsycho" x1="0%" x2="0%" y1="0%" y2="100%">
   <stop offset="0%" style="stop-color: #df5940; stop-opacity: 1"/>
   <stop offset="25%" style="stop-color: #d8d15f; stop-opacity: 1"/>
   <stop offset="50%" style="stop-color: #e9882a; stop-opacity: 1"/>
   <stop offset="100%" style="stop-color: #279362; stop-opacity: 1"/>
  </linearGradient>
  <linearGradient id="90ssummer" x1="0%" x2="0%" y1="0%" y2="100%">
   <stop offset="0%" style="stop-color: #f618c7; stop-opacity: 1"/>
   <stop offset="20%" style="stop-color: #94ffab; stop-opacity: 1"/>
   <stop offset="50%" style="stop-color: #fbfd54; stop-opacity: 1"/>
   <stop offset="100%" style="stop-color: #0f83ae; stop-opacity: 1"/>
  </linearGradient>
 </defs>
 <path fill="url(#oomox)" class="ColorScheme-Text" d="m 12.949747,12.949746 c 2.733498,-2.733497 2.733499,-7.1659949 0,-9.8994932 -2.733498,-2.73349804 -7.1659972,-2.73349814 -9.8994947,-2e-7 -2.73349754,2.7334985 -2.73349845,7.1659984 1.3e-6,9.8994954 2.7334969,2.733498 7.1659964,2.733498 9.8994934,-2e-6 z M 11.535534,11.535534 C 9.82504,13.246027 7.1833864,13.458493 5.2420061,12.172206 L 4.4644679,12.949747 3.7573587,9.4142139 7.2928928,10.121321 6.7156069,10.698606 c 1.1143493,0.530105 2.4832847,0.345143 3.4057131,-0.577285 0.503639,-0.5054163 0.810651,-1.1737916 0.865931,-1.8851577 l 1.997023,-0.5358548 c 0.0875,1.426721 -0.43982,2.8226705 -1.44874,3.8352255 z M 12.242641,6.5857869 8.7071067,5.8786801 9.284393,5.3013931 C 8.170043,4.7712889 6.8011082,4.9562516 5.8786788,5.8786798 5.3750428,6.3840978 5.0680287,7.0524712 5.012748,7.7638384 L 3.0157259,8.2996923 C 2.9282311,6.8729709 3.4555677,5.4770431 4.464466,4.4644665 6.174959,2.753972 8.8166132,2.5415084 10.757992,3.8277934 l 0.777541,-0.7775404 0.707108,3.5355339 z"/>
</svg>
