<?xml version="1.0" encoding="UTF-8" standalone="no"?>
<!-- Created with Inkscape (http://www.inkscape.org/) -->

<svg
   xmlns:dc="http://purl.org/dc/elements/1.1/"
   xmlns:cc="http://creativecommons.org/ns#"
   xmlns:rdf="http://www.w3.org/1999/02/22-rdf-syntax-ns#"
   xmlns:svg="http://www.w3.org/2000/svg"
   xmlns="http://www.w3.org/2000/svg"
   xmlns:xlink="http://www.w3.org/1999/xlink"
   xmlns:sodipodi="http://sodipodi.sourceforge.net/DTD/sodipodi-0.dtd"
   xmlns:inkscape="http://www.inkscape.org/namespaces/inkscape"
   width="16px"
   height="16px"
   id="svg33222"
   version="1.1"
   inkscape:version="0.92.2 2405546, 2018-03-11"
   sodipodi:docname="menu-border-dark.svg">
  <defs
     id="defs33224">
    <linearGradient
       id="linearGradient969"
       inkscape:collect="always">
      <stop
         id="stop965"
         offset="0"
         style="stop-color:#ffffff;stop-opacity:1;" />
      <stop
         id="stop967"
         offset="1"
         style="stop-color:#000000;stop-opacity:1" />
    </linearGradient>
    <linearGradient
       id="linearGradient961"
       inkscape:collect="always">
      <stop
         id="stop957"
         offset="0"
         style="stop-color:#ffffff;stop-opacity:1;" />
      <stop
         id="stop959"
         offset="1"
         style="stop-color:#000000;stop-opacity:1" />
    </linearGradient>
    <linearGradient
       id="linearGradient955"
       inkscape:collect="always">
      <stop
         id="stop951"
         offset="0"
         style="stop-color:#ffffff;stop-opacity:1;" />
      <stop
         id="stop953"
         offset="1"
         style="stop-color:#000000;stop-opacity:1" />
    </linearGradient>
    <linearGradient
       inkscape:collect="always"
       id="linearGradient3769">
      <stop
         style="stop-color:#ffffff;stop-opacity:1;"
         offset="0"
         id="stop3771" />
      <stop
         style="stop-color:#000000;stop-opacity:1"
         offset="1"
         id="stop3773" />
    </linearGradient>
    <radialGradient
       inkscape:collect="always"
       xlink:href="#linearGradient955"
       id="radialGradient3775"
       cx="8"
       cy="2.8421709e-14"
       fx="8"
       fy="2.8421709e-14"
       r="8"
       gradientTransform="matrix(1.1340127,0,0,0.125,-1.1490932,0)"
       gradientUnits="userSpaceOnUse" />
    <radialGradient
       inkscape:collect="always"
       xlink:href="#linearGradient3769"
       id="radialGradient3775-3"
       cx="8"
       cy="0"
       fx="8"
       fy="0"
       r="8"
       gradientTransform="matrix(1.1279407,0,0,0.125,-1.132135,16)"
       gradientUnits="userSpaceOnUse" />
    <radialGradient
       inkscape:collect="always"
       xlink:href="#linearGradient969"
       id="radialGradient3775-35"
       cx="8"
       cy="0"
       fx="8"
       fy="0"
       r="8"
       gradientTransform="matrix(1.1252566,0,0,0.125,-1.0041042,0.13213522)"
       gradientUnits="userSpaceOnUse" />
    <radialGradient
       inkscape:collect="always"
       xlink:href="#linearGradient961"
       id="radialGradient3775-1"
       cx="8"
       cy="0"
       fx="8"
       fy="0"
       r="8"
       gradientTransform="matrix(1.1220811,0,0,0.125,-16.964709,16.009067)"
       gradientUnits="userSpaceOnUse" />
  </defs>
  <sodipodi:namedview
     id="base"
     pagecolor="#ffffff"
     bordercolor="#666666"
     borderopacity="1.0"
     inkscape:pageopacity="0.0"
     inkscape:pageshadow="2"
     inkscape:zoom="31.357231"
     inkscape:cx="6.6214311"
     inkscape:cy="5.1010972"
     inkscape:current-layer="layer1"
     showgrid="true"
     inkscape:grid-bbox="true"
     inkscape:document-units="px"
     inkscape:window-width="1898"
     inkscape:window-height="1031"
     inkscape:window-x="0"
     inkscape:window-y="0"
     inkscape:window-maximized="1"
     inkscape:snap-bbox="true"
     inkscape:bbox-paths="true" />
  <metadata
     id="metadata33227">
    <rdf:RDF>
      <cc:Work
         rdf:about="">
        <dc:format>image/svg+xml</dc:format>
        <dc:type
           rdf:resource="http://purl.org/dc/dcmitype/StillImage" />
        <dc:title></dc:title>
      </cc:Work>
    </rdf:RDF>
  </metadata>
  <g
     id="layer1"
     inkscape:label="Layer 1"
     inkscape:groupmode="layer">
    <rect
       style="fill:url(#radialGradient3775);fill-opacity:1;fill-rule:nonzero;stroke:none;stroke-width:1.34700418"
       id="rect3767"
       width="18.144207"
       height="2"
       x="-1.1490933"
       y="-1" />
    <rect
       style="fill:url(#radialGradient3775-3);fill-opacity:1;fill-rule:nonzero;stroke:none;stroke-width:1.34339321"
       id="rect3767-5"
       width="18.047052"
       height="2"
       x="-1.1321352"
       y="15" />
    <rect
       style="fill:url(#radialGradient3775-35);fill-opacity:1;fill-rule:nonzero;stroke:none;stroke-width:1.34179378"
       id="rect3767-9"
       width="18.004105"
       height="2"
       x="-1.0041044"
       y="-0.86786479"
       transform="rotate(90)" />
    <rect
       style="fill:url(#radialGradient3775-1);fill-opacity:1;fill-rule:nonzero;stroke:none;stroke-width:1.33989918"
       id="rect3767-0"
       width="17.953299"
       height="2"
       x="-16.96471"
       y="15.009068"
       transform="rotate(-90)" />
  </g>
</svg>
