<?xml version="1.0" encoding="UTF-8" standalone="no"?>
<svg
   xmlns:dc="http://purl.org/dc/elements/1.1/"
   xmlns:cc="http://creativecommons.org/ns#"
   xmlns:rdf="http://www.w3.org/1999/02/22-rdf-syntax-ns#"
   xmlns:svg="http://www.w3.org/2000/svg"
   xmlns="http://www.w3.org/2000/svg"
   xmlns:xlink="http://www.w3.org/1999/xlink"
   xmlns:sodipodi="http://sodipodi.sourceforge.net/DTD/sodipodi-0.dtd"
   xmlns:inkscape="http://www.inkscape.org/namespaces/inkscape"
   width="16"
   height="16"
   id="svg814"
   version="1.1"
   sodipodi:docname="radio-selected-dark.svg"
   inkscape:version="0.92.2 2405546, 2018-03-11">
  <sodipodi:namedview
     pagecolor="#262c2e"
     bordercolor="#666666"
     borderopacity="1"
     objecttolerance="10"
     gridtolerance="10"
     guidetolerance="10"
     inkscape:pageopacity="0"
     inkscape:pageshadow="2"
     inkscape:window-width="1920"
     inkscape:window-height="1043"
     id="namedview19"
     showgrid="false"
     inkscape:zoom="20.85965"
     inkscape:cx="-10.597067"
     inkscape:cy="5.9182503"
     inkscape:window-x="0"
     inkscape:window-y="0"
     inkscape:window-maximized="1"
     inkscape:current-layer="g6305" />
  <defs
     id="defs816">
    <linearGradient
       id="linearGradient3771">
      <stop
         id="stop3773"
         offset="0"
         style="stop-color:#ffffff;stop-opacity:0;" />
      <stop
         style="stop-color:#ffffff;stop-opacity:0;"
         offset="0.75337994"
         id="stop3775" />
      <stop
         id="stop3777"
         offset="1"
         style="stop-color:#ffffff;stop-opacity:1;" />
    </linearGradient>
    <linearGradient
       id="linearGradient3759">
      <stop
         style="stop-color:#ffffff;stop-opacity:1;"
         offset="0"
         id="stop3761" />
      <stop
         style="stop-color:#ffffff;stop-opacity:0;"
         offset="1"
         id="stop3763" />
    </linearGradient>
    <radialGradient
       xlink:href="#linearGradient3771"
       id="radialGradient3793"
       cx="8"
       cy="8"
       fx="8"
       fy="8"
       r="7.5"
       gradientUnits="userSpaceOnUse"
       gradientTransform="translate(1031.0339,265.99999)" />
    <linearGradient
       xlink:href="#linearGradient3759"
       id="linearGradient3797"
       x1="8"
       y1="15.5"
       x2="8.0532808"
       y2="11.016252"
       gradientUnits="userSpaceOnUse" />
  </defs>
  <metadata
     id="metadata819">
    <rdf:RDF>
      <cc:Work
         rdf:about="">
        <dc:format>image/svg+xml</dc:format>
        <dc:type
           rdf:resource="http://purl.org/dc/dcmitype/StillImage" />
        <dc:title></dc:title>
      </cc:Work>
    </rdf:RDF>
  </metadata>
  <g
     style="display:inline;enable-background:new"
     id="g6305"
     transform="translate(-1031,-265.99999)">
    <path
       d="m 1046.5339,273.99999 a 7.4999998,7.4999954 0 0 1 -7.5,7.5 7.4999998,7.4999954 0 0 1 -7.5,-7.5 7.4999998,7.4999954 0 0 1 7.5,-7.5 7.4999998,7.4999954 0 0 1 7.5,7.5 z"
       id="path6307"
       style="color:#000000;display:inline;overflow:visible;visibility:visible;fill:#003c00;fill-opacity:1;fill-rule:nonzero;stroke:none;stroke-width:1.07142854;marker:none;enable-background:accumulate"
       inkscape:connector-curvature="0" />
    <path
       id="path3784"
       d="m 1039.0339,266.49999 c -4.1421,0 -7.5,3.35787 -7.5,7.5 0,4.14213 3.3579,7.5 7.5,7.5 4.1421,0 7.5,-3.35787 7.5,-7.5 0,-4.14213 -3.3579,-7.5 -7.5,-7.5 z m 0,2.5 c 2.7614,0 5,2.23858 5,5 0,2.76142 -2.2386,5 -5,5 -2.7614,0 -5,-2.23858 -5,-5 0,-2.76142 2.2386,-5 5,-5 z"
       style="color:#000000;display:inline;overflow:visible;visibility:visible;opacity:0.25;fill:url(#radialGradient3793);fill-opacity:1;fill-rule:nonzero;stroke:none;stroke-width:0.81914562;marker:none;enable-background:accumulate"
       inkscape:connector-curvature="0" />
    <path
       style="color:#000000;display:inline;overflow:visible;visibility:visible;opacity:0.2;fill:none;fill-opacity:1;fill-rule:nonzero;stroke:none;stroke-width:0.81914562;marker:none;enable-background:accumulate"
       d="m 1039.0339,266.49999 c -4.1421,0 -7.5,3.35787 -7.5,7.5 0,4.14213 3.3579,7.5 7.5,7.5 4.1421,0 7.5,-3.35787 7.5,-7.5 0,-4.14213 -3.3579,-7.5 -7.5,-7.5 z m 0,2.5 c 2.7614,0 5,2.23858 5,5 0,2.76142 -2.2386,5 -5,5 -2.7614,0 -5,-2.23858 -5,-5 0,-2.76142 2.2386,-5 5,-5 z"
       id="path3795"
       inkscape:connector-curvature="0" />
    <image
       width="16"
       height="16"
       xlink:href="data:image/png;base64,iVBORw0KGgoAAAANSUhEUgAAABAAAAAQCAYAAAAf8/9hAAAABHNCSVQICAgIfAhkiAAAAcBJREFU OI3Fk81rE1EUxX9vPl5eosROTDW0tn5htSsRlXYjoriv/jNi3bvyL1ADFhWEWJe2bsVOXSlaJYhd WI0lpY2FjGQ6TebDhW9gGoooLnxwN+/de+45594H//uIv3hL/hTAAEwdhs6JMhH/jpEJ5O9V7069 XHjxsdH4Gn5bbUSzT2vLN25evwbkdc6Ogmzn3MxM9fLkxEStudasVO/fEbUnj0WpVNp/7uz5q8PD Q69dd/GLZpGkRVmwwrGjY9OWaeccZyApFos4zgCdTofvmy05Pn5qGihkG1sZL0yg8O7DmzPh2wTL NDlQqoiLFy6hcpLtboBtq9PAHqADhEBiZRgYgFx0X9Fa3xDEgvJgmUOjIwxVTpJTltgOAgCZZZ4F AGBttbnUC3qT0lasrHxm7vkzfN/n+JETGJaxRN84Uy2pBJVEcfvwyOgVhLB7YTfZCgLye5WQlu0/ ePjoVr1e/6QlRP1TADDanudFUbKslDwobdtReRV63o/3C657e35u3gU2gS09iR2LZGh9+4BBoKwd F7pjC9gA2kB3N4AsSEG7LfV9V4P4QC+lvxtACmJog1O3Y36NLaZvlf/5M/0EvyySP4xMMIkAAAAA SUVORK5CYII= "
       id="image3078"
       x="1031.0741"
       y="266.06024"
       style="fill:#ffcc00" />
  </g>
</svg>
