<svg xmlns="http://www.w3.org/2000/svg" width="16" height="16" version="1.1">
 <defs>
   <style id="current-color-scheme" type="text/css">
   .ColorScheme-Text { color: #00aa00; } .ColorScheme-Highlight { color: #1AD6AB; }
  </style>
  <linearGradient id="arrongin" x1="0%" x2="0%" y1="0%" y2="100%">
   <stop offset="0%" style="stop-color: #dd9b44; stop-opacity: 1"/>
   <stop offset="100%" style="stop-color: #ad6c16; stop-opacity: 1"/>
  </linearGradient>
  <linearGradient id="aurora" x1="0%" x2="0%" y1="0%" y2="100%">
   <stop offset="0%" style="stop-color: #09D4DF; stop-opacity: 1"/>
   <stop offset="100%" style="stop-color: #9269F4; stop-opacity: 1"/>
  </linearGradient>
  <linearGradient id="cyberneon" x1="0%" x2="0%" y1="0%" y2="100%">
    <stop offset="0" style="stop-color: #0abdc6; stop-opacity: 1"/>
    <stop offset="1" style="stop-color: #ea00d9; stop-opacity: 1"/>
  </linearGradient>
  <linearGradient id="fitdance" x1="0%" x2="0%" y1="0%" y2="100%">
   <stop offset="0%" style="stop-color: #1AD6AB; stop-opacity: 1"/>
   <stop offset="100%" style="stop-color: #329DB6; stop-opacity: 1"/>
  </linearGradient>
  <linearGradient id="oomox" x1="0%" x2="0%" y1="0%" y2="100%">
   <stop offset="0%" style="stop-color: #00aa00; stop-opacity: 1"/>
   <stop offset="100%" style="stop-color: #00cc00; stop-opacity: 1"/>
  </linearGradient>
  <linearGradient id="rainblue" x1="0%" x2="0%" y1="0%" y2="100%">
   <stop offset="0%" style="stop-color: #00F260; stop-opacity: 1"/>
   <stop offset="100%" style="stop-color: #0575E6; stop-opacity: 1"/>
  </linearGradient>
  <linearGradient id="sunrise" x1="0%" x2="0%" y1="0%" y2="100%">
   <stop offset="0%" style="stop-color: #FF8501; stop-opacity: 1"/>
   <stop offset="100%" style="stop-color: #FFCB01; stop-opacity: 1"/>
  </linearGradient>
  <linearGradient id="telinkrin" x1="0%" x2="0%" y1="0%" y2="100%">
   <stop offset="0%" style="stop-color: #b2ced6; stop-opacity: 1"/>
   <stop offset="100%" style="stop-color: #6da5b7; stop-opacity: 1"/>
  </linearGradient>
  <linearGradient id="60spsycho" x1="0%" x2="0%" y1="0%" y2="100%">
   <stop offset="0%" style="stop-color: #df5940; stop-opacity: 1"/>
   <stop offset="25%" style="stop-color: #d8d15f; stop-opacity: 1"/>
   <stop offset="50%" style="stop-color: #e9882a; stop-opacity: 1"/>
   <stop offset="100%" style="stop-color: #279362; stop-opacity: 1"/>
  </linearGradient>
  <linearGradient id="90ssummer" x1="0%" x2="0%" y1="0%" y2="100%">
   <stop offset="0%" style="stop-color: #f618c7; stop-opacity: 1"/>
   <stop offset="20%" style="stop-color: #94ffab; stop-opacity: 1"/>
   <stop offset="50%" style="stop-color: #fbfd54; stop-opacity: 1"/>
   <stop offset="100%" style="stop-color: #0f83ae; stop-opacity: 1"/>
  </linearGradient>
 </defs>
  <path fill="currentColor" fill-rule="evenodd" class="ColorScheme-Text" d="M 7.926 3.279 C 7.233 3.767 6.448 4.319 6.027 5.233 C 5.296 6.828 7.522 8.568 7.617 8.641 C 7.64 8.658 7.666 8.667 7.692 8.667 C 7.72 8.667 7.749 8.657 7.771 8.638 C 7.815 8.601 7.828 8.538 7.801 8.487 C 7.793 8.471 6.994 6.919 7.024 5.805 C 7.035 5.417 7.577 4.977 8.152 4.511 C 8.678 4.084 9.275 3.6 9.624 3.034 C 10.39 1.789 9.538 0.564 9.53 0.552 C 9.496 0.504 9.433 0.487 9.38 0.51 C 9.327 0.534 9.297 0.592 9.309 0.649 C 9.311 0.657 9.477 1.467 9.016 2.301 C 8.826 2.646 8.409 2.94 7.926 3.279 L 7.926 3.279 L 7.926 3.279 L 7.926 3.279 L 7.926 3.279 L 7.926 3.279 L 7.926 3.279 L 7.926 3.279 Z M 10.845 3.829 C 10.894 3.792 10.908 3.725 10.879 3.671 C 10.849 3.617 10.785 3.594 10.727 3.616 C 10.61 3.66 7.845 4.726 7.845 6.014 C 7.845 6.902 8.224 7.371 8.501 7.714 C 8.61 7.848 8.703 7.964 8.734 8.063 C 8.821 8.349 8.615 8.865 8.528 9.039 C 8.504 9.09 8.516 9.15 8.558 9.187 C 8.581 9.207 8.61 9.217 8.639 9.217 C 8.663 9.217 8.688 9.21 8.709 9.195 C 8.756 9.162 9.87 8.374 9.671 7.424 C 9.596 7.064 9.419 6.8 9.263 6.567 C 9.02 6.207 8.845 5.946 9.111 5.465 C 9.422 4.904 10.831 3.839 10.845 3.829 L 10.845 3.829 L 10.845 3.829 L 10.845 3.829 L 10.845 3.829 L 10.845 3.829 L 10.845 3.829 L 10.845 3.829 Z M 3.649 9.237 C 3.601 9.379 3.624 9.52 3.713 9.645 C 4.013 10.061 5.074 10.29 6.702 10.29 C 6.703 10.29 6.703 10.29 6.703 10.29 C 6.923 10.29 7.156 10.286 7.395 10.277 C 9.998 10.184 10.963 9.373 11.003 9.338 C 11.046 9.301 11.058 9.238 11.031 9.188 C 11.004 9.137 10.946 9.112 10.89 9.127 C 9.973 9.377 8.262 9.466 7.074 9.466 C 5.746 9.466 5.069 9.37 4.903 9.3 C 4.988 9.183 5.513 8.974 6.162 8.847 C 6.224 8.834 6.267 8.777 6.261 8.714 C 6.255 8.651 6.202 8.603 6.139 8.603 C 5.758 8.603 3.848 8.634 3.649 9.237 L 3.649 9.237 L 3.649 9.237 L 3.649 9.237 L 3.649 9.237 L 3.649 9.237 L 3.649 9.237 Z M 12.358 8.402 C 11.821 8.402 11.312 8.671 11.291 8.682 C 11.241 8.709 11.216 8.766 11.23 8.821 C 11.243 8.875 11.292 8.914 11.349 8.914 C 11.36 8.914 12.494 8.923 12.597 9.571 C 12.688 10.13 11.524 11.036 11.068 11.338 C 11.019 11.371 10.999 11.434 11.022 11.488 C 11.042 11.534 11.087 11.563 11.136 11.563 C 11.144 11.563 11.153 11.562 11.161 11.561 C 11.269 11.538 13.809 10.978 13.54 9.499 C 13.377 8.592 12.807 8.402 12.358 8.402 L 12.358 8.402 L 12.358 8.402 L 12.358 8.402 L 12.358 8.402 L 12.358 8.402 Z M 10.617 11.157 C 10.626 11.11 10.606 11.061 10.566 11.034 L 9.958 10.607 C 9.928 10.586 9.89 10.58 9.855 10.589 C 9.849 10.591 9.212 10.758 8.288 10.861 C 7.921 10.902 7.51 10.924 7.099 10.924 C 6.175 10.924 5.571 10.815 5.483 10.735 C 5.471 10.713 5.475 10.703 5.477 10.697 C 5.493 10.653 5.579 10.6 5.634 10.579 C 5.695 10.556 5.728 10.49 5.709 10.428 C 5.69 10.365 5.626 10.329 5.562 10.344 C 4.952 10.491 4.653 10.698 4.675 10.957 C 4.713 11.416 5.777 11.652 6.677 11.715 C 6.806 11.723 6.946 11.728 7.093 11.728 C 7.093 11.728 7.093 11.728 7.093 11.728 C 8.589 11.728 10.506 11.258 10.525 11.254 C 10.572 11.242 10.608 11.204 10.617 11.157 L 10.617 11.157 L 10.617 11.157 L 10.617 11.157 L 10.617 11.157 Z M 6.026 12.143 C 6.072 12.113 6.093 12.056 6.076 12.004 C 6.06 11.951 6.011 11.917 5.956 11.917 C 5.874 11.919 5.155 11.952 5.104 12.41 C 5.089 12.547 5.128 12.672 5.221 12.782 C 5.479 13.088 6.176 13.27 7.351 13.338 C 7.49 13.346 7.632 13.35 7.771 13.35 C 9.265 13.35 10.271 12.882 10.314 12.862 C 10.354 12.843 10.381 12.803 10.384 12.758 C 10.386 12.713 10.364 12.67 10.325 12.646 L 9.556 12.176 C 9.529 12.16 9.497 12.155 9.466 12.161 C 9.462 12.162 8.973 12.263 8.236 12.363 C 8.096 12.382 7.921 12.392 7.716 12.392 C 6.98 12.392 6.161 12.272 6.003 12.193 C 6.001 12.178 6.004 12.159 6.026 12.143 L 6.026 12.143 L 6.026 12.143 L 6.026 12.143 Z M 7.075 14.763 C 10.497 14.76 12.334 14.151 12.688 13.768 C 12.813 13.633 12.827 13.505 12.816 13.421 C 12.79 13.214 12.602 13.088 12.58 13.074 C 12.529 13.041 12.46 13.05 12.42 13.096 C 12.38 13.143 12.379 13.21 12.419 13.256 C 12.441 13.284 12.453 13.331 12.39 13.394 C 12.249 13.526 10.822 13.927 8.447 14.048 C 8.121 14.065 7.78 14.073 7.432 14.073 C 5.305 14.073 3.749 13.782 3.544 13.612 C 3.623 13.499 4.174 13.318 4.759 13.216 C 4.825 13.204 4.87 13.142 4.86 13.076 C 4.849 13.009 4.788 12.964 4.722 12.973 C 4.705 12.975 4.649 12.978 4.584 12.982 C 3.618 13.041 2.502 13.173 2.443 13.671 C 2.426 13.822 2.471 13.96 2.577 14.08 C 2.838 14.373 3.588 14.763 7.075 14.763 C 7.075 14.763 7.075 14.763 7.075 14.763 L 7.075 14.763 L 7.075 14.763 Z M 13.36 13.876 C 13.312 13.854 13.254 13.865 13.218 13.904 C 13.213 13.91 12.699 14.448 11.152 14.764 C 10.559 14.883 9.448 14.943 7.847 14.943 C 6.244 14.943 4.718 14.88 4.703 14.879 C 4.639 14.876 4.585 14.922 4.576 14.985 C 4.568 15.048 4.608 15.107 4.67 15.122 C 4.685 15.125 6.284 15.5 8.47 15.5 C 9.519 15.5 10.539 15.415 11.503 15.247 C 13.3 14.932 13.426 14.04 13.43 14.002 C 13.437 13.95 13.408 13.899 13.36 13.876 L 13.36 13.876 Z"/>
</svg>
