<svg xmlns="http://www.w3.org/2000/svg" width="16" height="16" version="1.1">
 <defs>
   <style id="current-color-scheme" type="text/css">
   .ColorScheme-Text { color: #cc00cc; } .ColorScheme-Highlight { color:#5294e2; }
  </style>
  <linearGradient id="arrongin" x1="0%" x2="0%" y1="0%" y2="100%">
   <stop offset="0%" style="stop-color:#dd9b44; stop-opacity:1"/>
   <stop offset="100%" style="stop-color:#ad6c16; stop-opacity:1"/>
  </linearGradient>
  <linearGradient id="aurora" x1="0%" x2="0%" y1="0%" y2="100%">
   <stop offset="0%" style="stop-color:#09D4DF; stop-opacity:1"/>
   <stop offset="100%" style="stop-color:#9269F4; stop-opacity:1"/>
  </linearGradient>
  <linearGradient id="cyberneon" x1="0%" x2="0%" y1="0%" y2="100%">
    <stop offset="0" style="stop-color:#0abdc6; stop-opacity:1"/>
    <stop offset="1" style="stop-color:#ea00d9; stop-opacity:1"/>
  </linearGradient>
  <linearGradient id="fitdance" x1="0%" x2="0%" y1="0%" y2="100%">
   <stop offset="0%" style="stop-color:#1AD6AB; stop-opacity:1"/>
   <stop offset="100%" style="stop-color:#329DB6; stop-opacity:1"/>
  </linearGradient>
  <linearGradient id="oomox" x1="0%" x2="0%" y1="0%" y2="100%">
   <stop offset="0%" style="stop-color:#efefe7; stop-opacity:1"/>
   <stop offset="100%" style="stop-color:#8f8f8b; stop-opacity:1"/>
  </linearGradient>
  <linearGradient id="rainblue" x1="0%" x2="0%" y1="0%" y2="100%">
   <stop offset="0%" style="stop-color:#00F260; stop-opacity:1"/>
   <stop offset="100%" style="stop-color:#0575E6; stop-opacity:1"/>
  </linearGradient>
  <linearGradient id="sunrise" x1="0%" x2="0%" y1="0%" y2="100%">
   <stop offset="0%" style="stop-color: #FF8501; stop-opacity:1"/>
   <stop offset="100%" style="stop-color: #FFCB01; stop-opacity:1"/>
  </linearGradient>
  <linearGradient id="telinkrin" x1="0%" x2="0%" y1="0%" y2="100%">
   <stop offset="0%" style="stop-color: #b2ced6; stop-opacity:1"/>
   <stop offset="100%" style="stop-color: #6da5b7; stop-opacity:1"/>
  </linearGradient>
  <linearGradient id="60spsycho" x1="0%" x2="0%" y1="0%" y2="100%">
   <stop offset="0%" style="stop-color: #df5940; stop-opacity:1"/>
   <stop offset="25%" style="stop-color: #d8d15f; stop-opacity:1"/>
   <stop offset="50%" style="stop-color: #e9882a; stop-opacity:1"/>
   <stop offset="100%" style="stop-color: #279362; stop-opacity:1"/>
  </linearGradient>
  <linearGradient id="90ssummer" x1="0%" x2="0%" y1="0%" y2="100%">
   <stop offset="0%" style="stop-color: #f618c7; stop-opacity:1"/>
   <stop offset="20%" style="stop-color: #94ffab; stop-opacity:1"/>
   <stop offset="50%" style="stop-color: #fbfd54; stop-opacity:1"/>
   <stop offset="100%" style="stop-color: #0f83ae; stop-opacity:1"/>
  </linearGradient>
 </defs>
 <path fill="currentColor" class="ColorScheme-Text" opacity="0.2" d="m 8,-1.2e-7 c 0,0 -0.7994875,0 -0.7994875,0.79948752 C 7.2005125,1.5999999 6.4,1.5999999 6.4,1.5999999 c 0,0 -0.8005125,0.00103 -0.8005125,-0.8005125 V 11.999488 H 10.400513 V 0.7994874 C 10.400513,1.5999999 9.6,1.5999999 9.6,1.5999999 c 0,0 -0.8005125,0 -0.8005125,-0.8005125 C 8.7994875,-1.2e-7 8,-1.2e-7 8,-1.2e-7 Z"/>
 <path fill="currentColor" class="ColorScheme-Text" opacity="0.5" d="m 6.4,3.1999999 c 0,0 -0.8005125,-0.00102 -0.8005125,0.7994875 V 8.7994875 H 10.400513 V 3.9994874 C 10.400513,3.1999999 9.6,3.1999999 9.6,3.1999999 c 0,0 -0.8005125,0 -0.8005125,0.7994875 C 8.7994875,4.8 8,4.8 8,4.8 8,4.8 7.2005125,4.8 7.2005125,3.9994874 7.2005125,3.1999999 6.4,3.1999999 6.4,3.1999999 Z"/>
 <path fill="currentColor" class="ColorScheme-Text" opacity="1.0" d="M 2.4005124,9.6 8,16 13.599488,9.6 10.400513,9.601025 V 7.1994875 C 10.400513,8 9.6,8 9.6,8 9.6,8 8.7994875,8 8.7994875,7.1994875 8.7994875,6.4 8,6.4 8,6.4 8,6.4 7.2005125,6.4 7.2005125,7.1994875 7.2005125,8 6.4,8 6.4,8 6.4,8 5.5994875,8 5.5994875,7.1994875 V 9.6 Z"/>
</svg>
