<svg xmlns="http://www.w3.org/2000/svg" width="16" height="16" version="1.1">
 <defs>
   <style id="current-color-scheme" type="text/css">
   .ColorScheme-Text { color: #cc00cc; } .ColorScheme-Highlight { color:#5294e2; }
  </style>
  <linearGradient id="arrongin" x1="0%" x2="0%" y1="0%" y2="100%">
   <stop offset="0%" style="stop-color:#dd9b44; stop-opacity:1"/>
   <stop offset="100%" style="stop-color:#ad6c16; stop-opacity:1"/>
  </linearGradient>
  <linearGradient id="aurora" x1="0%" x2="0%" y1="0%" y2="100%">
   <stop offset="0%" style="stop-color:#09D4DF; stop-opacity:1"/>
   <stop offset="100%" style="stop-color:#9269F4; stop-opacity:1"/>
  </linearGradient>
  <linearGradient id="cyberneon" x1="0%" x2="0%" y1="0%" y2="100%">
    <stop offset="0" style="stop-color:#0abdc6; stop-opacity:1"/>
    <stop offset="1" style="stop-color:#ea00d9; stop-opacity:1"/>
  </linearGradient>
  <linearGradient id="fitdance" x1="0%" x2="0%" y1="0%" y2="100%">
   <stop offset="0%" style="stop-color:#1AD6AB; stop-opacity:1"/>
   <stop offset="100%" style="stop-color:#329DB6; stop-opacity:1"/>
  </linearGradient>
  <linearGradient id="oomox" x1="0%" x2="0%" y1="0%" y2="100%">
   <stop offset="0%" style="stop-color:#efefe7; stop-opacity:1"/>
   <stop offset="100%" style="stop-color:#8f8f8b; stop-opacity:1"/>
  </linearGradient>
  <linearGradient id="rainblue" x1="0%" x2="0%" y1="0%" y2="100%">
   <stop offset="0%" style="stop-color:#00F260; stop-opacity:1"/>
   <stop offset="100%" style="stop-color:#0575E6; stop-opacity:1"/>
  </linearGradient>
  <linearGradient id="sunrise" x1="0%" x2="0%" y1="0%" y2="100%">
   <stop offset="0%" style="stop-color: #FF8501; stop-opacity:1"/>
   <stop offset="100%" style="stop-color: #FFCB01; stop-opacity:1"/>
  </linearGradient>
  <linearGradient id="telinkrin" x1="0%" x2="0%" y1="0%" y2="100%">
   <stop offset="0%" style="stop-color: #b2ced6; stop-opacity:1"/>
   <stop offset="100%" style="stop-color: #6da5b7; stop-opacity:1"/>
  </linearGradient>
  <linearGradient id="60spsycho" x1="0%" x2="0%" y1="0%" y2="100%">
   <stop offset="0%" style="stop-color: #df5940; stop-opacity:1"/>
   <stop offset="25%" style="stop-color: #d8d15f; stop-opacity:1"/>
   <stop offset="50%" style="stop-color: #e9882a; stop-opacity:1"/>
   <stop offset="100%" style="stop-color: #279362; stop-opacity:1"/>
  </linearGradient>
  <linearGradient id="90ssummer" x1="0%" x2="0%" y1="0%" y2="100%">
   <stop offset="0%" style="stop-color: #f618c7; stop-opacity:1"/>
   <stop offset="20%" style="stop-color: #94ffab; stop-opacity:1"/>
   <stop offset="50%" style="stop-color: #fbfd54; stop-opacity:1"/>
   <stop offset="100%" style="stop-color: #0f83ae; stop-opacity:1"/>
  </linearGradient>
 </defs>
 <path fill="currentColor" class="ColorScheme-Text" fill-rule="evenodd" d="M 7.298 7.881 L 7.298 16 L 8.702 16 L 8.702 7.881 C 9.321 7.61 9.754 6.992 9.754 6.273 C 9.754 5.305 8.968 4.519 8 4.519 C 7.032 4.519 6.246 5.305 6.246 6.273 C 6.246 6.992 6.679 7.61 7.298 7.881 Z M 11.487 0 L 10.858 1.258 C 12.759 2.207 13.961 4.148 13.963 6.273 C 13.962 8.398 12.761 10.341 10.86 11.291 L 11.485 12.54 C 13.86 11.354 15.363 8.928 15.366 6.273 C 15.365 3.616 13.864 1.188 11.487 0 L 11.487 0 L 11.487 0 Z M 4.515 0.005 C 2.14 1.192 0.637 3.618 0.634 6.273 C 0.635 8.93 2.136 11.358 4.513 12.546 L 5.142 11.288 C 3.241 10.339 2.039 8.398 2.037 6.273 C 2.038 4.148 3.239 2.205 5.14 1.255 L 4.515 0.005 L 4.515 0.005 Z M 10.232 2.509 L 9.605 3.765 C 10.555 4.24 11.156 5.211 11.157 6.273 C 11.157 7.335 10.556 8.307 9.606 8.782 L 10.231 10.033 C 11.656 9.321 12.558 7.866 12.56 6.273 C 12.56 4.679 11.658 3.221 10.232 2.509 L 10.232 2.509 L 10.232 2.509 Z M 5.769 2.513 C 4.344 3.225 3.442 4.68 3.44 6.273 C 3.44 7.867 4.342 9.324 5.768 10.037 L 6.395 8.781 C 5.445 8.306 4.844 7.335 4.843 6.273 C 4.843 5.21 5.444 4.239 6.394 3.764 L 5.769 2.513 L 5.769 2.513 Z"/>
</svg>
