<svg xmlns="http://www.w3.org/2000/svg" width="16" height="16" version="1.1">
 <defs>
   <style id="current-color-scheme" type="text/css">
   .ColorScheme-Text { color: #cc00cc; } .ColorScheme-Highlight { color:#5294e2; }
  </style>
  <linearGradient id="arrongin" x1="0%" x2="0%" y1="0%" y2="100%">
   <stop offset="0%" style="stop-color:#dd9b44; stop-opacity:1"/>
   <stop offset="100%" style="stop-color:#ad6c16; stop-opacity:1"/>
  </linearGradient>
  <linearGradient id="aurora" x1="0%" x2="0%" y1="0%" y2="100%">
   <stop offset="0%" style="stop-color:#09D4DF; stop-opacity:1"/>
   <stop offset="100%" style="stop-color:#9269F4; stop-opacity:1"/>
  </linearGradient>
  <linearGradient id="cyberneon" x1="0%" x2="0%" y1="0%" y2="100%">
    <stop offset="0" style="stop-color:#0abdc6; stop-opacity:1"/>
    <stop offset="1" style="stop-color:#ea00d9; stop-opacity:1"/>
  </linearGradient>
  <linearGradient id="fitdance" x1="0%" x2="0%" y1="0%" y2="100%">
   <stop offset="0%" style="stop-color:#1AD6AB; stop-opacity:1"/>
   <stop offset="100%" style="stop-color:#329DB6; stop-opacity:1"/>
  </linearGradient>
  <linearGradient id="oomox" x1="0%" x2="0%" y1="0%" y2="100%">
   <stop offset="0%" style="stop-color:#efefe7; stop-opacity:1"/>
   <stop offset="100%" style="stop-color:#8f8f8b; stop-opacity:1"/>
  </linearGradient>
  <linearGradient id="rainblue" x1="0%" x2="0%" y1="0%" y2="100%">
   <stop offset="0%" style="stop-color:#00F260; stop-opacity:1"/>
   <stop offset="100%" style="stop-color:#0575E6; stop-opacity:1"/>
  </linearGradient>
  <linearGradient id="sunrise" x1="0%" x2="0%" y1="0%" y2="100%">
   <stop offset="0%" style="stop-color: #FF8501; stop-opacity:1"/>
   <stop offset="100%" style="stop-color: #FFCB01; stop-opacity:1"/>
  </linearGradient>
  <linearGradient id="telinkrin" x1="0%" x2="0%" y1="0%" y2="100%">
   <stop offset="0%" style="stop-color: #b2ced6; stop-opacity:1"/>
   <stop offset="100%" style="stop-color: #6da5b7; stop-opacity:1"/>
  </linearGradient>
  <linearGradient id="60spsycho" x1="0%" x2="0%" y1="0%" y2="100%">
   <stop offset="0%" style="stop-color: #df5940; stop-opacity:1"/>
   <stop offset="25%" style="stop-color: #d8d15f; stop-opacity:1"/>
   <stop offset="50%" style="stop-color: #e9882a; stop-opacity:1"/>
   <stop offset="100%" style="stop-color: #279362; stop-opacity:1"/>
  </linearGradient>
  <linearGradient id="90ssummer" x1="0%" x2="0%" y1="0%" y2="100%">
   <stop offset="0%" style="stop-color: #f618c7; stop-opacity:1"/>
   <stop offset="20%" style="stop-color: #94ffab; stop-opacity:1"/>
   <stop offset="50%" style="stop-color: #fbfd54; stop-opacity:1"/>
   <stop offset="100%" style="stop-color: #0f83ae; stop-opacity:1"/>
  </linearGradient>
 </defs>
 <circle fill="currentColor" class="ColorScheme-Text" cx="6.769" cy="3.692" r="3.692" vector-effect="non-scaling-stroke"/>
 <circle fill="currentColor" class="ColorScheme-Text" cx="6.769" cy="3.692" r="2.462" vector-effect="non-scaling-stroke"/>
 <path   fill="currentColor" class="ColorScheme-Text" d="M 6.752 2.872 C 5.52 2.872 5.52 3.692 5.517 4.513 C 5.509 5.02 5.511 6.078 5.52 7.64 C 5.536 10.135 5.531 10.919 5.501 11.026 C 4.65 10.936 3.364 10.592 2.788 10.137 C 2.412 9.838 2.038 9.565 1.959 9.529 C 1.629 9.383 1.16 9.475 0.891 9.741 C 0.705 9.925 0.637 10.089 0.62 10.384 C 0.608 10.609 0.615 10.662 0.684 10.812 C 0.728 10.906 0.807 11.032 0.859 11.092 C 0.911 11.152 1.628 12.081 2.451 13.158 C 3.976 15.151 5.493 15.891 5.754 15.965 C 5.914 16.011 14.155 16.012 14.321 15.967 C 14.396 15.946 14.505 15.877 14.582 15.8 C 14.691 15.692 14.732 15.613 14.816 15.353 C 15.058 14.607 15.299 13.472 15.368 12.842 C 15.398 12.109 15.382 12.081 15.368 11.487 C 15.368 11.476 15.365 11.466 15.365 11.455 C 15.366 10.928 15.369 10.482 15.365 10.257 C 15.367 9.436 15.369 8.616 14.14 8.616 C 13.031 8.616 12.927 9.288 12.915 10.021 C 12.913 10.041 12.907 10.061 12.907 10.08 C 12.907 9.882 12.909 9.557 12.907 9.436 C 12.909 8.616 12.909 7.795 11.68 7.795 C 10.578 7.795 10.469 8.459 10.455 9.186 C 10.452 9.188 10.449 9.189 10.446 9.191 C 10.446 9.187 10.444 9.147 10.444 9.138 C 10.444 8.991 10.446 8.714 10.444 8.616 C 10.447 7.795 10.447 6.975 9.218 6.975 C 8.283 6.975 8.059 7.449 8.004 8.037 C 8.002 8.037 7.983 8.042 7.983 8.042 C 7.965 8.048 7.98 7.045 7.98 5.965 C 7.98 5.225 7.985 4.786 7.98 4.513 C 7.982 3.692 7.983 2.872 6.752 2.872 L 6.752 2.872 Z"/>
</svg>
